-5.565525582410800753e-01 -5.227279715104876656e-01 6.745021914891016213e-01 -1.077402237931723405e+00 1.099475895581540012e-04 -3.663592748167918134e-02 -4.887811307286489271e-01 -1.910482222901551397e-01 -4.044796389064910791e-01 -3.991067655173392154e-03
-5.568463926396562957e-01 -5.492148804701689757e-01 6.667411332922879019e-01 -1.091960269461496047e+00 -8.187066867265563081e-05 -5.876687971524435783e-03 -5.297381791936263129e-01 -1.552211639362738316e-01 -2.911606305954526075e-01 -3.836365164616192640e-03
-5.554359245135543910e-01 -5.776001231327955177e-01 6.609883925003550154e-01 -1.100371807295349447e+00 -2.555045607483313799e-04 2.820936252203757461e-02 -5.677048532525301727e-01 -1.150548158386573705e-01 -1.682307566770658847e-01 -3.472677841513514222e-03
-5.521815171927302313e-01 -6.077105698914970766e-01 6.574539776455726736e-01 -1.102370483389577993e+00 -4.036741215847033763e-04 6.508814641648305588e-02 -6.022089351740308460e-01 -7.068829709564779240e-02 -3.997352188457117816e-02 -2.963391216727439929e-03
-5.469693072626442554e-01 -6.393557727859014994e-01 6.563312577230682177e-01 -1.097895914525008454e+00 -5.220964403064141555e-04 1.042441986017197675e-01 -6.329040578880889001e-01 -2.245439845008992408e-02 8.949137729139158837e-02 -2.368446374434216017e-03
-5.397089961037198069e-01 -6.723340902411996112e-01 6.577894524350895722e-01 -1.087075519788537559e+00 -6.090514597267442966e-04 1.452062231784883861e-01 -6.595663491059615691e-01 2.916389424042759720e-02 2.164078947294180988e-01 -1.739100388406602821e-03
-5.303308913252490209e-01 -7.064385077226565945e-01 6.619700099498497803e-01 -1.070199684499124171e+00 -6.649061641398023833e-04 1.875620955694158876e-01 -6.820883496291406667e-01 8.361115029520319042e-02 3.375167057882663690e-01 -1.117094088261161734e-03
-5.187828293127472179e-01 -7.414619417617195340e-01 6.689861408833772671e-01 -1.047692869732856469e+00 -6.915789952969327459e-04 2.309612402500358375e-01 -7.004686807812591232e-01 1.403226186705486545e-01 4.501362953253535970e-01 -5.334566231426073621e-04
-5.050266254624422579e-01 -7.772024785551991943e-01 6.789251553476457479e-01 -1.020079467865479206e+00 -6.916490479284798879e-04 2.751240770060999763e-01 -7.148107358695940938e-01 1.987802892853687553e-01 5.522680373475449267e-01 -1.401052630942080553e-06
-4.890334771277890513e-01 -8.134687990730777862e-01 6.918553929664316149e-01 -9.879468146398050488e-01 -6.673592700193663142e-04 3.198629666930642435e-01 -7.253264103575722821e-01 2.586047523757163957e-01 6.426530645134825859e-01 4.857955581822713119e-04
-4.707785374336188045e-01 -8.500852086675639852e-01 7.078388886964940285e-01 -9.519129626733197069e-01 -6.203034712275189199e-04 3.650987938834046598e-01 -7.323281918897247555e-01 3.196699146012484949e-01 7.206770393297062816e-01 9.411159758369487538e-04
-4.502334589431544742e-01 -8.868964005151478425e-01 7.269495064806852369e-01 -9.125975534953769674e-01 -5.512562013432362141e-04 4.109015698092862157e-01 -7.362238369516765912e-01 3.822123556838249447e-01 7.863081835588546786e-01 1.380945397685653681e-03
-4.273596905574904570e-01 -9.237699281490634462e-01 7.492908900820623996e-01 -8.706053051375926000e-01 -4.600503981539788502e-04 4.574753677132804008e-01 -7.374705526783129628e-01 4.468276720275428104e-01 8.398449671556869056e-01 1.824116063785147278e-03
-4.020998845199566518e-01 -9.605978855385084447e-01 7.750192562405741059e-01 -8.265171857353118545e-01 -3.462729283615478002e-04 5.051961207506765472e-01 -7.365591477889006367e-01 5.145673231702350137e-01 8.817623880456157970e-01 2.275549395848621217e-03
-3.743642681660001026e-01 -9.972990487846840058e-01 8.043751685201215862e-01 -7.808826254111920218e-01 -2.118223676592307704e-04 5.547123270791306515e-01 -7.340232649235108875e-01 5.871182455909504938e-01 9.126912064823970994e-01 2.689011214046340380e-03
-3.440091984746562748e-01 -1.033821721078358236e+00 8.377310335218693949e-01 -7.342142764843468949e-01 -7.250258933575847581e-05 6.071013938268770005e-01 -7.304534458734848190e-01 6.671173000349552851e-01 9.333669785369018701e-01 2.786395566469445674e-03
-3.108025761122426567e-01 -1.070147973815709586e+00 8.756661292183252066e-01 -6.869857266445078547e-01 -7.166165569154542888e-06 6.641324472482723618e-01 -7.265250547470279985e-01 7.587019139291151237e-01 9.445709967967818033e-01 1.306728475332078658e-03
-2.743682632637814978e-01 -1.106299520027925087e+00 9.190848190007138152e-01 -6.396325705544164686e-01 -3.580265849041622175e-04 0.000000000000000000e+00 0.000000000000000000e+00 0.000000000000000000e+00 0.000000000000000000e+00 0.000000000000000000e+00
-2.743682632637814978e-01 -1.106299520027925087e+00 9.190848190007138152e-01 -6.396325705544164686e-01 -3.580265849041622175e-04 0.000000000000000000e+00 0.000000000000000000e+00 0.000000000000000000e+00 0.000000000000000000e+00 0.000000000000000000e+00
-2.743682632637814978e-01 -1.106299520027925087e+00 9.190848190007138152e-01 -6.396325705544164686e-01 -3.580265849041622175e-04 0.000000000000000000e+00 0.000000000000000000e+00 0.000000000000000000e+00 0.000000000000000000e+00 0.000000000000000000e+00
-2.743682632637814978e-01 -1.106299520027925087e+00 9.190848190007138152e-01 -6.396325705544164686e-01 -3.580265849041622175e-04 0.000000000000000000e+00 0.000000000000000000e+00 0.000000000000000000e+00 0.000000000000000000e+00 0.000000000000000000e+00
-2.743682632637814978e-01 -1.106299520027925087e+00 9.190848190007138152e-01 -6.396325705544164686e-01 -3.580265849041622175e-04 0.000000000000000000e+00 0.000000000000000000e+00 0.000000000000000000e+00 0.000000000000000000e+00 0.000000000000000000e+00
-2.743682632637814978e-01 -1.106299520027925087e+00 9.190848190007138152e-01 -6.396325705544164686e-01 -3.580265849041622175e-04 0.000000000000000000e+00 0.000000000000000000e+00 0.000000000000000000e+00 0.000000000000000000e+00 0.000000000000000000e+00
-2.743682632637814978e-01 -1.106299520027925087e+00 9.190848190007138152e-01 -6.396325705544164686e-01 -3.580265849041622175e-04 0.000000000000000000e+00 0.000000000000000000e+00 0.000000000000000000e+00 0.000000000000000000e+00 0.000000000000000000e+00
-2.743682632637814978e-01 -1.106299520027925087e+00 9.190848190007138152e-01 -6.396325705544164686e-01 -3.580265849041622175e-04 0.000000000000000000e+00 0.000000000000000000e+00 0.000000000000000000e+00 0.000000000000000000e+00 0.000000000000000000e+00
-2.743682632637814978e-01 -1.106299520027925087e+00 9.190848190007138152e-01 -6.396325705544164686e-01 -3.580265849041622175e-04 0.000000000000000000e+00 0.000000000000000000e+00 0.000000000000000000e+00 0.000000000000000000e+00 0.000000000000000000e+00
-2.743682632637814978e-01 -1.106299520027925087e+00 9.190848190007138152e-01 -6.396325705544164686e-01 -3.580265849041622175e-04 0.000000000000000000e+00 0.000000000000000000e+00 0.000000000000000000e+00 0.000000000000000000e+00 0.000000000000000000e+00
-2.743682632637814978e-01 -1.106299520027925087e+00 9.190848190007138152e-01 -6.396325705544164686e-01 -3.580265849041622175e-04 0.000000000000000000e+00 0.000000000000000000e+00 0.000000000000000000e+00 0.000000000000000000e+00 0.000000000000000000e+00
-2.743682632637814978e-01 -1.106299520027925087e+00 9.190848190007138152e-01 -6.396325705544164686e-01 -3.580265849041622175e-04 0.000000000000000000e+00 0.000000000000000000e+00 0.000000000000000000e+00 0.000000000000000000e+00 0.000000000000000000e+00
-2.743682632637814978e-01 -1.106299520027925087e+00 9.190848190007138152e-01 -6.396325705544164686e-01 -3.580265849041622175e-04 0.000000000000000000e+00 0.000000000000000000e+00 0.000000000000000000e+00 0.000000000000000000e+00 0.000000000000000000e+00
-2.743682632637814978e-01 -1.106299520027925087e+00 9.190848190007138152e-01 -6.396325705544164686e-01 -3.580265849041622175e-04 0.000000000000000000e+00 0.000000000000000000e+00 0.000000000000000000e+00 0.000000000000000000e+00 0.000000000000000000e+00
