-7.332145986071331167e-01 3.520815120394891196e-01 6.021236100288157589e-02 -1.316230649377782891e+00 7.327370433382546580e-04 -6.118369861657466657e-01 6.703189789019489697e-02 -6.955534537345172685e-01 -1.371466424994951083e+00 -3.687339860172818805e-03
-7.652876244479243084e-01 3.528337258593988723e-01 2.524510951026931460e-02 -1.378939997480340240e+00 4.726952385952579985e-04 -6.414605168158226123e-01 1.504427639819531232e-02 -6.993450298522452258e-01 -1.254186962051147214e+00 -5.200836094859932757e-03
-7.986208116046941141e-01 3.507508982978697065e-01 -9.609042605744834431e-03 -1.434093562286755885e+00 1.618322148609490111e-04 -6.666637431353953369e-01 -4.165655123058355225e-02 -6.970830423202829529e-01 -1.103071296128313561e+00 -6.217260474686178880e-03
-8.330098862877466370e-01 3.456499216033148691e-01 -4.386111171468144027e-02 -1.480273832023447422e+00 -1.676595190116114274e-04 -6.877814936610502361e-01 -1.020195338910971777e-01 -6.850413821787321167e-01 -9.236053947338284109e-01 -6.589834677451207254e-03
-8.682780341940758984e-01 3.374058024314104398e-01 -7.686193861952600459e-02 -1.516398711861438375e+00 -4.798050044965963780e-04 -7.053629581265845605e-01 -1.648823834380890307e-01 -6.600165380968913142e-01 -7.224975967598175064e-01 -6.242909709699698793e-03
-9.042817741641604457e-01 3.259631528512995091e-01 -1.078707566341969848e-01 -1.541783605701490645e+00 -7.394393359284339882e-04 -7.200747994016908349e-01 -2.288529916022182809e-01 -6.201763602934196040e-01 -5.076978768010458332e-01 -5.192686628636752205e-03
-9.409102005072105257e-01 3.113521202335334803e-01 -1.361564053663792129e-01 -1.556198000303599116e+00 -9.184259029359409174e-04 -7.325685268610019341e-01 -2.922206523553208535e-01 -5.657129746436445616e-01 -2.882878920421699798e-01 -3.579731340150139017e-03
-9.780780305543046449e-01 2.937069979610041903e-01 -1.611134866053845482e-01 -1.559914503497072724e+00 -1.007360397669534134e-03 -7.433566009418817178e-01 -3.529024454505857999e-01 -4.991416247801067629e-01 -7.433006386947332844e-02 -1.778689894671863034e-03
-1.015715447263975779e+00 2.732575191230952605e-01 -1.823378864152153667e-01 -1.553646491132223861e+00 -1.027017428842466606e-03 -7.527483341934235739e-01 -4.089895767581782637e-01 -4.244879961966163684e-01 1.253602472969793657e-01 -3.931406234586485790e-04
-1.053760441634977507e+00 2.502934307590176655e-01 -1.996390411029705381e-01 -1.538386546287260348e+00 -1.017695881165156784e-03 -7.608998874200344487e-01 -4.592817672815518448e-01 -3.460230937551035946e-01 3.051988968992713769e-01 1.864309535461967709e-04
-1.092155527257594017e+00 2.251347900143715330e-01 -2.130212371324666509e-01 -1.515273248595798039e+00 -9.845067922997932739e-04 -7.679017124523314086e-01 -5.031728148929227595e-01 -2.676439205899222018e-01 4.622659538292462900e-01 6.637817773072719404e-04
-1.130847890805433575e+00 1.981080863033440054e-01 -2.226447368813672667e-01 -1.485487704842332723e+00 -9.181870132014604289e-04 -7.738472709567916219e-01 -5.405340742205503313e-01 -1.924699949780122599e-01 5.957108750693063115e-01 1.326395581966656467e-03
-1.169791353051998328e+00 1.695283000049560562e-01 -2.287796814291239433e-01 -1.450178491425084149e+00 -8.293599449225970898e-04 -7.788692449312933919e-01 -5.715957259677592051e-01 -1.226988909551337686e-01 7.061842683449721658e-01 1.776541365577266997e-03
-1.208948633541263362e+00 1.396866110597879129e-01 -2.317631039898490064e-01 -1.410411320312503491e+00 -7.312901434330745538e-04 -7.831456097853027876e-01 -5.968337789033628660e-01 -5.966845121450112255e-02 7.953434222516129193e-01 1.961396029790450721e-03
-1.248293002177538025e+00 1.088430566579508124e-01 -2.319648796185296291e-01 -1.367138423972598105e+00 -6.354553665629778273e-04 -7.868873727254952488e-01 -6.168710880367420657e-01 -4.035512573612454190e-03 8.654579267981096224e-01 1.916695537401934962e-03
-1.287808945259318882e+00 7.722317584315521732e-02 -2.297643492768904061e-01 -1.321182437034242652e+00 -5.507958706189380275e-04 -7.903188616356188190e-01 -6.323976162959119574e-01 4.401060683278436997e-02 9.191197387671072860e-01 1.693189918880795130e-03
-1.327491891172897898e+00 4.501762157631395561e-02 -2.255366173994935164e-01 -1.273230144713802359e+00 -4.846398207086162263e-04 -7.936589182715804158e-01 -6.441110853368251510e-01 8.455463754793762776e-02 9.590458464088076340e-01 1.323120998206436458e-03
-1.367347245694414459e+00 1.238380133872201555e-02 -2.196461936389355607e-01 -1.223832445379075429e+00 -4.464819750650469163e-04 -7.971070904303293458e-01 -6.526764047518387457e-01 1.178084752111592248e-01 9.879539866945399318e-01 7.631569128713864159e-04
-1.407389029498757882e+00 -2.055124584498201762e-02 -2.124453272113311086e-01 -1.173407919920425702e+00 -4.620675709078534148e-04 -8.008356760868701185e-01 -6.587009436740806079e-01 1.440173285520892354e-01 1.008490509172995653e+00 -3.117119168561301862e-04
-1.447638369581504048e+00 -5.368736691486900720e-02 -2.042745974376423967e-01 -1.122248337781150962e+00 -6.287062885502630368e-04 0.000000000000000000e+00 0.000000000000000000e+00 0.000000000000000000e+00 0.000000000000000000e+00 0.000000000000000000e+00
-1.447638369581504048e+00 -5.368736691486900720e-02 -2.042745974376423967e-01 -1.122248337781150962e+00 -6.287062885502630368e-04 0.000000000000000000e+00 0.000000000000000000e+00 0.000000000000000000e+00 0.000000000000000000e+00 0.000000000000000000e+00
-1.447638369581504048e+00 -5.368736691486900720e-02 -2.042745974376423967e-01 -1.122248337781150962e+00 -6.287062885502630368e-04 0.000000000000000000e+00 0.000000000000000000e+00 0.000000000000000000e+00 0.000000000000000000e+00 0.000000000000000000e+00
-1.447638369581504048e+00 -5.368736691486900720e-02 -2.042745974376423967e-01 -1.122248337781150962e+00 -6.287062885502630368e-04 0.000000000000000000e+00 0.000000000000000000e+00 0.000000000000000000e+00 0.000000000000000000e+00 0.000000000000000000e+00
-1.447638369581504048e+00 -5.368736691486900720e-02 -2.042745974376423967e-01 -1.122248337781150962e+00 -6.287062885502630368e-04 0.000000000000000000e+00 0.000000000000000000e+00 0.000000000000000000e+00 0.000000000000000000e+00 0.000000000000000000e+00
-1.447638369581504048e+00 -5.368736691486900720e-02 -2.042745974376423967e-01 -1.122248337781150962e+00 -6.287062885502630368e-04 0.000000000000000000e+00 0.000000000000000000e+00 0.000000000000000000e+00 0.000000000000000000e+00 0.000000000000000000e+00
-1.447638369581504048e+00 -5.368736691486900720e-02 -2.042745974376423967e-01 -1.122248337781150962e+00 -6.287062885502630368e-04 0.000000000000000000e+00 0.000000000000000000e+00 0.000000000000000000e+00 0.000000000000000000e+00 0.000000000000000000e+00
-1.447638369581504048e+00 -5.368736691486900720e-02 -2.042745974376423967e-01 -1.122248337781150962e+00 -6.287062885502630368e-04 0.000000000000000000e+00 0.000000000000000000e+00 0.000000000000000000e+00 0.000000000000000000e+00 0.000000000000000000e+00
-1.447638369581504048e+00 -5.368736691486900720e-02 -2.042745974376423967e-01 -1.122248337781150962e+00 -6.287062885502630368e-04 0.000000000000000000e+00 0.000000000000000000e+00 0.000000000000000000e+00 0.000000000000000000e+00 0.000000000000000000e+00
-1.447638369581504048e+00 -5.368736691486900720e-02 -2.042745974376423967e-01 -1.122248337781150962e+00 -6.287062885502630368e-04 0.000000000000000000e+00 0.000000000000000000e+00 0.000000000000000000e+00 0.000000000000000000e+00 0.000000000000000000e+00
-1.447638369581504048e+00 -5.368736691486900720e-02 -2.042745974376423967e-01 -1.122248337781150962e+00 -6.287062885502630368e-04 0.000000000000000000e+00 0.000000000000000000e+00 0.000000000000000000e+00 0.000000000000000000e+00 0.000000000000000000e+00
-1.447638369581504048e+00 -5.368736691486900720e-02 -2.042745974376423967e-01 -1.122248337781150962e+00 -6.287062885502630368e-04 0.000000000000000000e+00 0.000000000000000000e+00 0.000000000000000000e+00 0.000000000000000000e+00 0.000000000000000000e+00
