-7.066284061292708030e-01 -3.146029481536908867e-01 2.736881089400046430e-02 -1.297769342700129558e+00 -7.738924405873176971e-04 -2.655649219267609135e-02 -2.015811155681703493e-01 -1.035343008200552556e-01 2.730442101476360794e-01 3.706741514001678293e-04
-7.079237148318391348e-01 -3.245192438550172920e-01 2.316232337469477029e-02 -1.285285413769553298e+00 -7.576578841523009741e-04 -2.590617405136639781e-02 -1.983259140265277443e-01 -8.412975038611388012e-02 2.496785786115273131e-01 3.246911287003337006e-04
-7.091877021615270449e-01 -3.342827075182303043e-01 1.978296372045666718e-02 -1.273815844699733857e+00 -7.435001968861002170e-04 -2.527974659375929745e-02 -1.952692732642603568e-01 -6.758719308476206222e-02 2.293913813963882331e-01 2.831537453240153056e-04
-7.104233647842086441e-01 -3.439082669475177489e-01 1.709286547485399516e-02 -1.263204414833335232e+00 -7.312957683003108202e-04 -2.471325245363284462e-02 -1.925111885857493377e-01 -5.380196491205341963e-02 2.122285973279706972e-01 2.440885717157885871e-04
-7.116354423869236667e-01 -3.534147867863554060e-01 1.496016852677351482e-02 -1.253295189600573512e+00 -7.210684761328188834e-04 -2.424155205430121585e-02 -1.901303967767531411e-01 -4.265393896160961373e-02 1.981845046552347667e-01 2.045458433498387359e-04
-7.128302199262512850e-01 -3.628243544703426693e-01 1.325936369891299489e-02 -1.243933385211317466e+00 -7.129568981290571776e-04 -2.389555078655264050e-02 -1.881913536797457098e-01 -3.401609655721040543e-02 1.872360877851201033e-01 1.622315600752346294e-04
-7.140152418131291423e-01 -3.721617487701543436e-01 1.187129090952587090e-02 -1.234965271166603706e+00 -7.070918418836694098e-04 -2.370043773755625000e-02 -1.867478859962338200e-01 -2.776145578774249362e-02 1.793622808942749169e-01 1.173011249077562240e-04
-7.151989309985561372e-01 -3.814542135582671967e-01 1.068272171058818470e-02 -1.226236585613607932e+00 -7.030351658865484962e-04 -2.367378370854007416e-02 -1.858492957622567276e-01 -2.377138397875371706e-02 1.745737110599133723e-01 8.113351994241764964e-05
-7.163901908677212660e-01 -3.907312692512957542e-01 9.585786460231143780e-03 -1.217590826403574411e+00 -6.977376486994243954e-04 0.000000000000000000e+00 0.000000000000000000e+00 0.000000000000000000e+00 0.000000000000000000e+00 0.000000000000000000e+00
-7.163901908677212660e-01 -3.907312692512957542e-01 9.585786460231143780e-03 -1.217590826403574411e+00 -6.977376486994243954e-04 0.000000000000000000e+00 0.000000000000000000e+00 0.000000000000000000e+00 0.000000000000000000e+00 0.000000000000000000e+00
-7.163901908677212660e-01 -3.907312692512957542e-01 9.585786460231143780e-03 -1.217590826403574411e+00 -6.977376486994243954e-04 0.000000000000000000e+00 0.000000000000000000e+00 0.000000000000000000e+00 0.000000000000000000e+00 0.000000000000000000e+00
-7.163901908677212660e-01 -3.907312692512957542e-01 9.585786460231143780e-03 -1.217590826403574411e+00 -6.977376486994243954e-04 0.000000000000000000e+00 0.000000000000000000e+00 0.000000000000000000e+00 0.000000000000000000e+00 0.000000000000000000e+00
-7.163901908677212660e-01 -3.907312692512957542e-01 9.585786460231143780e-03 -1.217590826403574411e+00 -6.977376486994243954e-04 0.000000000000000000e+00 0.000000000000000000e+00 0.000000000000000000e+00 0.000000000000000000e+00 0.000000000000000000e+00
-7.163901908677212660e-01 -3.907312692512957542e-01 9.585786460231143780e-03 -1.217590826403574411e+00 -6.977376486994243954e-04 0.000000000000000000e+00 0.000000000000000000e+00 0.000000000000000000e+00 0.000000000000000000e+00 0.000000000000000000e+00
-7.163901908677212660e-01 -3.907312692512957542e-01 9.585786460231143780e-03 -1.217590826403574411e+00 -6.977376486994243954e-04 0.000000000000000000e+00 0.000000000000000000e+00 0.000000000000000000e+00 0.000000000000000000e+00 0.000000000000000000e+00
-7.163901908677212660e-01 -3.907312692512957542e-01 9.585786460231143780e-03 -1.217590826403574411e+00 -6.977376486994243954e-04 0.000000000000000000e+00 0.000000000000000000e+00 0.000000000000000000e+00 0.000000000000000000e+00 0.000000000000000000e+00
-7.163901908677212660e-01 -3.907312692512957542e-01 9.585786460231143780e-03 -1.217590826403574411e+00 -6.977376486994243954e-04 0.000000000000000000e+00 0.000000000000000000e+00 0.000000000000000000e+00 0.000000000000000000e+00 0.000000000000000000e+00
-7.163901908677212660e-01 -3.907312692512957542e-01 9.585786460231143780e-03 -1.217590826403574411e+00 -6.977376486994243954e-04 0.000000000000000000e+00 0.000000000000000000e+00 0.000000000000000000e+00 0.000000000000000000e+00 0.000000000000000000e+00
-7.163901908677212660e-01 -3.907312692512957542e-01 9.585786460231143780e-03 -1.217590826403574411e+00 -6.977376486994243954e-04 0.000000000000000000e+00 0.000000000000000000e+00 0.000000000000000000e+00 0.000000000000000000e+00 0.000000000000000000e+00
-7.163901908677212660e-01 -3.907312692512957542e-01 9.585786460231143780e-03 -1.217590826403574411e+00 -6.977376486994243954e-04 0.000000000000000000e+00 0.000000000000000000e+00 0.000000000000000000e+00 0.000000000000000000e+00 0.000000000000000000e+00
-7.163901908677212660e-01 -3.907312692512957542e-01 9.585786460231143780e-03 -1.217590826403574411e+00 -6.977376486994243954e-04 0.000000000000000000e+00 0.000000000000000000e+00 0.000000000000000000e+00 0.000000000000000000e+00 0.000000000000000000e+00
-7.163901908677212660e-01 -3.907312692512957542e-01 9.585786460231143780e-03 -1.217590826403574411e+00 -6.977376486994243954e-04 0.000000000000000000e+00 0.000000000000000000e+00 0.000000000000000000e+00 0.000000000000000000e+00 0.000000000000000000e+00
-7.163901908677212660e-01 -3.907312692512957542e-01 9.585786460231143780e-03 -1.217590826403574411e+00 -6.977376486994243954e-04 0.000000000000000000e+00 0.000000000000000000e+00 0.000000000000000000e+00 0.000000000000000000e+00 0.000000000000000000e+00
-7.163901908677212660e-01 -3.907312692512957542e-01 9.585786460231143780e-03 -1.217590826403574411e+00 -6.977376486994243954e-04 0.000000000000000000e+00 0.000000000000000000e+00 0.000000000000000000e+00 0.000000000000000000e+00 0.000000000000000000e+00
-7.163901908677212660e-01 -3.907312692512957542e-01 9.585786460231143780e-03 -1.217590826403574411e+00 -6.977376486994243954e-04 0.000000000000000000e+00 0.000000000000000000e+00 0.000000000000000000e+00 0.000000000000000000e+00 0.000000000000000000e+00
-7.163901908677212660e-01 -3.907312692512957542e-01 9.585786460231143780e-03 -1.217590826403574411e+00 -6.977376486994243954e-04 0.000000000000000000e+00 0.000000000000000000e+00 0.000000000000000000e+00 0.000000000000000000e+00 0.000000000000000000e+00
-7.163901908677212660e-01 -3.907312692512957542e-01 9.585786460231143780e-03 -1.217590826403574411e+00 -6.977376486994243954e-04 0.000000000000000000e+00 0.000000000000000000e+00 0.000000000000000000e+00 0.000000000000000000e+00 0.000000000000000000e+00
-7.163901908677212660e-01 -3.907312692512957542e-01 9.585786460231143780e-03 -1.217590826403574411e+00 -6.977376486994243954e-04 0.000000000000000000e+00 0.000000000000000000e+00 0.000000000000000000e+00 0.000000000000000000e+00 0.000000000000000000e+00
-7.163901908677212660e-01 -3.907312692512957542e-01 9.585786460231143780e-03 -1.217590826403574411e+00 -6.977376486994243954e-04 0.000000000000000000e+00 0.000000000000000000e+00 0.000000000000000000e+00 0.000000000000000000e+00 0.000000000000000000e+00
-7.163901908677212660e-01 -3.907312692512957542e-01 9.585786460231143780e-03 -1.217590826403574411e+00 -6.977376486994243954e-04 0.000000000000000000e+00 0.000000000000000000e+00 0.000000000000000000e+00 0.000000000000000000e+00 0.000000000000000000e+00
-7.163901908677212660e-01 -3.907312692512957542e-01 9.585786460231143780e-03 -1.217590826403574411e+00 -6.977376486994243954e-04 0.000000000000000000e+00 0.000000000000000000e+00 0.000000000000000000e+00 0.000000000000000000e+00 0.000000000000000000e+00
