-9.278090948480421929e-01 -4.474389837512611212e-01 5.613344343400322733e-02 -2.018818993085538693e+00 -1.137895731379813145e-03 -1.901632856551424000e-01 -1.321279027832650943e+00 -1.720160846116884912e+00 -4.444497013432935351e-02 -1.737564644865199470e-04
-9.345574662572339042e-01 -5.201814675145038924e-01 -2.182890008820302652e-02 -1.998867661153947317e+00 -1.104103911710394405e-03 -1.349674281838346424e-01 -1.454849675264855868e+00 -1.559246870444125133e+00 3.990266386318260805e-01 6.758363933883752318e-04
-9.389369706804321369e-01 -5.989802213064667757e-01 -9.037551473568500304e-02 -1.959477932555533375e+00 -1.023870254168649744e-03 -8.759008846396526549e-02 -1.575975075839258777e+00 -1.370932292949639253e+00 7.877945719682770687e-01 1.604673150834894958e-03
-9.411722295252170634e-01 -6.829713390448802768e-01 -1.495244268013154465e-01 -1.903880700706176432e+00 -8.455641855459988506e-04 -4.470517689569941666e-02 -1.679822354768269355e+00 -1.182978241312608869e+00 1.111944636987137969e+00 3.566121372453017434e-03
-9.412463950378127109e-01 -7.711855880385596329e-01 -2.001877654014936336e-01 -1.835323651248283561e+00 -5.838069830666726360e-04 -1.483310251914025935e-03 -1.764284979873586900e+00 -1.013266772003563743e+00 1.371140989157855650e+00 5.235144049586523858e-03
-9.388758602990036062e-01 -8.626604709193541609e-01 -2.436311133843645504e-01 -1.756784969016808695e+00 -2.866660384683378184e-04 4.741069477618149730e-02 -1.829497657615889228e+00 -8.688669596574185583e-01 1.570773644629497756e+00 5.942818891966696569e-03
-9.334972600155565514e-01 -9.565211750998400264e-01 -2.810334943035001642e-01 -1.670806076868004419e+00 7.335150581371668605e-06 1.075720056689415255e-01 -1.877214083609717532e+00 -7.480476183827120540e-01 1.719577842976086179e+00 5.880023780994188438e-03
-9.242538855256027253e-01 -1.052011275799692225e+00 -3.132002779306846674e-01 -1.579468315417778435e+00 2.737311693091867186e-04 1.848674897990774946e-01 -1.909802013997043968e+00 -6.433356725436899515e-01 1.826755229004521475e+00 5.327920374556300784e-03
-9.100057035410037409e-01 -1.148522785251493428e+00 -3.404013874772163772e-01 -1.484316412648963412e+00 5.005203020139587216e-04 2.849636396919806858e-01 -1.930230189036026056e+00 -5.440221909306346415e-01 1.903038055376301330e+00 4.535782654095439625e-03
-8.894185846364390802e-01 -1.245585496951820748e+00 -3.623478267381081697e-01 -1.386387367064561893e+00 6.822463563550138161e-04 4.117423780912928821e-01 -1.941254234006545509e+00 -4.389287852178359595e-01 1.958580911688030390e+00 3.634521086821101022e-03
-8.612421916687659218e-01 -1.342860527374426516e+00 -3.783563632717895642e-01 -1.286209612844970263e+00 8.159394139697797969e-04 5.635278593534633895e-01 -1.945500608452114921e+00 -3.201707306736281122e-01 2.003555084391832164e+00 2.673861152295319184e-03
-8.248704165211723227e-01 -1.440149191752863711e+00 -3.878144276464234874e-01 -1.183794506476313124e+00 9.003365382095388468e-04 7.274355029518719817e-01 -1.945773287568743237e+00 -1.891612874926783538e-01 2.048302127373142767e+00 1.687942484795181214e-03
-7.810624752161100526e-01 -1.537410989591094568e+00 -3.909397903007271746e-01 -1.078713280911302030e+00 9.379947676794228974e-04 8.761588261012456247e-01 -1.945235956764616692e+00 -6.250725308607393838e-02 2.101624511300223208e+00 7.531645893976817710e-04
-7.322726048008234567e-01 -1.634759013383540349e+00 -3.894191239120267101e-01 -9.703421357133230618e-01 9.377143447492815049e-04 9.757974083057313619e-01 -1.946960475848913852e+00 3.041332777400973519e-02 2.167422903959580260e+00 -5.608458602827525070e-06
-6.819820331617544307e-01 -1.732387613039296559e+00 -3.862518891569593493e-01 -8.582058886499002170e-01 9.115763921450853804e-04 1.005811432781380077e+00 -1.952571993115123972e+00 6.334469510134690950e-02 2.242724941268457339e+00 -5.227590520839232478e-04
-6.333442512335033525e-01 -1.830442875078642340e+00 -3.847817366000488848e-01 -7.421906277473241387e-01 8.677377229767198764e-04 9.727556385650217852e-01 -1.961105240786917170e+00 2.940305113820941563e-02 2.320305218051521567e+00 -8.767733833673094310e-04
-5.882358849669676593e-01 -1.928916033354290960e+00 -3.877860438485174477e-01 -6.225294594997359265e-01 8.107743316349934467e-04 9.021673253307130880e-01 -1.969463165512974179e+00 -6.008614496937078608e-02 2.393223364951763354e+00 -1.139267826834529027e-03
-5.472166767058591619e-01 -2.027617472781304997e+00 -3.972606462701540053e-01 -4.996682813304668125e-01 7.779843473849081762e-04 8.203841652221705028e-01 -1.974028788540283852e+00 -1.894920484327312915e-01 2.457223563385381393e+00 -6.557996850017049767e-04
-5.099922434126628046e-01 -2.126200805798594384e+00 -4.147275046487366446e-01 -3.741436224781332642e-01 1.001554834195419975e-03 0.000000000000000000e+00 0.000000000000000000e+00 0.000000000000000000e+00 0.000000000000000000e+00 0.000000000000000000e+00
-5.099922434126628046e-01 -2.126200805798594384e+00 -4.147275046487366446e-01 -3.741436224781332642e-01 1.001554834195419975e-03 0.000000000000000000e+00 0.000000000000000000e+00 0.000000000000000000e+00 0.000000000000000000e+00 0.000000000000000000e+00
-5.099922434126628046e-01 -2.126200805798594384e+00 -4.147275046487366446e-01 -3.741436224781332642e-01 1.001554834195419975e-03 0.000000000000000000e+00 0.000000000000000000e+00 0.000000000000000000e+00 0.000000000000000000e+00 0.000000000000000000e+00
-5.099922434126628046e-01 -2.126200805798594384e+00 -4.147275046487366446e-01 -3.741436224781332642e-01 1.001554834195419975e-03 0.000000000000000000e+00 0.000000000000000000e+00 0.000000000000000000e+00 0.000000000000000000e+00 0.000000000000000000e+00
-5.099922434126628046e-01 -2.126200805798594384e+00 -4.147275046487366446e-01 -3.741436224781332642e-01 1.001554834195419975e-03 0.000000000000000000e+00 0.000000000000000000e+00 0.000000000000000000e+00 0.000000000000000000e+00 0.000000000000000000e+00
-5.099922434126628046e-01 -2.126200805798594384e+00 -4.147275046487366446e-01 -3.741436224781332642e-01 1.001554834195419975e-03 0.000000000000000000e+00 0.000000000000000000e+00 0.000000000000000000e+00 0.000000000000000000e+00 0.000000000000000000e+00
-5.099922434126628046e-01 -2.126200805798594384e+00 -4.147275046487366446e-01 -3.741436224781332642e-01 1.001554834195419975e-03 0.000000000000000000e+00 0.000000000000000000e+00 0.000000000000000000e+00 0.000000000000000000e+00 0.000000000000000000e+00
-5.099922434126628046e-01 -2.126200805798594384e+00 -4.147275046487366446e-01 -3.741436224781332642e-01 1.001554834195419975e-03 0.000000000000000000e+00 0.000000000000000000e+00 0.000000000000000000e+00 0.000000000000000000e+00 0.000000000000000000e+00
-5.099922434126628046e-01 -2.126200805798594384e+00 -4.147275046487366446e-01 -3.741436224781332642e-01 1.001554834195419975e-03 0.000000000000000000e+00 0.000000000000000000e+00 0.000000000000000000e+00 0.000000000000000000e+00 0.000000000000000000e+00
-5.099922434126628046e-01 -2.126200805798594384e+00 -4.147275046487366446e-01 -3.741436224781332642e-01 1.001554834195419975e-03 0.000000000000000000e+00 0.000000000000000000e+00 0.000000000000000000e+00 0.000000000000000000e+00 0.000000000000000000e+00
-5.099922434126628046e-01 -2.126200805798594384e+00 -4.147275046487366446e-01 -3.741436224781332642e-01 1.001554834195419975e-03 0.000000000000000000e+00 0.000000000000000000e+00 0.000000000000000000e+00 0.000000000000000000e+00 0.000000000000000000e+00
-5.099922434126628046e-01 -2.126200805798594384e+00 -4.147275046487366446e-01 -3.741436224781332642e-01 1.001554834195419975e-03 0.000000000000000000e+00 0.000000000000000000e+00 0.000000000000000000e+00 0.000000000000000000e+00 0.000000000000000000e+00
-5.099922434126628046e-01 -2.126200805798594384e+00 -4.147275046487366446e-01 -3.741436224781332642e-01 1.001554834195419975e-03 0.000000000000000000e+00 0.000000000000000000e+00 0.000000000000000000e+00 0.000000000000000000e+00 0.000000000000000000e+00
