-9.621554108289945839e-01 -1.457604331747711646e-01 -7.554087558240291100e-02 -1.196967108108806022e+00 -2.993532521151939883e-04 -8.165024533883404878e-01 -7.245748876493820489e-01 -5.173255927162503376e-01 9.158281304486112773e-02 -2.157565596835150923e-03
-1.004099513504478791e+00 -1.843674132348740169e-01 -9.946102496805811488e-02 -1.183749656969510733e+00 -3.746058308745393319e-04 -8.388820535096850328e-01 -7.721396012020569355e-01 -4.784029877131041886e-01 2.643490227859036645e-01 -1.505051575186906656e-03
-1.047211663296190975e+00 -2.251058291052186466e-01 -1.213764697718009433e-01 -1.162224671739919613e+00 -4.197581814405067723e-04 -8.622429958342425760e-01 -8.147683174068922618e-01 -4.383088960748564022e-01 4.304997045918237952e-01 -9.030470113193490248e-04
-1.091569127551321294e+00 -2.677028185000007721e-01 -1.413060999132020323e-01 -1.132879909963326215e+00 -4.400573181480207235e-04 -8.871492851026062665e-01 -8.519397878956420644e-01 -3.985926028280218913e-01 5.868952355318683978e-01 -4.059827341502784829e-04
-1.137275924038350094e+00 -3.118635564116792325e-01 -1.593480007642224250e-01 -1.096336428774254967e+00 -4.427938476790974076e-04 -9.141359297405770024e-01 -8.832147582335695413e-01 -3.608380170204080195e-01 7.308696237814239494e-01 -5.473059062153422336e-05
-1.184461209669966708e+00 -3.572756103662202420e-01 -1.756748713624674274e-01 -1.053323220731114285e+00 -4.364692673622688648e-04 -9.437057126323329381e-01 -9.082410790908195253e-01 -3.265374119648999929e-01 8.602641608628139869e-01 1.264916063365708015e-04
-1.233277411797488510e+00 -4.036125365209372040e-01 -1.905277146265416388e-01 -1.004652385639469792e+00 -4.299998962515878386e-04 -9.763240425504341458e-01 -9.267385230943395724e-01 -2.970568652814842836e-01 9.734167018328884202e-01 1.293874222136203887e-04
-1.283898057179177377e+00 -4.505371932166550297e-01 -2.042105439064335615e-01 -9.511929283221085552e-01 -4.327265731964126199e-04 -1.012412907633778891e+00 -9.384931339143564033e-01 -2.736565855978383421e-01 1.069189146347224728e+00 -5.453353889649532730e-05
-1.336515095801195541e+00 -4.977041687609380927e-01 -2.170921522695083705e-01 -8.938425595712771177e-01 -4.553159603196459885e-04 -1.052340772440364614e+00 -9.433395108856608147e-01 -2.576321672614959035e-01 1.147007375016628972e+00 -4.517877424646670479e-04
-1.391335577629290388e+00 -5.447599473236851564e-01 -2.296171566953743859e-01 -8.335016864051789653e-01 -5.144199649774010546e-04 -1.096409636561896495e+00 -9.411155712549407193e-01 -2.505000885173201963e-01 1.206817463321963046e+00 -1.182080093155101538e-03
-1.448577599658818604e+00 -5.913426099304286421e-01 -2.423279791636190894e-01 -7.710418443683351164e-01 -6.507539996563361248e-04 -1.144840440590565667e+00 -9.316532521348690477e-01 -2.542164493648937929e-01 1.249196840736875869e+00 -2.726680693578700972e-03
-1.508465751573403679e+00 -6.370842696533155491e-01 -2.558967692923648229e-01 -7.072571959160522947e-01 -1.000683926122432040e-03 0.000000000000000000e+00 0.000000000000000000e+00 0.000000000000000000e+00 0.000000000000000000e+00 0.000000000000000000e+00
-1.508465751573403679e+00 -6.370842696533155491e-01 -2.558967692923648229e-01 -7.072571959160522947e-01 -1.000683926122432040e-03 0.000000000000000000e+00 0.000000000000000000e+00 0.000000000000000000e+00 0.000000000000000000e+00 0.000000000000000000e+00
-1.508465751573403679e+00 -6.370842696533155491e-01 -2.558967692923648229e-01 -7.072571959160522947e-01 -1.000683926122432040e-03 0.000000000000000000e+00 0.000000000000000000e+00 0.000000000000000000e+00 0.000000000000000000e+00 0.000000000000000000e+00
-1.508465751573403679e+00 -6.370842696533155491e-01 -2.558967692923648229e-01 -7.072571959160522947e-01 -1.000683926122432040e-03 0.000000000000000000e+00 0.000000000000000000e+00 0.000000000000000000e+00 0.000000000000000000e+00 0.000000000000000000e+00
-1.508465751573403679e+00 -6.370842696533155491e-01 -2.558967692923648229e-01 -7.072571959160522947e-01 -1.000683926122432040e-03 0.000000000000000000e+00 0.000000000000000000e+00 0.000000000000000000e+00 0.000000000000000000e+00 0.000000000000000000e+00
-1.508465751573403679e+00 -6.370842696533155491e-01 -2.558967692923648229e-01 -7.072571959160522947e-01 -1.000683926122432040e-03 0.000000000000000000e+00 0.000000000000000000e+00 0.000000000000000000e+00 0.000000000000000000e+00 0.000000000000000000e+00
-1.508465751573403679e+00 -6.370842696533155491e-01 -2.558967692923648229e-01 -7.072571959160522947e-01 -1.000683926122432040e-03 0.000000000000000000e+00 0.000000000000000000e+00 0.000000000000000000e+00 0.000000000000000000e+00 0.000000000000000000e+00
-1.508465751573403679e+00 -6.370842696533155491e-01 -2.558967692923648229e-01 -7.072571959160522947e-01 -1.000683926122432040e-03 0.000000000000000000e+00 0.000000000000000000e+00 0.000000000000000000e+00 0.000000000000000000e+00 0.000000000000000000e+00
-1.508465751573403679e+00 -6.370842696533155491e-01 -2.558967692923648229e-01 -7.072571959160522947e-01 -1.000683926122432040e-03 0.000000000000000000e+00 0.000000000000000000e+00 0.000000000000000000e+00 0.000000000000000000e+00 0.000000000000000000e+00
-1.508465751573403679e+00 -6.370842696533155491e-01 -2.558967692923648229e-01 -7.072571959160522947e-01 -1.000683926122432040e-03 0.000000000000000000e+00 0.000000000000000000e+00 0.000000000000000000e+00 0.000000000000000000e+00 0.000000000000000000e+00
-1.508465751573403679e+00 -6.370842696533155491e-01 -2.558967692923648229e-01 -7.072571959160522947e-01 -1.000683926122432040e-03 0.000000000000000000e+00 0.000000000000000000e+00 0.000000000000000000e+00 0.000000000000000000e+00 0.000000000000000000e+00
-1.508465751573403679e+00 -6.370842696533155491e-01 -2.558967692923648229e-01 -7.072571959160522947e-01 -1.000683926122432040e-03 0.000000000000000000e+00 0.000000000000000000e+00 0.000000000000000000e+00 0.000000000000000000e+00 0.000000000000000000e+00
-1.508465751573403679e+00 -6.370842696533155491e-01 -2.558967692923648229e-01 -7.072571959160522947e-01 -1.000683926122432040e-03 0.000000000000000000e+00 0.000000000000000000e+00 0.000000000000000000e+00 0.000000000000000000e+00 0.000000000000000000e+00
-1.508465751573403679e+00 -6.370842696533155491e-01 -2.558967692923648229e-01 -7.072571959160522947e-01 -1.000683926122432040e-03 0.000000000000000000e+00 0.000000000000000000e+00 0.000000000000000000e+00 0.000000000000000000e+00 0.000000000000000000e+00
-1.508465751573403679e+00 -6.370842696533155491e-01 -2.558967692923648229e-01 -7.072571959160522947e-01 -1.000683926122432040e-03 0.000000000000000000e+00 0.000000000000000000e+00 0.000000000000000000e+00 0.000000000000000000e+00 0.000000000000000000e+00
-1.508465751573403679e+00 -6.370842696533155491e-01 -2.558967692923648229e-01 -7.072571959160522947e-01 -1.000683926122432040e-03 0.000000000000000000e+00 0.000000000000000000e+00 0.000000000000000000e+00 0.000000000000000000e+00 0.000000000000000000e+00
-1.508465751573403679e+00 -6.370842696533155491e-01 -2.558967692923648229e-01 -7.072571959160522947e-01 -1.000683926122432040e-03 0.000000000000000000e+00 0.000000000000000000e+00 0.000000000000000000e+00 0.000000000000000000e+00 0.000000000000000000e+00
-1.508465751573403679e+00 -6.370842696533155491e-01 -2.558967692923648229e-01 -7.072571959160522947e-01 -1.000683926122432040e-03 0.000000000000000000e+00 0.000000000000000000e+00 0.000000000000000000e+00 0.000000000000000000e+00 0.000000000000000000e+00
-1.508465751573403679e+00 -6.370842696533155491e-01 -2.558967692923648229e-01 -7.072571959160522947e-01 -1.000683926122432040e-03 0.000000000000000000e+00 0.000000000000000000e+00 0.000000000000000000e+00 0.000000000000000000e+00 0.000000000000000000e+00
-1.508465751573403679e+00 -6.370842696533155491e-01 -2.558967692923648229e-01 -7.072571959160522947e-01 -1.000683926122432040e-03 0.000000000000000000e+00 0.000000000000000000e+00 0.000000000000000000e+00 0.000000000000000000e+00 0.000000000000000000e+00
