-1.613312669342726047e-01 -7.172845384614007225e-01 6.426873959038926776e-01 -1.038021314787640703e+00 -6.386746899248779610e-04 2.840636186409216668e-01 -6.311154933816851553e-01 2.604637060634202306e-01 8.308015150257460624e-01 1.379824986670062257e-03
-1.463090529908054327e-01 -7.486714146285954330e-01 6.574143347698537809e-01 -9.960650881114372357e-01 -5.654356617015810979e-04 3.004442788693432176e-01 -6.277375233438948765e-01 2.945387773192215120e-01 8.391245335240686831e-01 1.464780564465938129e-03
-1.304362960405028304e-01 -7.799166734071771856e-01 6.739002998254065568e-01 -9.537807022883790786e-01 -4.893279672773675907e-04 3.174551390060517120e-01 -6.249051755716358292e-01 3.297193011110549077e-01 8.456877164611639186e-01 1.522153888484270145e-03
-1.136626130640833454e-01 -8.110623952366883271e-01 6.922506009519036052e-01 -9.112215415959711295e-01 -4.170746210626547260e-04 3.354736595283895895e-01 -6.229144365902227198e-01 3.670060225299408563e-01 8.511832138481588705e-01 1.445066924294257076e-03
-9.591325485606780332e-02 -8.421637928594801759e-01 7.126338183133318349e-01 -8.684119401322623055e-01 -3.778900257221406468e-04 3.549871641603108419e-01 -6.220279524558365303e-01 4.076643472285645942e-01 8.561920292741755922e-01 7.836919068102816922e-04
-7.708075986400959867e-02 -8.732881266588571334e-01 7.353007087594253255e-01 -8.253507051197034317e-01 -4.926823469885772315e-04 0.000000000000000000e+00 0.000000000000000000e+00 0.000000000000000000e+00 0.000000000000000000e+00 0.000000000000000000e+00
-7.708075986400959867e-02 -8.732881266588571334e-01 7.353007087594253255e-01 -8.253507051197034317e-01 -4.926823469885772315e-04 0.000000000000000000e+00 0.000000000000000000e+00 0.000000000000000000e+00 0.000000000000000000e+00 0.000000000000000000e+00
-7.708075986400959867e-02 -8.732881266588571334e-01 7.353007087594253255e-01 -8.253507051197034317e-01 -4.926823469885772315e-04 0.000000000000000000e+00 0.000000000000000000e+00 0.000000000000000000e+00 0.000000000000000000e+00 0.000000000000000000e+00
-7.708075986400959867e-02 -8.732881266588571334e-01 7.353007087594253255e-01 -8.253507051197034317e-01 -4.926823469885772315e-04 0.000000000000000000e+00 0.000000000000000000e+00 0.000000000000000000e+00 0.000000000000000000e+00 0.000000000000000000e+00
-7.708075986400959867e-02 -8.732881266588571334e-01 7.353007087594253255e-01 -8.253507051197034317e-01 -4.926823469885772315e-04 0.000000000000000000e+00 0.000000000000000000e+00 0.000000000000000000e+00 0.000000000000000000e+00 0.000000000000000000e+00
-7.708075986400959867e-02 -8.732881266588571334e-01 7.353007087594253255e-01 -8.253507051197034317e-01 -4.926823469885772315e-04 0.000000000000000000e+00 0.000000000000000000e+00 0.000000000000000000e+00 0.000000000000000000e+00 0.000000000000000000e+00
-7.708075986400959867e-02 -8.732881266588571334e-01 7.353007087594253255e-01 -8.253507051197034317e-01 -4.926823469885772315e-04 0.000000000000000000e+00 0.000000000000000000e+00 0.000000000000000000e+00 0.000000000000000000e+00 0.000000000000000000e+00
-7.708075986400959867e-02 -8.732881266588571334e-01 7.353007087594253255e-01 -8.253507051197034317e-01 -4.926823469885772315e-04 0.000000000000000000e+00 0.000000000000000000e+00 0.000000000000000000e+00 0.000000000000000000e+00 0.000000000000000000e+00
-7.708075986400959867e-02 -8.732881266588571334e-01 7.353007087594253255e-01 -8.253507051197034317e-01 -4.926823469885772315e-04 0.000000000000000000e+00 0.000000000000000000e+00 0.000000000000000000e+00 0.000000000000000000e+00 0.000000000000000000e+00
-7.708075986400959867e-02 -8.732881266588571334e-01 7.353007087594253255e-01 -8.253507051197034317e-01 -4.926823469885772315e-04 0.000000000000000000e+00 0.000000000000000000e+00 0.000000000000000000e+00 0.000000000000000000e+00 0.000000000000000000e+00
-7.708075986400959867e-02 -8.732881266588571334e-01 7.353007087594253255e-01 -8.253507051197034317e-01 -4.926823469885772315e-04 0.000000000000000000e+00 0.000000000000000000e+00 0.000000000000000000e+00 0.000000000000000000e+00 0.000000000000000000e+00
-7.708075986400959867e-02 -8.732881266588571334e-01 7.353007087594253255e-01 -8.253507051197034317e-01 -4.926823469885772315e-04 0.000000000000000000e+00 0.000000000000000000e+00 0.000000000000000000e+00 0.000000000000000000e+00 0.000000000000000000e+00
-7.708075986400959867e-02 -8.732881266588571334e-01 7.353007087594253255e-01 -8.253507051197034317e-01 -4.926823469885772315e-04 0.000000000000000000e+00 0.000000000000000000e+00 0.000000000000000000e+00 0.000000000000000000e+00 0.000000000000000000e+00
-7.708075986400959867e-02 -8.732881266588571334e-01 7.353007087594253255e-01 -8.253507051197034317e-01 -4.926823469885772315e-04 0.000000000000000000e+00 0.000000000000000000e+00 0.000000000000000000e+00 0.000000000000000000e+00 0.000000000000000000e+00
-7.708075986400959867e-02 -8.732881266588571334e-01 7.353007087594253255e-01 -8.253507051197034317e-01 -4.926823469885772315e-04 0.000000000000000000e+00 0.000000000000000000e+00 0.000000000000000000e+00 0.000000000000000000e+00 0.000000000000000000e+00
-7.708075986400959867e-02 -8.732881266588571334e-01 7.353007087594253255e-01 -8.253507051197034317e-01 -4.926823469885772315e-04 0.000000000000000000e+00 0.000000000000000000e+00 0.000000000000000000e+00 0.000000000000000000e+00 0.000000000000000000e+00
-7.708075986400959867e-02 -8.732881266588571334e-01 7.353007087594253255e-01 -8.253507051197034317e-01 -4.926823469885772315e-04 0.000000000000000000e+00 0.000000000000000000e+00 0.000000000000000000e+00 0.000000000000000000e+00 0.000000000000000000e+00
-7.708075986400959867e-02 -8.732881266588571334e-01 7.353007087594253255e-01 -8.253507051197034317e-01 -4.926823469885772315e-04 0.000000000000000000e+00 0.000000000000000000e+00 0.000000000000000000e+00 0.000000000000000000e+00 0.000000000000000000e+00
-7.708075986400959867e-02 -8.732881266588571334e-01 7.353007087594253255e-01 -8.253507051197034317e-01 -4.926823469885772315e-04 0.000000000000000000e+00 0.000000000000000000e+00 0.000000000000000000e+00 0.000000000000000000e+00 0.000000000000000000e+00
-7.708075986400959867e-02 -8.732881266588571334e-01 7.353007087594253255e-01 -8.253507051197034317e-01 -4.926823469885772315e-04 0.000000000000000000e+00 0.000000000000000000e+00 0.000000000000000000e+00 0.000000000000000000e+00 0.000000000000000000e+00
-7.708075986400959867e-02 -8.732881266588571334e-01 7.353007087594253255e-01 -8.253507051197034317e-01 -4.926823469885772315e-04 0.000000000000000000e+00 0.000000000000000000e+00 0.000000000000000000e+00 0.000000000000000000e+00 0.000000000000000000e+00
-7.708075986400959867e-02 -8.732881266588571334e-01 7.353007087594253255e-01 -8.253507051197034317e-01 -4.926823469885772315e-04 0.000000000000000000e+00 0.000000000000000000e+00 0.000000000000000000e+00 0.000000000000000000e+00 0.000000000000000000e+00
-7.708075986400959867e-02 -8.732881266588571334e-01 7.353007087594253255e-01 -8.253507051197034317e-01 -4.926823469885772315e-04 0.000000000000000000e+00 0.000000000000000000e+00 0.000000000000000000e+00 0.000000000000000000e+00 0.000000000000000000e+00
-7.708075986400959867e-02 -8.732881266588571334e-01 7.353007087594253255e-01 -8.253507051197034317e-01 -4.926823469885772315e-04 0.000000000000000000e+00 0.000000000000000000e+00 0.000000000000000000e+00 0.000000000000000000e+00 0.000000000000000000e+00
-7.708075986400959867e-02 -8.732881266588571334e-01 7.353007087594253255e-01 -8.253507051197034317e-01 -4.926823469885772315e-04 0.000000000000000000e+00 0.000000000000000000e+00 0.000000000000000000e+00 0.000000000000000000e+00 0.000000000000000000e+00
-7.708075986400959867e-02 -8.732881266588571334e-01 7.353007087594253255e-01 -8.253507051197034317e-01 -4.926823469885772315e-04 0.000000000000000000e+00 0.000000000000000000e+00 0.000000000000000000e+00 0.000000000000000000e+00 0.000000000000000000e+00
