-4.035784204483868209e-01 -9.711301005854532375e-01 8.119548024126763686e-01 -7.952378911816907481e-01 -1.601575525853930976e-04 4.776470644358482565e-01 -7.894473998478105381e-01 5.928303309439775237e-01 8.188717262633905536e-01 2.102058298945510672e-03
-3.770281569774066033e-01 -1.010679489320655877e+00 8.459159763317001257e-01 -7.527559717934574346e-01 -5.250764035913613658e-05 5.310052694196039091e-01 -7.909877747040522378e-01 6.792234783804758091e-01 8.496383877646664917e-01 2.152998244525139437e-03
-3.475959867487104504e-01 -1.050219617836355646e+00 8.847529145091478364e-01 -7.094009123009966666e-01 -3.491203004085018579e-05 5.886434045739230569e-01 -7.908025703139969220e-01 7.767387635489547693e-01 8.671011898492158032e-01 3.519122063657192327e-04
-3.149449968145891510e-01 -1.089701927140648730e+00 9.292954441714961211e-01 -6.658101646505789617e-01 -5.020585097072554574e-04 0.000000000000000000e+00 0.000000000000000000e+00 0.000000000000000000e+00 0.000000000000000000e+00 0.000000000000000000e+00
-3.149449968145891510e-01 -1.089701927140648730e+00 9.292954441714961211e-01 -6.658101646505789617e-01 -5.020585097072554574e-04 0.000000000000000000e+00 0.000000000000000000e+00 0.000000000000000000e+00 0.000000000000000000e+00 0.000000000000000000e+00
-3.149449968145891510e-01 -1.089701927140648730e+00 9.292954441714961211e-01 -6.658101646505789617e-01 -5.020585097072554574e-04 0.000000000000000000e+00 0.000000000000000000e+00 0.000000000000000000e+00 0.000000000000000000e+00 0.000000000000000000e+00
-3.149449968145891510e-01 -1.089701927140648730e+00 9.292954441714961211e-01 -6.658101646505789617e-01 -5.020585097072554574e-04 0.000000000000000000e+00 0.000000000000000000e+00 0.000000000000000000e+00 0.000000000000000000e+00 0.000000000000000000e+00
-3.149449968145891510e-01 -1.089701927140648730e+00 9.292954441714961211e-01 -6.658101646505789617e-01 -5.020585097072554574e-04 0.000000000000000000e+00 0.000000000000000000e+00 0.000000000000000000e+00 0.000000000000000000e+00 0.000000000000000000e+00
-3.149449968145891510e-01 -1.089701927140648730e+00 9.292954441714961211e-01 -6.658101646505789617e-01 -5.020585097072554574e-04 0.000000000000000000e+00 0.000000000000000000e+00 0.000000000000000000e+00 0.000000000000000000e+00 0.000000000000000000e+00
-3.149449968145891510e-01 -1.089701927140648730e+00 9.292954441714961211e-01 -6.658101646505789617e-01 -5.020585097072554574e-04 0.000000000000000000e+00 0.000000000000000000e+00 0.000000000000000000e+00 0.000000000000000000e+00 0.000000000000000000e+00
-3.149449968145891510e-01 -1.089701927140648730e+00 9.292954441714961211e-01 -6.658101646505789617e-01 -5.020585097072554574e-04 0.000000000000000000e+00 0.000000000000000000e+00 0.000000000000000000e+00 0.000000000000000000e+00 0.000000000000000000e+00
-3.149449968145891510e-01 -1.089701927140648730e+00 9.292954441714961211e-01 -6.658101646505789617e-01 -5.020585097072554574e-04 0.000000000000000000e+00 0.000000000000000000e+00 0.000000000000000000e+00 0.000000000000000000e+00 0.000000000000000000e+00
-3.149449968145891510e-01 -1.089701927140648730e+00 9.292954441714961211e-01 -6.658101646505789617e-01 -5.020585097072554574e-04 0.000000000000000000e+00 0.000000000000000000e+00 0.000000000000000000e+00 0.000000000000000000e+00 0.000000000000000000e+00
-3.149449968145891510e-01 -1.089701927140648730e+00 9.292954441714961211e-01 -6.658101646505789617e-01 -5.020585097072554574e-04 0.000000000000000000e+00 0.000000000000000000e+00 0.000000000000000000e+00 0.000000000000000000e+00 0.000000000000000000e+00
-3.149449968145891510e-01 -1.089701927140648730e+00 9.292954441714961211e-01 -6.658101646505789617e-01 -5.020585097072554574e-04 0.000000000000000000e+00 0.000000000000000000e+00 0.000000000000000000e+00 0.000000000000000000e+00 0.000000000000000000e+00
-3.149449968145891510e-01 -1.089701927140648730e+00 9.292954441714961211e-01 -6.658101646505789617e-01 -5.020585097072554574e-04 0.000000000000000000e+00 0.000000000000000000e+00 0.000000000000000000e+00 0.000000000000000000e+00 0.000000000000000000e+00
-3.149449968145891510e-01 -1.089701927140648730e+00 9.292954441714961211e-01 -6.658101646505789617e-01 -5.020585097072554574e-04 0.000000000000000000e+00 0.000000000000000000e+00 0.000000000000000000e+00 0.000000000000000000e+00 0.000000000000000000e+00
-3.149449968145891510e-01 -1.089701927140648730e+00 9.292954441714961211e-01 -6.658101646505789617e-01 -5.020585097072554574e-04 0.000000000000000000e+00 0.000000000000000000e+00 0.000000000000000000e+00 0.000000000000000000e+00 0.000000000000000000e+00
-3.149449968145891510e-01 -1.089701927140648730e+00 9.292954441714961211e-01 -6.658101646505789617e-01 -5.020585097072554574e-04 0.000000000000000000e+00 0.000000000000000000e+00 0.000000000000000000e+00 0.000000000000000000e+00 0.000000000000000000e+00
-3.149449968145891510e-01 -1.089701927140648730e+00 9.292954441714961211e-01 -6.658101646505789617e-01 -5.020585097072554574e-04 0.000000000000000000e+00 0.000000000000000000e+00 0.000000000000000000e+00 0.000000000000000000e+00 0.000000000000000000e+00
-3.149449968145891510e-01 -1.089701927140648730e+00 9.292954441714961211e-01 -6.658101646505789617e-01 -5.020585097072554574e-04 0.000000000000000000e+00 0.000000000000000000e+00 0.000000000000000000e+00 0.000000000000000000e+00 0.000000000000000000e+00
-3.149449968145891510e-01 -1.089701927140648730e+00 9.292954441714961211e-01 -6.658101646505789617e-01 -5.020585097072554574e-04 0.000000000000000000e+00 0.000000000000000000e+00 0.000000000000000000e+00 0.000000000000000000e+00 0.000000000000000000e+00
-3.149449968145891510e-01 -1.089701927140648730e+00 9.292954441714961211e-01 -6.658101646505789617e-01 -5.020585097072554574e-04 0.000000000000000000e+00 0.000000000000000000e+00 0.000000000000000000e+00 0.000000000000000000e+00 0.000000000000000000e+00
-3.149449968145891510e-01 -1.089701927140648730e+00 9.292954441714961211e-01 -6.658101646505789617e-01 -5.020585097072554574e-04 0.000000000000000000e+00 0.000000000000000000e+00 0.000000000000000000e+00 0.000000000000000000e+00 0.000000000000000000e+00
-3.149449968145891510e-01 -1.089701927140648730e+00 9.292954441714961211e-01 -6.658101646505789617e-01 -5.020585097072554574e-04 0.000000000000000000e+00 0.000000000000000000e+00 0.000000000000000000e+00 0.000000000000000000e+00 0.000000000000000000e+00
-3.149449968145891510e-01 -1.089701927140648730e+00 9.292954441714961211e-01 -6.658101646505789617e-01 -5.020585097072554574e-04 0.000000000000000000e+00 0.000000000000000000e+00 0.000000000000000000e+00 0.000000000000000000e+00 0.000000000000000000e+00
-3.149449968145891510e-01 -1.089701927140648730e+00 9.292954441714961211e-01 -6.658101646505789617e-01 -5.020585097072554574e-04 0.000000000000000000e+00 0.000000000000000000e+00 0.000000000000000000e+00 0.000000000000000000e+00 0.000000000000000000e+00
-3.149449968145891510e-01 -1.089701927140648730e+00 9.292954441714961211e-01 -6.658101646505789617e-01 -5.020585097072554574e-04 0.000000000000000000e+00 0.000000000000000000e+00 0.000000000000000000e+00 0.000000000000000000e+00 0.000000000000000000e+00
-3.149449968145891510e-01 -1.089701927140648730e+00 9.292954441714961211e-01 -6.658101646505789617e-01 -5.020585097072554574e-04 0.000000000000000000e+00 0.000000000000000000e+00 0.000000000000000000e+00 0.000000000000000000e+00 0.000000000000000000e+00
-3.149449968145891510e-01 -1.089701927140648730e+00 9.292954441714961211e-01 -6.658101646505789617e-01 -5.020585097072554574e-04 0.000000000000000000e+00 0.000000000000000000e+00 0.000000000000000000e+00 0.000000000000000000e+00 0.000000000000000000e+00
-3.149449968145891510e-01 -1.089701927140648730e+00 9.292954441714961211e-01 -6.658101646505789617e-01 -5.020585097072554574e-04 0.000000000000000000e+00 0.000000000000000000e+00 0.000000000000000000e+00 0.000000000000000000e+00 0.000000000000000000e+00
