-2.564062021533530800e-01 -1.335051114244160120e-01 8.045931876559204721e-01 -1.216919589331207030e+00 0.000000000000000000e+00 -1.611545318863406850e-04 -3.535990574519910952e-05 3.649589535039731228e-04 -5.129970330919794144e-04 0.000000000000000000e+00
-2.631238103859835364e-01 -1.336718596564878958e-01 7.935508178409601543e-01 -1.233619562055003449e+00 1.294999759099301937e-04 -1.343521646526086577e-01 -3.334964641437476209e-03 -2.208473962992066331e-01 -3.339994544759282702e-01 2.589999518198603332e-03
-2.757518509658958838e-01 -1.343710715754838358e-01 7.726860478607666671e-01 -1.264183435766613739e+00 3.170295439641081627e-04 -2.525608115982466151e-01 -1.398423837991877999e-02 -4.172953996038696878e-01 -6.112774742322044652e-01 3.750591361083559921e-03
-2.935037470186282471e-01 -1.359321105786962525e-01 7.430305186084221747e-01 -1.305736588046958691e+00 5.108294654433997214e-04 -3.550379210546473763e-01 -3.122078006424842608e-02 -5.931105850468907370e-01 -8.310630456068970329e-01 3.875998429585829873e-03
-3.156258245007766972e-01 -1.386477991798436837e-01 7.054005206746472023e-01 -1.355341804543265916e+00 6.702889267076919243e-04 -4.424415496429687789e-01 -5.431377202294884743e-02 -7.525999586755003357e-01 -9.921043299261449455e-01 3.189189225285843626e-03
-3.414079356173243540e-01 -1.427742076266172999e-01 6.604284185284794439e-01 -1.410008371747641709e+00 7.631857260605136783e-04 -5.156422223309532482e-01 -8.252816893547226806e-02 -8.994420429233553893e-01 -1.093331344087517643e+00 1.857935987056435079e-03
-3.701876637707333106e-01 -1.485303130812639927e-01 6.086398797356457058e-01 -1.466724907298049052e+00 7.622753885752171169e-04 -5.755945630681794656e-01 -1.151221090929336333e-01 -1.035770775856675208e+00 -1.134330711008148418e+00 -1.820674970593122791e-05
-4.013531564564326026e-01 -1.560991105716724170e-01 5.505582115691395328e-01 -1.522522527850891372e+00 6.298735853937753159e-04 -6.233098537139858397e-01 -1.513759498081685140e-01 -1.161633363330123236e+00 -1.115952411056848170e+00 -2.648036063628836454e-03
-4.343472838614514386e-01 -1.656334182841238123e-01 4.868223592387185272e-01 -1.574563155302190598e+00 4.036483461399117587e-04 -6.598825481003770532e-01 -1.906861542490278782e-01 -1.274717046608419890e+00 -1.040812549025983635e+00 -4.524504785077270927e-03
-4.686770100458339527e-01 -1.772647879883941791e-01 4.182915000552258622e-01 -1.620251321118010068e+00 1.118973393127552641e-04 -6.865945236876505042e-01 -2.326273940854073075e-01 -1.370617183669853079e+00 -9.137633163163907390e-01 -5.835020136543129891e-03
-5.039269748389304526e-01 -1.911129958366245829e-01 3.461064741745379925e-01 -1.657347285230258205e+00 -2.113196426816609419e-04 -7.049992958619306638e-01 -2.769641569646080770e-01 -1.443700517613757617e+00 -7.419192822449618419e-01 -6.464339639888324121e-03
-5.397761722901502912e-01 -2.072887268954333173e-01 2.716841286330433647e-01 -1.684075102885951969e+00 -5.259049242801381013e-04 -7.169839490243959945e-01 -3.235146211761747992e-01 -1.488446910829893000e+00 -5.345563531138763924e-01 -6.291705631969542536e-03
-5.760126280803932186e-01 -2.258837238696737582e-01 1.966329849390130724e-01 -1.699214045656174843e+00 -7.907095180460605929e-04 -7.247291158048581039e-01 -3.718999394848085394e-01 -1.501022873880605735e+00 -3.027788554044555935e-01 -5.296091875318448966e-03
-6.125380293444784296e-01 -2.469492111755549058e-01 1.226033322184242047e-01 -1.702150723462609427e+00 -9.695966806136761817e-04 -7.305080252817032216e-01 -4.213097461176231184e-01 -1.480593054411777132e+00 -5.873355612869241016e-02 -3.577743251352313077e-03
-6.493571342607357133e-01 -2.704701180004908667e-01 5.111138894744618466e-02 -1.692876261870348342e+00 -1.035151823434929830e-03 -7.363820983251448959e-01 -4.704181364987192748e-01 -1.429838865419560401e+00 1.854892318452225353e-01 -1.311102856425072974e-03
-6.865542290867684416e-01 -2.963417498966802177e-01 -1.661767491601465196e-02 -1.671937647717690822e+00 -1.048275944540974502e-03 -7.439418965206544554e-01 -5.174326379237866869e-01 -1.354581277269216733e+00 4.187722830531514506e-01 -2.624824221208947421e-04
-7.242614466640832083e-01 -3.243604051895222495e-01 -7.974514688775277693e-02 -1.640339469877147849e+00 -1.041666122299335709e-03 -7.541443515462959990e-01 -5.603731058568409695e-01 -1.262549439434762721e+00 6.319635568108571411e-01 1.321964448327739208e-04
-7.626280659925094296e-01 -3.542317395726490847e-01 -1.378375974793885073e-01 -1.599411205129591451e+00 -1.012401889077492413e-03 -7.673323865685236500e-01 -5.974266876625363709e-01 -1.161849011832714940e+00 8.185652949511290633e-01 5.852846644368652710e-04
-8.017978294713911103e-01 -3.855935420722836349e-01 -1.908207587910983605e-01 -1.550662447514369990e+00 -9.187533391853712136e-04 -7.833952695776335018e-01 -6.272360499926904476e-01 -1.059663226234197175e+00 9.749751523044299928e-01 1.872970997842423116e-03
-8.418967081007570075e-01 -4.180458161257898375e-01 -2.388946470905627117e-01 -1.495648172430066980e+00 -7.700636707380496045e-04 -8.019775725873173888e-01 -6.490454810701234978e-01 -9.614777659892868034e-01 1.100285501686060652e+00 2.973793368946431315e-03
-8.830298750061715829e-01 -4.511814341765033598e-01 -2.824402997600278242e-01 -1.435857107762120499e+00 -5.878799823967931736e-04 -8.226633381082921748e-01 -6.627123610142702237e-01 -8.709130533893025827e-01 1.195821293358930948e+00 3.643673766825129053e-03
-9.252847557189500804e-01 -4.846111718392244194e-01 -3.219401876277264152e-01 -1.372633726096418760e+00 -3.948490558815647431e-04 -8.450976142555702841e-01 -6.685947532544208594e-01 -7.899977573539720410e-01 1.264467633314036554e+00 3.860618530304569043e-03
-9.687367941804460036e-01 -5.179831879729381860e-01 -3.579196092099597992e-01 -1.307126002063952797e+00 -2.108770361156862274e-04 -8.690407692299185749e-01 -6.674403226742754436e-01 -7.195884316446679030e-01 1.310154480649317943e+00 3.679440395317570313e-03
-1.013455669753380084e+00 -5.509952664532303812e-01 -3.909088004156975882e-01 -1.240261646680438146e+00 -5.313008559364550804e-05 -8.943775114586806074e-01 -6.602415696058435701e-01 -6.597838241147554461e-01 1.337287107670295017e+00 3.154939010440814713e-03
-1.059510975850757264e+00 -5.834006214830697035e-01 -4.214251300030399383e-01 -1.172743948503533140e+00 5.772972395346232552e-05 -9.211061219475417117e-01 -6.481071005967872223e-01 -6.103265917468467805e-01 1.350353963538100110e+00 2.217196190942156454e-03
-1.106976418154273833e+00 -6.150083851294886328e-01 -4.499677022370225932e-01 -1.105062220308653309e+00 7.031412376091845614e-05 -9.493088460703295040e-01 -6.321552729283784755e-01 -5.708514446796526531e-01 1.353634563897596177e+00 2.516879961491228293e-04
-1.155932863847068948e+00 -6.456813314474145749e-01 -4.770222080267899623e-01 -1.037504865990243053e+00 8.885520710246236548e-06 -9.791289138559015059e-01 -6.134589263585185082e-01 -5.410901157953469376e-01 1.351147086368204242e+00 -1.228572061013444121e-03
-1.206470577643057540e+00 -6.753264305774347998e-01 -5.030800471963693399e-01 -9.701901202461814533e-01 -1.034806116856111443e-04 -1.010754275919770739e+00 -5.929019826004053861e-01 -5.211567833915869974e-01 1.346294914881231986e+00 -2.247322647917147399e-03
-1.258690614479805792e+00 -7.038848173520869667e-01 -5.286633819745943930e-01 -9.030927453302354246e-01 -2.717570702359781870e-04 -1.044400736734967028e+00 -5.711677354930443373e-01 -5.116666955645010617e-01 1.341947498318919907e+00 -3.365529171007341017e-03
-1.312705478929731218e+00 -7.313234767178801166e-01 -5.543523255337057254e-01 -8.360594006396041555e-01 -5.405367400206973795e-04 -1.080297288998506522e+00 -5.487731873158631091e-01 -5.137788711822276477e-01 1.340666893812625382e+00 -5.375593395694381466e-03
-1.368639313802099577e+00 -7.576272792546243640e-01 -5.808163915655214504e-01 -7.688178437636286056e-01 -1.094298021353595600e-03 -1.118676697447366086e+00 -5.260760507348841708e-01 -5.292813206363136125e-01 1.344831137519511888e+00 -1.107522562665796614e-02
