-8.176018912070092126e-01 -4.122322198640685498e-01 8.243030759758479542e-01 -7.174375916008559617e-01 1.058094809963126826e-03 -5.878544805643429738e-01 -3.454377038666137656e-01 -1.666682533281589329e+00 -1.487826153927952921e+00 1.204054350429018460e-04
-8.461738519293268146e-01 -4.330625188755942157e-01 7.467469749513151456e-01 -7.901602206822739838e-01 1.056291095506881267e-03 -5.714392144463525947e-01 -4.166059802305134840e-01 -1.551122020490656173e+00 -1.454452581628359331e+00 -3.607428912491032692e-05
-8.740855858226130870e-01 -4.578824244472518012e-01 6.743490773070401900e-01 -8.590598402207163531e-01 1.040133421321608621e-03 -5.582346778657246711e-01 -4.963981114331514899e-01 -1.447957952885499555e+00 -1.377992390768846942e+00 -3.231534837054548821e-04
-9.014856936730044623e-01 -4.869219545381829328e-01 6.063668272917596136e-01 -9.221249409402593189e-01 9.833179670263125869e-04 -5.480021570078281723e-01 -5.807906018186221875e-01 -1.359645000305611751e+00 -1.261302014390858428e+00 -1.136309085905920242e-03
-9.284766696254309615e-01 -5.202549417942412546e-01 5.421461102638651663e-01 -9.775601265577010812e-01 8.278774733884813842e-04 -5.398195190485293171e-01 -6.666597451211655478e-01 -1.284414340557889167e+00 -1.108703712348836135e+00 -3.108809872756624487e-03
-9.551133717569044723e-01 -5.578455960764890920e-01 4.812283059021171261e-01 -1.023840128978625197e+00 6.088982712372801101e-04 -5.327340426294695508e-01 -7.518130856449569688e-01 -1.218356087234961027e+00 -9.256000484184815358e-01 -4.379584043024025049e-03
-9.814199748628653630e-01 -5.995840620087403705e-01 4.233701102128089588e-01 -1.059754079018151884e+00 3.602413818467670647e-04 -5.261320621192180358e-01 -8.347693186450250158e-01 -1.157163913786162901e+00 -7.182790007905359708e-01 -4.973137787810260474e-03
-1.007412593967077274e+00 -6.453084066237647631e-01 3.685019145871198387e-01 -1.084437476772871056e+00 1.116370735870233989e-04 -5.198523820842380072e-01 -9.144868923004880745e-01 -1.097363912513782180e+00 -4.936679550943852135e-01 -4.972086165194873099e-03
-1.033120611838138414e+00 -6.948150434796237507e-01 3.166493433527813872e-01 -1.097389785977528343e+00 -1.140941920825419792e-04 -5.141603574212249006e-01 -9.901327371171805281e-01 -1.037051424686769474e+00 -2.590461840931460591e-01 -4.514625313391307238e-03
-1.058602820082742868e+00 -7.478622076915389938e-01 2.678427617591794263e-01 -1.098472825324269930e+00 -3.024937574614119311e-04 -5.096441648920903011e-01 -1.060943284238304640e+00 -9.761316318720392182e-01 -2.166078693483253215e-02 -3.767991307577398495e-03
-1.083957424424761395e+00 -8.041708970738704609e-01 2.220356303036953305e-01 -1.087889567785465861e+00 -4.475525015532267801e-04 -5.070920868403696602e-01 -1.126173787646629787e+00 -9.161426291096820274e-01 2.116651507760810569e-01 -2.901174881836297414e-03
-1.109327571026330395e+00 -8.634259487056058502e-01 1.790428750392067669e-01 -1.066148437621083467e+00 -5.510086827519403456e-04 -5.074029320313818703e-01 -1.185101032634708229e+00 -8.598551052897713820e-01 4.348226032876466585e-01 -2.069123623974270659e-03
-1.134904406725422366e+00 -9.252792004606945619e-01 1.385010915390997854e-01 -1.034014033933066123e+00 -6.206662851443258723e-04 -5.115367139818375319e-01 -1.237065035101774901e+00 -8.108356700021396302e-01 6.426880737603475335e-01 -1.393152047847710752e-03
-1.160931295004977271e+00 -9.893544190983758480e-01 9.984348536345741265e-02 -9.924508172259247640e-01 -6.681882828788749534e-04 -5.205377655910986556e-01 -1.281504372753625720e+00 -7.731521235128476777e-01 8.312643341428280763e-01 -9.504399546909817311e-04
-1.187711016969788647e+00 -1.055254081089467721e+00 6.228153890629027634e-02 -9.425623062411728759e-01 -7.075488154680588653e-04 -5.355944392962287415e-01 -1.317993239821839024e+00 -7.512389291433426708e-01 9.977702196950382074e-01 -7.872106517836792135e-04
-1.215620696609988727e+00 -1.122564213235778485e+00 2.477525529717236608e-02 -8.855381408045885916e-01 -7.544835907878874896e-04 -5.581935928040036021e-01 -1.346202642926214166e+00 -7.501256721823581497e-01 1.140483308731686574e+00 -9.386955063965716183e-04
-1.245135832998476078e+00 -1.190856285650760071e+00 -1.402276013403529198e-02 -8.226073150092869657e-01 -8.260083532948373245e-04 -5.903027277697452391e-01 -1.365841448299631722e+00 -7.759603086241529946e-01 1.258616515906032962e+00 -1.430495250138997133e-03
-1.276877854532534107e+00 -1.259679833935116733e+00 -5.588888091569192001e-02 -7.550123150089282920e-01 -9.307312698776521983e-04 -6.348404306811593623e-01 -1.376470965687133230e+00 -8.373224156331325885e-01 1.351900000007172364e+00 -2.094458331656297041e-03
-1.311699108434689842e+00 -1.328546615362755645e+00 -1.032479010791755858e-01 -6.840017423716976408e-01 -1.024959089557757460e-03 -6.964250780431132659e-01 -1.377335628552778468e+00 -9.471804032696731213e-01 1.420211452744612135e+00 -1.884556393602104590e-03
-1.350827848979814894e+00 -1.396903885959527081e+00 -1.595481006779078115e-01 -6.108458199297318592e-01 -8.228345100057993548e-04 0.000000000000000000e+00 0.000000000000000000e+00 0.000000000000000000e+00 0.000000000000000000e+00 0.000000000000000000e+00
-1.350827848979814894e+00 -1.396903885959527081e+00 -1.595481006779078115e-01 -6.108458199297318592e-01 -8.228345100057993548e-04 0.000000000000000000e+00 0.000000000000000000e+00 0.000000000000000000e+00 0.000000000000000000e+00 0.000000000000000000e+00
-1.350827848979814894e+00 -1.396903885959527081e+00 -1.595481006779078115e-01 -6.108458199297318592e-01 -8.228345100057993548e-04 0.000000000000000000e+00 0.000000000000000000e+00 0.000000000000000000e+00 0.000000000000000000e+00 0.000000000000000000e+00
-1.350827848979814894e+00 -1.396903885959527081e+00 -1.595481006779078115e-01 -6.108458199297318592e-01 -8.228345100057993548e-04 0.000000000000000000e+00 0.000000000000000000e+00 0.000000000000000000e+00 0.000000000000000000e+00 0.000000000000000000e+00
-1.350827848979814894e+00 -1.396903885959527081e+00 -1.595481006779078115e-01 -6.108458199297318592e-01 -8.228345100057993548e-04 0.000000000000000000e+00 0.000000000000000000e+00 0.000000000000000000e+00 0.000000000000000000e+00 0.000000000000000000e+00
-1.350827848979814894e+00 -1.396903885959527081e+00 -1.595481006779078115e-01 -6.108458199297318592e-01 -8.228345100057993548e-04 0.000000000000000000e+00 0.000000000000000000e+00 0.000000000000000000e+00 0.000000000000000000e+00 0.000000000000000000e+00
-1.350827848979814894e+00 -1.396903885959527081e+00 -1.595481006779078115e-01 -6.108458199297318592e-01 -8.228345100057993548e-04 0.000000000000000000e+00 0.000000000000000000e+00 0.000000000000000000e+00 0.000000000000000000e+00 0.000000000000000000e+00
-1.350827848979814894e+00 -1.396903885959527081e+00 -1.595481006779078115e-01 -6.108458199297318592e-01 -8.228345100057993548e-04 0.000000000000000000e+00 0.000000000000000000e+00 0.000000000000000000e+00 0.000000000000000000e+00 0.000000000000000000e+00
-1.350827848979814894e+00 -1.396903885959527081e+00 -1.595481006779078115e-01 -6.108458199297318592e-01 -8.228345100057993548e-04 0.000000000000000000e+00 0.000000000000000000e+00 0.000000000000000000e+00 0.000000000000000000e+00 0.000000000000000000e+00
-1.350827848979814894e+00 -1.396903885959527081e+00 -1.595481006779078115e-01 -6.108458199297318592e-01 -8.228345100057993548e-04 0.000000000000000000e+00 0.000000000000000000e+00 0.000000000000000000e+00 0.000000000000000000e+00 0.000000000000000000e+00
-1.350827848979814894e+00 -1.396903885959527081e+00 -1.595481006779078115e-01 -6.108458199297318592e-01 -8.228345100057993548e-04 0.000000000000000000e+00 0.000000000000000000e+00 0.000000000000000000e+00 0.000000000000000000e+00 0.000000000000000000e+00
-1.350827848979814894e+00 -1.396903885959527081e+00 -1.595481006779078115e-01 -6.108458199297318592e-01 -8.228345100057993548e-04 0.000000000000000000e+00 0.000000000000000000e+00 0.000000000000000000e+00 0.000000000000000000e+00 0.000000000000000000e+00
