-8.167818233854653442e-01 4.858301526231301182e-02 1.140556063041201912e-01 -2.119491047507069403e+00 -1.135484394080197700e-03 -4.869441070149140294e-01 -3.763482512712973405e-01 -1.679982943845378607e+00 3.126643983517328196e-01 -3.626184306412053027e-04
-8.419273034708434356e-01 2.572547403991049669e-02 3.393222438575425881e-02 -2.089960144320928137e+00 -1.134003368075290697e-03 -5.029096017075622704e-01 -4.571508244480502747e-01 -1.602467638367318425e+00 5.906180637228224395e-01 2.962052009813931092e-05
-8.679690711265632963e-01 -1.039119458754150793e-03 -3.980248935889869888e-02 -2.047356581080995941e+00 -1.118707481828162256e-03 -5.208353531143977699e-01 -5.352918699732929220e-01 -1.474694274893058932e+00 8.520712647986452559e-01 3.059177249425699551e-04
-8.950566321872160946e-01 -3.133118740318896478e-02 -1.058014361202364445e-01 -1.993417798576580191e+00 -1.095716003916218095e-03 -5.417512212130550786e-01 -6.058413588886962797e-01 -1.319978935226754801e+00 1.078775650088313220e+00 4.598295582388841870e-04
-9.233115575724103463e-01 -6.458683372359104446e-02 -1.637457357208591535e-01 -1.930392024236894821e+00 -1.071634877431937131e-03 -5.650985077038852555e-01 -6.651129264080415382e-01 -1.158885992012454347e+00 1.260515486793707174e+00 4.816225296856197109e-04
-9.527959036600832654e-01 -1.001442840598652240e-01 -2.140406337365267642e-01 -1.860671355574860852e+00 -1.050924004490825419e-03 -5.896869217534582708e-01 -7.111490067254835346e-01 -1.005897960313352213e+00 1.394413373240680931e+00 4.142174588222334976e-04
-9.835146990462722005e-01 -1.373233279420262021e-01 -2.574881896655997759e-01 -1.786523073205034118e+00 -1.029390831700292440e-03 -6.143759077237793687e-01 -7.435808776432196732e-01 -8.689511185814597916e-01 1.482965647396534692e+00 4.306634558106603949e-04
-1.015432960542688168e+00 -1.754831888735865209e-01 -2.950272912797705649e-01 -1.709931475353159369e+00 -9.670171566478797005e-04 -6.383652299283179010e-01 -7.631972186312061535e-01 -7.507820322834153348e-01 1.531831957037496750e+00 1.247473501048254347e-03
-1.048493995535044521e+00 -2.140574402735105075e-01 -3.275680337547408616e-01 -1.632530305248628411e+00 -8.779201997583499680e-04 -6.612206998471280572e-01 -7.714850279984796222e-01 -6.508148494994064892e-01 1.548023402090617617e+00 1.781939137790595519e-03
-1.082633629205852488e+00 -2.525713343698026137e-01 -3.559097509136295301e-01 -1.555591058294392370e+00 -7.822178323809584125e-04 -6.827926734161597899e-01 -7.702778819258422338e-01 -5.668343431777733699e-01 1.538784939084720360e+00 1.914047347547831977e-03
-1.117789595202084207e+00 -2.906463741120096644e-01 -3.807150864171194304e-01 -1.480045590603275896e+00 -6.953633385164031174e-04 -7.031193199246363879e-01 -7.615007948441411267e-01 -4.961067100697975629e-01 1.510909353822329049e+00 1.737089877291106985e-03
-1.153907121441963834e+00 -3.279960436667682111e-01 -4.025165318290727656e-01 -1.406528688417341577e+00 -6.269040459531175728e-04 -7.223505247975943178e-01 -7.469933910951706002e-01 -4.360289082390672588e-01 1.470338043718687926e+00 1.369185851265711110e-03
-1.190941827147996124e+00 -3.644160974160229327e-01 -4.217370886267757246e-01 -1.335430012285147239e+00 -5.813500355245607328e-04 -7.406941141206473400e-01 -7.284010749850945432e-01 -3.844111359540595130e-01 1.421973522643888987e+00 9.110802085711357159e-04
-1.228861056925901307e+00 -3.997725279748894911e-01 -4.387146898842105291e-01 -1.266945990567716507e+00 -5.595197041753148135e-04 -7.583845955581044462e-01 -7.071286111773308347e-01 -3.395520251486959795e-01 1.369680434348616638e+00 4.366066269849177336e-04
-1.267644486489422073e+00 -4.339897834213551908e-01 -4.537252023065834194e-01 -1.201123374100627084e+00 -5.597411362322586483e-04 -7.756685912704153196e-01 -6.843451089293136613e-01 -3.002102484474575839e-01 1.316452329341788907e+00 -4.428641138875611186e-06
-1.307284499528846178e+00 -4.670396727401495141e-01 -4.670032286235658581e-01 -1.137894479419607308e+00 -5.787952726226268428e-04 -7.928002607884802044e-01 -6.609977863758861316e-01 -2.655605263396487170e-01 1.264577893620393079e+00 -3.810827278073643785e-04
-1.347786442867908274e+00 -4.989306413872935941e-01 -4.787594911879823889e-01 -1.077108037981710842e+00 -6.127710527174375305e-04 -8.100388667812395971e-01 -6.378193729428821568e-01 -2.351252512883308110e-01 1.215728828757928870e+00 -6.795156018962128855e-04
-1.389168832354263250e+00 -5.296984095105420343e-01 -4.891940414237129220e-01 -1.018553196106084080e+00 -6.576811873787636762e-04 -8.276477897270974049e-01 -6.153553624649696907e-01 -2.086910047146111058e-01 1.171096837512535904e+00 -8.982026932265225897e-04
-1.431463562609463391e+00 -5.593980228901254126e-01 -4.985063079362826444e-01 -9.619771987332457197e-01 -7.099361125075885192e-04 -8.458946051040014957e-01 -5.939922675916680106e-01 -1.862453302513939479e-01 1.131519947456768094e+00 -1.045098502576495992e-03
-1.474716017973329851e+00 -5.880970945700833008e-01 -5.069025431205527177e-01 -9.070983384543969130e-01 -7.668939315600311994e-04 -8.650491072773309753e-01 -5.739814335991570982e-01 -1.679247036854022435e-01 1.097577205576975468e+00 -1.139156381048854472e-03
-1.518985102596060566e+00 -6.158704368169619636e-01 -5.146011325910101464e-01 -8.536139959815097766e-01 -8.281759806755226725e-04 -8.853816924546147327e-01 -5.554668449375723682e-01 -1.539717894091491568e-01 1.069686849457741840e+00 -1.225640982309828594e-03
-1.564343215332504755e+00 -6.427959415232031848e-01 -5.218375588400685494e-01 -8.012040767302818223e-01 -8.998168310746624361e-04 -9.071622547288852312e-01 -5.385100941248237572e-01 -1.447285249811682828e-01 1.048198385024558643e+00 -1.432817007982795706e-03
-1.610876029496135731e+00 -6.689511684880760090e-01 -5.288691489668200241e-01 -7.495323756381688796e-01 -1.010848083982073854e-03 -9.306562832726209544e-01 -5.231045392974561503e-01 -1.406318025350285217e-01 1.033434021842258632e+00 -2.220625058148227495e-03
-1.658682114395331197e+00 -6.944112789118582763e-01 -5.359806421537185450e-01 -6.982428180998793144e-01 -1.278914641615448841e-03 0.000000000000000000e+00 0.000000000000000000e+00 0.000000000000000000e+00 0.000000000000000000e+00 0.000000000000000000e+00
-1.658682114395331197e+00 -6.944112789118582763e-01 -5.359806421537185450e-01 -6.982428180998793144e-01 -1.278914641615448841e-03 0.000000000000000000e+00 0.000000000000000000e+00 0.000000000000000000e+00 0.000000000000000000e+00 0.000000000000000000e+00
-1.658682114395331197e+00 -6.944112789118582763e-01 -5.359806421537185450e-01 -6.982428180998793144e-01 -1.278914641615448841e-03 0.000000000000000000e+00 0.000000000000000000e+00 0.000000000000000000e+00 0.000000000000000000e+00 0.000000000000000000e+00
-1.658682114395331197e+00 -6.944112789118582763e-01 -5.359806421537185450e-01 -6.982428180998793144e-01 -1.278914641615448841e-03 0.000000000000000000e+00 0.000000000000000000e+00 0.000000000000000000e+00 0.000000000000000000e+00 0.000000000000000000e+00
-1.658682114395331197e+00 -6.944112789118582763e-01 -5.359806421537185450e-01 -6.982428180998793144e-01 -1.278914641615448841e-03 0.000000000000000000e+00 0.000000000000000000e+00 0.000000000000000000e+00 0.000000000000000000e+00 0.000000000000000000e+00
-1.658682114395331197e+00 -6.944112789118582763e-01 -5.359806421537185450e-01 -6.982428180998793144e-01 -1.278914641615448841e-03 0.000000000000000000e+00 0.000000000000000000e+00 0.000000000000000000e+00 0.000000000000000000e+00 0.000000000000000000e+00
-1.658682114395331197e+00 -6.944112789118582763e-01 -5.359806421537185450e-01 -6.982428180998793144e-01 -1.278914641615448841e-03 0.000000000000000000e+00 0.000000000000000000e+00 0.000000000000000000e+00 0.000000000000000000e+00 0.000000000000000000e+00
-1.658682114395331197e+00 -6.944112789118582763e-01 -5.359806421537185450e-01 -6.982428180998793144e-01 -1.278914641615448841e-03 0.000000000000000000e+00 0.000000000000000000e+00 0.000000000000000000e+00 0.000000000000000000e+00 0.000000000000000000e+00
