-9.781491322222944929e-01 -3.316631096993314931e-01 6.020197045416133541e-01 -1.114162338809477681e+00 1.043225218241264959e-03 -1.025546084907149824e+00 -3.214912891420371732e-01 -1.567899423097810274e+00 -1.414355051711574163e+00 -3.421635946542685722e-04
-1.031603600174985536e+00 -3.512640931007618983e-01 5.237320865140715487e-01 -1.178838272314385538e+00 9.899564316093441372e-04 -1.069089359053821076e+00 -3.920196680286084367e-01 -1.565752360550835665e+00 -1.293518670098156464e+00 -1.065375732638415129e-03
-1.087278470803570096e+00 -3.742791017651925234e-01 4.452504640347219600e-01 -1.235542321290349355e+00 8.574939335083335383e-04 -1.113497412571689882e+00 -4.603001732886125019e-01 -1.569632449586991330e+00 -1.134080979519275001e+00 -2.649249962020212412e-03
-1.145223746551077504e+00 -4.004857013160902923e-01 3.665383125177316126e-01 -1.282754696049835053e+00 6.626272047459617724e-04 -1.158905514950147264e+00 -5.241319910179554897e-01 -1.574243030339806282e+00 -9.442474951897124047e-01 -3.897334575247434450e-03
-1.205502521390837689e+00 -4.295832317642696574e-01 2.878296116765543533e-01 -1.319391370249989093e+00 4.375358331031147787e-04 -1.205575496795204815e+00 -5.819506089635870794e-01 -1.574174016823544742e+00 -7.327334840030793606e-01 -4.501827432856940307e-03
-1.268202404925230065e+00 -4.612147423953590342e-01 2.095672298612987761e-01 -1.344809132509931171e+00 2.154015971410279970e-04 -1.253997670687845956e+00 -6.326302126217872024e-01 -1.565247636305111545e+00 -5.083552451988399001e-01 -4.442684719241735310e-03
-1.333446295032238771e+00 -4.949776931802343238e-01 1.322983726197186627e-01 -1.358793003283191636e+00 2.375436400380953302e-05 -1.304877802140174570e+00 -6.752590156975063485e-01 -1.545377144831602489e+00 -2.796774154652099664e-01 -3.832944662744369388e-03
-1.401396496100334899e+00 -5.304279981591375481e-01 5.656072876963881557e-02 -1.361518885108394805e+00 -1.190549789730159904e-04 -1.359004021361921222e+00 -7.090060995780644859e-01 -1.514752877001596998e+00 -5.451763650406332706e-02 -2.856186859536509817e-03
-1.472252640716090966e+00 -5.670780291590747924e-01 -1.722357611947469835e-02 -1.353504148838488241e+00 -2.049691615347937830e-04 -1.417122892315123339e+00 -7.330006199987449955e-01 -1.475686097782269890e+00 1.602947253981308884e-01 -1.718283651235556070e-03
-1.546242039522375489e+00 -6.043954128194088948e-01 -8.881916402992688642e-02 -1.335545483632239572e+00 -2.359291480721042848e-04 -1.479787976125691573e+00 -7.463476732066811614e-01 -1.431911758209043706e+00 3.591733041249741132e-01 -6.191997307462102518e-04
-1.623604915033335372e+00 -6.418038209258316584e-01 -1.582087032170438889e-01 -1.308655080388188008e+00 -2.224389133560038256e-04 -1.547257510219196552e+00 -7.481681621284560491e-01 -1.387790783742339773e+00 5.378080648810308340e-01 2.698046943220087489e-04
-1.704576164733448307e+00 -6.786883085488815137e-01 -2.255866461260396805e-01 -1.273993999249019016e+00 -1.810118132363789463e-04 -1.619424994002258478e+00 -7.376897524609971057e-01 -1.347558858179916275e+00 6.932216227833812860e-01 8.285420023924974786e-04
-1.789364694039605075e+00 -7.144078236263602388e-01 -2.913196514227279210e-01 -1.232798552671994008e+00 -1.311398543748968726e-04 -1.695770586123134915e+00 -7.143903015495756126e-01 -1.314660105933765033e+00 8.239089315405008218e-01 9.974391772296412571e-04
-1.878132555686734095e+00 -7.483118947324807202e-01 -3.558888424379077486e-01 -1.186307953907086210e+00 -9.209320221382532917e-05 -1.775357232942579078e+00 -6.780814221224092941e-01 -1.291383820303596330e+00 9.298119752981546249e-01 7.809330432214308141e-04
-1.970974704405102917e+00 -7.797587803392884709e-01 -4.198238671136589328e-01 -1.135701347255453575e+00 -8.133035488976595318e-05 -1.856842974367375554e+00 -6.289377121361555689e-01 -1.278700493515024350e+00 1.012132133032650927e+00 2.152569464811875197e-04
-2.067899738190645209e+00 -8.081348547759679146e-01 -4.836410242747676280e-01 -1.082034986827868472e+00 -1.131423711583803246e-04 -1.938500675710847609e+00 -5.675214887335895408e-01 -1.276343143222173238e+00 1.073327208551703382e+00 -6.362403253722873206e-04
-2.168813296077988895e+00 -8.328727693636488461e-01 -5.477931329176446429e-01 -1.026185650040431829e+00 -1.985154460080539138e-04 -2.018271157746875488e+00 -4.947582917536189617e-01 -1.283042172857540519e+00 1.116986735748731308e+00 -1.707461496993471946e-03
-2.273504180009498388e+00 -8.534696304564010072e-01 -6.126299220928914657e-01 -9.687945845320840021e-01 -3.480931374940997671e-04 -2.093817678630193413e+00 -4.119372218550442222e-01 -1.296735783504937345e+00 1.147821310166956543e+00 -2.991553829720917067e-03
-2.381634378557404119e+00 -8.695029039625384870e-01 -6.783707321039169624e-01 -9.102210567584788636e-01 -5.863077462041866531e-04 -2.162603970958114186e+00 -3.206654701227493742e-01 -1.314816200220510600e+00 1.171470555472102548e+00 -4.764292174201736202e-03
-2.492733980975432306e+00 -8.806445313029442890e-01 -7.450947674365034912e-01 -8.505011118995231545e-01 -1.002365735650249771e-03 0.000000000000000000e+00 0.000000000000000000e+00 0.000000000000000000e+00 0.000000000000000000e+00 0.000000000000000000e+00
-2.492733980975432306e+00 -8.806445313029442890e-01 -7.450947674365034912e-01 -8.505011118995231545e-01 -1.002365735650249771e-03 0.000000000000000000e+00 0.000000000000000000e+00 0.000000000000000000e+00 0.000000000000000000e+00 0.000000000000000000e+00
-2.492733980975432306e+00 -8.806445313029442890e-01 -7.450947674365034912e-01 -8.505011118995231545e-01 -1.002365735650249771e-03 0.000000000000000000e+00 0.000000000000000000e+00 0.000000000000000000e+00 0.000000000000000000e+00 0.000000000000000000e+00
-2.492733980975432306e+00 -8.806445313029442890e-01 -7.450947674365034912e-01 -8.505011118995231545e-01 -1.002365735650249771e-03 0.000000000000000000e+00 0.000000000000000000e+00 0.000000000000000000e+00 0.000000000000000000e+00 0.000000000000000000e+00
-2.492733980975432306e+00 -8.806445313029442890e-01 -7.450947674365034912e-01 -8.505011118995231545e-01 -1.002365735650249771e-03 0.000000000000000000e+00 0.000000000000000000e+00 0.000000000000000000e+00 0.000000000000000000e+00 0.000000000000000000e+00
-2.492733980975432306e+00 -8.806445313029442890e-01 -7.450947674365034912e-01 -8.505011118995231545e-01 -1.002365735650249771e-03 0.000000000000000000e+00 0.000000000000000000e+00 0.000000000000000000e+00 0.000000000000000000e+00 0.000000000000000000e+00
-2.492733980975432306e+00 -8.806445313029442890e-01 -7.450947674365034912e-01 -8.505011118995231545e-01 -1.002365735650249771e-03 0.000000000000000000e+00 0.000000000000000000e+00 0.000000000000000000e+00 0.000000000000000000e+00 0.000000000000000000e+00
-2.492733980975432306e+00 -8.806445313029442890e-01 -7.450947674365034912e-01 -8.505011118995231545e-01 -1.002365735650249771e-03 0.000000000000000000e+00 0.000000000000000000e+00 0.000000000000000000e+00 0.000000000000000000e+00 0.000000000000000000e+00
-2.492733980975432306e+00 -8.806445313029442890e-01 -7.450947674365034912e-01 -8.505011118995231545e-01 -1.002365735650249771e-03 0.000000000000000000e+00 0.000000000000000000e+00 0.000000000000000000e+00 0.000000000000000000e+00 0.000000000000000000e+00
-2.492733980975432306e+00 -8.806445313029442890e-01 -7.450947674365034912e-01 -8.505011118995231545e-01 -1.002365735650249771e-03 0.000000000000000000e+00 0.000000000000000000e+00 0.000000000000000000e+00 0.000000000000000000e+00 0.000000000000000000e+00
-2.492733980975432306e+00 -8.806445313029442890e-01 -7.450947674365034912e-01 -8.505011118995231545e-01 -1.002365735650249771e-03 0.000000000000000000e+00 0.000000000000000000e+00 0.000000000000000000e+00 0.000000000000000000e+00 0.000000000000000000e+00
-2.492733980975432306e+00 -8.806445313029442890e-01 -7.450947674365034912e-01 -8.505011118995231545e-01 -1.002365735650249771e-03 0.000000000000000000e+00 0.000000000000000000e+00 0.000000000000000000e+00 0.000000000000000000e+00 0.000000000000000000e+00
