-3.970427503210386955e-01 -4.476933892278996130e-02 4.039386164661609158e-01 -7.853824546321472866e-01 1.015826062441370706e-03 1.033050458347699596e-01 -3.075746493412812588e-01 -1.995005924748780024e-01 -7.730530675043538746e-01 -6.773320001375289848e-05
-3.910956029475021190e-01 -6.291096774805524094e-02 3.973181559239937766e-01 -8.258689015174131010e-01 9.898339574005033531e-04 1.189429474707317941e-01 -3.628325765053057594e-01 -1.324092108433423398e-01 -8.097289377053160653e-01 -5.198421008173471610e-04
-3.842983589677030909e-01 -8.388908044729644076e-02 3.943459196853942306e-01 -8.673268815736148163e-01 9.234418701971881761e-04 1.359448795959810052e-01 -4.195622539848239407e-01 -5.944472477199123917e-02 -8.291596011240347508e-01 -1.327841744066303540e-03
-3.765428967766396573e-01 -1.077526271476059172e-01 3.951803499635061501e-01 -9.088245215487927853e-01 8.189268220546375631e-04 1.551092438212687552e-01 -4.772709340061893624e-01 1.668860556223857039e-02 -8.299527995035599348e-01 -2.090300962851011825e-03
-3.676767768506465917e-01 -1.345283879455478337e-01 3.998934814236101420e-01 -9.493708016617821155e-01 6.850859604493770303e-04 1.773223985198615626e-01 -5.355152159588385530e-01 9.426262920207952034e-02 -8.109256022597868263e-01 -2.676817232105210657e-03
-3.575028412555166235e-01 -1.642215076497379467e-01 4.085167249087829355e-01 -9.879330298724008363e-01 5.331859890660900275e-04 2.034787119025993074e-01 -5.938623940838020365e-01 1.724648697034558975e-01 -7.712445642123735290e-01 -3.037999427665740056e-03
-3.457819223685098531e-01 -1.968138567157110830e-01 4.210791165505252120e-01 -1.023461448353101266e+00 3.750948579809520967e-04 2.344183777401351865e-01 -6.518469813194626150e-01 2.512478328348449752e-01 -7.105683696140104866e-01 -3.161822621702759049e-03
-3.322374220282441337e-01 -2.322603268462806181e-01 4.376340661974836288e-01 -1.054919633828281800e+00 2.224268880748542026e-04 2.708900068053141652e-01 -7.089294026113908131e-01 3.310989929391680020e-01 -6.291637095036106686e-01 -3.053359398121957991e-03
-3.165610139107362109e-01 -2.704838083665083714e-01 4.582758829741624962e-01 -1.081321179959285228e+00 8.558925818810114434e-05 3.135281623501589010e-01 -7.644696304045546231e-01 4.128363355335777363e-01 -5.280309226200663453e-01 -2.736752597735060515e-03
-2.984188817030675733e-01 -3.113690682637446083e-01 4.831464206891251667e-01 -1.101772669680335603e+00 -2.697453570407238634e-05 3.628426441533729729e-01 -8.177051979447242935e-01 4.974107542992536324e-01 -4.090297944210080083e-01 -2.251275877843470288e-03
-2.774578521597874103e-01 -3.547565326522549856e-01 5.124345259208874515e-01 -1.115519684982200221e+00 -1.091269608742152894e-04 4.192205908656034818e-01 -8.677492877702073226e-01 5.857621046352453620e-01 -2.749403060372908048e-01 -1.643048503402858062e-03
-2.533108195385860850e-01 -4.004373359147316291e-01 5.463737509925364888e-01 -1.121991865722956172e+00 -1.572312319413008818e-04 4.829406524240268950e-01 -9.136160652495328716e-01 6.787845014329810800e-01 -1.294436148151211496e-01 -9.620854213417122814e-04
-2.256006327591025262e-01 -4.481507389243668538e-01 5.852424266935608577e-01 -1.120841199694386781e+00 -1.700425486519416913e-04 5.542037355896710649e-01 -9.542680601927042705e-01 7.773735140204880434e-01 2.301332057138874565e-02 -2.562263342128160825e-04
-1.939421632135511497e-01 -4.975839256272344691e-01 6.293676980411462285e-01 -1.111970087181016753e+00 -1.480791799250968379e-04 6.331693909110274188e-01 -9.886637340573525279e-01 8.825054269517069727e-01 1.774222502674000224e-01 4.392673745368968520e-04
-1.579427754134306583e-01 -5.483737465742042350e-01 6.791335007542654845e-01 -1.095547297966401379e+00 -9.246504902906481469e-05 7.199877560024097178e-01 -1.015796418939396206e+00 9.953160542623858964e-01 3.284557842923095383e-01 1.112282617920640464e-03
-1.172016727681091941e-01 -6.001098935130105838e-01 7.349925113174540225e-01 -1.072012127225479450e+00 -3.652393934252404152e-06 8.148220529064293949e-01 -1.034722938776126533e+00 1.117180211263770762e+00 4.707034148184380262e-01 1.776253101896248156e-03
-7.130862370849694321e-02 -6.523388801810013904e-01 7.974807948362466758e-01 -1.042067986102832799e+00 1.197430545612708882e-04 9.178609811922450179e-01 -1.044579733359816354e+00 1.249765670375853732e+00 5.988828224529331168e-01 2.467908969910465738e-03
-1.984245647453396211e-02 -7.045686541069362541e-01 8.672338417853339143e-01 -1.006667583914793385e+00 2.814210755827465651e-04 1.029323344679259566e+00 -1.044595478518698384e+00 1.395060938981744547e+00 7.080080437607868538e-01 3.233560420429514026e-03
3.763090183282302020e-02 -7.562746019905637329e-01 9.450027853659029864e-01 -9.669900146487611092e-01 4.861146604500341277e-04 1.149467166147139618e+00 -1.034118957672548911e+00 1.555378871611380998e+00 7.935513853206451751e-01 4.093871697345750384e-03
1.015628410471381415e-01 -8.069089376347540199e-01 1.031674150217637642e+00 -9.244086790000825005e-01 7.322833182665340265e-04 1.278638784286302288e+00 -1.012686712883805074e+00 1.733427297034691561e+00 8.516267129735720642e-01 4.923373156329998411e-03
1.724331641597713072e-01 -8.559156242819566662e-01 1.128301997158453807e+00 -8.804509086571603582e-01 9.824019735619068071e-04 1.417406462252663424e+00 -9.801337329440530377e-01 1.932556938816322845e+00 8.791554068584428450e-01 5.002373105907454744e-03
2.507771517353854507e-01 -9.027524138819877919e-01 1.236171504399287802e+00 -8.367508052953881448e-01 1.044894282955978731e-03 1.566879751512282537e+00 -9.367357920006222916e-01 2.157390144816679012e+00 8.740020672354442688e-01 1.249846187881441077e-03
3.372459188389834162e-01 -9.469183286756542861e-01 1.356925532456486838e+00 -7.949974366279282112e-01 1.014024190461429486e-04 0.000000000000000000e+00 0.000000000000000000e+00 0.000000000000000000e+00 0.000000000000000000e+00 0.000000000000000000e+00
3.372459188389834162e-01 -9.469183286756542861e-01 1.356925532456486838e+00 -7.949974366279282112e-01 1.014024190461429486e-04 0.000000000000000000e+00 0.000000000000000000e+00 0.000000000000000000e+00 0.000000000000000000e+00 0.000000000000000000e+00
3.372459188389834162e-01 -9.469183286756542861e-01 1.356925532456486838e+00 -7.949974366279282112e-01 1.014024190461429486e-04 0.000000000000000000e+00 0.000000000000000000e+00 0.000000000000000000e+00 0.000000000000000000e+00 0.000000000000000000e+00
3.372459188389834162e-01 -9.469183286756542861e-01 1.356925532456486838e+00 -7.949974366279282112e-01 1.014024190461429486e-04 0.000000000000000000e+00 0.000000000000000000e+00 0.000000000000000000e+00 0.000000000000000000e+00 0.000000000000000000e+00
3.372459188389834162e-01 -9.469183286756542861e-01 1.356925532456486838e+00 -7.949974366279282112e-01 1.014024190461429486e-04 0.000000000000000000e+00 0.000000000000000000e+00 0.000000000000000000e+00 0.000000000000000000e+00 0.000000000000000000e+00
3.372459188389834162e-01 -9.469183286756542861e-01 1.356925532456486838e+00 -7.949974366279282112e-01 1.014024190461429486e-04 0.000000000000000000e+00 0.000000000000000000e+00 0.000000000000000000e+00 0.000000000000000000e+00 0.000000000000000000e+00
3.372459188389834162e-01 -9.469183286756542861e-01 1.356925532456486838e+00 -7.949974366279282112e-01 1.014024190461429486e-04 0.000000000000000000e+00 0.000000000000000000e+00 0.000000000000000000e+00 0.000000000000000000e+00 0.000000000000000000e+00
3.372459188389834162e-01 -9.469183286756542861e-01 1.356925532456486838e+00 -7.949974366279282112e-01 1.014024190461429486e-04 0.000000000000000000e+00 0.000000000000000000e+00 0.000000000000000000e+00 0.000000000000000000e+00 0.000000000000000000e+00
3.372459188389834162e-01 -9.469183286756542861e-01 1.356925532456486838e+00 -7.949974366279282112e-01 1.014024190461429486e-04 0.000000000000000000e+00 0.000000000000000000e+00 0.000000000000000000e+00 0.000000000000000000e+00 0.000000000000000000e+00
