-2.243125055229550635e-01 -5.578993255769270077e-01 5.947393603473659640e-01 -1.238251251154447008e+00 -9.307376757344012173e-04 2.026463408399424571e-01 -6.430213893987740681e-01 8.381339918131447408e-02 7.302762822724218061e-01 7.537152619479766183e-04
-2.133352807076420998e-01 -5.900379354946216903e-01 6.008145849792315696e-01 -1.200158071197459764e+00 -8.844774244757557012e-04 2.195444963062590793e-01 -6.427721983538929873e-01 1.215044926373131107e-01 7.618635991397451068e-01 9.252050251729094545e-04
-2.015375803479187711e-01 -6.220867562775026505e-01 6.086985150362698160e-01 -1.160831568725206653e+00 -8.311939754495034334e-04 2.359540071944666861e-01 -6.409764156576187588e-01 1.576786011407641519e-01 7.865300494450601088e-01 1.065668980525044923e-03
-1.889351549215172454e-01 -6.539934482353856326e-01 6.183291348655250985e-01 -1.120556655793095047e+00 -7.720010746026851646e-04 2.520485085280302906e-01 -6.381338391576589775e-01 1.926123965851050390e-01 8.054982586422332336e-01 1.183858016936365377e-03
-1.755344478663186936e-01 -6.857287637923165091e-01 6.296642106007216411e-01 -1.079561390538928078e+00 -7.076659392583810413e-04 2.680141411039712596e-01 -6.347063111386177514e-01 2.267015147039318501e-01 8.199053050833412515e-01 1.286702706886081382e-03
-1.613312669342726047e-01 -7.172845384614007225e-01 6.426873959038926776e-01 -1.038021314787640703e+00 -6.386746899248779610e-04 2.840636186409216668e-01 -6.311154933816851553e-01 2.604637060634202306e-01 8.308015150257460624e-01 1.379824986670062257e-03
-1.463090529908054327e-01 -7.486714146285954330e-01 6.574143347698537809e-01 -9.960650881114372357e-01 -5.654356617015810979e-04 3.004442788693432176e-01 -6.277375233438948765e-01 2.945387773192215120e-01 8.391245335240686831e-01 1.464780564465938129e-03
-1.304362960405028304e-01 -7.799166734071771856e-01 6.739002998254065568e-01 -9.537807022883790786e-01 -4.893279672773675907e-04 3.174551390060517120e-01 -6.249051755716358292e-01 3.297193011110549077e-01 8.456877164611639186e-01 1.522153888484270145e-03
-1.136626130640833454e-01 -8.110623952366883271e-01 6.922506009519036052e-01 -9.112215415959711295e-01 -4.170746210626547260e-04 3.354736595283895895e-01 -6.229144365902227198e-01 3.670060225299408563e-01 8.511832138481588705e-01 1.445066924294257076e-03
-9.591325485606780332e-02 -8.421637928594801759e-01 7.126338183133318349e-01 -8.684119401322623055e-01 -3.778900257221406468e-04 3.549871641603108419e-01 -6.220279524558365303e-01 4.076643472285645942e-01 8.561920292741755922e-01 7.836919068102816922e-04
-7.708075986400959867e-02 -8.732881266588571334e-01 7.353007087594253255e-01 -8.253507051197034317e-01 -4.926823469885772315e-04 0.000000000000000000e+00 0.000000000000000000e+00 0.000000000000000000e+00 0.000000000000000000e+00 0.000000000000000000e+00
-7.708075986400959867e-02 -8.732881266588571334e-01 7.353007087594253255e-01 -8.253507051197034317e-01 -4.926823469885772315e-04 0.000000000000000000e+00 0.000000000000000000e+00 0.000000000000000000e+00 0.000000000000000000e+00 0.000000000000000000e+00
-7.708075986400959867e-02 -8.732881266588571334e-01 7.353007087594253255e-01 -8.253507051197034317e-01 -4.926823469885772315e-04 0.000000000000000000e+00 0.000000000000000000e+00 0.000000000000000000e+00 0.000000000000000000e+00 0.000000000000000000e+00
-7.708075986400959867e-02 -8.732881266588571334e-01 7.353007087594253255e-01 -8.253507051197034317e-01 -4.926823469885772315e-04 0.000000000000000000e+00 0.000000000000000000e+00 0.000000000000000000e+00 0.000000000000000000e+00 0.000000000000000000e+00
-7.708075986400959867e-02 -8.732881266588571334e-01 7.353007087594253255e-01 -8.253507051197034317e-01 -4.926823469885772315e-04 0.000000000000000000e+00 0.000000000000000000e+00 0.000000000000000000e+00 0.000000000000000000e+00 0.000000000000000000e+00
-7.708075986400959867e-02 -8.732881266588571334e-01 7.353007087594253255e-01 -8.253507051197034317e-01 -4.926823469885772315e-04 0.000000000000000000e+00 0.000000000000000000e+00 0.000000000000000000e+00 0.000000000000000000e+00 0.000000000000000000e+00
-7.708075986400959867e-02 -8.732881266588571334e-01 7.353007087594253255e-01 -8.253507051197034317e-01 -4.926823469885772315e-04 0.000000000000000000e+00 0.000000000000000000e+00 0.000000000000000000e+00 0.000000000000000000e+00 0.000000000000000000e+00
-7.708075986400959867e-02 -8.732881266588571334e-01 7.353007087594253255e-01 -8.253507051197034317e-01 -4.926823469885772315e-04 0.000000000000000000e+00 0.000000000000000000e+00 0.000000000000000000e+00 0.000000000000000000e+00 0.000000000000000000e+00
-7.708075986400959867e-02 -8.732881266588571334e-01 7.353007087594253255e-01 -8.253507051197034317e-01 -4.926823469885772315e-04 0.000000000000000000e+00 0.000000000000000000e+00 0.000000000000000000e+00 0.000000000000000000e+00 0.000000000000000000e+00
-7.708075986400959867e-02 -8.732881266588571334e-01 7.353007087594253255e-01 -8.253507051197034317e-01 -4.926823469885772315e-04 0.000000000000000000e+00 0.000000000000000000e+00 0.000000000000000000e+00 0.000000000000000000e+00 0.000000000000000000e+00
-7.708075986400959867e-02 -8.732881266588571334e-01 7.353007087594253255e-01 -8.253507051197034317e-01 -4.926823469885772315e-04 0.000000000000000000e+00 0.000000000000000000e+00 0.000000000000000000e+00 0.000000000000000000e+00 0.000000000000000000e+00
-7.708075986400959867e-02 -8.732881266588571334e-01 7.353007087594253255e-01 -8.253507051197034317e-01 -4.926823469885772315e-04 0.000000000000000000e+00 0.000000000000000000e+00 0.000000000000000000e+00 0.000000000000000000e+00 0.000000000000000000e+00
-7.708075986400959867e-02 -8.732881266588571334e-01 7.353007087594253255e-01 -8.253507051197034317e-01 -4.926823469885772315e-04 0.000000000000000000e+00 0.000000000000000000e+00 0.000000000000000000e+00 0.000000000000000000e+00 0.000000000000000000e+00
-7.708075986400959867e-02 -8.732881266588571334e-01 7.353007087594253255e-01 -8.253507051197034317e-01 -4.926823469885772315e-04 0.000000000000000000e+00 0.000000000000000000e+00 0.000000000000000000e+00 0.000000000000000000e+00 0.000000000000000000e+00
-7.708075986400959867e-02 -8.732881266588571334e-01 7.353007087594253255e-01 -8.253507051197034317e-01 -4.926823469885772315e-04 0.000000000000000000e+00 0.000000000000000000e+00 0.000000000000000000e+00 0.000000000000000000e+00 0.000000000000000000e+00
-7.708075986400959867e-02 -8.732881266588571334e-01 7.353007087594253255e-01 -8.253507051197034317e-01 -4.926823469885772315e-04 0.000000000000000000e+00 0.000000000000000000e+00 0.000000000000000000e+00 0.000000000000000000e+00 0.000000000000000000e+00
-7.708075986400959867e-02 -8.732881266588571334e-01 7.353007087594253255e-01 -8.253507051197034317e-01 -4.926823469885772315e-04 0.000000000000000000e+00 0.000000000000000000e+00 0.000000000000000000e+00 0.000000000000000000e+00 0.000000000000000000e+00
-7.708075986400959867e-02 -8.732881266588571334e-01 7.353007087594253255e-01 -8.253507051197034317e-01 -4.926823469885772315e-04 0.000000000000000000e+00 0.000000000000000000e+00 0.000000000000000000e+00 0.000000000000000000e+00 0.000000000000000000e+00
-7.708075986400959867e-02 -8.732881266588571334e-01 7.353007087594253255e-01 -8.253507051197034317e-01 -4.926823469885772315e-04 0.000000000000000000e+00 0.000000000000000000e+00 0.000000000000000000e+00 0.000000000000000000e+00 0.000000000000000000e+00
-7.708075986400959867e-02 -8.732881266588571334e-01 7.353007087594253255e-01 -8.253507051197034317e-01 -4.926823469885772315e-04 0.000000000000000000e+00 0.000000000000000000e+00 0.000000000000000000e+00 0.000000000000000000e+00 0.000000000000000000e+00
-7.708075986400959867e-02 -8.732881266588571334e-01 7.353007087594253255e-01 -8.253507051197034317e-01 -4.926823469885772315e-04 0.000000000000000000e+00 0.000000000000000000e+00 0.000000000000000000e+00 0.000000000000000000e+00 0.000000000000000000e+00
