-8.834065941491912044e-01 -1.405470467827330872e+00 6.778449669441478642e-01 -1.391041662741208329e+00 -6.154103213729467461e-04 -3.682101526657288737e-01 -1.880477715345426626e+00 -7.243926895384408260e-01 1.482784915070780307e-01 -4.792632353792759640e-03
-9.046478181585637657e-01 -1.499904713931454747e+00 6.364888733093500006e-01 -1.375802768391802600e+00 -1.005652492322478032e-03 0.000000000000000000e+00 0.000000000000000000e+00 0.000000000000000000e+00 0.000000000000000000e+00 0.000000000000000000e+00
-9.046478181585637657e-01 -1.499904713931454747e+00 6.364888733093500006e-01 -1.375802768391802600e+00 -1.005652492322478032e-03 0.000000000000000000e+00 0.000000000000000000e+00 0.000000000000000000e+00 0.000000000000000000e+00 0.000000000000000000e+00
-9.046478181585637657e-01 -1.499904713931454747e+00 6.364888733093500006e-01 -1.375802768391802600e+00 -1.005652492322478032e-03 0.000000000000000000e+00 0.000000000000000000e+00 0.000000000000000000e+00 0.000000000000000000e+00 0.000000000000000000e+00
-9.046478181585637657e-01 -1.499904713931454747e+00 6.364888733093500006e-01 -1.375802768391802600e+00 -1.005652492322478032e-03 0.000000000000000000e+00 0.000000000000000000e+00 0.000000000000000000e+00 0.000000000000000000e+00 0.000000000000000000e+00
-9.046478181585637657e-01 -1.499904713931454747e+00 6.364888733093500006e-01 -1.375802768391802600e+00 -1.005652492322478032e-03 0.000000000000000000e+00 0.000000000000000000e+00 0.000000000000000000e+00 0.000000000000000000e+00 0.000000000000000000e+00
-9.046478181585637657e-01 -1.499904713931454747e+00 6.364888733093500006e-01 -1.375802768391802600e+00 -1.005652492322478032e-03 0.000000000000000000e+00 0.000000000000000000e+00 0.000000000000000000e+00 0.000000000000000000e+00 0.000000000000000000e+00
-9.046478181585637657e-01 -1.499904713931454747e+00 6.364888733093500006e-01 -1.375802768391802600e+00 -1.005652492322478032e-03 0.000000000000000000e+00 0.000000000000000000e+00 0.000000000000000000e+00 0.000000000000000000e+00 0.000000000000000000e+00
-9.046478181585637657e-01 -1.499904713931454747e+00 6.364888733093500006e-01 -1.375802768391802600e+00 -1.005652492322478032e-03 0.000000000000000000e+00 0.000000000000000000e+00 0.000000000000000000e+00 0.000000000000000000e+00 0.000000000000000000e+00
-9.046478181585637657e-01 -1.499904713931454747e+00 6.364888733093500006e-01 -1.375802768391802600e+00 -1.005652492322478032e-03 0.000000000000000000e+00 0.000000000000000000e+00 0.000000000000000000e+00 0.000000000000000000e+00 0.000000000000000000e+00
-9.046478181585637657e-01 -1.499904713931454747e+00 6.364888733093500006e-01 -1.375802768391802600e+00 -1.005652492322478032e-03 0.000000000000000000e+00 0.000000000000000000e+00 0.000000000000000000e+00 0.000000000000000000e+00 0.000000000000000000e+00
-9.046478181585637657e-01 -1.499904713931454747e+00 6.364888733093500006e-01 -1.375802768391802600e+00 -1.005652492322478032e-03 0.000000000000000000e+00 0.000000000000000000e+00 0.000000000000000000e+00 0.000000000000000000e+00 0.000000000000000000e+00
-9.046478181585637657e-01 -1.499904713931454747e+00 6.364888733093500006e-01 -1.375802768391802600e+00 -1.005652492322478032e-03 0.000000000000000000e+00 0.000000000000000000e+00 0.000000000000000000e+00 0.000000000000000000e+00 0.000000000000000000e+00
-9.046478181585637657e-01 -1.499904713931454747e+00 6.364888733093500006e-01 -1.375802768391802600e+00 -1.005652492322478032e-03 0.000000000000000000e+00 0.000000000000000000e+00 0.000000000000000000e+00 0.000000000000000000e+00 0.000000000000000000e+00
-9.046478181585637657e-01 -1.499904713931454747e+00 6.364888733093500006e-01 -1.375802768391802600e+00 -1.005652492322478032e-03 0.000000000000000000e+00 0.000000000000000000e+00 0.000000000000000000e+00 0.000000000000000000e+00 0.000000000000000000e+00
-9.046478181585637657e-01 -1.499904713931454747e+00 6.364888733093500006e-01 -1.375802768391802600e+00 -1.005652492322478032e-03 0.000000000000000000e+00 0.000000000000000000e+00 0.000000000000000000e+00 0.000000000000000000e+00 0.000000000000000000e+00
-9.046478181585637657e-01 -1.499904713931454747e+00 6.364888733093500006e-01 -1.375802768391802600e+00 -1.005652492322478032e-03 0.000000000000000000e+00 0.000000000000000000e+00 0.000000000000000000e+00 0.000000000000000000e+00 0.000000000000000000e+00
-9.046478181585637657e-01 -1.499904713931454747e+00 6.364888733093500006e-01 -1.375802768391802600e+00 -1.005652492322478032e-03 0.000000000000000000e+00 0.000000000000000000e+00 0.000000000000000000e+00 0.000000000000000000e+00 0.000000000000000000e+00
-9.046478181585637657e-01 -1.499904713931454747e+00 6.364888733093500006e-01 -1.375802768391802600e+00 -1.005652492322478032e-03 0.000000000000000000e+00 0.000000000000000000e+00 0.000000000000000000e+00 0.000000000000000000e+00 0.000000000000000000e+00
-9.046478181585637657e-01 -1.499904713931454747e+00 6.364888733093500006e-01 -1.375802768391802600e+00 -1.005652492322478032e-03 0.000000000000000000e+00 0.000000000000000000e+00 0.000000000000000000e+00 0.000000000000000000e+00 0.000000000000000000e+00
-9.046478181585637657e-01 -1.499904713931454747e+00 6.364888733093500006e-01 -1.375802768391802600e+00 -1.005652492322478032e-03 0.000000000000000000e+00 0.000000000000000000e+00 0.000000000000000000e+00 0.000000000000000000e+00 0.000000000000000000e+00
-9.046478181585637657e-01 -1.499904713931454747e+00 6.364888733093500006e-01 -1.375802768391802600e+00 -1.005652492322478032e-03 0.000000000000000000e+00 0.000000000000000000e+00 0.000000000000000000e+00 0.000000000000000000e+00 0.000000000000000000e+00
-9.046478181585637657e-01 -1.499904713931454747e+00 6.364888733093500006e-01 -1.375802768391802600e+00 -1.005652492322478032e-03 0.000000000000000000e+00 0.000000000000000000e+00 0.000000000000000000e+00 0.000000000000000000e+00 0.000000000000000000e+00
-9.046478181585637657e-01 -1.499904713931454747e+00 6.364888733093500006e-01 -1.375802768391802600e+00 -1.005652492322478032e-03 0.000000000000000000e+00 0.000000000000000000e+00 0.000000000000000000e+00 0.000000000000000000e+00 0.000000000000000000e+00
-9.046478181585637657e-01 -1.499904713931454747e+00 6.364888733093500006e-01 -1.375802768391802600e+00 -1.005652492322478032e-03 0.000000000000000000e+00 0.000000000000000000e+00 0.000000000000000000e+00 0.000000000000000000e+00 0.000000000000000000e+00
-9.046478181585637657e-01 -1.499904713931454747e+00 6.364888733093500006e-01 -1.375802768391802600e+00 -1.005652492322478032e-03 0.000000000000000000e+00 0.000000000000000000e+00 0.000000000000000000e+00 0.000000000000000000e+00 0.000000000000000000e+00
-9.046478181585637657e-01 -1.499904713931454747e+00 6.364888733093500006e-01 -1.375802768391802600e+00 -1.005652492322478032e-03 0.000000000000000000e+00 0.000000000000000000e+00 0.000000000000000000e+00 0.000000000000000000e+00 0.000000000000000000e+00
-9.046478181585637657e-01 -1.499904713931454747e+00 6.364888733093500006e-01 -1.375802768391802600e+00 -1.005652492322478032e-03 0.000000000000000000e+00 0.000000000000000000e+00 0.000000000000000000e+00 0.000000000000000000e+00 0.000000000000000000e+00
-9.046478181585637657e-01 -1.499904713931454747e+00 6.364888733093500006e-01 -1.375802768391802600e+00 -1.005652492322478032e-03 0.000000000000000000e+00 0.000000000000000000e+00 0.000000000000000000e+00 0.000000000000000000e+00 0.000000000000000000e+00
-9.046478181585637657e-01 -1.499904713931454747e+00 6.364888733093500006e-01 -1.375802768391802600e+00 -1.005652492322478032e-03 0.000000000000000000e+00 0.000000000000000000e+00 0.000000000000000000e+00 0.000000000000000000e+00 0.000000000000000000e+00
-9.046478181585637657e-01 -1.499904713931454747e+00 6.364888733093500006e-01 -1.375802768391802600e+00 -1.005652492322478032e-03 0.000000000000000000e+00 0.000000000000000000e+00 0.000000000000000000e+00 0.000000000000000000e+00 0.000000000000000000e+00
