-1.436196788052909401e+00 -1.169931176152775532e+00 -1.510697319176112496e-01 -9.112717519730594296e-01 -4.940366504011656484e-04 -4.824863961056380379e-02 -1.270761760491208925e+00 -4.909876850492943534e-01 1.582973528442025657e+00 7.386278136310280582e-04
-1.436802607663779208e+00 -1.233557906243442526e+00 -1.747873238183476063e-01 -8.298994202944489640e-01 -4.714587877617610538e-04 -1.211639221739458511e-02 -1.272534601813339883e+00 -4.743518380147270230e-01 1.627446633572210200e+00 4.515572527880918371e-04
-1.435586203895144575e+00 -1.297139155933291432e+00 -1.981872281317808571e-01 -7.467523812892153945e-01 -4.642694959877100599e-04 2.432807537269248560e-02 -1.271624993796976577e+00 -4.679980862686651810e-01 1.662940780104672056e+00 1.437858354810194980e-04
-1.432665589715597099e+00 -1.360567555658562577e+00 -2.218817429508171402e-01 -6.621729476804119052e-01 -4.730597071210247782e-04 5.841228359094956246e-02 -1.268567994505423346e+00 -4.738902963807257729e-01 1.691588672176070673e+00 -1.758042226662940395e-04
-1.428378807522436844e+00 -1.423750186399996620e+00 -2.467214336800797880e-01 -5.764137767712338434e-01 -4.854366518025487890e-04 8.573564386320481345e-02 -1.263652614828682408e+00 -4.967938145852528464e-01 1.715183418183560349e+00 -2.475388936304799992e-04
-1.423384324731276296e+00 -1.486588859454359923e+00 -2.740153111802781094e-01 -4.896575066070981697e-01 -4.157717806874115275e-04 9.988965582321238101e-02 -1.256773461087263843e+00 -5.458775500039658723e-01 1.735125403282713696e+00 1.393297422302745446e-03
-1.418764527461920499e+00 -1.548944404160353949e+00 -3.058674741669052399e-01 -4.020478140060338434e-01 1.536878954993778921e-04 0.000000000000000000e+00 0.000000000000000000e+00 0.000000000000000000e+00 0.000000000000000000e+00 0.000000000000000000e+00
-1.418764527461920499e+00 -1.548944404160353949e+00 -3.058674741669052399e-01 -4.020478140060338434e-01 1.536878954993778921e-04 0.000000000000000000e+00 0.000000000000000000e+00 0.000000000000000000e+00 0.000000000000000000e+00 0.000000000000000000e+00
-1.418764527461920499e+00 -1.548944404160353949e+00 -3.058674741669052399e-01 -4.020478140060338434e-01 1.536878954993778921e-04 0.000000000000000000e+00 0.000000000000000000e+00 0.000000000000000000e+00 0.000000000000000000e+00 0.000000000000000000e+00
-1.418764527461920499e+00 -1.548944404160353949e+00 -3.058674741669052399e-01 -4.020478140060338434e-01 1.536878954993778921e-04 0.000000000000000000e+00 0.000000000000000000e+00 0.000000000000000000e+00 0.000000000000000000e+00 0.000000000000000000e+00
-1.418764527461920499e+00 -1.548944404160353949e+00 -3.058674741669052399e-01 -4.020478140060338434e-01 1.536878954993778921e-04 0.000000000000000000e+00 0.000000000000000000e+00 0.000000000000000000e+00 0.000000000000000000e+00 0.000000000000000000e+00
-1.418764527461920499e+00 -1.548944404160353949e+00 -3.058674741669052399e-01 -4.020478140060338434e-01 1.536878954993778921e-04 0.000000000000000000e+00 0.000000000000000000e+00 0.000000000000000000e+00 0.000000000000000000e+00 0.000000000000000000e+00
-1.418764527461920499e+00 -1.548944404160353949e+00 -3.058674741669052399e-01 -4.020478140060338434e-01 1.536878954993778921e-04 0.000000000000000000e+00 0.000000000000000000e+00 0.000000000000000000e+00 0.000000000000000000e+00 0.000000000000000000e+00
-1.418764527461920499e+00 -1.548944404160353949e+00 -3.058674741669052399e-01 -4.020478140060338434e-01 1.536878954993778921e-04 0.000000000000000000e+00 0.000000000000000000e+00 0.000000000000000000e+00 0.000000000000000000e+00 0.000000000000000000e+00
-1.418764527461920499e+00 -1.548944404160353949e+00 -3.058674741669052399e-01 -4.020478140060338434e-01 1.536878954993778921e-04 0.000000000000000000e+00 0.000000000000000000e+00 0.000000000000000000e+00 0.000000000000000000e+00 0.000000000000000000e+00
-1.418764527461920499e+00 -1.548944404160353949e+00 -3.058674741669052399e-01 -4.020478140060338434e-01 1.536878954993778921e-04 0.000000000000000000e+00 0.000000000000000000e+00 0.000000000000000000e+00 0.000000000000000000e+00 0.000000000000000000e+00
-1.418764527461920499e+00 -1.548944404160353949e+00 -3.058674741669052399e-01 -4.020478140060338434e-01 1.536878954993778921e-04 0.000000000000000000e+00 0.000000000000000000e+00 0.000000000000000000e+00 0.000000000000000000e+00 0.000000000000000000e+00
-1.418764527461920499e+00 -1.548944404160353949e+00 -3.058674741669052399e-01 -4.020478140060338434e-01 1.536878954993778921e-04 0.000000000000000000e+00 0.000000000000000000e+00 0.000000000000000000e+00 0.000000000000000000e+00 0.000000000000000000e+00
-1.418764527461920499e+00 -1.548944404160353949e+00 -3.058674741669052399e-01 -4.020478140060338434e-01 1.536878954993778921e-04 0.000000000000000000e+00 0.000000000000000000e+00 0.000000000000000000e+00 0.000000000000000000e+00 0.000000000000000000e+00
-1.418764527461920499e+00 -1.548944404160353949e+00 -3.058674741669052399e-01 -4.020478140060338434e-01 1.536878954993778921e-04 0.000000000000000000e+00 0.000000000000000000e+00 0.000000000000000000e+00 0.000000000000000000e+00 0.000000000000000000e+00
-1.418764527461920499e+00 -1.548944404160353949e+00 -3.058674741669052399e-01 -4.020478140060338434e-01 1.536878954993778921e-04 0.000000000000000000e+00 0.000000000000000000e+00 0.000000000000000000e+00 0.000000000000000000e+00 0.000000000000000000e+00
-1.418764527461920499e+00 -1.548944404160353949e+00 -3.058674741669052399e-01 -4.020478140060338434e-01 1.536878954993778921e-04 0.000000000000000000e+00 0.000000000000000000e+00 0.000000000000000000e+00 0.000000000000000000e+00 0.000000000000000000e+00
-1.418764527461920499e+00 -1.548944404160353949e+00 -3.058674741669052399e-01 -4.020478140060338434e-01 1.536878954993778921e-04 0.000000000000000000e+00 0.000000000000000000e+00 0.000000000000000000e+00 0.000000000000000000e+00 0.000000000000000000e+00
-1.418764527461920499e+00 -1.548944404160353949e+00 -3.058674741669052399e-01 -4.020478140060338434e-01 1.536878954993778921e-04 0.000000000000000000e+00 0.000000000000000000e+00 0.000000000000000000e+00 0.000000000000000000e+00 0.000000000000000000e+00
-1.418764527461920499e+00 -1.548944404160353949e+00 -3.058674741669052399e-01 -4.020478140060338434e-01 1.536878954993778921e-04 0.000000000000000000e+00 0.000000000000000000e+00 0.000000000000000000e+00 0.000000000000000000e+00 0.000000000000000000e+00
-1.418764527461920499e+00 -1.548944404160353949e+00 -3.058674741669052399e-01 -4.020478140060338434e-01 1.536878954993778921e-04 0.000000000000000000e+00 0.000000000000000000e+00 0.000000000000000000e+00 0.000000000000000000e+00 0.000000000000000000e+00
-1.418764527461920499e+00 -1.548944404160353949e+00 -3.058674741669052399e-01 -4.020478140060338434e-01 1.536878954993778921e-04 0.000000000000000000e+00 0.000000000000000000e+00 0.000000000000000000e+00 0.000000000000000000e+00 0.000000000000000000e+00
-1.418764527461920499e+00 -1.548944404160353949e+00 -3.058674741669052399e-01 -4.020478140060338434e-01 1.536878954993778921e-04 0.000000000000000000e+00 0.000000000000000000e+00 0.000000000000000000e+00 0.000000000000000000e+00 0.000000000000000000e+00
-1.418764527461920499e+00 -1.548944404160353949e+00 -3.058674741669052399e-01 -4.020478140060338434e-01 1.536878954993778921e-04 0.000000000000000000e+00 0.000000000000000000e+00 0.000000000000000000e+00 0.000000000000000000e+00 0.000000000000000000e+00
-1.418764527461920499e+00 -1.548944404160353949e+00 -3.058674741669052399e-01 -4.020478140060338434e-01 1.536878954993778921e-04 0.000000000000000000e+00 0.000000000000000000e+00 0.000000000000000000e+00 0.000000000000000000e+00 0.000000000000000000e+00
-1.418764527461920499e+00 -1.548944404160353949e+00 -3.058674741669052399e-01 -4.020478140060338434e-01 1.536878954993778921e-04 0.000000000000000000e+00 0.000000000000000000e+00 0.000000000000000000e+00 0.000000000000000000e+00 0.000000000000000000e+00
