-5.652473457321439687e-01 3.107456190801739793e-02 5.518129095301761433e-01 -2.058076132221196008e+00 -1.009228456129858311e-03 1.182600343433127671e-01 -6.967447298987791138e-01 -1.713188816168489947e-01 3.092018237191017649e-01 8.024994405423585087e-05
-5.589099413231224389e-01 -4.842020394494814250e-03 5.450454079359533521e-01 -2.039149267377629915e+00 -1.002669172451339753e-03 1.267480881804299575e-01 -7.183316460502441325e-01 -1.353500318844566008e-01 3.785372968713237585e-01 1.311856735703692653e-04
-5.522508538274516487e-01 -4.161663526610884234e-02 5.399943380447472796e-01 -2.017337243767545640e+00 -9.891540168531663332e-04 1.331817499134162752e-01 -7.354922974322806173e-01 -1.010213978241223387e-01 4.362404722016892666e-01 2.703031119634695324e-04
-5.453616102281109157e-01 -7.904436884672830232e-02 5.365326707443973664e-01 -1.993211390890149426e+00 -9.682756521883866246e-04 1.377848719868154104e-01 -7.485546716123891997e-01 -6.923334600699918018e-02 4.825170575479262314e-01 4.175672932955940106e-04
-5.383181558469569694e-01 -1.169451155496542966e-01 5.345146724337977995e-01 -1.967292171770613551e+00 -9.422397871241580507e-04 1.408690876230792866e-01 -7.580149340585199402e-01 -4.035996621199032519e-02 5.183843823907182680e-01 5.207173012845716948e-04
-5.311804336573934249e-01 -1.551670946744099777e-01 5.337905709251675734e-01 -1.940031042510805603e+00 -9.134530134525443599e-04 1.427544437912715014e-01 -7.644395824951136786e-01 -1.448203017260350778e-02 5.452225851961581826e-01 5.757354734322728393e-04
-5.239929884720657682e-01 -1.935879672970483578e-01 5.342182880736122685e-01 -1.911803533068560546e+00 -8.836322153528619258e-04 1.437489037065522168e-01 -7.684174524527673800e-01 8.554342968893832722e-03 5.645501888448998251e-01 5.964159619936488990e-04
-5.167859779897789885e-01 -2.321144308541508994e-01 5.356711826443927293e-01 -1.882908481020996172e+00 -8.536930984760427365e-04 1.441402096457365944e-01 -7.705292711420509422e-01 2.905789141560902525e-02 5.779010409512876922e-01 5.987823375363829186e-04
-5.095765000707497272e-01 -2.706805569954728319e-01 5.380421386967366715e-01 -1.853572018703986357e+00 -8.239168400259974960e-04 1.441895583805860859e-01 -7.713225228264382061e-01 4.741912104687831531e-02 5.867292463401945213e-01 5.955251690009040521e-04
-5.023703416546787537e-01 -3.092450040203592598e-01 5.412442863998454534e-01 -1.823955739327677517e+00 -7.944060263276583661e-04 1.441231683214183878e-01 -7.712889404977284480e-01 6.404295406217568043e-02 5.923255875261752568e-01 5.902162739667835738e-04
-4.951632131609650100e-01 -3.477881978046567513e-01 5.452110026934792186e-01 -1.794163675694762761e+00 -7.651593449386132192e-04 1.441425698742752060e-01 -7.708638756859491625e-01 7.933432587267565117e-02 5.958412726582972274e-01 5.849336277809019614e-04
-4.879417411550473482e-01 -3.863093838303375271e-01 5.498952377249710644e-01 -1.764249229748971581e+00 -7.359597547029471691e-04 1.444294401183527365e-01 -7.704237205136149624e-01 9.368470062983588753e-02 5.982889189158219212e-01 5.839918047133204606e-04
-4.806840930067556306e-01 -4.248236931460006027e-01 5.552689568942774656e-01 -1.734221457205602945e+00 -7.053017044328787569e-04 1.451529629658345200e-01 -7.702861863132618447e-01 1.074743833861280390e-01 6.005554508673747183e-01 6.131610054013688933e-04
-4.733602606823836267e-01 -4.633592371094819029e-01 5.613228563611543098e-01 -1.704050797058144884e+00 -6.658841247192640467e-04 1.464766464874396046e-01 -7.707108792696256705e-01 1.210779893375368704e-01 6.034132029491594551e-01 7.883515942722943122e-04
-4.659321235948368778e-01 -5.019541494139855287e-01 5.680661261771910997e-01 -1.673674552666692072e+00 -5.865364681276299995e-04 0.000000000000000000e+00 0.000000000000000000e+00 0.000000000000000000e+00 0.000000000000000000e+00 0.000000000000000000e+00
-4.659321235948368778e-01 -5.019541494139855287e-01 5.680661261771910997e-01 -1.673674552666692072e+00 -5.865364681276299995e-04 0.000000000000000000e+00 0.000000000000000000e+00 0.000000000000000000e+00 0.000000000000000000e+00 0.000000000000000000e+00
-4.659321235948368778e-01 -5.019541494139855287e-01 5.680661261771910997e-01 -1.673674552666692072e+00 -5.865364681276299995e-04 0.000000000000000000e+00 0.000000000000000000e+00 0.000000000000000000e+00 0.000000000000000000e+00 0.000000000000000000e+00
-4.659321235948368778e-01 -5.019541494139855287e-01 5.680661261771910997e-01 -1.673674552666692072e+00 -5.865364681276299995e-04 0.000000000000000000e+00 0.000000000000000000e+00 0.000000000000000000e+00 0.000000000000000000e+00 0.000000000000000000e+00
-4.659321235948368778e-01 -5.019541494139855287e-01 5.680661261771910997e-01 -1.673674552666692072e+00 -5.865364681276299995e-04 0.000000000000000000e+00 0.000000000000000000e+00 0.000000000000000000e+00 0.000000000000000000e+00 0.000000000000000000e+00
-4.659321235948368778e-01 -5.019541494139855287e-01 5.680661261771910997e-01 -1.673674552666692072e+00 -5.865364681276299995e-04 0.000000000000000000e+00 0.000000000000000000e+00 0.000000000000000000e+00 0.000000000000000000e+00 0.000000000000000000e+00
-4.659321235948368778e-01 -5.019541494139855287e-01 5.680661261771910997e-01 -1.673674552666692072e+00 -5.865364681276299995e-04 0.000000000000000000e+00 0.000000000000000000e+00 0.000000000000000000e+00 0.000000000000000000e+00 0.000000000000000000e+00
-4.659321235948368778e-01 -5.019541494139855287e-01 5.680661261771910997e-01 -1.673674552666692072e+00 -5.865364681276299995e-04 0.000000000000000000e+00 0.000000000000000000e+00 0.000000000000000000e+00 0.000000000000000000e+00 0.000000000000000000e+00
-4.659321235948368778e-01 -5.019541494139855287e-01 5.680661261771910997e-01 -1.673674552666692072e+00 -5.865364681276299995e-04 0.000000000000000000e+00 0.000000000000000000e+00 0.000000000000000000e+00 0.000000000000000000e+00 0.000000000000000000e+00
-4.659321235948368778e-01 -5.019541494139855287e-01 5.680661261771910997e-01 -1.673674552666692072e+00 -5.865364681276299995e-04 0.000000000000000000e+00 0.000000000000000000e+00 0.000000000000000000e+00 0.000000000000000000e+00 0.000000000000000000e+00
-4.659321235948368778e-01 -5.019541494139855287e-01 5.680661261771910997e-01 -1.673674552666692072e+00 -5.865364681276299995e-04 0.000000000000000000e+00 0.000000000000000000e+00 0.000000000000000000e+00 0.000000000000000000e+00 0.000000000000000000e+00
-4.659321235948368778e-01 -5.019541494139855287e-01 5.680661261771910997e-01 -1.673674552666692072e+00 -5.865364681276299995e-04 0.000000000000000000e+00 0.000000000000000000e+00 0.000000000000000000e+00 0.000000000000000000e+00 0.000000000000000000e+00
-4.659321235948368778e-01 -5.019541494139855287e-01 5.680661261771910997e-01 -1.673674552666692072e+00 -5.865364681276299995e-04 0.000000000000000000e+00 0.000000000000000000e+00 0.000000000000000000e+00 0.000000000000000000e+00 0.000000000000000000e+00
-4.659321235948368778e-01 -5.019541494139855287e-01 5.680661261771910997e-01 -1.673674552666692072e+00 -5.865364681276299995e-04 0.000000000000000000e+00 0.000000000000000000e+00 0.000000000000000000e+00 0.000000000000000000e+00 0.000000000000000000e+00
-4.659321235948368778e-01 -5.019541494139855287e-01 5.680661261771910997e-01 -1.673674552666692072e+00 -5.865364681276299995e-04 0.000000000000000000e+00 0.000000000000000000e+00 0.000000000000000000e+00 0.000000000000000000e+00 0.000000000000000000e+00
-4.659321235948368778e-01 -5.019541494139855287e-01 5.680661261771910997e-01 -1.673674552666692072e+00 -5.865364681276299995e-04 0.000000000000000000e+00 0.000000000000000000e+00 0.000000000000000000e+00 0.000000000000000000e+00 0.000000000000000000e+00
-4.659321235948368778e-01 -5.019541494139855287e-01 5.680661261771910997e-01 -1.673674552666692072e+00 -5.865364681276299995e-04 0.000000000000000000e+00 0.000000000000000000e+00 0.000000000000000000e+00 0.000000000000000000e+00 0.000000000000000000e+00
