-3.100281195386718758e-01 -5.245445815042459881e-01 1.099901669624833600e+00 -9.465368076619784521e-01 4.380121044473976643e-04 -1.897025369197862521e-01 -1.019936451344356232e-01 -3.609491080343339431e-01 -4.919565036213461307e-01 4.703249074346896319e-03
-3.229156489241865602e-01 -5.325443811590490073e-01 1.075864915799899846e+00 -9.800782181915357327e-01 6.425624853768493409e-04 -2.577505877102939102e-01 -1.599959930960612453e-01 -4.807350764986748626e-01 -6.708282105911448356e-01 4.091007618589033099e-03
-3.384848797409073518e-01 -5.435995382923560770e-01 1.047364182568020441e+00 -1.020414516452389231e+00 7.875433121408462970e-04 -3.113846163344162199e-01 -2.211031426661417831e-01 -5.700146646375879866e-01 -8.067259652170678530e-01 2.899616535279937388e-03
-3.561289965169718852e-01 -5.578130883712003607e-01 1.015544696994897134e+00 -1.065442250803239066e+00 8.596302118376088772e-04 -3.528823355212908908e-01 -2.842710015768863396e-01 -6.363897114624667006e-01 -9.005546870169961471e-01 1.441737993935251171e-03
-3.753394712598547844e-01 -5.752380898913398433e-01 9.812388082606380291e-01 -1.113123082559426935e+00 8.549111446772103984e-04 -3.842094948576577629e-01 -3.485000304027898732e-01 -6.861177746851826464e-01 -9.536166351237582717e-01 -9.438134320797065928e-05
-3.956884927634937155e-01 -5.958779709258689161e-01 9.450561771513934506e-01 -1.161516661421597041e+00 7.767164171194338232e-04 -4.069804300727785096e-01 -4.127976206905811241e-01 -7.236526221848926799e-01 -9.678715772434008935e-01 -1.563894551155532156e-03
-4.168129835259199445e-01 -6.196885272049292848e-01 9.074751967696742527e-01 -1.208819216961785736e+00 6.345826941094536875e-04 -4.224898152485243585e-01 -4.762111255812079835e-01 -7.516196076343849564e-01 -9.460511108037750194e-01 -2.842674460199602713e-03
-4.384039880366150665e-01 -6.465820305612579588e-01 8.689191851479088902e-01 -1.253409409610061198e+00 4.427581604467834822e-04 -4.318200902139026631e-01 -5.378700671265729261e-01 -7.711202324353065851e-01 -8.918038529655085700e-01 -3.836490673253404107e-03
-4.601995319980997090e-01 -6.764338714242924544e-01 8.298098683622314731e-01 -1.293887145410449246e+00 2.185303287499616709e-04 -4.359108792296922386e-01 -5.970368172606906887e-01 -7.821863357135486750e-01 -8.095547160077619653e-01 -4.484556633936436117e-03
-4.819797821953907269e-01 -7.090909685824323683e-01 7.905963746523011482e-01 -1.329099753902444059e+00 -1.969105704351933406e-05 -4.356050039458197465e-01 -6.531419431627989436e-01 -7.842698741986068312e-01 -7.042521698398956920e-01 -4.764427715869619558e-03
-5.035635478723882175e-01 -7.443806223930455879e-01 7.517615740012675296e-01 -1.358153659684512737e+00 -2.543046358383433043e-04 -4.316753135399506447e-01 -7.057930762122632817e-01 -7.766960130206711499e-01 -5.810781156413725723e-01 -4.692271575896479405e-03
-5.248052875056332667e-01 -7.821185431745314443e-01 7.138104131151897791e-01 -1.380411875849657299e+00 -4.701036250422000536e-04 -4.248347926649000961e-01 -7.547584156297167945e-01 -7.590232177215540110e-01 -4.451643233028926838e-01 -4.315979784077134986e-03
-5.455920453893630118e-01 -8.221152651100612774e-01 6.772467291574471027e-01 -1.395479793113249656e+00 -6.554302582890013298e-04 -4.157351576745945687e-01 -7.999344387105963294e-01 -7.312736791548530846e-01 -3.013583452718470168e-01 -3.706532664936026174e-03
-5.658410998410455806e-01 -8.641800478495593740e-01 6.425433484487075297e-01 -1.403184687073549153e+00 -8.027748410697560727e-04 -4.049810890336512093e-01 -8.412956547899618220e-01 -6.940676141747910144e-01 -1.540978792059885805e-01 -2.946891655615093992e-03
-5.854971258027275027e-01 -9.081230206044520470e-01 6.101137381534315063e-01 -1.403549347390946611e+00 -9.088170071038569140e-04 -3.931205192336392207e-01 -8.788594550978527931e-01 -6.485922059055194699e-01 -7.293206347947639445e-03 -2.120843320682017259e-03
-6.045279271287673506e-01 -9.537568347506631961e-01 5.802916267082837143e-01 -1.396760047558920581e+00 -9.741558895974775914e-04 -3.806160265207972349e-01 -9.126762829242218711e-01 -5.964422289029566171e-01 1.357859966405204066e-01 -1.306777649872414414e-03
-6.229206795747872505e-01 -1.000897767783199388e+00 5.533185323377811660e-01 -1.383135270966104668e+00 -1.003631368990639313e-03 -3.678550489203976648e-01 -9.428186606507258372e-01 -5.394618874100506334e-01 2.724955318563188067e-01 -5.895095878632339997e-04
-6.406782979272296341e-01 -1.049367315362864206e+00 5.293406569139720297e-01 -1.363093803244302071e+00 -1.009401438288721553e-03 -3.551523670488468953e-01 -9.693909515932956911e-01 -4.795575084761822260e-01 4.008293544360514993e-01 -1.154013859616428560e-04
-6.578164844133799205e-01 -1.098994353949637404e+00 5.084139708935443425e-01 -1.337124676335338158e+00 -1.005298825709322920e-03 -3.427637297230067270e-01 -9.925407717354636228e-01 -4.185337204085540774e-01 5.193825381792767093e-01 8.205225158797107101e-05
-6.743611526867260286e-01 -1.149617922974606188e+00 4.905160054067150277e-01 -1.305758954994742593e+00 -9.898733012703687332e-04 -3.308933654669227731e-01 -1.012471380499374130e+00 -3.579593097365862397e-01 6.273144268119125178e-01 3.085104887790844934e-04
-6.903466329192342599e-01 -1.201090313575406965e+00 4.755609943655058069e-01 -1.269544271153639547e+00 -9.496942474203890318e-04 -3.197096046501649025e-01 -1.029447812016013541e+00 -2.991002208241846372e-01 7.242936768220616939e-01 8.035810769995935937e-04
-7.058154417546449455e-01 -1.253279179936338306e+00 4.634149147175921080e-01 -1.229026578673200198e+00 -9.003314204812168852e-04 -3.093761767082144898e-01 -1.043777327218625706e+00 -2.429215929582737021e-01 8.103538496087892007e-01 9.872565387834424978e-04
-7.208194478427126795e-01 -1.306068145413360471e+00 4.539081157365908448e-01 -1.184739834340326592e+00 -8.497743649425706014e-04 -3.000801217613547345e-01 -1.055779309540445077e+00 -1.901359796200255969e-01 8.857348866574734636e-01 1.011141110772925027e-03
-7.354179626664689717e-01 -1.359357251044541082e+00 4.468494915729935291e-01 -1.137194674792237459e+00 -8.037635716191223519e-04 -2.919702964751251240e-01 -1.065782112623613997e+00 -1.411724832719461198e-01 9.509031909617817746e-01 9.202158664689650972e-04
-7.496738829980297281e-01 -1.413063180554784637e+00 4.420386370975648571e-01 -1.086865102363274938e+00 -7.668291124241888952e-04 -2.851184066312144050e-01 -1.074118590204868884e+00 -9.621708950857382758e-02 1.006591448579249093e+00 7.386891838986685927e-04
-7.636424936300989508e-01 -1.467120161599864359e+00 4.392845282873767410e-01 -1.034172411269578484e+00 -7.432770447392233722e-04 -2.793722126413851758e-01 -1.081139620901595988e+00 -5.508217620376285040e-02 1.053853821873927732e+00 4.710413536993108392e-04
-7.773572122151718444e-01 -1.521479478630722415e+00 4.384261646084075537e-01 -9.794781890771110389e-01 -7.412210945672798122e-04 -2.742943717014585392e-01 -1.087186340617162461e+00 -1.716727357938374610e-02 1.093884443849348909e+00 4.111900343887206835e-05
-7.908136027264949242e-01 -1.576108307682271725e+00 4.393559570531858638e-01 -9.230847229200306314e-01 -7.891315485198587562e-04 -2.691278102264623717e-01 -1.092576581030984428e+00 1.859584889556566839e-02 1.127869323141608593e+00 -9.582090790515786650e-04
-8.039582937253397787e-01 -1.630988536408507050e+00 4.420400644989205263e-01 -8.652388155769779043e-01 -1.001301288031996271e-03 0.000000000000000000e+00 0.000000000000000000e+00 0.000000000000000000e+00 0.000000000000000000e+00 0.000000000000000000e+00
-8.039582937253397787e-01 -1.630988536408507050e+00 4.420400644989205263e-01 -8.652388155769779043e-01 -1.001301288031996271e-03 0.000000000000000000e+00 0.000000000000000000e+00 0.000000000000000000e+00 0.000000000000000000e+00 0.000000000000000000e+00
-8.039582937253397787e-01 -1.630988536408507050e+00 4.420400644989205263e-01 -8.652388155769779043e-01 -1.001301288031996271e-03 0.000000000000000000e+00 0.000000000000000000e+00 0.000000000000000000e+00 0.000000000000000000e+00 0.000000000000000000e+00
