-7.828552243199090599e-01 -3.728631659752374983e-01 1.791537706458655066e+00 -1.732621506697955838e-01 0.000000000000000000e+00 -6.863889470252950049e-04 -7.394183915409528046e-04 1.002498928093516900e-02 3.449105346741494944e-04 0.000000000000000000e+00
-8.070946037507816806e-01 -3.802591042221293294e-01 1.713113787218520701e+00 -2.110830921760047940e-01 2.558893546185792684e-04 -4.847875886174530247e-01 -1.479187649378364555e-01 -1.568478384802686421e+00 -7.564188301241838719e-01 5.117787092371584717e-03
-8.505353364324449439e-01 -3.907284954477374117e-01 1.577603745712277572e+00 -2.823624360532069888e-01 7.184401980320747737e-04 -8.688146536332652659e-01 -2.093878245121617021e-01 -2.710200830124862570e+00 -1.425586877544043896e+00 9.251016868269908155e-03
-9.067610965122607780e-01 -3.982254094534428135e-01 1.410348557445035844e+00 -3.832812441509587664e-01 1.201763886597243761e-03 -1.124515201596316238e+00 -1.499382801141079247e-01 -3.345103765344834557e+00 -2.018376161955035553e+00 9.666473771303380619e-03
-9.677387098283218858e-01 -3.998221220734968218e-01 1.237877335272406842e+00 -5.090894059382264913e-01 1.476241923845022716e-03 -1.219552266321221268e+00 -3.193425240108062335e-02 -3.449424443452579592e+00 -2.516163235745353166e+00 5.489560744955578227e-03
-1.026643071460298984e+00 -3.974789131742427206e-01 1.079851349427352503e+00 -6.520529249931408255e-01 1.503100392373578342e-03 -1.178087232639542181e+00 4.686417798508238364e-02 -3.160519716901088572e+00 -2.859270381098285352e+00 5.371693705711133929e-04
-1.080203945204436522e+00 -3.955723481014322696e-01 9.433016299703552709e-01 -8.015698994103018782e-01 1.359226625094053396e-03 -1.071217474882748766e+00 3.813130145620934053e-02 -2.730994389139944190e+00 -2.990339488343220165e+00 -2.877475345590500225e-03
-1.127954759451934574e+00 -3.977093901222971128e-01 8.256388648240315931e-01 -9.469732065871948601e-01 1.126852854488936441e-03 -9.550162849499593820e-01 -4.274084041729711569e-02 -2.353255302926473558e+00 -2.908066143537859638e+00 -4.647475412102337368e-03
-1.170413548911511503e+00 -4.057695490815594885e-01 7.212857782059401979e-01 -1.079920118267267082e+00 7.621395468484171371e-04 -8.491757891915394652e-01 -1.612031791852479301e-01 -2.087061732361828348e+00 -2.658938233601442214e+00 -7.294266152810385644e-03
-1.208148267728473613e+00 -4.203951193455023327e-01 6.256424921756109647e-01 -1.194894764649439667e+00 2.690176840945458520e-04 -7.546943763392401916e-01 -2.925114052788572727e-01 -1.912865720606584663e+00 -2.299492927643452589e+00 -9.862437255077426135e-03
-1.241595779691281320e+00 -4.415966697394081986e-01 5.360805659297517289e-01 -1.288752262990955799e+00 -2.356766560238988169e-04 -6.689502392561528232e-01 -4.240310078781177605e-01 -1.791238524917184272e+00 -1.877149966830323979e+00 -1.009388680236889511e-02
-1.271114255067971710e+00 -4.691058252896048164e-01 4.516481694107036815e-01 -1.360158234306118263e+00 -6.533294573914304139e-04 -5.903695075338090126e-01 -5.501831110039326900e-01 -1.688647930380960505e+00 -1.428119426303250394e+00 -8.353056027350631504e-03
-1.297049677955367519e+00 -5.025311833361491010e-01 3.724526339408471554e-01 -1.409148455644029463e+00 -9.245846490423847205e-04 -5.187084577479184055e-01 -6.685071609308861351e-01 -1.583910709397130301e+00 -9.798044267582233235e-01 -5.425103833019086566e-03
-1.319767395613853145e+00 -5.414101625884747415e-01 2.990614076879850591e-01 -1.436781000982060075e+00 -1.037489608871247420e-03 -4.543543531697119553e-01 -7.775795850465127002e-01 -1.467824525057241480e+00 -5.526509067606104608e-01 -2.258099196577252697e-03
-1.339648767533076379e+00 -5.852192220408117818e-01 2.320420142653664419e-01 -1.444830135601375742e+00 -1.057371321462102689e-03 -3.976274383844634608e-01 -8.761811890467410269e-01 -1.340387868452372011e+00 -1.609826923863151293e-01 -3.976342518171049369e-04
-1.357066595073371129e+00 -6.333795252987589608e-01 1.716859866952152036e-01 -1.435502630684897030e+00 -1.046639178287698656e-03 -3.483565508058945048e-01 -9.632060651589441358e-01 -1.207120551403024988e+00 1.865500983295763637e-01 2.146428634880792391e-04
-1.372355632305991335e+00 -6.852745073994838121e-01 1.179108472970540611e-01 -1.411183333793706529e+00 -1.026081849676897285e-03 -3.057807446524039574e-01 -1.037899642014496138e+00 -1.075502787963223073e+00 4.863859378238102882e-01 4.111465722160289379e-04
-1.385789857766446920e+00 -7.402796378470035688e-01 7.029481786815780509e-02 -1.374228029423243624e+00 -9.897076758930776607e-04 -2.686845092091135201e-01 -1.100102608950396021e+00 -9.523205885779251201e-01 7.391060874092588717e-01 7.274834756763922782e-04
-1.397569341395199505e+00 -7.977971824795558886e-01 2.818486916302964662e-02 -1.326813361769639599e+00 -9.126089871155481292e-04 -2.355896725750500909e-01 -1.150350892651045509e+00 -8.421989741025630583e-01 9.482933530720785154e-01 1.541973775550590413e-03
-1.407818801893566896e+00 -8.572817627076716462e-01 -9.188988681888110577e-03 -1.270858248428319959e+00 -8.202485249043243087e-04 -2.049892099673466528e-01 -1.189691604562315819e+00 -7.474771568983550329e-01 1.119102266826391467e+00 1.847209244224476193e-03
-1.416593324741810545e+00 -9.182550486680680635e-01 -4.262214804912888011e-02 -1.207998911189071656e+00 -7.292286853272764331e-04 -1.754904569648716717e-01 -1.219465719207927457e+00 -6.686631873448154462e-01 1.257186744784965393e+00 1.820396791540957945e-03
-1.423887699082027503e+00 -9.803110111599337984e-01 -7.287435978537545878e-02 -1.139597995647114281e+00 -6.486978549772989735e-04 -1.458874868043411599e-01 -1.241119249837314920e+00 -6.050442347249316288e-01 1.368018310839147045e+00 1.610616606999548542e-03
-1.429647558824598486e+00 -1.043114218096993673e+00 -1.006363650533313586e-01 -1.066770748916638700e+00 -5.823813394294344086e-04 -1.151971948514177724e-01 -1.256064138741198599e+00 -5.552401053591179414e-01 1.456544934609509623e+00 1.326330310957291080e-03
-1.433784356072381305e+00 -1.106393088128215130e+00 -1.265203476651465264e-01 -9.904204283951607568e-01 -5.309680410827170242e-04 -8.273594495565696205e-02 -1.265577400624429583e+00 -5.176796522363030784e-01 1.527006410429558425e+00 1.028265966934346605e-03
-1.436196788052909401e+00 -1.169931176152775532e+00 -1.510697319176112496e-01 -9.112717519730594296e-01 -4.940366504011656484e-04 -4.824863961056380379e-02 -1.270761760491208925e+00 -4.909876850492943534e-01 1.582973528442025657e+00 7.386278136310280582e-04
-1.436802607663779208e+00 -1.233557906243442526e+00 -1.747873238183476063e-01 -8.298994202944489640e-01 -4.714587877617610538e-04 -1.211639221739458511e-02 -1.272534601813339883e+00 -4.743518380147270230e-01 1.627446633572210200e+00 4.515572527880918371e-04
-1.435586203895144575e+00 -1.297139155933291432e+00 -1.981872281317808571e-01 -7.467523812892153945e-01 -4.642694959877100599e-04 2.432807537269248560e-02 -1.271624993796976577e+00 -4.679980862686651810e-01 1.662940780104672056e+00 1.437858354810194980e-04
-1.432665589715597099e+00 -1.360567555658562577e+00 -2.218817429508171402e-01 -6.621729476804119052e-01 -4.730597071210247782e-04 5.841228359094956246e-02 -1.268567994505423346e+00 -4.738902963807257729e-01 1.691588672176070673e+00 -1.758042226662940395e-04
-1.428378807522436844e+00 -1.423750186399996620e+00 -2.467214336800797880e-01 -5.764137767712338434e-01 -4.854366518025487890e-04 8.573564386320481345e-02 -1.263652614828682408e+00 -4.967938145852528464e-01 1.715183418183560349e+00 -2.475388936304799992e-04
-1.423384324731276296e+00 -1.486588859454359923e+00 -2.740153111802781094e-01 -4.896575066070981697e-01 -4.157717806874115275e-04 9.988965582321238101e-02 -1.256773461087263843e+00 -5.458775500039658723e-01 1.735125403282713696e+00 1.393297422302745446e-03
