-1.407389029498757882e+00 -2.055124584498201762e-02 -2.124453272113311086e-01 -1.173407919920425702e+00 -4.620675709078534148e-04 -8.008356760868701185e-01 -6.587009436740806079e-01 1.440173285520892354e-01 1.008490509172995653e+00 -3.117119168561301862e-04
-1.447638369581504048e+00 -5.368736691486900720e-02 -2.042745974376423967e-01 -1.122248337781150962e+00 -6.287062885502630368e-04 0.000000000000000000e+00 0.000000000000000000e+00 0.000000000000000000e+00 0.000000000000000000e+00 0.000000000000000000e+00
-1.447638369581504048e+00 -5.368736691486900720e-02 -2.042745974376423967e-01 -1.122248337781150962e+00 -6.287062885502630368e-04 0.000000000000000000e+00 0.000000000000000000e+00 0.000000000000000000e+00 0.000000000000000000e+00 0.000000000000000000e+00
-1.447638369581504048e+00 -5.368736691486900720e-02 -2.042745974376423967e-01 -1.122248337781150962e+00 -6.287062885502630368e-04 0.000000000000000000e+00 0.000000000000000000e+00 0.000000000000000000e+00 0.000000000000000000e+00 0.000000000000000000e+00
-1.447638369581504048e+00 -5.368736691486900720e-02 -2.042745974376423967e-01 -1.122248337781150962e+00 -6.287062885502630368e-04 0.000000000000000000e+00 0.000000000000000000e+00 0.000000000000000000e+00 0.000000000000000000e+00 0.000000000000000000e+00
-1.447638369581504048e+00 -5.368736691486900720e-02 -2.042745974376423967e-01 -1.122248337781150962e+00 -6.287062885502630368e-04 0.000000000000000000e+00 0.000000000000000000e+00 0.000000000000000000e+00 0.000000000000000000e+00 0.000000000000000000e+00
-1.447638369581504048e+00 -5.368736691486900720e-02 -2.042745974376423967e-01 -1.122248337781150962e+00 -6.287062885502630368e-04 0.000000000000000000e+00 0.000000000000000000e+00 0.000000000000000000e+00 0.000000000000000000e+00 0.000000000000000000e+00
-1.447638369581504048e+00 -5.368736691486900720e-02 -2.042745974376423967e-01 -1.122248337781150962e+00 -6.287062885502630368e-04 0.000000000000000000e+00 0.000000000000000000e+00 0.000000000000000000e+00 0.000000000000000000e+00 0.000000000000000000e+00
-1.447638369581504048e+00 -5.368736691486900720e-02 -2.042745974376423967e-01 -1.122248337781150962e+00 -6.287062885502630368e-04 0.000000000000000000e+00 0.000000000000000000e+00 0.000000000000000000e+00 0.000000000000000000e+00 0.000000000000000000e+00
-1.447638369581504048e+00 -5.368736691486900720e-02 -2.042745974376423967e-01 -1.122248337781150962e+00 -6.287062885502630368e-04 0.000000000000000000e+00 0.000000000000000000e+00 0.000000000000000000e+00 0.000000000000000000e+00 0.000000000000000000e+00
-1.447638369581504048e+00 -5.368736691486900720e-02 -2.042745974376423967e-01 -1.122248337781150962e+00 -6.287062885502630368e-04 0.000000000000000000e+00 0.000000000000000000e+00 0.000000000000000000e+00 0.000000000000000000e+00 0.000000000000000000e+00
-1.447638369581504048e+00 -5.368736691486900720e-02 -2.042745974376423967e-01 -1.122248337781150962e+00 -6.287062885502630368e-04 0.000000000000000000e+00 0.000000000000000000e+00 0.000000000000000000e+00 0.000000000000000000e+00 0.000000000000000000e+00
-1.447638369581504048e+00 -5.368736691486900720e-02 -2.042745974376423967e-01 -1.122248337781150962e+00 -6.287062885502630368e-04 0.000000000000000000e+00 0.000000000000000000e+00 0.000000000000000000e+00 0.000000000000000000e+00 0.000000000000000000e+00
-1.447638369581504048e+00 -5.368736691486900720e-02 -2.042745974376423967e-01 -1.122248337781150962e+00 -6.287062885502630368e-04 0.000000000000000000e+00 0.000000000000000000e+00 0.000000000000000000e+00 0.000000000000000000e+00 0.000000000000000000e+00
-1.447638369581504048e+00 -5.368736691486900720e-02 -2.042745974376423967e-01 -1.122248337781150962e+00 -6.287062885502630368e-04 0.000000000000000000e+00 0.000000000000000000e+00 0.000000000000000000e+00 0.000000000000000000e+00 0.000000000000000000e+00
-1.447638369581504048e+00 -5.368736691486900720e-02 -2.042745974376423967e-01 -1.122248337781150962e+00 -6.287062885502630368e-04 0.000000000000000000e+00 0.000000000000000000e+00 0.000000000000000000e+00 0.000000000000000000e+00 0.000000000000000000e+00
-1.447638369581504048e+00 -5.368736691486900720e-02 -2.042745974376423967e-01 -1.122248337781150962e+00 -6.287062885502630368e-04 0.000000000000000000e+00 0.000000000000000000e+00 0.000000000000000000e+00 0.000000000000000000e+00 0.000000000000000000e+00
-1.447638369581504048e+00 -5.368736691486900720e-02 -2.042745974376423967e-01 -1.122248337781150962e+00 -6.287062885502630368e-04 0.000000000000000000e+00 0.000000000000000000e+00 0.000000000000000000e+00 0.000000000000000000e+00 0.000000000000000000e+00
-1.447638369581504048e+00 -5.368736691486900720e-02 -2.042745974376423967e-01 -1.122248337781150962e+00 -6.287062885502630368e-04 0.000000000000000000e+00 0.000000000000000000e+00 0.000000000000000000e+00 0.000000000000000000e+00 0.000000000000000000e+00
-1.447638369581504048e+00 -5.368736691486900720e-02 -2.042745974376423967e-01 -1.122248337781150962e+00 -6.287062885502630368e-04 0.000000000000000000e+00 0.000000000000000000e+00 0.000000000000000000e+00 0.000000000000000000e+00 0.000000000000000000e+00
-1.447638369581504048e+00 -5.368736691486900720e-02 -2.042745974376423967e-01 -1.122248337781150962e+00 -6.287062885502630368e-04 0.000000000000000000e+00 0.000000000000000000e+00 0.000000000000000000e+00 0.000000000000000000e+00 0.000000000000000000e+00
-1.447638369581504048e+00 -5.368736691486900720e-02 -2.042745974376423967e-01 -1.122248337781150962e+00 -6.287062885502630368e-04 0.000000000000000000e+00 0.000000000000000000e+00 0.000000000000000000e+00 0.000000000000000000e+00 0.000000000000000000e+00
-1.447638369581504048e+00 -5.368736691486900720e-02 -2.042745974376423967e-01 -1.122248337781150962e+00 -6.287062885502630368e-04 0.000000000000000000e+00 0.000000000000000000e+00 0.000000000000000000e+00 0.000000000000000000e+00 0.000000000000000000e+00
-1.447638369581504048e+00 -5.368736691486900720e-02 -2.042745974376423967e-01 -1.122248337781150962e+00 -6.287062885502630368e-04 0.000000000000000000e+00 0.000000000000000000e+00 0.000000000000000000e+00 0.000000000000000000e+00 0.000000000000000000e+00
-1.447638369581504048e+00 -5.368736691486900720e-02 -2.042745974376423967e-01 -1.122248337781150962e+00 -6.287062885502630368e-04 0.000000000000000000e+00 0.000000000000000000e+00 0.000000000000000000e+00 0.000000000000000000e+00 0.000000000000000000e+00
-1.447638369581504048e+00 -5.368736691486900720e-02 -2.042745974376423967e-01 -1.122248337781150962e+00 -6.287062885502630368e-04 0.000000000000000000e+00 0.000000000000000000e+00 0.000000000000000000e+00 0.000000000000000000e+00 0.000000000000000000e+00
-1.447638369581504048e+00 -5.368736691486900720e-02 -2.042745974376423967e-01 -1.122248337781150962e+00 -6.287062885502630368e-04 0.000000000000000000e+00 0.000000000000000000e+00 0.000000000000000000e+00 0.000000000000000000e+00 0.000000000000000000e+00
-1.447638369581504048e+00 -5.368736691486900720e-02 -2.042745974376423967e-01 -1.122248337781150962e+00 -6.287062885502630368e-04 0.000000000000000000e+00 0.000000000000000000e+00 0.000000000000000000e+00 0.000000000000000000e+00 0.000000000000000000e+00
-1.447638369581504048e+00 -5.368736691486900720e-02 -2.042745974376423967e-01 -1.122248337781150962e+00 -6.287062885502630368e-04 0.000000000000000000e+00 0.000000000000000000e+00 0.000000000000000000e+00 0.000000000000000000e+00 0.000000000000000000e+00
-1.447638369581504048e+00 -5.368736691486900720e-02 -2.042745974376423967e-01 -1.122248337781150962e+00 -6.287062885502630368e-04 0.000000000000000000e+00 0.000000000000000000e+00 0.000000000000000000e+00 0.000000000000000000e+00 0.000000000000000000e+00
-1.447638369581504048e+00 -5.368736691486900720e-02 -2.042745974376423967e-01 -1.122248337781150962e+00 -6.287062885502630368e-04 0.000000000000000000e+00 0.000000000000000000e+00 0.000000000000000000e+00 0.000000000000000000e+00 0.000000000000000000e+00
