-6.475282944901222804e-01 -8.830383556493655028e-01 1.048586937394949126e-01 -1.809270196849213752e+00 -9.956052545336431785e-04 -2.336797912175962999e-01 -1.574713196823979811e+00 -6.115382990501820881e-01 4.994323157462602358e-01 5.881514377110299381e-04
-6.587608035327344735e-01 -9.645728607073096317e-01 7.708640185766470199e-02 -1.772904353788467224e+00 -9.276436557036591432e-04 -2.246501808522446964e-01 -1.630690101158883687e+00 -5.554458376366042671e-01 7.273168612149298884e-01 1.359231976599680272e-03
-6.696258520620808063e-01 -1.048448877092982068e+00 5.197104363515613057e-02 -1.726124883424756451e+00 -8.314678082671600294e-04 -2.173009705869276831e-01 -1.677520327713450499e+00 -5.023071644501715394e-01 9.355894072742174661e-01 1.923516948729981409e-03
-6.801514168213262934e-01 -1.134228092731973447e+00 2.920574621431558729e-02 -1.669937612827165685e+00 -7.228351353571419585e-04 -2.105112951849099634e-01 -1.715584312779825149e+00 -4.553059484168108240e-01 1.123745411951817319e+00 2.172653458200360984e-03
-6.902829078960907028e-01 -1.221507597083328678e+00 8.421267618151057760e-03 -1.605326029324285919e+00 -6.154557530743963488e-04 -2.026298214952887422e-01 -1.745590087027105719e+00 -4.156895719232905351e-01 1.292231670057596205e+00 2.147587645654912628e-03
-6.998589108543211701e-01 -1.309930756383690165e+00 -1.073083133373165313e-02 -1.533224265248099849e+00 -5.195474440314888556e-04 -1.915200591646098460e-01 -1.768463186007228405e+00 -3.830419790376541345e-01 1.442035281523721846e+00 1.918166180858149866e-03
-7.086045166414350893e-01 -1.399192708393208084e+00 -2.852425508571935359e-02 -1.454507030801654999e+00 -4.421688840724435064e-04 -1.749121157422791617e-01 -1.785239040190357951e+00 -3.558684750397540508e-01 1.574344688928896563e+00 1.547571199180907200e-03
-7.161686906788704565e-01 -1.489042337999576748e+00 -4.515374296823033290e-02 -1.369987046112364659e+00 -3.876624428123227146e-04 -1.512834807487083433e-01 -1.796992592127375055e+00 -3.325897576502195863e-01 1.690399693785809010e+00 1.090128825202416486e-03
-7.222245824959936389e-01 -1.579282838082494145e+00 -6.079825149380869986e-02 -1.280407598762751453e+00 -3.577298856863422361e-04 -1.211178363424641746e-01 -1.804810001658347929e+00 -3.128901705115673115e-01 1.791588946992265230e+00 5.986511425196101117e-04
-7.266024798496706349e-01 -1.669767078688051853e+00 -7.573663714189764196e-02 -1.186436325071875020e+00 -3.503382727954734450e-04 -8.755794707354082329e-02 -1.809684812111155061e+00 -2.987677129617787863e-01 1.879425473817529113e+00 1.478322578173762569e-04
-7.293490519515322124e-01 -1.760387949162945942e+00 -9.042086268036723939e-02 -1.088661610507887456e+00 -3.571136258753055694e-04 -5.493144203723087510e-02 -1.812417409497880882e+00 -2.936845107693919488e-01 1.955494291279749497e+00 -1.355070615966420008e-04
-7.306611894749279745e-01 -1.851063765638562009e+00 -1.054505611236324220e-01 -9.876034172338633566e-01 -3.541996690739575618e-04 -2.624275046791572225e-02 -1.813516329512321335e+00 -3.005939688653035957e-01 2.021163865480481991e+00 5.827913602696031424e-05
-7.307699065374632097e-01 -1.941724052227119079e+00 -1.215035087795763580e-01 -8.837287140555608600e-01 -2.608605011949178360e-04 -2.174341250704581868e-03 -1.813205731771141416e+00 -3.210589531188785539e-01 2.077494063566050375e+00 1.866783357580793648e-03
-7.298685412779859494e-01 -2.032296413890469999e+00 -1.393104933483537700e-01 -7.774652862361056682e-01 2.402039623678844157e-04 0.000000000000000000e+00 0.000000000000000000e+00 0.000000000000000000e+00 0.000000000000000000e+00 0.000000000000000000e+00
-7.298685412779859494e-01 -2.032296413890469999e+00 -1.393104933483537700e-01 -7.774652862361056682e-01 2.402039623678844157e-04 0.000000000000000000e+00 0.000000000000000000e+00 0.000000000000000000e+00 0.000000000000000000e+00 0.000000000000000000e+00
-7.298685412779859494e-01 -2.032296413890469999e+00 -1.393104933483537700e-01 -7.774652862361056682e-01 2.402039623678844157e-04 0.000000000000000000e+00 0.000000000000000000e+00 0.000000000000000000e+00 0.000000000000000000e+00 0.000000000000000000e+00
-7.298685412779859494e-01 -2.032296413890469999e+00 -1.393104933483537700e-01 -7.774652862361056682e-01 2.402039623678844157e-04 0.000000000000000000e+00 0.000000000000000000e+00 0.000000000000000000e+00 0.000000000000000000e+00 0.000000000000000000e+00
-7.298685412779859494e-01 -2.032296413890469999e+00 -1.393104933483537700e-01 -7.774652862361056682e-01 2.402039623678844157e-04 0.000000000000000000e+00 0.000000000000000000e+00 0.000000000000000000e+00 0.000000000000000000e+00 0.000000000000000000e+00
-7.298685412779859494e-01 -2.032296413890469999e+00 -1.393104933483537700e-01 -7.774652862361056682e-01 2.402039623678844157e-04 0.000000000000000000e+00 0.000000000000000000e+00 0.000000000000000000e+00 0.000000000000000000e+00 0.000000000000000000e+00
-7.298685412779859494e-01 -2.032296413890469999e+00 -1.393104933483537700e-01 -7.774652862361056682e-01 2.402039623678844157e-04 0.000000000000000000e+00 0.000000000000000000e+00 0.000000000000000000e+00 0.000000000000000000e+00 0.000000000000000000e+00
-7.298685412779859494e-01 -2.032296413890469999e+00 -1.393104933483537700e-01 -7.774652862361056682e-01 2.402039623678844157e-04 0.000000000000000000e+00 0.000000000000000000e+00 0.000000000000000000e+00 0.000000000000000000e+00 0.000000000000000000e+00
-7.298685412779859494e-01 -2.032296413890469999e+00 -1.393104933483537700e-01 -7.774652862361056682e-01 2.402039623678844157e-04 0.000000000000000000e+00 0.000000000000000000e+00 0.000000000000000000e+00 0.000000000000000000e+00 0.000000000000000000e+00
-7.298685412779859494e-01 -2.032296413890469999e+00 -1.393104933483537700e-01 -7.774652862361056682e-01 2.402039623678844157e-04 0.000000000000000000e+00 0.000000000000000000e+00 0.000000000000000000e+00 0.000000000000000000e+00 0.000000000000000000e+00
-7.298685412779859494e-01 -2.032296413890469999e+00 -1.393104933483537700e-01 -7.774652862361056682e-01 2.402039623678844157e-04 0.000000000000000000e+00 0.000000000000000000e+00 0.000000000000000000e+00 0.000000000000000000e+00 0.000000000000000000e+00
-7.298685412779859494e-01 -2.032296413890469999e+00 -1.393104933483537700e-01 -7.774652862361056682e-01 2.402039623678844157e-04 0.000000000000000000e+00 0.000000000000000000e+00 0.000000000000000000e+00 0.000000000000000000e+00 0.000000000000000000e+00
-7.298685412779859494e-01 -2.032296413890469999e+00 -1.393104933483537700e-01 -7.774652862361056682e-01 2.402039623678844157e-04 0.000000000000000000e+00 0.000000000000000000e+00 0.000000000000000000e+00 0.000000000000000000e+00 0.000000000000000000e+00
-7.298685412779859494e-01 -2.032296413890469999e+00 -1.393104933483537700e-01 -7.774652862361056682e-01 2.402039623678844157e-04 0.000000000000000000e+00 0.000000000000000000e+00 0.000000000000000000e+00 0.000000000000000000e+00 0.000000000000000000e+00
-7.298685412779859494e-01 -2.032296413890469999e+00 -1.393104933483537700e-01 -7.774652862361056682e-01 2.402039623678844157e-04 0.000000000000000000e+00 0.000000000000000000e+00 0.000000000000000000e+00 0.000000000000000000e+00 0.000000000000000000e+00
-7.298685412779859494e-01 -2.032296413890469999e+00 -1.393104933483537700e-01 -7.774652862361056682e-01 2.402039623678844157e-04 0.000000000000000000e+00 0.000000000000000000e+00 0.000000000000000000e+00 0.000000000000000000e+00 0.000000000000000000e+00
-7.298685412779859494e-01 -2.032296413890469999e+00 -1.393104933483537700e-01 -7.774652862361056682e-01 2.402039623678844157e-04 0.000000000000000000e+00 0.000000000000000000e+00 0.000000000000000000e+00 0.000000000000000000e+00 0.000000000000000000e+00
-7.298685412779859494e-01 -2.032296413890469999e+00 -1.393104933483537700e-01 -7.774652862361056682e-01 2.402039623678844157e-04 0.000000000000000000e+00 0.000000000000000000e+00 0.000000000000000000e+00 0.000000000000000000e+00 0.000000000000000000e+00
