5.348043686858242607e-01 -1.618889196145217313e-01 -9.595306027007441396e-02
5.348043686858242607e-01 -1.618889196145217313e-01 -9.595306027007441396e-02
5.348043686858242607e-01 -1.618889196145217313e-01 -9.595306027007441396e-02
5.348043686858242607e-01 -1.618889196145217313e-01 -9.595306027007441396e-02
5.348043686858242607e-01 -1.618889196145217313e-01 -9.595306027007441396e-02
5.348043686858242607e-01 -1.618889196145217313e-01 -9.595306027007441396e-02
5.348043686858242607e-01 -1.618889196145217313e-01 -9.595306027007441396e-02
5.348043686858242607e-01 -1.618889196145217313e-01 -9.595306027007441396e-02
5.348043686858242607e-01 -1.618889196145217313e-01 -9.595306027007441396e-02
5.348043686858242607e-01 -1.618889196145217313e-01 -9.595306027007441396e-02
5.348043686858242607e-01 -1.618889196145217313e-01 -9.595306027007441396e-02
5.348043686858242607e-01 -1.618889196145217313e-01 -9.595306027007441396e-02
5.348043686858242607e-01 -1.618889196145217313e-01 -9.595306027007441396e-02
5.348043686858242607e-01 -1.618889196145217313e-01 -9.595306027007441396e-02
5.348043686858242607e-01 -1.618889196145217313e-01 -9.595306027007441396e-02
5.348043686858242607e-01 -1.618889196145217313e-01 -9.595306027007441396e-02
5.348043686858242607e-01 -1.618889196145217313e-01 -9.595306027007441396e-02
5.348043686858242607e-01 -1.618889196145217313e-01 -9.595306027007441396e-02
5.348043686858242607e-01 -1.618889196145217313e-01 -9.595306027007441396e-02
5.348043686858242607e-01 -1.618889196145217313e-01 -9.595306027007441396e-02
5.348043686858242607e-01 -1.618889196145217313e-01 -9.595306027007441396e-02
5.348043686858242607e-01 -1.618889196145217313e-01 -9.595306027007441396e-02
5.348043686858242607e-01 -1.618889196145217313e-01 -9.595306027007441396e-02
5.348043686858242607e-01 -1.618889196145217313e-01 -9.595306027007441396e-02
5.348043686858242607e-01 -1.618889196145217313e-01 -9.595306027007441396e-02
5.348043686858242607e-01 -1.618889196145217313e-01 -9.595306027007441396e-02
5.348043686858242607e-01 -1.618889196145217313e-01 -9.595306027007441396e-02
5.348043686858242607e-01 -1.618889196145217313e-01 -9.595306027007441396e-02
5.348043686858242607e-01 -1.618889196145217313e-01 -9.595306027007441396e-02
5.348043686858242607e-01 -1.618889196145217313e-01 -9.595306027007441396e-02
