-7.078497267419471273e-01 -3.298469692800420350e-01 1.509149182645320164e-01 -9.753204190308104593e-01 7.114681542229795872e-04 -4.166383187880116079e-01 -3.828650469305032722e-01 -5.595068824022298992e-01 2.724351867370207736e-01 -2.585987778852382856e-03
-7.290780818849547096e-01 -3.509030493835747500e-01 1.257868952334350310e-01 -9.570562205061081684e-01 5.827842924860211164e-04 -4.245671028601510910e-01 -4.211216020706544105e-01 -5.025604606219395976e-01 3.652839704940457621e-01 -2.573677234739169418e-03
-7.507020912060999862e-01 -3.737398604349362330e-01 1.036178059097515175e-01 -9.343264108425233250e-01 4.599113669927584703e-04 -4.324801864229052550e-01 -4.567362210272298828e-01 -4.433817864736703251e-01 4.545961932716977572e-01 -2.457458509865252921e-03
-7.727284662748683530e-01 -3.981978652680192021e-01 8.443222381514925434e-02 -9.074193190940487153e-01 3.443298778403641367e-04 -4.405275013753665037e-01 -4.891600966616594937e-01 -3.837116418920452632e-01 5.381418349694926384e-01 -2.311629783047886456e-03
-7.951697701011194441e-01 -4.240998926480845088e-01 6.817922338761472911e-02 -8.767065620006272431e-01 2.359708198809795470e-04 -4.488260765250215445e-01 -5.180405476013064670e-01 -3.250600085506906711e-01 6.142551418684303322e-01 -2.167181159187691469e-03
-8.180433584457447171e-01 -4.512596253703628491e-01 5.474574980483573605e-02 -8.426165874228226382e-01 1.339050087147977360e-04 -4.574717668925052938e-01 -5.431946544455671377e-01 -2.686694716555798612e-01 6.817994915560918745e-01 -2.041316223323636110e-03
-8.413706610189378710e-01 -4.794887799703966835e-01 4.396957255332831216e-02 -8.056095827033560308e-01 3.622047222665540503e-05 -4.665460514638640199e-01 -5.645830920006766895e-01 -2.155235450301485056e-01 7.401400943893320372e-01 -1.953690729762846620e-03
-8.651765964701584322e-01 -5.086023913003804298e-01 3.564680869769259325e-02 -7.661533869311375478e-01 -5.980546143090046155e-05 -4.761187090244105580e-01 -5.822722265996744806e-01 -1.664552771127143505e-01 7.891239154443702164e-01 -1.920518673151117277e-03
-8.894890274047849710e-01 -5.384228306091367600e-01 2.953378381286107454e-02 -7.246990131514978728e-01 -1.575541347853559614e-04 -4.862486186925303322e-01 -5.964087861751268260e-01 -1.222604976966303880e-01 8.290874755927926110e-01 -1.954973467089109618e-03
-9.143388510902027422e-01 -5.687816072943019385e-01 2.534476698848077067e-02 -6.816622087949225639e-01 -2.632286587383247467e-04 -4.969964737083550910e-01 -6.071755337033043487e-01 -8.378033648760606356e-02 8.607360871315058448e-01 -2.113490479059375055e-03
-9.397610607204970323e-01 -5.995178516578860695e-01 2.274424905801878879e-02 -6.374149841832507102e-01 -3.950609791044148154e-04 -5.084441926058864691e-01 -6.147248872716823964e-01 -5.201035860923965137e-02 8.849444922334365193e-01 -2.636646407321801590e-03
-9.657960052337349888e-01 -6.304760170868435321e-01 2.133407934118151938e-02 -5.922767253594172221e-01 -6.182225335068277771e-04 -5.206988902647595729e-01 -6.191633085791485858e-01 -2.820339433674539861e-02 9.027651764766704279e-01 -4.463231088048259451e-03
-9.924914374997080291e-01 -6.615028590525331431e-01 2.064069377321762697e-02 -5.465096369459230274e-01 -1.188186686981461014e-03 0.000000000000000000e+00 0.000000000000000000e+00 0.000000000000000000e+00 0.000000000000000000e+00 0.000000000000000000e+00
-9.924914374997080291e-01 -6.615028590525331431e-01 2.064069377321762697e-02 -5.465096369459230274e-01 -1.188186686981461014e-03 0.000000000000000000e+00 0.000000000000000000e+00 0.000000000000000000e+00 0.000000000000000000e+00 0.000000000000000000e+00
-9.924914374997080291e-01 -6.615028590525331431e-01 2.064069377321762697e-02 -5.465096369459230274e-01 -1.188186686981461014e-03 0.000000000000000000e+00 0.000000000000000000e+00 0.000000000000000000e+00 0.000000000000000000e+00 0.000000000000000000e+00
-9.924914374997080291e-01 -6.615028590525331431e-01 2.064069377321762697e-02 -5.465096369459230274e-01 -1.188186686981461014e-03 0.000000000000000000e+00 0.000000000000000000e+00 0.000000000000000000e+00 0.000000000000000000e+00 0.000000000000000000e+00
-9.924914374997080291e-01 -6.615028590525331431e-01 2.064069377321762697e-02 -5.465096369459230274e-01 -1.188186686981461014e-03 0.000000000000000000e+00 0.000000000000000000e+00 0.000000000000000000e+00 0.000000000000000000e+00 0.000000000000000000e+00
-9.924914374997080291e-01 -6.615028590525331431e-01 2.064069377321762697e-02 -5.465096369459230274e-01 -1.188186686981461014e-03 0.000000000000000000e+00 0.000000000000000000e+00 0.000000000000000000e+00 0.000000000000000000e+00 0.000000000000000000e+00
-9.924914374997080291e-01 -6.615028590525331431e-01 2.064069377321762697e-02 -5.465096369459230274e-01 -1.188186686981461014e-03 0.000000000000000000e+00 0.000000000000000000e+00 0.000000000000000000e+00 0.000000000000000000e+00 0.000000000000000000e+00
-9.924914374997080291e-01 -6.615028590525331431e-01 2.064069377321762697e-02 -5.465096369459230274e-01 -1.188186686981461014e-03 0.000000000000000000e+00 0.000000000000000000e+00 0.000000000000000000e+00 0.000000000000000000e+00 0.000000000000000000e+00
-9.924914374997080291e-01 -6.615028590525331431e-01 2.064069377321762697e-02 -5.465096369459230274e-01 -1.188186686981461014e-03 0.000000000000000000e+00 0.000000000000000000e+00 0.000000000000000000e+00 0.000000000000000000e+00 0.000000000000000000e+00
-9.924914374997080291e-01 -6.615028590525331431e-01 2.064069377321762697e-02 -5.465096369459230274e-01 -1.188186686981461014e-03 0.000000000000000000e+00 0.000000000000000000e+00 0.000000000000000000e+00 0.000000000000000000e+00 0.000000000000000000e+00
-9.924914374997080291e-01 -6.615028590525331431e-01 2.064069377321762697e-02 -5.465096369459230274e-01 -1.188186686981461014e-03 0.000000000000000000e+00 0.000000000000000000e+00 0.000000000000000000e+00 0.000000000000000000e+00 0.000000000000000000e+00
-9.924914374997080291e-01 -6.615028590525331431e-01 2.064069377321762697e-02 -5.465096369459230274e-01 -1.188186686981461014e-03 0.000000000000000000e+00 0.000000000000000000e+00 0.000000000000000000e+00 0.000000000000000000e+00 0.000000000000000000e+00
-9.924914374997080291e-01 -6.615028590525331431e-01 2.064069377321762697e-02 -5.465096369459230274e-01 -1.188186686981461014e-03 0.000000000000000000e+00 0.000000000000000000e+00 0.000000000000000000e+00 0.000000000000000000e+00 0.000000000000000000e+00
-9.924914374997080291e-01 -6.615028590525331431e-01 2.064069377321762697e-02 -5.465096369459230274e-01 -1.188186686981461014e-03 0.000000000000000000e+00 0.000000000000000000e+00 0.000000000000000000e+00 0.000000000000000000e+00 0.000000000000000000e+00
-9.924914374997080291e-01 -6.615028590525331431e-01 2.064069377321762697e-02 -5.465096369459230274e-01 -1.188186686981461014e-03 0.000000000000000000e+00 0.000000000000000000e+00 0.000000000000000000e+00 0.000000000000000000e+00 0.000000000000000000e+00
-9.924914374997080291e-01 -6.615028590525331431e-01 2.064069377321762697e-02 -5.465096369459230274e-01 -1.188186686981461014e-03 0.000000000000000000e+00 0.000000000000000000e+00 0.000000000000000000e+00 0.000000000000000000e+00 0.000000000000000000e+00
-9.924914374997080291e-01 -6.615028590525331431e-01 2.064069377321762697e-02 -5.465096369459230274e-01 -1.188186686981461014e-03 0.000000000000000000e+00 0.000000000000000000e+00 0.000000000000000000e+00 0.000000000000000000e+00 0.000000000000000000e+00
-9.924914374997080291e-01 -6.615028590525331431e-01 2.064069377321762697e-02 -5.465096369459230274e-01 -1.188186686981461014e-03 0.000000000000000000e+00 0.000000000000000000e+00 0.000000000000000000e+00 0.000000000000000000e+00 0.000000000000000000e+00
-9.924914374997080291e-01 -6.615028590525331431e-01 2.064069377321762697e-02 -5.465096369459230274e-01 -1.188186686981461014e-03 0.000000000000000000e+00 0.000000000000000000e+00 0.000000000000000000e+00 0.000000000000000000e+00 0.000000000000000000e+00
