-1.148960405118085948e+00 -5.225042250412581524e-01 -1.019355111847363854e-01 -1.647204807668279036e+00 -1.029328805698171735e-03 -3.528845486768482642e-01 -1.106279317965297881e+00 -1.606726559259898046e+00 -6.753463964994826929e-02 7.329821883534800263e-04
-1.165118094523921455e+00 -5.827316317285733405e-01 -1.744781595683924658e-01 -1.635045801991827030e+00 -9.227028990866394109e-04 -3.231537881167101389e-01 -1.204548133746302874e+00 -1.450852967673121219e+00 2.431801135290405091e-01 2.132518132230646051e-03
-1.180073907819245704e+00 -6.472042735111669387e-01 -2.395319834393383751e-01 -1.609762498428591204e+00 -7.382325102582723911e-04 -2.991162659064872109e-01 -1.289452835651871077e+00 -1.301076477418918076e+00 5.056660712647185196e-01 3.689407776567340397e-03
-1.194020946167317687e+00 -7.152293578694459697e-01 -2.978786234674322131e-01 -1.573649668814426139e+00 -5.082327350172443975e-04 -2.789407669614417107e-01 -1.360501687165579732e+00 -1.166932800561876871e+00 7.222565922833004137e-01 4.599995504820559439e-03
-1.207057335781543728e+00 -7.861298081405884153e-01 -3.505932611938021859e-01 -1.528797403681855238e+00 -2.676958176086534466e-04 -2.607277922845196438e-01 -1.418009005422849356e+00 -1.054292754527399900e+00 8.970453026514183525e-01 4.810738348171818800e-03
-1.219192192916284112e+00 -8.592762420330106732e-01 -3.988713065485742781e-01 -1.477055978812678694e+00 -4.366378029622134576e-05 -2.426971426948061894e-01 -1.462928677848445158e+00 -9.655609070954412898e-01 1.034828497383528889e+00 4.480640746248642017e-03
-1.230354705062340237e+00 -9.341088380120011747e-01 -4.438939969389232854e-01 -1.420030413009996106e+00 1.470779963721059844e-04 -2.232502429211245809e-01 -1.496651919579809809e+00 -9.004538078069803664e-01 1.140511316053651525e+00 3.814835533366546603e-03
-1.240404120438195479e+00 -1.010148736591280905e+00 -4.867400946645354942e-01 -1.359091641963880104e+00 2.971743065003865786e-04 -2.009883075171033928e-01 -1.520797971585594377e+00 -8.569219545122442883e-01 1.218775420922318720e+00 3.001926202565611233e-03
-1.249141219832903271e+00 -1.087001117066329625e+00 -5.283348605631537076e-01 -1.295395092172212603e+00 4.062489979456424677e-04 -1.747419878941557370e-01 -1.537047609500972412e+00 -8.318953179723644897e-01 1.273930995833350455e+00 2.181493828905116915e-03
-1.256330936803565557e+00 -1.164350519929855166e+00 -5.694393215037648615e-01 -1.229900901089384213e+00 4.770975359288210727e-04 -1.437943394132450425e-01 -1.546988057270511918e+00 -8.220892188122228550e-01 1.309883821656566916e+00 1.416970759663571666e-03
-1.261758428969421919e+00 -1.241950287404548270e+00 -6.106965269716639888e-01 -1.163390692122723946e+00 5.124678982566585736e-04 -1.085498433171286914e-01 -1.551995349493860088e+00 -8.251441093579836572e-01 1.330204179333203562e+00 7.074072465567494755e-04
-1.265340919269136277e+00 -1.319615047124974572e+00 -6.527492821214218033e-01 -1.096460291449727009e+00 5.156314091813612218e-04 -7.164980599428547037e-02 -1.553295194408527147e+00 -8.410551029951561786e-01 1.338608013459938295e+00 6.327021849405231428e-05
-1.267308007255852464e+00 -1.397210287719200972e+00 -6.964610041000725005e-01 -1.029528860620019914e+00 5.009635921667041211e-04 -3.934175973432479934e-02 -1.551904811884529778e+00 -8.742344395730132778e-01 1.338628616594139897e+00 -2.933563402931414722e-04
-1.268429562633525132e+00 -1.474639279663192193e+00 -7.432539248479664851e-01 -9.628933392536961344e-01 5.449182006589886954e-04 -2.243110755345371909e-02 -1.548579838879825088e+00 -9.358584149578795808e-01 1.332710427326475378e+00 8.790921698456920274e-04
-1.270214313463401412e+00 -1.551827806682191335e+00 -7.955285413482335866e-01 -8.968684661297073868e-01 1.001448149195954471e-03 0.000000000000000000e+00 0.000000000000000000e+00 0.000000000000000000e+00 0.000000000000000000e+00 0.000000000000000000e+00
-1.270214313463401412e+00 -1.551827806682191335e+00 -7.955285413482335866e-01 -8.968684661297073868e-01 1.001448149195954471e-03 0.000000000000000000e+00 0.000000000000000000e+00 0.000000000000000000e+00 0.000000000000000000e+00 0.000000000000000000e+00
-1.270214313463401412e+00 -1.551827806682191335e+00 -7.955285413482335866e-01 -8.968684661297073868e-01 1.001448149195954471e-03 0.000000000000000000e+00 0.000000000000000000e+00 0.000000000000000000e+00 0.000000000000000000e+00 0.000000000000000000e+00
-1.270214313463401412e+00 -1.551827806682191335e+00 -7.955285413482335866e-01 -8.968684661297073868e-01 1.001448149195954471e-03 0.000000000000000000e+00 0.000000000000000000e+00 0.000000000000000000e+00 0.000000000000000000e+00 0.000000000000000000e+00
-1.270214313463401412e+00 -1.551827806682191335e+00 -7.955285413482335866e-01 -8.968684661297073868e-01 1.001448149195954471e-03 0.000000000000000000e+00 0.000000000000000000e+00 0.000000000000000000e+00 0.000000000000000000e+00 0.000000000000000000e+00
-1.270214313463401412e+00 -1.551827806682191335e+00 -7.955285413482335866e-01 -8.968684661297073868e-01 1.001448149195954471e-03 0.000000000000000000e+00 0.000000000000000000e+00 0.000000000000000000e+00 0.000000000000000000e+00 0.000000000000000000e+00
-1.270214313463401412e+00 -1.551827806682191335e+00 -7.955285413482335866e-01 -8.968684661297073868e-01 1.001448149195954471e-03 0.000000000000000000e+00 0.000000000000000000e+00 0.000000000000000000e+00 0.000000000000000000e+00 0.000000000000000000e+00
-1.270214313463401412e+00 -1.551827806682191335e+00 -7.955285413482335866e-01 -8.968684661297073868e-01 1.001448149195954471e-03 0.000000000000000000e+00 0.000000000000000000e+00 0.000000000000000000e+00 0.000000000000000000e+00 0.000000000000000000e+00
-1.270214313463401412e+00 -1.551827806682191335e+00 -7.955285413482335866e-01 -8.968684661297073868e-01 1.001448149195954471e-03 0.000000000000000000e+00 0.000000000000000000e+00 0.000000000000000000e+00 0.000000000000000000e+00 0.000000000000000000e+00
-1.270214313463401412e+00 -1.551827806682191335e+00 -7.955285413482335866e-01 -8.968684661297073868e-01 1.001448149195954471e-03 0.000000000000000000e+00 0.000000000000000000e+00 0.000000000000000000e+00 0.000000000000000000e+00 0.000000000000000000e+00
-1.270214313463401412e+00 -1.551827806682191335e+00 -7.955285413482335866e-01 -8.968684661297073868e-01 1.001448149195954471e-03 0.000000000000000000e+00 0.000000000000000000e+00 0.000000000000000000e+00 0.000000000000000000e+00 0.000000000000000000e+00
-1.270214313463401412e+00 -1.551827806682191335e+00 -7.955285413482335866e-01 -8.968684661297073868e-01 1.001448149195954471e-03 0.000000000000000000e+00 0.000000000000000000e+00 0.000000000000000000e+00 0.000000000000000000e+00 0.000000000000000000e+00
-1.270214313463401412e+00 -1.551827806682191335e+00 -7.955285413482335866e-01 -8.968684661297073868e-01 1.001448149195954471e-03 0.000000000000000000e+00 0.000000000000000000e+00 0.000000000000000000e+00 0.000000000000000000e+00 0.000000000000000000e+00
-1.270214313463401412e+00 -1.551827806682191335e+00 -7.955285413482335866e-01 -8.968684661297073868e-01 1.001448149195954471e-03 0.000000000000000000e+00 0.000000000000000000e+00 0.000000000000000000e+00 0.000000000000000000e+00 0.000000000000000000e+00
-1.270214313463401412e+00 -1.551827806682191335e+00 -7.955285413482335866e-01 -8.968684661297073868e-01 1.001448149195954471e-03 0.000000000000000000e+00 0.000000000000000000e+00 0.000000000000000000e+00 0.000000000000000000e+00 0.000000000000000000e+00
-1.270214313463401412e+00 -1.551827806682191335e+00 -7.955285413482335866e-01 -8.968684661297073868e-01 1.001448149195954471e-03 0.000000000000000000e+00 0.000000000000000000e+00 0.000000000000000000e+00 0.000000000000000000e+00 0.000000000000000000e+00
-1.270214313463401412e+00 -1.551827806682191335e+00 -7.955285413482335866e-01 -8.968684661297073868e-01 1.001448149195954471e-03 0.000000000000000000e+00 0.000000000000000000e+00 0.000000000000000000e+00 0.000000000000000000e+00 0.000000000000000000e+00
