-4.524969839375183600e-01 -2.327862091784998477e-01 6.819130323750210998e-01 -8.390121583194961596e-01 1.953816788112869708e-04 -5.078640785134080904e-02 2.020863856060997610e-02 -1.481305913794646878e-01 -8.778045881068274880e-02 3.907633576225738765e-03
-4.573275593254013671e-01 -2.311873757197507318e-01 6.681842213362390037e-01 -8.470338552724105963e-01 4.042686363343014943e-04 -9.661150775766016996e-02 3.197666917498229872e-02 -2.745762207756415885e-01 -1.604339390582878999e-01 4.177739150460289819e-03
-4.642290058514326745e-01 -2.293682812534398596e-01 6.491462198131907613e-01 -8.580247990244409539e-01 5.831420046660251971e-04 -1.380289305206265360e-01 3.638188932621758132e-02 -3.807600304609648489e-01 -2.198188750406079583e-01 3.577467366634473189e-03
-4.729877566348346662e-01 -2.276482230360398762e-01 6.256775656613061676e-01 -8.713593540599579024e-01 7.244360786790937992e-04 -1.751750156680403347e-01 3.440116434799973116e-02 -4.693730830376910967e-01 -2.666911007103394682e-01 2.825881480261372911e-03
-4.834046367959638490e-01 -2.263054963288579913e-01 5.985250655152366539e-01 -8.864340697670416436e-01 8.303265272599170879e-04 -2.083376032225834895e-01 2.685453414363766708e-02 -5.430500029213897184e-01 -3.014943141416743799e-01 2.117808971616464905e-03
-4.952979941176136602e-01 -2.255851295939512724e-01 5.683206957756424815e-01 -9.026562554337617117e-01 9.057813358990427725e-04 -2.378671464329966123e-01 1.440733469813432199e-02 -6.040873947918825593e-01 -3.244437133344013069e-01 1.509096172782513692e-03
-5.085039725803455202e-01 -2.257064507067224890e-01 5.356085231830519655e-01 -9.194356137609432933e-01 9.563291742773872379e-04 -2.641195692546365881e-01 -2.426422255424238311e-03 -6.542434518518107645e-01 -3.355871665436320206e-01 1.010956767566890176e-03
-5.228752530105239549e-01 -2.268702499053164567e-01 5.008776821635411158e-01 -9.361782341041560151e-01 9.868936498091428807e-04 -2.874256086035684166e-01 -2.327598397187926119e-02 -6.946168203902178817e-01 -3.348524068642541596e-01 6.112895106351145906e-04
-5.382790118373669275e-01 -2.292649632798822168e-01 4.645963334576225234e-01 -9.522813042704408870e-01 1.001668270430231423e-03 -3.080751765368600070e-01 -4.789426749131514560e-02 -7.256269741183718480e-01 -3.220614033256971043e-01 2.954924124217712771e-04
-5.545955672147332427e-01 -2.330699063771473900e-01 4.272405643208657122e-01 -9.671339308139470514e-01 1.006260858184967024e-03 -3.263311075473256384e-01 -7.609886194530370018e-02 -7.471153827351362242e-01 -2.970525308701242317e-01 9.185175509471288358e-05
-5.717185365986670043e-01 -2.384539186732730354e-01 3.893120800114360791e-01 -9.801288407770551991e-01 1.007821859159869007e-03 -3.424593876786749536e-01 -1.076802459225128378e-01 -7.585696861885922182e-01 -2.598981992621618442e-01 3.122001949803863009e-05
-5.895548228476875652e-01 -2.455707074704294168e-01 3.513388165521130202e-01 -9.906753148776027418e-01 1.008395006438829325e-03 -3.567257249804103303e-01 -1.423357759431278236e-01 -7.594652691864607341e-01 -2.109294820109509361e-01 1.146294557920826278e-05
-6.080236204284997781e-01 -2.545529457319899436e-01 3.138601819785297176e-01 -9.982090233632905374e-01 1.008066432647781270e-03 -3.693759516162434253e-01 -1.796447652312105625e-01 -7.495726914716654976e-01 -1.506741697137558289e-01 -6.571475820959380489e-06
-6.270557933539576689e-01 -2.655058085432094872e-01 2.774057605050924136e-01 -1.002208215250571799e+00 1.005681945715138385e-03 -3.806434585091588718e-01 -2.190572562243911781e-01 -7.290884294687461908e-01 -7.998383774562414783e-02 -4.768973865285908978e-05
-6.465938254508964977e-01 -2.785006789705227748e-01 2.424730464172619726e-01 -1.002217333103520236e+00 9.951255810912167273e-04 -3.907606419387771313e-01 -2.598974085462654182e-01 -6.986542817566087082e-01 -1.823570589676998255e-04 -2.111272924784321253e-04
-6.665921929047454730e-01 -2.935700672737173722e-01 2.095083662294686122e-01 -9.978750585796346551e-01 9.543832786237580173e-04 -3.999673490769796169e-01 -3.013877660638918377e-01 -6.592936037558669859e-01 8.684549047771264463e-02 -8.148460493491750667e-04
-6.870178108025465358e-01 -3.107037169335168936e-01 1.788902623846435058e-01 -9.889421783676615174e-01 8.407675431655987301e-04 -4.085123579560219209e-01 -3.426729931959900943e-01 -6.123620768965022387e-01 1.786576042394633079e-01 -2.272314709163184877e-03
-7.078497267419471273e-01 -3.298469692800420350e-01 1.509149182645320164e-01 -9.753204190308104593e-01 7.114681542229795872e-04 -4.166383187880116079e-01 -3.828650469305032722e-01 -5.595068824022298992e-01 2.724351867370207736e-01 -2.585987778852382856e-03
-7.290780818849547096e-01 -3.509030493835747500e-01 1.257868952334350310e-01 -9.570562205061081684e-01 5.827842924860211164e-04 -4.245671028601510910e-01 -4.211216020706544105e-01 -5.025604606219395976e-01 3.652839704940457621e-01 -2.573677234739169418e-03
-7.507020912060999862e-01 -3.737398604349362330e-01 1.036178059097515175e-01 -9.343264108425233250e-01 4.599113669927584703e-04 -4.324801864229052550e-01 -4.567362210272298828e-01 -4.433817864736703251e-01 4.545961932716977572e-01 -2.457458509865252921e-03
-7.727284662748683530e-01 -3.981978652680192021e-01 8.443222381514925434e-02 -9.074193190940487153e-01 3.443298778403641367e-04 -4.405275013753665037e-01 -4.891600966616594937e-01 -3.837116418920452632e-01 5.381418349694926384e-01 -2.311629783047886456e-03
-7.951697701011194441e-01 -4.240998926480845088e-01 6.817922338761472911e-02 -8.767065620006272431e-01 2.359708198809795470e-04 -4.488260765250215445e-01 -5.180405476013064670e-01 -3.250600085506906711e-01 6.142551418684303322e-01 -2.167181159187691469e-03
-8.180433584457447171e-01 -4.512596253703628491e-01 5.474574980483573605e-02 -8.426165874228226382e-01 1.339050087147977360e-04 -4.574717668925052938e-01 -5.431946544455671377e-01 -2.686694716555798612e-01 6.817994915560918745e-01 -2.041316223323636110e-03
-8.413706610189378710e-01 -4.794887799703966835e-01 4.396957255332831216e-02 -8.056095827033560308e-01 3.622047222665540503e-05 -4.665460514638640199e-01 -5.645830920006766895e-01 -2.155235450301485056e-01 7.401400943893320372e-01 -1.953690729762846620e-03
-8.651765964701584322e-01 -5.086023913003804298e-01 3.564680869769259325e-02 -7.661533869311375478e-01 -5.980546143090046155e-05 -4.761187090244105580e-01 -5.822722265996744806e-01 -1.664552771127143505e-01 7.891239154443702164e-01 -1.920518673151117277e-03
-8.894890274047849710e-01 -5.384228306091367600e-01 2.953378381286107454e-02 -7.246990131514978728e-01 -1.575541347853559614e-04 -4.862486186925303322e-01 -5.964087861751268260e-01 -1.222604976966303880e-01 8.290874755927926110e-01 -1.954973467089109618e-03
-9.143388510902027422e-01 -5.687816072943019385e-01 2.534476698848077067e-02 -6.816622087949225639e-01 -2.632286587383247467e-04 -4.969964737083550910e-01 -6.071755337033043487e-01 -8.378033648760606356e-02 8.607360871315058448e-01 -2.113490479059375055e-03
-9.397610607204970323e-01 -5.995178516578860695e-01 2.274424905801878879e-02 -6.374149841832507102e-01 -3.950609791044148154e-04 -5.084441926058864691e-01 -6.147248872716823964e-01 -5.201035860923965137e-02 8.849444922334365193e-01 -2.636646407321801590e-03
-9.657960052337349888e-01 -6.304760170868435321e-01 2.133407934118151938e-02 -5.922767253594172221e-01 -6.182225335068277771e-04 -5.206988902647595729e-01 -6.191633085791485858e-01 -2.820339433674539861e-02 9.027651764766704279e-01 -4.463231088048259451e-03
-9.924914374997080291e-01 -6.615028590525331431e-01 2.064069377321762697e-02 -5.465096369459230274e-01 -1.188186686981461014e-03 0.000000000000000000e+00 0.000000000000000000e+00 0.000000000000000000e+00 0.000000000000000000e+00 0.000000000000000000e+00
-9.924914374997080291e-01 -6.615028590525331431e-01 2.064069377321762697e-02 -5.465096369459230274e-01 -1.188186686981461014e-03 0.000000000000000000e+00 0.000000000000000000e+00 0.000000000000000000e+00 0.000000000000000000e+00 0.000000000000000000e+00
