-1.631668496944887331e-02 -5.866449104792796909e-01 5.420196390827629607e-01 -1.117926376202367678e+00 -1.717093525218020924e-04 9.811879902294993183e-01 -7.510669836129170163e-01 9.722262845272619525e-02 -3.636699902139088891e-01 -3.846120173177533259e-03
3.940560252098504468e-02 -6.255648692609682149e-01 5.545412178477930887e-01 -1.132607220913078638e+00 -3.670256333716139354e-04 1.114445749808678388e+00 -7.783991756337708123e-01 2.504315753006016720e-01 -2.936168942142195482e-01 -3.906325616996236642e-03
1.026097660430091985e-01 -6.653525548185852401e-01 5.756576282099608033e-01 -1.142540268923681435e+00 -5.523140318656991369e-04 1.264083270440482965e+00 -7.957537111523395046e-01 4.223282072433547363e-01 -1.986609602120537332e-01 -3.705767969881704031e-03
1.741266618702170532e-01 -7.053771591260453722e-01 6.061897107071045898e-01 -1.146601095682094229e+00 -7.164298865402446252e-04 1.430337916544156984e+00 -8.004920861492024198e-01 6.106416499428760636e-01 -8.121653516825530494e-02 -3.282317093490910633e-03
2.547376573151112211e-01 -7.448594779077378769e-01 6.467731577984098257e-01 -1.143861632601926193e+00 -8.506035877765495603e-04 1.612219908897883247e+00 -7.896463756338508722e-01 8.116689418261040512e-01 5.478926160336070050e-02 -2.683474024726097834e-03
3.450905489595273434e-01 -7.828659215282653960e-01 6.977643036580605251e-01 -1.133645775241495679e+00 -9.480342558203925900e-04 1.807057832888322002e+00 -7.601288724105493833e-01 1.019822917193013767e+00 2.043171472086109386e-01 -1.948613360876861461e-03
4.455934672802364660e-01 -8.183179049371975822e-01 7.591291672385948042e-01 -1.115555528960794573e+00 -1.004383409743859470e-03 2.010058366414182451e+00 -7.090396681786436117e-01 1.227297271610684692e+00 3.618049256140221659e-01 -1.126983078469336735e-03
5.562928771522037685e-01 -8.500204171839668144e-01 8.303235162654568624e-01 -1.089461859674736743e+00 -1.024376886119267608e-03 2.213988197439345385e+00 -6.340502449353845327e-01 1.423886980537240277e+00 5.218733857211561578e-01 -3.998695275081620053e-04
6.767546253716699711e-01 -8.767146147097947262e-01 9.101857662451654507e-01 -1.055448591307224682e+00 -1.027912031157368535e-03 2.409234964389324496e+00 -5.338839505165585697e-01 1.597244999594172210e+00 6.802653673502396803e-01 -7.070290076201794132e-05
8.059789488669248936e-01 -8.971574531279761233e-01 9.968810844621965872e-01 -1.013712263106015588e+00 -1.007783674553671327e-03 2.584486469905099337e+00 -4.088567683636289418e-01 1.733906364340622286e+00 8.347265640241818829e-01 4.025671320739437377e-04
9.423868788707444599e-01 -9.102263092424431878e-01 1.087943771946914051e+00 -9.644411377395756269e-01 -9.233769792845031559e-04 2.728158600076390883e+00 -2.613771222893417345e-01 1.821253749694350166e+00 9.854225073288003234e-01 1.688133905383362113e-03
1.083911027441037733e+00 -9.150380576250235487e-01 1.180458017819498329e+00 -9.077128829784687492e-01 -7.498449631172366238e-04 2.830482971405865467e+00 -9.623496765160624578e-02 1.850284917451683553e+00 1.134565095222136666e+00 3.470640323345330208e-03
1.228195160021044785e+00 -9.110593128256224693e-01 1.271375902678246073e+00 -8.434659111247129193e-01 -4.821841407887321029e-04 2.885682651600142812e+00 7.957489598802264252e-02 1.818357697174953769e+00 1.284939437075115487e+00 5.353216446570089118e-03
1.372868013497052342e+00 -8.981797610114160557e-01 1.357917325180354462e+00 -7.715700575244908155e-01 -1.320673474644736781e-04 2.893457069520151581e+00 2.575910362841279944e-01 1.730828450042166455e+00 1.437917072004440966e+00 7.002335866485168495e-03
1.515827927506026462e+00 -8.767281743060651999e-01 1.437969143906944636e+00 -6.919682674969606095e-01 2.808879555580415569e-04 2.859198280179483298e+00 4.290317341070163382e-01 1.601036374531804141e+00 1.592035800550604119e+00 8.259106060450304918e-03
1.655470901125741801e+00 -8.474257462729486434e-01 1.510416950421021864e+00 -6.048253157433455263e-01 7.192665500127314124e-04 2.792859472394306763e+00 5.860485606623311305e-01 1.448956130281543686e+00 1.742859035072302332e+00 8.767571889093795159e-03
1.790815307952398072e+00 -8.112822221003576084e-01 1.575382306429422341e+00 -5.106295131184916958e-01 1.082557276922078201e-03 2.706888136533123657e+00 7.228704834518214772e-01 1.299307120168010199e+00 1.883916052497076388e+00 7.265814538186932299e-03
1.921512900813372227e+00 -7.694404301497526077e-01 1.634369384146464377e+00 -4.102234570188172391e-01 1.019008755985328441e-03 0.000000000000000000e+00 0.000000000000000000e+00 0.000000000000000000e+00 0.000000000000000000e+00 0.000000000000000000e+00
1.921512900813372227e+00 -7.694404301497526077e-01 1.634369384146464377e+00 -4.102234570188172391e-01 1.019008755985328441e-03 0.000000000000000000e+00 0.000000000000000000e+00 0.000000000000000000e+00 0.000000000000000000e+00 0.000000000000000000e+00
1.921512900813372227e+00 -7.694404301497526077e-01 1.634369384146464377e+00 -4.102234570188172391e-01 1.019008755985328441e-03 0.000000000000000000e+00 0.000000000000000000e+00 0.000000000000000000e+00 0.000000000000000000e+00 0.000000000000000000e+00
1.921512900813372227e+00 -7.694404301497526077e-01 1.634369384146464377e+00 -4.102234570188172391e-01 1.019008755985328441e-03 0.000000000000000000e+00 0.000000000000000000e+00 0.000000000000000000e+00 0.000000000000000000e+00 0.000000000000000000e+00
1.921512900813372227e+00 -7.694404301497526077e-01 1.634369384146464377e+00 -4.102234570188172391e-01 1.019008755985328441e-03 0.000000000000000000e+00 0.000000000000000000e+00 0.000000000000000000e+00 0.000000000000000000e+00 0.000000000000000000e+00
1.921512900813372227e+00 -7.694404301497526077e-01 1.634369384146464377e+00 -4.102234570188172391e-01 1.019008755985328441e-03 0.000000000000000000e+00 0.000000000000000000e+00 0.000000000000000000e+00 0.000000000000000000e+00 0.000000000000000000e+00
1.921512900813372227e+00 -7.694404301497526077e-01 1.634369384146464377e+00 -4.102234570188172391e-01 1.019008755985328441e-03 0.000000000000000000e+00 0.000000000000000000e+00 0.000000000000000000e+00 0.000000000000000000e+00 0.000000000000000000e+00
1.921512900813372227e+00 -7.694404301497526077e-01 1.634369384146464377e+00 -4.102234570188172391e-01 1.019008755985328441e-03 0.000000000000000000e+00 0.000000000000000000e+00 0.000000000000000000e+00 0.000000000000000000e+00 0.000000000000000000e+00
1.921512900813372227e+00 -7.694404301497526077e-01 1.634369384146464377e+00 -4.102234570188172391e-01 1.019008755985328441e-03 0.000000000000000000e+00 0.000000000000000000e+00 0.000000000000000000e+00 0.000000000000000000e+00 0.000000000000000000e+00
1.921512900813372227e+00 -7.694404301497526077e-01 1.634369384146464377e+00 -4.102234570188172391e-01 1.019008755985328441e-03 0.000000000000000000e+00 0.000000000000000000e+00 0.000000000000000000e+00 0.000000000000000000e+00 0.000000000000000000e+00
1.921512900813372227e+00 -7.694404301497526077e-01 1.634369384146464377e+00 -4.102234570188172391e-01 1.019008755985328441e-03 0.000000000000000000e+00 0.000000000000000000e+00 0.000000000000000000e+00 0.000000000000000000e+00 0.000000000000000000e+00
1.921512900813372227e+00 -7.694404301497526077e-01 1.634369384146464377e+00 -4.102234570188172391e-01 1.019008755985328441e-03 0.000000000000000000e+00 0.000000000000000000e+00 0.000000000000000000e+00 0.000000000000000000e+00 0.000000000000000000e+00
1.921512900813372227e+00 -7.694404301497526077e-01 1.634369384146464377e+00 -4.102234570188172391e-01 1.019008755985328441e-03 0.000000000000000000e+00 0.000000000000000000e+00 0.000000000000000000e+00 0.000000000000000000e+00 0.000000000000000000e+00
1.921512900813372227e+00 -7.694404301497526077e-01 1.634369384146464377e+00 -4.102234570188172391e-01 1.019008755985328441e-03 0.000000000000000000e+00 0.000000000000000000e+00 0.000000000000000000e+00 0.000000000000000000e+00 0.000000000000000000e+00
