3.467681950133116864e-01 -9.282296283911117829e-01 9.398273886841500557e-01 -1.456354414905147276e+00 -1.031923721806809980e-03 2.626537139310989755e+00 -8.132173025314378689e-01 1.699297528222139420e+00 1.264452721530626045e+00 -2.878860352274521415e-04
4.881753160333030528e-01 -9.610198515877086400e-01 1.033326074204556910e+00 -1.390230591174666630e+00 -1.046072494615907580e-03 2.828142420399827106e+00 -6.558044639319361435e-01 1.869973710408136203e+00 1.322476474609614705e+00 -2.829754561819520565e-04
6.379091211153768981e-01 -9.848361847276255743e-01 1.132881722144909453e+00 -1.321571748407364577e+00 -9.980286668495566733e-04 2.994676101641476684e+00 -4.763266627983388513e-01 1.991112958807051525e+00 1.373176855346041947e+00 9.608765553270190093e-04
7.935936107024441633e-01 -9.988187230030135533e-01 1.235402716690692904e+00 -1.250286407644014330e+00 -8.625543910501921960e-04 3.113689791741344415e+00 -2.796507655077588583e-01 2.050419890915668564e+00 1.425706815267003824e+00 2.709485515987289980e-03
9.524573151729940346e-01 -1.002437079036276213e+00 1.337488820336897088e+00 -1.175815592296452827e+00 -6.324788632456606208e-04 3.177274089410996538e+00 -7.236712066525144427e-02 2.041722072924082365e+00 1.489416306951230062e+00 4.601510556090629769e-03
1.111652532119466352e+00 -9.955500295344107409e-01 1.435842795206256461e+00 -1.097262472769485298e+00 -3.147714539880356807e-04 3.183904338929446798e+00 1.377409900373100793e-01 1.967079497387188791e+00 1.571062390539352593e+00 6.354148185152498803e-03
1.268581092831892132e+00 -9.784189148649670154e-01 1.527660701103642937e+00 -1.013635683822742051e+00 7.207096251360384622e-05 3.138571214248512931e+00 3.426222933888750655e-01 1.836358117947727742e+00 1.672535778934863160e+00 7.736848330032790322e-03
1.421153150129358167e+00 -9.516739146252399806e-01 1.610909404973323689e+00 -9.241091404040764345e-01 4.972185161100095563e-04 3.051441145949318035e+00 5.349000047945413616e-01 1.664974077393613028e+00 1.790530868373313211e+00 8.502951071928114418e-03
1.567935291812689869e+00 -9.162446439307916357e-01 1.684461052684762095e+00 -8.282038656097140406e-01 8.987354459446004811e-04 2.935642833666634033e+00 7.085854138889656761e-01 1.471032954228765677e+00 1.918105495887247658e+00 8.030338596691818931e-03
1.708180769301375745e+00 -8.732694656030678404e-01 1.748111893675121431e+00 -7.258545244284416720e-01 1.095342829808567146e-03 2.804909549773718425e+00 8.595035665544757952e-01 1.273016819807186506e+00 2.046986823625447371e+00 3.932147677279334598e-03
1.841762675210445677e+00 -8.239932138606013146e-01 1.802541596064390239e+00 -6.173838595579068667e-01 1.001785879162950385e-03 0.000000000000000000e+00 0.000000000000000000e+00 0.000000000000000000e+00 0.000000000000000000e+00 0.000000000000000000e+00
1.841762675210445677e+00 -8.239932138606013146e-01 1.802541596064390239e+00 -6.173838595579068667e-01 1.001785879162950385e-03 0.000000000000000000e+00 0.000000000000000000e+00 0.000000000000000000e+00 0.000000000000000000e+00 0.000000000000000000e+00
1.841762675210445677e+00 -8.239932138606013146e-01 1.802541596064390239e+00 -6.173838595579068667e-01 1.001785879162950385e-03 0.000000000000000000e+00 0.000000000000000000e+00 0.000000000000000000e+00 0.000000000000000000e+00 0.000000000000000000e+00
1.841762675210445677e+00 -8.239932138606013146e-01 1.802541596064390239e+00 -6.173838595579068667e-01 1.001785879162950385e-03 0.000000000000000000e+00 0.000000000000000000e+00 0.000000000000000000e+00 0.000000000000000000e+00 0.000000000000000000e+00
1.841762675210445677e+00 -8.239932138606013146e-01 1.802541596064390239e+00 -6.173838595579068667e-01 1.001785879162950385e-03 0.000000000000000000e+00 0.000000000000000000e+00 0.000000000000000000e+00 0.000000000000000000e+00 0.000000000000000000e+00
1.841762675210445677e+00 -8.239932138606013146e-01 1.802541596064390239e+00 -6.173838595579068667e-01 1.001785879162950385e-03 0.000000000000000000e+00 0.000000000000000000e+00 0.000000000000000000e+00 0.000000000000000000e+00 0.000000000000000000e+00
1.841762675210445677e+00 -8.239932138606013146e-01 1.802541596064390239e+00 -6.173838595579068667e-01 1.001785879162950385e-03 0.000000000000000000e+00 0.000000000000000000e+00 0.000000000000000000e+00 0.000000000000000000e+00 0.000000000000000000e+00
1.841762675210445677e+00 -8.239932138606013146e-01 1.802541596064390239e+00 -6.173838595579068667e-01 1.001785879162950385e-03 0.000000000000000000e+00 0.000000000000000000e+00 0.000000000000000000e+00 0.000000000000000000e+00 0.000000000000000000e+00
1.841762675210445677e+00 -8.239932138606013146e-01 1.802541596064390239e+00 -6.173838595579068667e-01 1.001785879162950385e-03 0.000000000000000000e+00 0.000000000000000000e+00 0.000000000000000000e+00 0.000000000000000000e+00 0.000000000000000000e+00
1.841762675210445677e+00 -8.239932138606013146e-01 1.802541596064390239e+00 -6.173838595579068667e-01 1.001785879162950385e-03 0.000000000000000000e+00 0.000000000000000000e+00 0.000000000000000000e+00 0.000000000000000000e+00 0.000000000000000000e+00
1.841762675210445677e+00 -8.239932138606013146e-01 1.802541596064390239e+00 -6.173838595579068667e-01 1.001785879162950385e-03 0.000000000000000000e+00 0.000000000000000000e+00 0.000000000000000000e+00 0.000000000000000000e+00 0.000000000000000000e+00
1.841762675210445677e+00 -8.239932138606013146e-01 1.802541596064390239e+00 -6.173838595579068667e-01 1.001785879162950385e-03 0.000000000000000000e+00 0.000000000000000000e+00 0.000000000000000000e+00 0.000000000000000000e+00 0.000000000000000000e+00
1.841762675210445677e+00 -8.239932138606013146e-01 1.802541596064390239e+00 -6.173838595579068667e-01 1.001785879162950385e-03 0.000000000000000000e+00 0.000000000000000000e+00 0.000000000000000000e+00 0.000000000000000000e+00 0.000000000000000000e+00
1.841762675210445677e+00 -8.239932138606013146e-01 1.802541596064390239e+00 -6.173838595579068667e-01 1.001785879162950385e-03 0.000000000000000000e+00 0.000000000000000000e+00 0.000000000000000000e+00 0.000000000000000000e+00 0.000000000000000000e+00
1.841762675210445677e+00 -8.239932138606013146e-01 1.802541596064390239e+00 -6.173838595579068667e-01 1.001785879162950385e-03 0.000000000000000000e+00 0.000000000000000000e+00 0.000000000000000000e+00 0.000000000000000000e+00 0.000000000000000000e+00
1.841762675210445677e+00 -8.239932138606013146e-01 1.802541596064390239e+00 -6.173838595579068667e-01 1.001785879162950385e-03 0.000000000000000000e+00 0.000000000000000000e+00 0.000000000000000000e+00 0.000000000000000000e+00 0.000000000000000000e+00
1.841762675210445677e+00 -8.239932138606013146e-01 1.802541596064390239e+00 -6.173838595579068667e-01 1.001785879162950385e-03 0.000000000000000000e+00 0.000000000000000000e+00 0.000000000000000000e+00 0.000000000000000000e+00 0.000000000000000000e+00
1.841762675210445677e+00 -8.239932138606013146e-01 1.802541596064390239e+00 -6.173838595579068667e-01 1.001785879162950385e-03 0.000000000000000000e+00 0.000000000000000000e+00 0.000000000000000000e+00 0.000000000000000000e+00 0.000000000000000000e+00
1.841762675210445677e+00 -8.239932138606013146e-01 1.802541596064390239e+00 -6.173838595579068667e-01 1.001785879162950385e-03 0.000000000000000000e+00 0.000000000000000000e+00 0.000000000000000000e+00 0.000000000000000000e+00 0.000000000000000000e+00
1.841762675210445677e+00 -8.239932138606013146e-01 1.802541596064390239e+00 -6.173838595579068667e-01 1.001785879162950385e-03 0.000000000000000000e+00 0.000000000000000000e+00 0.000000000000000000e+00 0.000000000000000000e+00 0.000000000000000000e+00
1.841762675210445677e+00 -8.239932138606013146e-01 1.802541596064390239e+00 -6.173838595579068667e-01 1.001785879162950385e-03 0.000000000000000000e+00 0.000000000000000000e+00 0.000000000000000000e+00 0.000000000000000000e+00 0.000000000000000000e+00
