2.707111032675317830e-01 -7.545437510797905478e-01 1.270444830735457442e+00 -1.130359926069889553e+00 8.309743726810086151e-04 7.727340520270569169e-01 -2.425639245491645613e-01 5.282424430434262685e-01 7.909113980355325646e-01 3.153066936254651873e-03
3.100482144314877231e-01 -7.660378081032922504e-01 1.297673423949295080e+00 -1.090176918582349108e+00 9.674677093396511027e-04 7.867422232791189129e-01 -2.298811404700335514e-01 5.445718642767529705e-01 8.036601497508103487e-01 2.729866733172848885e-03
3.502225445126878611e-01 -7.769815010435943137e-01 1.326149733133577424e+00 -1.049414574527640420e+00 1.000700340866061272e-03 0.000000000000000000e+00 0.000000000000000000e+00 0.000000000000000000e+00 0.000000000000000000e+00 0.000000000000000000e+00
3.502225445126878611e-01 -7.769815010435943137e-01 1.326149733133577424e+00 -1.049414574527640420e+00 1.000700340866061272e-03 0.000000000000000000e+00 0.000000000000000000e+00 0.000000000000000000e+00 0.000000000000000000e+00 0.000000000000000000e+00
3.502225445126878611e-01 -7.769815010435943137e-01 1.326149733133577424e+00 -1.049414574527640420e+00 1.000700340866061272e-03 0.000000000000000000e+00 0.000000000000000000e+00 0.000000000000000000e+00 0.000000000000000000e+00 0.000000000000000000e+00
3.502225445126878611e-01 -7.769815010435943137e-01 1.326149733133577424e+00 -1.049414574527640420e+00 1.000700340866061272e-03 0.000000000000000000e+00 0.000000000000000000e+00 0.000000000000000000e+00 0.000000000000000000e+00 0.000000000000000000e+00
3.502225445126878611e-01 -7.769815010435943137e-01 1.326149733133577424e+00 -1.049414574527640420e+00 1.000700340866061272e-03 0.000000000000000000e+00 0.000000000000000000e+00 0.000000000000000000e+00 0.000000000000000000e+00 0.000000000000000000e+00
3.502225445126878611e-01 -7.769815010435943137e-01 1.326149733133577424e+00 -1.049414574527640420e+00 1.000700340866061272e-03 0.000000000000000000e+00 0.000000000000000000e+00 0.000000000000000000e+00 0.000000000000000000e+00 0.000000000000000000e+00
3.502225445126878611e-01 -7.769815010435943137e-01 1.326149733133577424e+00 -1.049414574527640420e+00 1.000700340866061272e-03 0.000000000000000000e+00 0.000000000000000000e+00 0.000000000000000000e+00 0.000000000000000000e+00 0.000000000000000000e+00
3.502225445126878611e-01 -7.769815010435943137e-01 1.326149733133577424e+00 -1.049414574527640420e+00 1.000700340866061272e-03 0.000000000000000000e+00 0.000000000000000000e+00 0.000000000000000000e+00 0.000000000000000000e+00 0.000000000000000000e+00
3.502225445126878611e-01 -7.769815010435943137e-01 1.326149733133577424e+00 -1.049414574527640420e+00 1.000700340866061272e-03 0.000000000000000000e+00 0.000000000000000000e+00 0.000000000000000000e+00 0.000000000000000000e+00 0.000000000000000000e+00
3.502225445126878611e-01 -7.769815010435943137e-01 1.326149733133577424e+00 -1.049414574527640420e+00 1.000700340866061272e-03 0.000000000000000000e+00 0.000000000000000000e+00 0.000000000000000000e+00 0.000000000000000000e+00 0.000000000000000000e+00
3.502225445126878611e-01 -7.769815010435943137e-01 1.326149733133577424e+00 -1.049414574527640420e+00 1.000700340866061272e-03 0.000000000000000000e+00 0.000000000000000000e+00 0.000000000000000000e+00 0.000000000000000000e+00 0.000000000000000000e+00
3.502225445126878611e-01 -7.769815010435943137e-01 1.326149733133577424e+00 -1.049414574527640420e+00 1.000700340866061272e-03 0.000000000000000000e+00 0.000000000000000000e+00 0.000000000000000000e+00 0.000000000000000000e+00 0.000000000000000000e+00
3.502225445126878611e-01 -7.769815010435943137e-01 1.326149733133577424e+00 -1.049414574527640420e+00 1.000700340866061272e-03 0.000000000000000000e+00 0.000000000000000000e+00 0.000000000000000000e+00 0.000000000000000000e+00 0.000000000000000000e+00
3.502225445126878611e-01 -7.769815010435943137e-01 1.326149733133577424e+00 -1.049414574527640420e+00 1.000700340866061272e-03 0.000000000000000000e+00 0.000000000000000000e+00 0.000000000000000000e+00 0.000000000000000000e+00 0.000000000000000000e+00
3.502225445126878611e-01 -7.769815010435943137e-01 1.326149733133577424e+00 -1.049414574527640420e+00 1.000700340866061272e-03 0.000000000000000000e+00 0.000000000000000000e+00 0.000000000000000000e+00 0.000000000000000000e+00 0.000000000000000000e+00
3.502225445126878611e-01 -7.769815010435943137e-01 1.326149733133577424e+00 -1.049414574527640420e+00 1.000700340866061272e-03 0.000000000000000000e+00 0.000000000000000000e+00 0.000000000000000000e+00 0.000000000000000000e+00 0.000000000000000000e+00
3.502225445126878611e-01 -7.769815010435943137e-01 1.326149733133577424e+00 -1.049414574527640420e+00 1.000700340866061272e-03 0.000000000000000000e+00 0.000000000000000000e+00 0.000000000000000000e+00 0.000000000000000000e+00 0.000000000000000000e+00
3.502225445126878611e-01 -7.769815010435943137e-01 1.326149733133577424e+00 -1.049414574527640420e+00 1.000700340866061272e-03 0.000000000000000000e+00 0.000000000000000000e+00 0.000000000000000000e+00 0.000000000000000000e+00 0.000000000000000000e+00
3.502225445126878611e-01 -7.769815010435943137e-01 1.326149733133577424e+00 -1.049414574527640420e+00 1.000700340866061272e-03 0.000000000000000000e+00 0.000000000000000000e+00 0.000000000000000000e+00 0.000000000000000000e+00 0.000000000000000000e+00
3.502225445126878611e-01 -7.769815010435943137e-01 1.326149733133577424e+00 -1.049414574527640420e+00 1.000700340866061272e-03 0.000000000000000000e+00 0.000000000000000000e+00 0.000000000000000000e+00 0.000000000000000000e+00 0.000000000000000000e+00
3.502225445126878611e-01 -7.769815010435943137e-01 1.326149733133577424e+00 -1.049414574527640420e+00 1.000700340866061272e-03 0.000000000000000000e+00 0.000000000000000000e+00 0.000000000000000000e+00 0.000000000000000000e+00 0.000000000000000000e+00
3.502225445126878611e-01 -7.769815010435943137e-01 1.326149733133577424e+00 -1.049414574527640420e+00 1.000700340866061272e-03 0.000000000000000000e+00 0.000000000000000000e+00 0.000000000000000000e+00 0.000000000000000000e+00 0.000000000000000000e+00
3.502225445126878611e-01 -7.769815010435943137e-01 1.326149733133577424e+00 -1.049414574527640420e+00 1.000700340866061272e-03 0.000000000000000000e+00 0.000000000000000000e+00 0.000000000000000000e+00 0.000000000000000000e+00 0.000000000000000000e+00
3.502225445126878611e-01 -7.769815010435943137e-01 1.326149733133577424e+00 -1.049414574527640420e+00 1.000700340866061272e-03 0.000000000000000000e+00 0.000000000000000000e+00 0.000000000000000000e+00 0.000000000000000000e+00 0.000000000000000000e+00
3.502225445126878611e-01 -7.769815010435943137e-01 1.326149733133577424e+00 -1.049414574527640420e+00 1.000700340866061272e-03 0.000000000000000000e+00 0.000000000000000000e+00 0.000000000000000000e+00 0.000000000000000000e+00 0.000000000000000000e+00
3.502225445126878611e-01 -7.769815010435943137e-01 1.326149733133577424e+00 -1.049414574527640420e+00 1.000700340866061272e-03 0.000000000000000000e+00 0.000000000000000000e+00 0.000000000000000000e+00 0.000000000000000000e+00 0.000000000000000000e+00
3.502225445126878611e-01 -7.769815010435943137e-01 1.326149733133577424e+00 -1.049414574527640420e+00 1.000700340866061272e-03 0.000000000000000000e+00 0.000000000000000000e+00 0.000000000000000000e+00 0.000000000000000000e+00 0.000000000000000000e+00
3.502225445126878611e-01 -7.769815010435943137e-01 1.326149733133577424e+00 -1.049414574527640420e+00 1.000700340866061272e-03 0.000000000000000000e+00 0.000000000000000000e+00 0.000000000000000000e+00 0.000000000000000000e+00 0.000000000000000000e+00
3.502225445126878611e-01 -7.769815010435943137e-01 1.326149733133577424e+00 -1.049414574527640420e+00 1.000700340866061272e-03 0.000000000000000000e+00 0.000000000000000000e+00 0.000000000000000000e+00 0.000000000000000000e+00 0.000000000000000000e+00
