3.856905933539093168e-01 -1.439601304943107229e-01 -1.653939729576251738e-01
3.856905933539093168e-01 -1.439601304943107229e-01 -1.653939729576251738e-01
3.856905933539093168e-01 -1.439601304943107229e-01 -1.653939729576251738e-01
3.856905933539093168e-01 -1.439601304943107229e-01 -1.653939729576251738e-01
3.856905933539093168e-01 -1.439601304943107229e-01 -1.653939729576251738e-01
3.856905933539093168e-01 -1.439601304943107229e-01 -1.653939729576251738e-01
3.856905933539093168e-01 -1.439601304943107229e-01 -1.653939729576251738e-01
3.856905933539093168e-01 -1.439601304943107229e-01 -1.653939729576251738e-01
3.856905933539093168e-01 -1.439601304943107229e-01 -1.653939729576251738e-01
3.856905933539093168e-01 -1.439601304943107229e-01 -1.653939729576251738e-01
3.856905933539093168e-01 -1.439601304943107229e-01 -1.653939729576251738e-01
3.856905933539093168e-01 -1.439601304943107229e-01 -1.653939729576251738e-01
3.856905933539093168e-01 -1.439601304943107229e-01 -1.653939729576251738e-01
3.856905933539093168e-01 -1.439601304943107229e-01 -1.653939729576251738e-01
3.856905933539093168e-01 -1.439601304943107229e-01 -1.653939729576251738e-01
3.856905933539093168e-01 -1.439601304943107229e-01 -1.653939729576251738e-01
3.856905933539093168e-01 -1.439601304943107229e-01 -1.653939729576251738e-01
3.856905933539093168e-01 -1.439601304943107229e-01 -1.653939729576251738e-01
3.856905933539093168e-01 -1.439601304943107229e-01 -1.653939729576251738e-01
3.856905933539093168e-01 -1.439601304943107229e-01 -1.653939729576251738e-01
3.856905933539093168e-01 -1.439601304943107229e-01 -1.653939729576251738e-01
3.856905933539093168e-01 -1.439601304943107229e-01 -1.653939729576251738e-01
3.856905933539093168e-01 -1.439601304943107229e-01 -1.653939729576251738e-01
3.856905933539093168e-01 -1.439601304943107229e-01 -1.653939729576251738e-01
3.856905933539093168e-01 -1.439601304943107229e-01 -1.653939729576251738e-01
3.856905933539093168e-01 -1.439601304943107229e-01 -1.653939729576251738e-01
3.856905933539093168e-01 -1.439601304943107229e-01 -1.653939729576251738e-01
3.856905933539093168e-01 -1.439601304943107229e-01 -1.653939729576251738e-01
3.856905933539093168e-01 -1.439601304943107229e-01 -1.653939729576251738e-01
3.856905933539093168e-01 -1.439601304943107229e-01 -1.653939729576251738e-01
