-4.991418116484892531e-01 -2.973414312615439981e-01 7.084657974539819714e-01 -2.099721633918654629e+00 -1.021163984094263389e-03 -2.468043952804760410e-01 -8.641465860114553310e-01 -8.639383412262939821e-01 -9.943927030246501042e-01 -1.806115003083399485e-03
-5.098031590628945287e-01 -3.440964902024993832e-01 6.631338356712295212e-01 -2.137987805227455684e+00 -1.057309149402216710e-03 -2.132269482881052614e-01 -9.351011788191078145e-01 -9.066392356550483367e-01 -7.653234261760231139e-01 -7.229033061590646805e-04
-5.186153617600287591e-01 -3.942149974539625457e-01 6.177595297627440640e-01 -2.163674113274903554e+00 -1.066666781547710415e-03 -1.762440539426837205e-01 -1.002370145029263693e+00 -9.074861181697096990e-01 -5.137261609489542913e-01 -1.871526429098759438e-04
-5.255694858011943360e-01 -4.475126512358843511e-01 5.743034137770323122e-01 -2.176489494508301981e+00 -1.062744965906560262e-03 -1.390824808233118715e-01 -1.065953075638436109e+00 -8.691223197142352586e-01 -2.563076246679691916e-01 7.843631282300462084e-05
-5.307910537060706035e-01 -5.037670718160762728e-01 5.343224225271160366e-01 -2.176861400747247988e+00 -1.052772664337585156e-03 -1.044313580975253786e-01 -1.125088411603837768e+00 -7.996198249983259565e-01 -7.438124778916588298e-03 1.994460313795026621e-04
-5.344906457026952218e-01 -5.626962491317525350e-01 4.988427219330767159e-01 -2.165738827553175483e+00 -1.040620284360140599e-03 -7.399183993249336400e-02 -1.178583546313524355e+00 -7.095940118807864128e-01 2.224514638814486522e-01 2.430475995488923908e-04
-5.369174650156341988e-01 -6.239575197228653947e-01 4.683573312355752138e-01 -2.144399198659430184e+00 -1.028780488735157135e-03 -4.853638625877854107e-02 -1.225225411822256749e+00 -6.097078139500304861e-01 4.267925778749022125e-01 2.367959124996708885e-04
-5.383241477892050098e-01 -6.871651607846177567e-01 4.429148982781496713e-01 -2.114276528198497207e+00 -1.018786719456912272e-03 -2.813365547141571596e-02 -1.264152821235048130e+00 -5.088486591485104071e-01 6.024534092186552003e-01 1.998753855648969244e-04
-5.389457237444098547e-01 -7.519176723523153250e-01 4.222499918195840030e-01 -2.076824290229007719e+00 -1.011246326879613154e-03 -1.243151910409596994e-02 -1.295050231353951586e+00 -4.132981291713130334e-01 7.490447593897924250e-01 1.508078515459832577e-04
-5.389906648121496335e-01 -8.178254877630752873e-01 4.059127733460906051e-01 -2.033417983741030444e+00 -1.005456022679688480e-03 -8.988213547960928473e-04 -1.318156308215200134e+00 -3.267443694698681234e-01 8.681261297595432858e-01 1.158060839984943670e-04
-5.386398354774211139e-01 -8.845332407841924871e-01 3.933737492363827970e-01 -1.985294606898427849e+00 -9.971923246559948398e-04 7.016586694569297913e-03 -1.334155060422343775e+00 -2.507804821941560514e-01 9.624675368520501095e-01 1.652739604738733556e-04
-5.380493949229482320e-01 -9.517345037703934807e-01 3.840961101242602038e-01 -1.933521719272186745e+00 -9.726824965143646660e-04 1.180881108945789140e-02 -1.344025259724018984e+00 -1.855527822424521411e-01 1.035457752524820529e+00 4.901965628326043420e-04
-5.373548537054085861e-01 -1.019179442692113913e+00 3.775788663205164597e-01 -1.878987539437346976e+00 -9.062323984540790640e-04 1.389082435079367316e-02 -1.348898778434409973e+00 -1.303448760748752433e-01 1.090683596696794266e+00 1.329001961205711173e-03
-5.366745541135133912e-01 -1.086676954369975467e+00 3.733785287137822984e-01 -1.822404440834156203e+00 -8.312880668949151853e-04 1.360599183790486832e-02 -1.349950233557229762e+00 -8.400675213468343505e-02 1.131661972063815691e+00 1.498886631183277357e-03
-5.361112423110638847e-01 -1.154092977174809853e+00 3.711179414579073854e-01 -1.764319998937035949e+00 -7.565377661940688543e-04 1.126623604899005572e-02 -1.348320456096687936e+00 -4.521174511749818936e-02 1.161688837942405295e+00 1.495006014016926404e-03
-5.357507647585139088e-01 -1.221346454034171636e+00 3.704892650840831414e-01 -1.705131705416936372e+00 -6.841344281604661536e-04 7.209551050998973080e-03 -1.345069537187236319e+00 -1.257352747648538688e-02 1.183765870401990661e+00 1.448066760672053581e-03
-5.356566592950432470e-01 -1.288404008156877945e+00 3.712568683827018323e-01 -1.645103079713096106e+00 -6.144727815368307162e-04 1.882109269412386363e-03 -1.341151082454124399e+00 1.535206597237346454e-02 1.200572514076806874e+00 1.393232932472708097e-03
-5.358595590616155313e-01 -1.355274096865189737e+00 3.732643257422729732e-01 -1.584380312995691709e+00 -5.474658125104411074e-04 -4.057995331445503860e-03 -1.337401774166235402e+00 4.014914719142247124e-02 1.214455334348086613e+00 1.340139380527792827e-03
-5.363411455760463964e-01 -1.422001214813396919e+00 3.764481659984489359e-01 -1.523009749708219118e+00 -4.828174597056356142e-04 -9.631730288617959199e-03 -1.334542358964141417e+00 6.367680512351905908e-02 1.227411265749450475e+00 1.292967056096109863e-03
-5.370146188159454770e-01 -1.488660627223159949e+00 3.808586647866827324e-01 -1.460957432883270180e+00 -4.200580675209039704e-04 -1.346946479798189801e-02 -1.333188248195262826e+00 8.820997576467615175e-02 1.241046336498980773e+00 1.255187843694633527e-03
-5.377075320706412587e-01 -1.555354055849284878e+00 3.866842569490907544e-01 -1.398132310603575013e+00 -3.592255296233277961e-04 -1.385826509391562163e-02 -1.333868572522498797e+00 1.165118432481601629e-01 1.256502445593904449e+00 1.216650757951523052e-03
-5.381569789194803333e-01 -1.622206595062359424e+00 3.942717883968206993e-01 -1.334414011269495548e+00 -3.052718783816251108e-04 0.000000000000000000e+00 0.000000000000000000e+00 0.000000000000000000e+00 0.000000000000000000e+00 0.000000000000000000e+00
-5.381569789194803333e-01 -1.622206595062359424e+00 3.942717883968206993e-01 -1.334414011269495548e+00 -3.052718783816251108e-04 0.000000000000000000e+00 0.000000000000000000e+00 0.000000000000000000e+00 0.000000000000000000e+00 0.000000000000000000e+00
-5.381569789194803333e-01 -1.622206595062359424e+00 3.942717883968206993e-01 -1.334414011269495548e+00 -3.052718783816251108e-04 0.000000000000000000e+00 0.000000000000000000e+00 0.000000000000000000e+00 0.000000000000000000e+00 0.000000000000000000e+00
-5.381569789194803333e-01 -1.622206595062359424e+00 3.942717883968206993e-01 -1.334414011269495548e+00 -3.052718783816251108e-04 0.000000000000000000e+00 0.000000000000000000e+00 0.000000000000000000e+00 0.000000000000000000e+00 0.000000000000000000e+00
-5.381569789194803333e-01 -1.622206595062359424e+00 3.942717883968206993e-01 -1.334414011269495548e+00 -3.052718783816251108e-04 0.000000000000000000e+00 0.000000000000000000e+00 0.000000000000000000e+00 0.000000000000000000e+00 0.000000000000000000e+00
-5.381569789194803333e-01 -1.622206595062359424e+00 3.942717883968206993e-01 -1.334414011269495548e+00 -3.052718783816251108e-04 0.000000000000000000e+00 0.000000000000000000e+00 0.000000000000000000e+00 0.000000000000000000e+00 0.000000000000000000e+00
-5.381569789194803333e-01 -1.622206595062359424e+00 3.942717883968206993e-01 -1.334414011269495548e+00 -3.052718783816251108e-04 0.000000000000000000e+00 0.000000000000000000e+00 0.000000000000000000e+00 0.000000000000000000e+00 0.000000000000000000e+00
-5.381569789194803333e-01 -1.622206595062359424e+00 3.942717883968206993e-01 -1.334414011269495548e+00 -3.052718783816251108e-04 0.000000000000000000e+00 0.000000000000000000e+00 0.000000000000000000e+00 0.000000000000000000e+00 0.000000000000000000e+00
-5.381569789194803333e-01 -1.622206595062359424e+00 3.942717883968206993e-01 -1.334414011269495548e+00 -3.052718783816251108e-04 0.000000000000000000e+00 0.000000000000000000e+00 0.000000000000000000e+00 0.000000000000000000e+00 0.000000000000000000e+00
-5.381569789194803333e-01 -1.622206595062359424e+00 3.942717883968206993e-01 -1.334414011269495548e+00 -3.052718783816251108e-04 0.000000000000000000e+00 0.000000000000000000e+00 0.000000000000000000e+00 0.000000000000000000e+00 0.000000000000000000e+00
