-6.780611053852433345e-01 -7.110254857218668845e-02 7.198266046671143448e-01 -1.584942652560056287e+00 0.000000000000000000e+00 -8.113310761775072155e-04 -1.805620023105254657e-04 5.486036300346233685e-04 -1.084276854658949851e-03 0.000000000000000000e+00
-6.760532810988966190e-01 -7.720090840608477556e-02 7.151315650850736949e-01 -1.597260826360461072e+00 -7.939797954449403258e-05 4.015648572693472640e-02 -1.219671966779618255e-01 -9.390079164081266416e-02 -2.463634760080949393e-01 -1.587959590889880326e-03
-6.715312174598425665e-01 -8.929442985998634064e-02 7.063283986104521572e-01 -1.618849355972552084e+00 -1.817677350477870648e-04 9.044127278108109180e-02 -2.418704290780313848e-01 -1.760633294924300873e-01 -4.317705922418190179e-01 -2.047395110065860536e-03
-6.640772317772479783e-01 -1.072429963697923427e-01 6.939114672839307163e-01 -1.646882082802788139e+00 -3.009123056795733097e-04 1.490797136518910160e-01 -3.589713301961199310e-01 -2.483386265304281526e-01 -5.606545366047190893e-01 -2.382891412635725330e-03
-6.533083252197451340e-01 -1.308682996407979915e-01 6.784067851964934448e-01 -1.678685538448855485e+00 -4.368729578819970159e-04 2.153781311500558293e-01 -4.725060654201131971e-01 -3.100936417487456520e-01 -6.360691129213447148e-01 -2.719213044048473908e-03
-6.388578542746543576e-01 -1.599616768228136476e-01 6.604844441892209206e-01 -1.711720132195200472e+00 -5.849737086167573112e-04 2.890094189018161397e-01 -5.818675436403127899e-01 -3.584468201454494296e-01 -6.606918749268990698e-01 -2.962015014695205690e-03
-6.203580896221789764e-01 -1.942888861945835099e-01 6.410314743891306621e-01 -1.743582811314470016e+00 -7.337585667181052143e-04 3.699952930495069015e-01 -6.865441874353970242e-01 -3.890593960018042807e-01 -6.372535823853887615e-01 -2.975697162026958061e-03
-5.974299192155080318e-01 -2.335852411286534480e-01 6.211810749662159958e-01 -1.772061445505742849e+00 -8.662192221781991192e-04 4.585634081334185042e-01 -7.859270986813988724e-01 -3.970079884582924379e-01 -5.695726838254573376e-01 -2.649213109201879399e-03
-5.696761636894536185e-01 -2.775425114556091533e-01 6.022958080985275631e-01 -1.795219821401621951e+00 -9.638224635168635927e-04 5.550751105210889325e-01 -8.791454065391138828e-01 -3.777053373537684333e-01 -4.631675179175804846e-01 -1.952064826773290337e-03
-5.366727167635555462e-01 -3.257908731603339492e-01 5.859081935198511282e-01 -1.811476785917244037e+00 -1.014082570539177452e-03 6.600689385179605573e-01 -9.649672340944961402e-01 -3.277522915735284759e-01 -3.251392903124408762e-01 -1.005202140446277616e-03
-4.979555034070794473e-01 -3.778779371255861497e-01 5.736310615641189159e-01 -1.819662675085144787e+00 -1.029382157237918125e-03 7.743442671295219792e-01 -1.041741279305043344e+00 -2.455426391146437459e-01 -1.637177833580130415e-01 -3.059917339748150942e-04
-4.530029122675544029e-01 -4.332487023764831635e-01 5.670558440634471120e-01 -1.819036170320369461e+00 -1.030933857759097193e-03 8.990518227905003323e-01 -1.107415305017940277e+00 -1.315043500134351340e-01 1.253009529550691559e-02 -3.103401042358087730e-05
-4.012178183397879794e-01 -4.912290188061294582e-01 5.676619143126988565e-01 -1.809267237645258986e+00 -1.027361454254779264e-03 1.035701878555328248e+00 -1.159606328592926339e+00 1.212140498503425090e-02 1.953786535022104254e-01 7.144807008636047316e-05
-3.419152901879829454e-01 -5.510152620362712694e-01 5.767541271594496255e-01 -1.790395789308246277e+00 -1.021600544203142514e-03 1.186050563036100902e+00 -1.195724864602836668e+00 1.818442569350158522e-01 3.774289667402533355e-01 1.152182010327328939e-04
-2.743239982169872193e-01 -6.116717692612654300e-01 5.954316501009140339e-01 -1.762776585469463697e+00 -1.015276432146277382e-03 1.351825839419914743e+00 -1.213130144499883878e+00 3.735504588292891670e-01 5.523840767756522663e-01 1.264822411373036737e-04
-1.976084652354443139e-01 -6.721382266507616166e-01 6.245798527664722100e-01 -1.727011682059044650e+00 -1.009829824029137959e-03 1.534310659630857998e+00 -1.209329147789924841e+00 5.829640533111640766e-01 7.152980682083815989e-01 1.089321623427901914e-04
-1.109211406033386582e-01 -7.312455415685747973e-01 6.648637710877752793e-01 -1.683880967857749322e+00 -1.006470900439891463e-03 1.733746492642113113e+00 -1.182146298356263392e+00 8.056783664260604994e-01 8.626142840259044542e-01 6.717847178492936024e-05
-1.349309107738277946e-02 -7.877369990164663216e-01 7.166956229983844073e-01 -1.634283557601932779e+00 -1.006057074555179827e-03 1.948560990519117464e+00 -1.129829148957831153e+00 1.036637038212182560e+00 9.919482051163308611e-01 8.276517694233930487e-06
9.523350396297075582e-02 -8.402938933879117167e-01 7.801551698109032706e-01 -1.579188881919270759e+00 -1.009367527468113404e-03 2.174531900807070706e+00 -1.051137887428908568e+00 1.269190936250378376e+00 1.101893513653241952e+00 -6.620905825867280442e-05
2.154413380477622209e-01 -8.875687632645399283e-01 8.548625122730431070e-01 -1.519577050981678612e+00 -1.017529420045437324e-03 2.404156681695829523e+00 -9.454973975325632329e-01 1.494146849242795838e+00 1.192236618751844723e+00 -1.632378515464767200e-04
3.467681950133116864e-01 -9.282296283911117829e-01 9.398273886841500557e-01 -1.456354414905147276e+00 -1.031923721806809980e-03 2.626537139310989755e+00 -8.132173025314378689e-01 1.699297528222139420e+00 1.264452721530626045e+00 -2.878860352274521415e-04
4.881753160333030528e-01 -9.610198515877086400e-01 1.033326074204556910e+00 -1.390230591174666630e+00 -1.046072494615907580e-03 2.828142420399827106e+00 -6.558044639319361435e-01 1.869973710408136203e+00 1.322476474609614705e+00 -2.829754561819520565e-04
6.379091211153768981e-01 -9.848361847276255743e-01 1.132881722144909453e+00 -1.321571748407364577e+00 -9.980286668495566733e-04 2.994676101641476684e+00 -4.763266627983388513e-01 1.991112958807051525e+00 1.373176855346041947e+00 9.608765553270190093e-04
7.935936107024441633e-01 -9.988187230030135533e-01 1.235402716690692904e+00 -1.250286407644014330e+00 -8.625543910501921960e-04 3.113689791741344415e+00 -2.796507655077588583e-01 2.050419890915668564e+00 1.425706815267003824e+00 2.709485515987289980e-03
9.524573151729940346e-01 -1.002437079036276213e+00 1.337488820336897088e+00 -1.175815592296452827e+00 -6.324788632456606208e-04 3.177274089410996538e+00 -7.236712066525144427e-02 2.041722072924082365e+00 1.489416306951230062e+00 4.601510556090629769e-03
1.111652532119466352e+00 -9.955500295344107409e-01 1.435842795206256461e+00 -1.097262472769485298e+00 -3.147714539880356807e-04 3.183904338929446798e+00 1.377409900373100793e-01 1.967079497387188791e+00 1.571062390539352593e+00 6.354148185152498803e-03
1.268581092831892132e+00 -9.784189148649670154e-01 1.527660701103642937e+00 -1.013635683822742051e+00 7.207096251360384622e-05 3.138571214248512931e+00 3.426222933888750655e-01 1.836358117947727742e+00 1.672535778934863160e+00 7.736848330032790322e-03
1.421153150129358167e+00 -9.516739146252399806e-01 1.610909404973323689e+00 -9.241091404040764345e-01 4.972185161100095563e-04 3.051441145949318035e+00 5.349000047945413616e-01 1.664974077393613028e+00 1.790530868373313211e+00 8.502951071928114418e-03
1.567935291812689869e+00 -9.162446439307916357e-01 1.684461052684762095e+00 -8.282038656097140406e-01 8.987354459446004811e-04 2.935642833666634033e+00 7.085854138889656761e-01 1.471032954228765677e+00 1.918105495887247658e+00 8.030338596691818931e-03
1.708180769301375745e+00 -8.732694656030678404e-01 1.748111893675121431e+00 -7.258545244284416720e-01 1.095342829808567146e-03 2.804909549773718425e+00 8.595035665544757952e-01 1.273016819807186506e+00 2.046986823625447371e+00 3.932147677279334598e-03
