-7.976060255518315767e-01 -1.077189490304954145e+00 -5.078268175750261237e-02 -1.155020896352787485e+00 1.003764179548711491e-03 -1.524569321616940643e-01 -7.798782604419958187e-01 -2.713999187245190181e-01 8.615256082026778728e-01 1.937424552248893624e-04
-8.048696702687130333e-01 -1.116253164896415351e+00 -6.355479185686363497e-02 -1.111102498980881315e+00 1.003678301259089758e-03 -1.452728943376301873e-01 -7.812734918292231212e-01 -2.554422019872203409e-01 8.783679474381237418e-01 -1.717565792435537435e-06
-8.119934794573936410e-01 -1.155354402384065615e+00 -7.599456116581879139e-02 -1.066459731963919522e+00 9.963529207886853614e-04 -1.424761837736127912e-01 -7.820247497530059544e-01 -2.487953861791032395e-01 8.928553403392353038e-01 -1.465076094080889995e-04
-8.192686011852130523e-01 -1.194471741243180229e+00 -8.864670977796000606e-02 -1.021167957764857137e+00 9.721879645059591573e-04 -1.455024345563890598e-01 -7.823467771822931738e-01 -2.530429722428243489e-01 9.058354839812465809e-01 -4.832991256545248393e-04
-8.270811819693795197e-01 -1.233589411476160302e+00 -1.021780527089808099e-01 -9.752657656960018739e-01 9.347886328327626284e-04 0.000000000000000000e+00 0.000000000000000000e+00 0.000000000000000000e+00 0.000000000000000000e+00 0.000000000000000000e+00
-8.270811819693795197e-01 -1.233589411476160302e+00 -1.021780527089808099e-01 -9.752657656960018739e-01 9.347886328327626284e-04 0.000000000000000000e+00 0.000000000000000000e+00 0.000000000000000000e+00 0.000000000000000000e+00 0.000000000000000000e+00
-8.270811819693795197e-01 -1.233589411476160302e+00 -1.021780527089808099e-01 -9.752657656960018739e-01 9.347886328327626284e-04 0.000000000000000000e+00 0.000000000000000000e+00 0.000000000000000000e+00 0.000000000000000000e+00 0.000000000000000000e+00
-8.270811819693795197e-01 -1.233589411476160302e+00 -1.021780527089808099e-01 -9.752657656960018739e-01 9.347886328327626284e-04 0.000000000000000000e+00 0.000000000000000000e+00 0.000000000000000000e+00 0.000000000000000000e+00 0.000000000000000000e+00
-8.270811819693795197e-01 -1.233589411476160302e+00 -1.021780527089808099e-01 -9.752657656960018739e-01 9.347886328327626284e-04 0.000000000000000000e+00 0.000000000000000000e+00 0.000000000000000000e+00 0.000000000000000000e+00 0.000000000000000000e+00
-8.270811819693795197e-01 -1.233589411476160302e+00 -1.021780527089808099e-01 -9.752657656960018739e-01 9.347886328327626284e-04 0.000000000000000000e+00 0.000000000000000000e+00 0.000000000000000000e+00 0.000000000000000000e+00 0.000000000000000000e+00
-8.270811819693795197e-01 -1.233589411476160302e+00 -1.021780527089808099e-01 -9.752657656960018739e-01 9.347886328327626284e-04 0.000000000000000000e+00 0.000000000000000000e+00 0.000000000000000000e+00 0.000000000000000000e+00 0.000000000000000000e+00
-8.270811819693795197e-01 -1.233589411476160302e+00 -1.021780527089808099e-01 -9.752657656960018739e-01 9.347886328327626284e-04 0.000000000000000000e+00 0.000000000000000000e+00 0.000000000000000000e+00 0.000000000000000000e+00 0.000000000000000000e+00
-8.270811819693795197e-01 -1.233589411476160302e+00 -1.021780527089808099e-01 -9.752657656960018739e-01 9.347886328327626284e-04 0.000000000000000000e+00 0.000000000000000000e+00 0.000000000000000000e+00 0.000000000000000000e+00 0.000000000000000000e+00
-8.270811819693795197e-01 -1.233589411476160302e+00 -1.021780527089808099e-01 -9.752657656960018739e-01 9.347886328327626284e-04 0.000000000000000000e+00 0.000000000000000000e+00 0.000000000000000000e+00 0.000000000000000000e+00 0.000000000000000000e+00
-8.270811819693795197e-01 -1.233589411476160302e+00 -1.021780527089808099e-01 -9.752657656960018739e-01 9.347886328327626284e-04 0.000000000000000000e+00 0.000000000000000000e+00 0.000000000000000000e+00 0.000000000000000000e+00 0.000000000000000000e+00
-8.270811819693795197e-01 -1.233589411476160302e+00 -1.021780527089808099e-01 -9.752657656960018739e-01 9.347886328327626284e-04 0.000000000000000000e+00 0.000000000000000000e+00 0.000000000000000000e+00 0.000000000000000000e+00 0.000000000000000000e+00
-8.270811819693795197e-01 -1.233589411476160302e+00 -1.021780527089808099e-01 -9.752657656960018739e-01 9.347886328327626284e-04 0.000000000000000000e+00 0.000000000000000000e+00 0.000000000000000000e+00 0.000000000000000000e+00 0.000000000000000000e+00
-8.270811819693795197e-01 -1.233589411476160302e+00 -1.021780527089808099e-01 -9.752657656960018739e-01 9.347886328327626284e-04 0.000000000000000000e+00 0.000000000000000000e+00 0.000000000000000000e+00 0.000000000000000000e+00 0.000000000000000000e+00
-8.270811819693795197e-01 -1.233589411476160302e+00 -1.021780527089808099e-01 -9.752657656960018739e-01 9.347886328327626284e-04 0.000000000000000000e+00 0.000000000000000000e+00 0.000000000000000000e+00 0.000000000000000000e+00 0.000000000000000000e+00
-8.270811819693795197e-01 -1.233589411476160302e+00 -1.021780527089808099e-01 -9.752657656960018739e-01 9.347886328327626284e-04 0.000000000000000000e+00 0.000000000000000000e+00 0.000000000000000000e+00 0.000000000000000000e+00 0.000000000000000000e+00
-8.270811819693795197e-01 -1.233589411476160302e+00 -1.021780527089808099e-01 -9.752657656960018739e-01 9.347886328327626284e-04 0.000000000000000000e+00 0.000000000000000000e+00 0.000000000000000000e+00 0.000000000000000000e+00 0.000000000000000000e+00
-8.270811819693795197e-01 -1.233589411476160302e+00 -1.021780527089808099e-01 -9.752657656960018739e-01 9.347886328327626284e-04 0.000000000000000000e+00 0.000000000000000000e+00 0.000000000000000000e+00 0.000000000000000000e+00 0.000000000000000000e+00
-8.270811819693795197e-01 -1.233589411476160302e+00 -1.021780527089808099e-01 -9.752657656960018739e-01 9.347886328327626284e-04 0.000000000000000000e+00 0.000000000000000000e+00 0.000000000000000000e+00 0.000000000000000000e+00 0.000000000000000000e+00
-8.270811819693795197e-01 -1.233589411476160302e+00 -1.021780527089808099e-01 -9.752657656960018739e-01 9.347886328327626284e-04 0.000000000000000000e+00 0.000000000000000000e+00 0.000000000000000000e+00 0.000000000000000000e+00 0.000000000000000000e+00
-8.270811819693795197e-01 -1.233589411476160302e+00 -1.021780527089808099e-01 -9.752657656960018739e-01 9.347886328327626284e-04 0.000000000000000000e+00 0.000000000000000000e+00 0.000000000000000000e+00 0.000000000000000000e+00 0.000000000000000000e+00
-8.270811819693795197e-01 -1.233589411476160302e+00 -1.021780527089808099e-01 -9.752657656960018739e-01 9.347886328327626284e-04 0.000000000000000000e+00 0.000000000000000000e+00 0.000000000000000000e+00 0.000000000000000000e+00 0.000000000000000000e+00
-8.270811819693795197e-01 -1.233589411476160302e+00 -1.021780527089808099e-01 -9.752657656960018739e-01 9.347886328327626284e-04 0.000000000000000000e+00 0.000000000000000000e+00 0.000000000000000000e+00 0.000000000000000000e+00 0.000000000000000000e+00
-8.270811819693795197e-01 -1.233589411476160302e+00 -1.021780527089808099e-01 -9.752657656960018739e-01 9.347886328327626284e-04 0.000000000000000000e+00 0.000000000000000000e+00 0.000000000000000000e+00 0.000000000000000000e+00 0.000000000000000000e+00
-8.270811819693795197e-01 -1.233589411476160302e+00 -1.021780527089808099e-01 -9.752657656960018739e-01 9.347886328327626284e-04 0.000000000000000000e+00 0.000000000000000000e+00 0.000000000000000000e+00 0.000000000000000000e+00 0.000000000000000000e+00
-8.270811819693795197e-01 -1.233589411476160302e+00 -1.021780527089808099e-01 -9.752657656960018739e-01 9.347886328327626284e-04 0.000000000000000000e+00 0.000000000000000000e+00 0.000000000000000000e+00 0.000000000000000000e+00 0.000000000000000000e+00
-8.270811819693795197e-01 -1.233589411476160302e+00 -1.021780527089808099e-01 -9.752657656960018739e-01 9.347886328327626284e-04 0.000000000000000000e+00 0.000000000000000000e+00 0.000000000000000000e+00 0.000000000000000000e+00 0.000000000000000000e+00
