-4.757155578867809931e-01 -2.549561718789953094e-02 7.385224811136013034e-01 -1.888733721153303957e+00 -4.804037896822910627e-05 4.568934703866091018e-01 -4.201106235030170888e-01 1.546035406798944301e-01 -9.979291318529080745e-02 -2.975037120551422940e-04
-4.482289694059807816e-01 -5.022986838268654608e-02 7.483674405077842540e-01 -1.889123290321613746e+00 -6.314801397804150175e-05 5.497317696160042289e-01 -4.946850238957402057e-01 1.968991878836582332e-01 -7.791383366193879723e-03 -3.021527001962478554e-04
-4.161832841496052593e-01 -7.840176156941915109e-02 7.605305792127099451e-01 -1.883669435541093007e+00 -8.032418913263324601e-05 6.409137051275105579e-01 -5.634378637346519891e-01 2.432627740985143228e-01 1.090770956104163136e-01 -3.435235030918347768e-04
-3.797045251054742554e-01 -1.096471464010844166e-01 7.751488532141034282e-01 -1.871480810091509017e+00 -1.039938570757754552e-04 7.295751808826194118e-01 -6.249076966333053651e-01 2.923654800278701615e-01 2.437725089916816246e-01 -4.733933588628441843e-04
-3.389548913107719441e-01 -1.435333902430028785e-01 7.922772127404570375e-01 -1.852025446532201691e+00 -1.397496545655821224e-04 8.149926758940457816e-01 -6.777248768383691280e-01 3.425671905270721851e-01 3.891072711861478517e-01 -7.151159497961331272e-04
-2.941228992646512941e-01 -1.795708430511279985e-01 8.118898664101971141e-01 -1.825110162274666381e+00 -1.925314560328909104e-04 8.966398409224131116e-01 -7.207490561625025105e-01 3.922530733948015325e-01 5.383056851507080909e-01 -1.055636029346175868e-03
-2.454125343345303079e-01 -2.172292463031483267e-01 8.338946887132928643e-01 -1.790836871846988254e+00 -2.649021553761797695e-04 9.742072986024200576e-01 -7.531680650404065647e-01 4.400964460619142260e-01 6.854658085535626499e-01 -1.447413986865776856e-03
-1.930337748310869406e-01 -2.559561403452716988e-01 8.581516442408450018e-01 -1.749544472808878259e+00 -3.567671313241648889e-04 1.047575190068867457e+00 -7.745378808424676631e-01 4.851391105510425850e-01 8.258479807622014501e-01 -1.837299518959703039e-03
-1.371945114936574117e-01 -2.951951652070861631e-01 8.844936871179593929e-01 -1.701742437961448529e+00 -4.646282889485788469e-04 1.116785266748590244e+00 -7.847804972362895093e-01 5.268408575422888207e-01 9.560406969485939488e-01 -2.157223152488279162e-03
-7.809621539827071857e-02 -3.344015928886226452e-01 9.127400807109063985e-01 -1.648048469723004450e+00 -5.821907539203909684e-04 1.181965921907733641e+00 -7.841285536307295301e-01 5.649278718589408887e-01 1.073879364768879796e+00 -2.351249299436241995e-03
-1.593283349786846909e-02 -3.730545290231493394e-01 9.427022691490029027e-01 -1.589133945017802585e+00 -7.010188418353946634e-04 1.243267638008044962e+00 -7.730587226905334397e-01 5.992437687619307507e-01 1.178290494104035524e+00 -2.376561758300074767e-03
4.910789010851728670e-02 -4.106661937319331934e-01 9.741818862398164969e-01 -1.525677098526681430e+00 -8.114214303196236799e-04 1.300814472127715060e+00 -7.522332941756775249e-01 6.295923418162713281e-01 1.269136929822421322e+00 -2.208051769684580765e-03
1.168412845177489723e-01 -4.467889234328087378e-01 1.006961862775823446e+00 -1.458323968427269524e+00 -9.036901218366006662e-04 1.354667888184633684e+00 -7.224545940175112202e-01 6.555995307201391009e-01 1.347062601988236574e+00 -1.845373830339540376e-03
1.870816457263998478e-01 -4.810204915035424800e-01 1.040794431081941029e+00 -1.387658342960638835e+00 -9.691250682228010407e-04 1.404807224173016955e+00 -6.846313614146742887e-01 6.766513661223504394e-01 1.413312509332612432e+00 -1.308698927724006840e-03
2.596377727797375412e-01 -5.130082977346959172e-01 1.075388893167876780e+00 -1.314181747743040862e+00 -1.000729557885348276e-03 1.451122541066753202e+00 -6.397561246230683007e-01 6.918892417187129107e-01 1.469531904351958573e+00 -6.320897932509436223e-04
3.343082587180525311e-01 -5.424529579603921681e-01 1.110401177805414807e+00 -1.238305747894948405e+00 -9.939904715069358600e-04 1.493409718766299576e+00 -5.888932045139246840e-01 7.002456927507602069e-01 1.517519996961850248e+00 1.347817275682475615e-04
4.108767165956104805e-01 -5.691119644477655726e-01 1.145426752353807309e+00 -1.160357835619006295e+00 -9.448025499878886851e-04 1.531369157551158988e+00 -5.331801297474687562e-01 7.005114909678488155e-01 1.558958245518844432e+00 9.837584303809437155e-04
4.891113070481988290e-01 -5.928051977750686818e-01 1.180004654185314195e+00 -1.080589121253540785e+00 -8.516636704872859254e-04 1.564691809051767635e+00 -4.738646665460621854e-01 6.915580366301394832e-01 1.595374287309307970e+00 1.862777590012054760e-03
5.687687825446700041e-01 -6.134218311800035961e-01 1.213633647253484771e+00 -9.991840871834725135e-01 -7.152176442035648209e-04 1.593149509929422836e+00 -4.123326680986992288e-01 6.725798613634114131e-01 1.628100681401364769e+00 2.728920525674422958e-03
6.496026966586908591e-01 -6.309276848644105318e-01 1.245801295081398363e+00 -9.162728822109577065e-01 -5.382964660248720778e-04 1.616678282280417323e+00 -3.501170736881380474e-01 6.433529565582702947e-01 1.658224099450296363e+00 3.538423563573853993e-03
7.313752177586980707e-01 -6.453716721727125183e-01 1.276026246298245237e+00 -8.319446530871384970e-01 -3.261403074551861387e-04 1.635450422000143789e+00 -2.888797461660403409e-01 6.044990243369368077e-01 1.686564582476383745e+00 4.243123171393718349e-03
8.138711401320442018e-01 -6.568893457567546168e-01 1.303912159188076458e+00 -7.462606709396835125e-01 -8.627812888955179870e-05 1.649918447466923510e+00 -2.303534716808412763e-01 5.577182577966240951e-01 1.713679642949100135e+00 4.797243571312686042e-03
8.969128105666482886e-01 -6.657017112726875130e-01 1.329213010627227520e+00 -6.592664070699445489e-01 1.718778909506024058e-04 1.660833408692081736e+00 -1.762473103186577017e-01 5.060170287830202396e-01 1.739885277394780383e+00 5.163120396803083656e-03
9.803743289462059085e-01 -6.721070030907208004e-01 1.351906372470161655e+00 -5.710012261695671665e-01 4.384737637175492586e-04 1.669230367591151509e+00 -1.281058363606651374e-01 4.538672368586831318e-01 1.765303618007548758e+00 5.331917455338936948e-03
1.064193596147722021e+00 -6.764628132489092227e-01 1.372268150531753550e+00 -4.815043382318295873e-01 7.084129397054703993e-04 1.676385344030320912e+00 -8.711620316376876560e-02 4.072355612318375728e-01 1.789937758754750918e+00 5.398783519758421079e-03
1.148380602531820394e+00 -6.791560477282699848e-01 1.390935628846120320e+00 -3.908169841939680422e-01 1.000852868368981748e-03 0.000000000000000000e+00 0.000000000000000000e+00 0.000000000000000000e+00 0.000000000000000000e+00 0.000000000000000000e+00
1.148380602531820394e+00 -6.791560477282699848e-01 1.390935628846120320e+00 -3.908169841939680422e-01 1.000852868368981748e-03 0.000000000000000000e+00 0.000000000000000000e+00 0.000000000000000000e+00 0.000000000000000000e+00 0.000000000000000000e+00
1.148380602531820394e+00 -6.791560477282699848e-01 1.390935628846120320e+00 -3.908169841939680422e-01 1.000852868368981748e-03 0.000000000000000000e+00 0.000000000000000000e+00 0.000000000000000000e+00 0.000000000000000000e+00 0.000000000000000000e+00
1.148380602531820394e+00 -6.791560477282699848e-01 1.390935628846120320e+00 -3.908169841939680422e-01 1.000852868368981748e-03 0.000000000000000000e+00 0.000000000000000000e+00 0.000000000000000000e+00 0.000000000000000000e+00 0.000000000000000000e+00
1.148380602531820394e+00 -6.791560477282699848e-01 1.390935628846120320e+00 -3.908169841939680422e-01 1.000852868368981748e-03 0.000000000000000000e+00 0.000000000000000000e+00 0.000000000000000000e+00 0.000000000000000000e+00 0.000000000000000000e+00
1.148380602531820394e+00 -6.791560477282699848e-01 1.390935628846120320e+00 -3.908169841939680422e-01 1.000852868368981748e-03 0.000000000000000000e+00 0.000000000000000000e+00 0.000000000000000000e+00 0.000000000000000000e+00 0.000000000000000000e+00
