-3.585498247190255228e-01 -2.253284118492776822e-01 2.897623466766545142e-01 -1.470347452836776148e+00 -5.698669973085037201e-04 -4.615934395248935118e-01 -2.558330469389984430e-01 -1.009709552870653004e+00 -1.859828381777998696e-01 -4.834488957039546203e-03
-3.816477476741304553e-01 -2.408851702058608657e-01 2.396245816782011928e-01 -1.469980545027790741e+00 -7.912754174701896320e-04 -4.619584591020989284e-01 -3.111351671316633927e-01 -1.002755299969066538e+00 7.338156179707733262e-03 -4.428168403233719540e-03
-4.047168433231513873e-01 -2.593000147711320147e-01 1.908034657317921046e-01 -1.459517287836993082e+00 -9.591426117725968415e-04 -4.613819129804185293e-01 -3.682968913054228688e-01 -9.764223189281818760e-01 2.092651438159525701e-01 -3.357343886048142888e-03
-4.277744490065210625e-01 -2.805759538680663301e-01 1.441578340129806290e-01 -1.438992664103995844e+00 -1.016267996598868920e-03 -4.611521136673930044e-01 -4.255187819386860304e-01 -9.329126343762295104e-01 4.104924746599430407e-01 -1.142507696525442863e-03
-4.508889543110701226e-01 -3.046205137005693619e-01 1.003709174495166639e-01 -1.408871076640011433e+00 -1.027497643541451944e-03 -4.622901060909812565e-01 -4.808911966500603041e-01 -8.757383312692793575e-01 6.024317492796882334e-01 -2.245929388516604980e-04
-4.741635562569577189e-01 -3.312506391273022377e-01 5.991516445223857984e-02 -1.369972183754237127e+00 -1.025133849553434883e-03 -4.654920389177514828e-01 -5.326025085346572929e-01 -8.091150599455615433e-01 7.779778577154849994e-01 4.727587976033966214e-05
-4.977208560340533050e-01 -3.602067017461664800e-01 2.304981934250276837e-02 -1.323373763740412379e+00 -1.018025113671576802e-03 -4.711459955419114998e-01 -5.791212523772850673e-01 -7.373069021947161739e-01 9.319684002764929698e-01 1.421747176371623259e-04
-5.216897673539542257e-01 -3.911760509101291361e-01 -1.015112264112528334e-02 -1.270297498344541420e+00 -1.003064776123426070e-03 -4.793782263980195246e-01 -6.193869832792535668e-01 -6.640188396725609232e-01 1.061525307917420946e+00 2.992067509630150202e-04
-5.461965063727063363e-01 -4.238198658335912139e-01 -3.975629738128917678e-02 -1.211998888306125899e+00 -9.613256110305182451e-04 -4.901347803750421561e-01 -6.528762984692416671e-01 -5.921034948032778411e-01 1.165972200768311540e+00 8.347833018581567090e-04
-5.713591574966773168e-01 -4.578000723852336251e-01 -6.592883217324005396e-02 -1.149671749822496425e+00 -8.561038591682072676e-04 -5.032530224794192764e-01 -6.796041310328477802e-01 -5.234506958390175990e-01 1.246542769672590811e+00 2.104435037246219983e-03
-5.972854468575505837e-01 -4.928018915535828937e-01 -8.888634920316149102e-02 -1.084376097807496331e+00 -7.436752208087602303e-04 -5.185257872174648952e-01 -7.000363833669851488e-01 -4.591503405984288522e-01 1.305913040300002770e+00 2.248572767188940745e-03
-6.240731460418530441e-01 -5.285479611788799215e-01 -1.088762894675855408e-01 -1.016999878987872474e+00 -6.453979400698687651e-04 -5.357539836860488736e-01 -7.149213925059410002e-01 -3.997988052884808852e-01 1.347524376392476908e+00 1.965545614777828871e-03
-6.518117964703669109e-01 -5.648049523679443684e-01 -1.261632743738806128e-01 -9.482484452076168635e-01 -5.708043447005377042e-04 -5.547730085702781144e-01 -7.251398237812898273e-01 -3.457396981259014401e-01 1.375028675605112882e+00 1.491871907386619917e-03
-6.805850438309920536e-01 -6.013826524239933580e-01 -1.410274474003246070e-01 -8.786585352659666004e-01 -5.250151993795643861e-04 -5.754649472125035192e-01 -7.315540011209790139e-01 -2.972834605288800502e-01 1.391798198833005040e+00 9.157829064194660364e-04
-7.104723090706031030e-01 -6.381319274893966220e-01 -1.537742299269506951e-01 -8.086065770297323763e-01 -5.108817141638724926e-04 -5.977453047922199891e-01 -7.349855013080641708e-01 -2.549356505325215405e-01 1.401039164724684483e+00 2.826697043138375444e-04
-7.415497447105775519e-01 -6.749431522243816151e-01 -1.647504964975194941e-01 -7.383073642954373073e-01 -5.301630417386014524e-04 -6.215487127994882011e-01 -7.362244946996997497e-01 -2.195253314113759235e-01 1.405984254685902268e+00 -3.856265514945796287e-04
-7.738929428821113010e-01 -7.117364507680628005e-01 -1.743719347813837417e-01 -6.678368295769457896e-01 -5.882017463893387914e-04 -6.468639634306747599e-01 -7.358659708736230431e-01 -1.924287656772846744e-01 1.409410694369829464e+00 -1.160774093014746563e-03
-8.075808053448659818e-01 -7.484497442983303328e-01 -1.831558021133977421e-01 -5.971574154403622714e-01 -7.108192606490329685e-04 -6.737572492550942815e-01 -7.342658706053497575e-01 -1.756773466402798134e-01 1.413588282731671253e+00 -2.452350285193883109e-03
-8.427015214729537407e-01 -7.850264149327043084e-01 -1.917691506302514892e-01 -5.261333713908055154e-01 -1.002369197978492457e-03 0.000000000000000000e+00 0.000000000000000000e+00 0.000000000000000000e+00 0.000000000000000000e+00 0.000000000000000000e+00
-8.427015214729537407e-01 -7.850264149327043084e-01 -1.917691506302514892e-01 -5.261333713908055154e-01 -1.002369197978492457e-03 0.000000000000000000e+00 0.000000000000000000e+00 0.000000000000000000e+00 0.000000000000000000e+00 0.000000000000000000e+00
-8.427015214729537407e-01 -7.850264149327043084e-01 -1.917691506302514892e-01 -5.261333713908055154e-01 -1.002369197978492457e-03 0.000000000000000000e+00 0.000000000000000000e+00 0.000000000000000000e+00 0.000000000000000000e+00 0.000000000000000000e+00
-8.427015214729537407e-01 -7.850264149327043084e-01 -1.917691506302514892e-01 -5.261333713908055154e-01 -1.002369197978492457e-03 0.000000000000000000e+00 0.000000000000000000e+00 0.000000000000000000e+00 0.000000000000000000e+00 0.000000000000000000e+00
-8.427015214729537407e-01 -7.850264149327043084e-01 -1.917691506302514892e-01 -5.261333713908055154e-01 -1.002369197978492457e-03 0.000000000000000000e+00 0.000000000000000000e+00 0.000000000000000000e+00 0.000000000000000000e+00 0.000000000000000000e+00
-8.427015214729537407e-01 -7.850264149327043084e-01 -1.917691506302514892e-01 -5.261333713908055154e-01 -1.002369197978492457e-03 0.000000000000000000e+00 0.000000000000000000e+00 0.000000000000000000e+00 0.000000000000000000e+00 0.000000000000000000e+00
-8.427015214729537407e-01 -7.850264149327043084e-01 -1.917691506302514892e-01 -5.261333713908055154e-01 -1.002369197978492457e-03 0.000000000000000000e+00 0.000000000000000000e+00 0.000000000000000000e+00 0.000000000000000000e+00 0.000000000000000000e+00
-8.427015214729537407e-01 -7.850264149327043084e-01 -1.917691506302514892e-01 -5.261333713908055154e-01 -1.002369197978492457e-03 0.000000000000000000e+00 0.000000000000000000e+00 0.000000000000000000e+00 0.000000000000000000e+00 0.000000000000000000e+00
-8.427015214729537407e-01 -7.850264149327043084e-01 -1.917691506302514892e-01 -5.261333713908055154e-01 -1.002369197978492457e-03 0.000000000000000000e+00 0.000000000000000000e+00 0.000000000000000000e+00 0.000000000000000000e+00 0.000000000000000000e+00
-8.427015214729537407e-01 -7.850264149327043084e-01 -1.917691506302514892e-01 -5.261333713908055154e-01 -1.002369197978492457e-03 0.000000000000000000e+00 0.000000000000000000e+00 0.000000000000000000e+00 0.000000000000000000e+00 0.000000000000000000e+00
-8.427015214729537407e-01 -7.850264149327043084e-01 -1.917691506302514892e-01 -5.261333713908055154e-01 -1.002369197978492457e-03 0.000000000000000000e+00 0.000000000000000000e+00 0.000000000000000000e+00 0.000000000000000000e+00 0.000000000000000000e+00
-8.427015214729537407e-01 -7.850264149327043084e-01 -1.917691506302514892e-01 -5.261333713908055154e-01 -1.002369197978492457e-03 0.000000000000000000e+00 0.000000000000000000e+00 0.000000000000000000e+00 0.000000000000000000e+00 0.000000000000000000e+00
-8.427015214729537407e-01 -7.850264149327043084e-01 -1.917691506302514892e-01 -5.261333713908055154e-01 -1.002369197978492457e-03 0.000000000000000000e+00 0.000000000000000000e+00 0.000000000000000000e+00 0.000000000000000000e+00 0.000000000000000000e+00
