-6.829303659844991881e-01 -3.250060753498948407e-01 3.909829388166294328e-01 -1.288845528603757895e+00 5.970001508209886020e-04 -7.422702365733160335e-01 -4.902192029637562620e-01 -6.277307224686490272e-01 -3.872707584643532708e-01 -4.309525065987663173e-04
-7.230911217118217715e-01 -3.501687127335737504e-01 3.555680230538312836e-01 -1.309747931693523215e+00 5.540976561139933539e-04 -8.032151145464522246e-01 -5.032527476735779715e-01 -7.082983152559624296e-01 -4.180480617953049038e-01 -8.580498941399053968e-04
-7.663316588839278465e-01 -3.757802718302610812e-01 3.159371627750509059e-01 -1.331796603166541137e+00 4.884811339205310512e-04 -8.648107434421222761e-01 -5.122311819337470595e-01 -7.926172055756078860e-01 -4.409734294603580018e-01 -1.312330443869246487e-03
-8.126639933162674856e-01 -4.016195875905557156e-01 2.719248025870266705e-01 -1.354514432418366887e+00 4.006714368161271738e-04 -9.266466886467921160e-01 -5.167863152058927989e-01 -8.802472037604851529e-01 -4.543565850365163250e-01 -1.756193942088077765e-03
-8.620780590338003035e-01 -4.274470226008563190e-01 2.233935500770617699e-01 -1.377356903520367215e+00 2.931852423057838960e-04 -9.882813143506568032e-01 -5.165487002060117350e-01 -9.706250501992976787e-01 -4.568494220400063921e-01 -2.149723890206865339e-03
-9.145407886650084306e-01 -4.530051937168764198e-01 1.702415280905183459e-01 -1.399734989095174242e+00 1.703221460267424422e-04 -1.049254592624162319e+00 -5.111634223204017946e-01 -1.063040439730868592e+00 -4.475617114961423781e-01 -2.457261925580828642e-03
-9.699953577140995042e-01 -4.780208222355961656e-01 1.124102823530041539e-01 -1.421040465651951079e+00 3.757110282041160529e-05 -1.109091380981820807e+00 -5.003125703743946939e-01 -1.156624914750283617e+00 -4.261095311355375670e-01 -2.655020864126616739e-03
-1.028359822436263116e+00 -5.022088722293913676e-01 4.989256940096331583e-02 -1.440665790797873269e+00 -9.904602916145736078e-05 -1.167289294443272007e+00 -4.837609998759029306e-01 -1.250354259040816762e+00 -3.925065029184449106e-01 -2.732342639637379104e-03
-1.089524873206720201e+00 -5.252795506758972666e-01 -1.725861903095035621e-02 -1.458015240287003245e+00 -2.335784981814307247e-04 -1.223301015409141268e+00 -4.614135689301170906e-01 -1.343023768638273552e+00 -3.469889897825985114e-01 -2.690649380399466953e-03
-1.153351481299272896e+00 -5.469469391536042613e-01 -8.892106589461307165e-02 -1.472510474223267751e+00 -3.606054460711472041e-04 -1.276532161851053448e+00 -4.333477695541396169e-01 -1.433248937273254198e+00 -2.899046787252917423e-01 -2.540538957794329696e-03
-1.219669715127668530e+00 -5.669357937771724032e-01 -1.648992410341783565e-01 -1.483599426235554963e+00 -4.752953214629193081e-04 -1.326364676567912237e+00 -3.997770924713636709e-01 -1.519563502791305698e+00 -2.217790402457437415e-01 -2.293797507835442298e-03
-1.288279405719785276e+00 -5.849843757523320864e-01 -2.449276729821789345e-01 -1.490777075745897573e+00 -5.746368669032194624e-04 -1.372193811842334021e+00 -3.609716395031940528e-01 -1.600568638960011558e+00 -1.435529902068526931e-01 -1.986830908806003736e-03
-1.358950405312287391e+00 -6.008481869208549542e-01 -3.286774655984195936e-01 -1.493596397175479318e+00 -6.587116740151639695e-04 -1.413419991850041191e+00 -3.172762233704565782e-01 -1.674995852324812962e+00 -5.638642859163668641e-02 -1.681496142238888842e-03
-1.431422838152414112e+00 -6.143056055113765845e-01 -4.157628028723051039e-01 -1.491668435957773431e+00 -7.335893524474534780e-04 -1.449448656802533764e+00 -2.691483718104317746e-01 -1.741706745477710205e+00 3.855922435411567040e-02 -1.497553568645789736e-03
-1.505408764743390471e+00 -6.251636328671764664e-01 -5.057513086196282481e-01 -1.484654132468661070e+00 -8.215854676697489575e-04 -1.479718531819526950e+00 -2.171605471159981926e-01 -1.799770114946462440e+00 1.402860697822487790e-01 -1.759922304445910241e-03
-1.580595689880081256e+00 -6.332658761433551664e-01 -5.981718889378188075e-01 -1.472245451169692299e+00 -1.001570775891525312e-03 0.000000000000000000e+00 0.000000000000000000e+00 0.000000000000000000e+00 0.000000000000000000e+00 0.000000000000000000e+00
-1.580595689880081256e+00 -6.332658761433551664e-01 -5.981718889378188075e-01 -1.472245451169692299e+00 -1.001570775891525312e-03 0.000000000000000000e+00 0.000000000000000000e+00 0.000000000000000000e+00 0.000000000000000000e+00 0.000000000000000000e+00
-1.580595689880081256e+00 -6.332658761433551664e-01 -5.981718889378188075e-01 -1.472245451169692299e+00 -1.001570775891525312e-03 0.000000000000000000e+00 0.000000000000000000e+00 0.000000000000000000e+00 0.000000000000000000e+00 0.000000000000000000e+00
-1.580595689880081256e+00 -6.332658761433551664e-01 -5.981718889378188075e-01 -1.472245451169692299e+00 -1.001570775891525312e-03 0.000000000000000000e+00 0.000000000000000000e+00 0.000000000000000000e+00 0.000000000000000000e+00 0.000000000000000000e+00
-1.580595689880081256e+00 -6.332658761433551664e-01 -5.981718889378188075e-01 -1.472245451169692299e+00 -1.001570775891525312e-03 0.000000000000000000e+00 0.000000000000000000e+00 0.000000000000000000e+00 0.000000000000000000e+00 0.000000000000000000e+00
-1.580595689880081256e+00 -6.332658761433551664e-01 -5.981718889378188075e-01 -1.472245451169692299e+00 -1.001570775891525312e-03 0.000000000000000000e+00 0.000000000000000000e+00 0.000000000000000000e+00 0.000000000000000000e+00 0.000000000000000000e+00
-1.580595689880081256e+00 -6.332658761433551664e-01 -5.981718889378188075e-01 -1.472245451169692299e+00 -1.001570775891525312e-03 0.000000000000000000e+00 0.000000000000000000e+00 0.000000000000000000e+00 0.000000000000000000e+00 0.000000000000000000e+00
-1.580595689880081256e+00 -6.332658761433551664e-01 -5.981718889378188075e-01 -1.472245451169692299e+00 -1.001570775891525312e-03 0.000000000000000000e+00 0.000000000000000000e+00 0.000000000000000000e+00 0.000000000000000000e+00 0.000000000000000000e+00
-1.580595689880081256e+00 -6.332658761433551664e-01 -5.981718889378188075e-01 -1.472245451169692299e+00 -1.001570775891525312e-03 0.000000000000000000e+00 0.000000000000000000e+00 0.000000000000000000e+00 0.000000000000000000e+00 0.000000000000000000e+00
-1.580595689880081256e+00 -6.332658761433551664e-01 -5.981718889378188075e-01 -1.472245451169692299e+00 -1.001570775891525312e-03 0.000000000000000000e+00 0.000000000000000000e+00 0.000000000000000000e+00 0.000000000000000000e+00 0.000000000000000000e+00
-1.580595689880081256e+00 -6.332658761433551664e-01 -5.981718889378188075e-01 -1.472245451169692299e+00 -1.001570775891525312e-03 0.000000000000000000e+00 0.000000000000000000e+00 0.000000000000000000e+00 0.000000000000000000e+00 0.000000000000000000e+00
-1.580595689880081256e+00 -6.332658761433551664e-01 -5.981718889378188075e-01 -1.472245451169692299e+00 -1.001570775891525312e-03 0.000000000000000000e+00 0.000000000000000000e+00 0.000000000000000000e+00 0.000000000000000000e+00 0.000000000000000000e+00
-1.580595689880081256e+00 -6.332658761433551664e-01 -5.981718889378188075e-01 -1.472245451169692299e+00 -1.001570775891525312e-03 0.000000000000000000e+00 0.000000000000000000e+00 0.000000000000000000e+00 0.000000000000000000e+00 0.000000000000000000e+00
-1.580595689880081256e+00 -6.332658761433551664e-01 -5.981718889378188075e-01 -1.472245451169692299e+00 -1.001570775891525312e-03 0.000000000000000000e+00 0.000000000000000000e+00 0.000000000000000000e+00 0.000000000000000000e+00 0.000000000000000000e+00
-1.580595689880081256e+00 -6.332658761433551664e-01 -5.981718889378188075e-01 -1.472245451169692299e+00 -1.001570775891525312e-03 0.000000000000000000e+00 0.000000000000000000e+00 0.000000000000000000e+00 0.000000000000000000e+00 0.000000000000000000e+00
-1.580595689880081256e+00 -6.332658761433551664e-01 -5.981718889378188075e-01 -1.472245451169692299e+00 -1.001570775891525312e-03 0.000000000000000000e+00 0.000000000000000000e+00 0.000000000000000000e+00 0.000000000000000000e+00 0.000000000000000000e+00
