-5.660703751129267935e-01 6.095386014515319362e-02 2.258560905558873733e-01 -9.150981888724811775e-01 8.761161920385197692e-04 -3.337808353377927362e-01 -3.956771273120232024e-01 -3.004134366771968878e-01 -5.743739790216639829e-01 -1.640968258677147438e-03
-5.836487329200480412e-01 3.858563555680780133e-02 2.114287326905772701e-01 -9.414855409659074192e-01 7.615017296318448911e-04 -3.515671561424252856e-01 -4.473644917669077903e-01 -2.885471573062020623e-01 -5.277470418685241693e-01 -2.292289248133497995e-03
-6.019768663315542279e-01 1.357207082659734471e-02 1.975985959980293416e-01 -9.645077959738104223e-01 6.212613516863115968e-04 -3.665626682301246220e-01 -5.002712946042090492e-01 -2.766027338509583489e-01 -4.604451001580597835e-01 -2.804807558910665452e-03
-6.209194121981637116e-01 -1.412866577968772616e-02 1.843864288060367840e-01 -9.831745440862701413e-01 4.636262230273612505e-04 -3.788509173321890078e-01 -5.540147321257014035e-01 -2.642433438398510970e-01 -3.733349622491949904e-01 -3.152702573179006710e-03
-6.403515367695100657e-01 -4.453531952493243462e-02 1.718400080681225239e-01 -9.965795762111826495e-01 2.972878101115692187e-04 -3.886424914269262509e-01 -6.081330749048942108e-01 -2.509284147582852564e-01 -2.681006424982508296e-01 -3.326768258315840419e-03
-6.601645513864590198e-01 -7.763999730733928129e-02 1.600353714130540173e-01 -1.003938135319770275e+00 1.306363995209003587e-04 -3.962602923389800802e-01 -6.620935556481367668e-01 -2.360927331013701891e-01 -1.471711821717542334e-01 -3.333028211813376766e-03
-6.802704659864682313e-01 -1.134050985316782945e-01 1.490712363573338806e-01 -1.004619593117683785e+00 -2.927514032537774868e-05 -4.021182920001846739e-01 -7.153020244867801525e-01 -2.192827011144029281e-01 -1.362915595826896809e-02 -3.198230796925561822e-03
-7.006045363183768249e-01 -1.517619749625369330e-01 1.390566657252783889e-01 -9.981673855598885980e-01 -1.766443362367356635e-04 -4.066814066381724824e-01 -7.671375286171727703e-01 -2.002914126411097506e-01 1.290441511559034804e-01 -2.947383918227157971e-03
-7.211266913780534082e-01 -1.926112103142630372e-01 1.300986662926431892e-01 -9.843103452589363478e-01 -3.071625642166338471e-04 -4.104431011935308349e-01 -8.169847070345217510e-01 -1.791599886527041052e-01 2.771408060190457823e-01 -2.610364559597963888e-03
-7.418219165486253930e-01 -2.358244831673561026e-01 1.222912792696770612e-01 -9.629648074975262206e-01 -4.179929199816938582e-04 -4.139045034114400279e-01 -8.642654570618615306e-01 -1.561477404593224483e-01 4.269107552282030427e-01 -2.216607115301200658e-03
-7.626999241248947348e-01 -2.812476139580766255e-01 1.157083154373198808e-01 -9.342292283405192466e-01 -5.075518262117129434e-04 -4.175601515253869467e-01 -9.084626158144105679e-01 -1.316592766471434972e-01 5.747115831401388153e-01 -1.791178124600381486e-03
-7.837942015933612172e-01 -3.287052635957197211e-01 1.104013213657137338e-01 -8.983700463472892306e-01 -5.752675325855203560e-04 -4.218855493693301484e-01 -9.491529927528623567e-01 -1.061398814321229678e-01 7.171836398646003197e-01 -1.354314127476148035e-03
-8.051607698727727414e-01 -3.780062820188577755e-01 1.064018219669749660e-01 -8.558022754600731474e-01 -6.215509749291887138e-04 -4.273313655882293727e-01 -9.860203684627615317e-01 -7.998998797477545331e-02 8.513554177443218851e-01 -9.256688468733671564e-04
-8.268768526587272349e-01 -4.289482111380784612e-01 1.037248706191239989e-01 -8.070687560427188822e-01 -6.478526819785764522e-04 -4.343216557190889282e-01 -1.018838582384413716e+00 -5.353902695701932141e-02 9.746703883470855256e-01 -5.260341409877554181e-04
-8.490394952916352489e-01 -4.813205811916856924e-01 1.023700088494841481e-01 -7.528177444779472482e-01 -6.563764396938002142e-04 -4.432528526581605011e-01 -1.047447401072144180e+00 -2.709723539279710464e-02 1.085020231295432902e+00 -1.704751543044745899e-04
-8.717644922484560910e-01 -5.349068712933024994e-01 1.023181640475792908e-01 -6.937800369541802237e-01 -6.499904598232498186e-04 -4.544999391364165087e-01 -1.071725802032336583e+00 -1.036896038097111228e-03 1.180754150475339825e+00 1.277195974110075329e-04
-8.951859698791161390e-01 -5.894850524457742047e-01 1.035224920052944531e-01 -6.307460688286335992e-01 -6.329234015031201099e-04 -4.684295526132014054e-01 -1.091563623049432996e+00 2.408655915430323730e-02 1.260679362510932044e+00 3.413411664025943373e-04
-9.194568246238228326e-01 -6.448275123865692127e-01 1.058935696171932755e-01 -5.645412545863059961e-01 -6.153330579925326768e-04 -4.854170948941329278e-01 -1.106849198815899715e+00 4.742155223797633878e-02 1.324096284846550731e+00 3.518068702117495283e-04
-9.447506531790357265e-01 -7.006998440065994593e-01 1.092777760562925748e-01 -4.960019964325426134e-01 -6.325203506182765136e-04 -5.058765711042588764e-01 -1.117446632400604489e+00 6.768412878198606930e-02 1.370785163075267210e+00 -3.437458525148758687e-04
-9.712659183307008615e-01 -7.568581508582564732e-01 1.134165691037928025e-01 -4.259462362527155488e-01 -8.143066742560536517e-04 0.000000000000000000e+00 0.000000000000000000e+00 0.000000000000000000e+00 0.000000000000000000e+00 0.000000000000000000e+00
-9.712659183307008615e-01 -7.568581508582564732e-01 1.134165691037928025e-01 -4.259462362527155488e-01 -8.143066742560536517e-04 0.000000000000000000e+00 0.000000000000000000e+00 0.000000000000000000e+00 0.000000000000000000e+00 0.000000000000000000e+00
-9.712659183307008615e-01 -7.568581508582564732e-01 1.134165691037928025e-01 -4.259462362527155488e-01 -8.143066742560536517e-04 0.000000000000000000e+00 0.000000000000000000e+00 0.000000000000000000e+00 0.000000000000000000e+00 0.000000000000000000e+00
-9.712659183307008615e-01 -7.568581508582564732e-01 1.134165691037928025e-01 -4.259462362527155488e-01 -8.143066742560536517e-04 0.000000000000000000e+00 0.000000000000000000e+00 0.000000000000000000e+00 0.000000000000000000e+00 0.000000000000000000e+00
-9.712659183307008615e-01 -7.568581508582564732e-01 1.134165691037928025e-01 -4.259462362527155488e-01 -8.143066742560536517e-04 0.000000000000000000e+00 0.000000000000000000e+00 0.000000000000000000e+00 0.000000000000000000e+00 0.000000000000000000e+00
-9.712659183307008615e-01 -7.568581508582564732e-01 1.134165691037928025e-01 -4.259462362527155488e-01 -8.143066742560536517e-04 0.000000000000000000e+00 0.000000000000000000e+00 0.000000000000000000e+00 0.000000000000000000e+00 0.000000000000000000e+00
-9.712659183307008615e-01 -7.568581508582564732e-01 1.134165691037928025e-01 -4.259462362527155488e-01 -8.143066742560536517e-04 0.000000000000000000e+00 0.000000000000000000e+00 0.000000000000000000e+00 0.000000000000000000e+00 0.000000000000000000e+00
-9.712659183307008615e-01 -7.568581508582564732e-01 1.134165691037928025e-01 -4.259462362527155488e-01 -8.143066742560536517e-04 0.000000000000000000e+00 0.000000000000000000e+00 0.000000000000000000e+00 0.000000000000000000e+00 0.000000000000000000e+00
-9.712659183307008615e-01 -7.568581508582564732e-01 1.134165691037928025e-01 -4.259462362527155488e-01 -8.143066742560536517e-04 0.000000000000000000e+00 0.000000000000000000e+00 0.000000000000000000e+00 0.000000000000000000e+00 0.000000000000000000e+00
-9.712659183307008615e-01 -7.568581508582564732e-01 1.134165691037928025e-01 -4.259462362527155488e-01 -8.143066742560536517e-04 0.000000000000000000e+00 0.000000000000000000e+00 0.000000000000000000e+00 0.000000000000000000e+00 0.000000000000000000e+00
-9.712659183307008615e-01 -7.568581508582564732e-01 1.134165691037928025e-01 -4.259462362527155488e-01 -8.143066742560536517e-04 0.000000000000000000e+00 0.000000000000000000e+00 0.000000000000000000e+00 0.000000000000000000e+00 0.000000000000000000e+00
-9.712659183307008615e-01 -7.568581508582564732e-01 1.134165691037928025e-01 -4.259462362527155488e-01 -8.143066742560536517e-04 0.000000000000000000e+00 0.000000000000000000e+00 0.000000000000000000e+00 0.000000000000000000e+00 0.000000000000000000e+00
