-2.533108195385860850e-01 -4.004373359147316291e-01 5.463737509925364888e-01 -1.121991865722956172e+00 -1.572312319413008818e-04 4.829406524240268950e-01 -9.136160652495328716e-01 6.787845014329810800e-01 -1.294436148151211496e-01 -9.620854213417122814e-04
-2.256006327591025262e-01 -4.481507389243668538e-01 5.852424266935608577e-01 -1.120841199694386781e+00 -1.700425486519416913e-04 5.542037355896710649e-01 -9.542680601927042705e-01 7.773735140204880434e-01 2.301332057138874565e-02 -2.562263342128160825e-04
-1.939421632135511497e-01 -4.975839256272344691e-01 6.293676980411462285e-01 -1.111970087181016753e+00 -1.480791799250968379e-04 6.331693909110274188e-01 -9.886637340573525279e-01 8.825054269517069727e-01 1.774222502674000224e-01 4.392673745368968520e-04
-1.579427754134306583e-01 -5.483737465742042350e-01 6.791335007542654845e-01 -1.095547297966401379e+00 -9.246504902906481469e-05 7.199877560024097178e-01 -1.015796418939396206e+00 9.953160542623858964e-01 3.284557842923095383e-01 1.112282617920640464e-03
-1.172016727681091941e-01 -6.001098935130105838e-01 7.349925113174540225e-01 -1.072012127225479450e+00 -3.652393934252404152e-06 8.148220529064293949e-01 -1.034722938776126533e+00 1.117180211263770762e+00 4.707034148184380262e-01 1.776253101896248156e-03
-7.130862370849694321e-02 -6.523388801810013904e-01 7.974807948362466758e-01 -1.042067986102832799e+00 1.197430545612708882e-04 9.178609811922450179e-01 -1.044579733359816354e+00 1.249765670375853732e+00 5.988828224529331168e-01 2.467908969910465738e-03
-1.984245647453396211e-02 -7.045686541069362541e-01 8.672338417853339143e-01 -1.006667583914793385e+00 2.814210755827465651e-04 1.029323344679259566e+00 -1.044595478518698384e+00 1.395060938981744547e+00 7.080080437607868538e-01 3.233560420429514026e-03
3.763090183282302020e-02 -7.562746019905637329e-01 9.450027853659029864e-01 -9.669900146487611092e-01 4.861146604500341277e-04 1.149467166147139618e+00 -1.034118957672548911e+00 1.555378871611380998e+00 7.935513853206451751e-01 4.093871697345750384e-03
1.015628410471381415e-01 -8.069089376347540199e-01 1.031674150217637642e+00 -9.244086790000825005e-01 7.322833182665340265e-04 1.278638784286302288e+00 -1.012686712883805074e+00 1.733427297034691561e+00 8.516267129735720642e-01 4.923373156329998411e-03
1.724331641597713072e-01 -8.559156242819566662e-01 1.128301997158453807e+00 -8.804509086571603582e-01 9.824019735619068071e-04 1.417406462252663424e+00 -9.801337329440530377e-01 1.932556938816322845e+00 8.791554068584428450e-01 5.002373105907454744e-03
2.507771517353854507e-01 -9.027524138819877919e-01 1.236171504399287802e+00 -8.367508052953881448e-01 1.044894282955978731e-03 1.566879751512282537e+00 -9.367357920006222916e-01 2.157390144816679012e+00 8.740020672354442688e-01 1.249846187881441077e-03
3.372459188389834162e-01 -9.469183286756542861e-01 1.356925532456486838e+00 -7.949974366279282112e-01 1.014024190461429486e-04 0.000000000000000000e+00 0.000000000000000000e+00 0.000000000000000000e+00 0.000000000000000000e+00 0.000000000000000000e+00
3.372459188389834162e-01 -9.469183286756542861e-01 1.356925532456486838e+00 -7.949974366279282112e-01 1.014024190461429486e-04 0.000000000000000000e+00 0.000000000000000000e+00 0.000000000000000000e+00 0.000000000000000000e+00 0.000000000000000000e+00
3.372459188389834162e-01 -9.469183286756542861e-01 1.356925532456486838e+00 -7.949974366279282112e-01 1.014024190461429486e-04 0.000000000000000000e+00 0.000000000000000000e+00 0.000000000000000000e+00 0.000000000000000000e+00 0.000000000000000000e+00
3.372459188389834162e-01 -9.469183286756542861e-01 1.356925532456486838e+00 -7.949974366279282112e-01 1.014024190461429486e-04 0.000000000000000000e+00 0.000000000000000000e+00 0.000000000000000000e+00 0.000000000000000000e+00 0.000000000000000000e+00
3.372459188389834162e-01 -9.469183286756542861e-01 1.356925532456486838e+00 -7.949974366279282112e-01 1.014024190461429486e-04 0.000000000000000000e+00 0.000000000000000000e+00 0.000000000000000000e+00 0.000000000000000000e+00 0.000000000000000000e+00
3.372459188389834162e-01 -9.469183286756542861e-01 1.356925532456486838e+00 -7.949974366279282112e-01 1.014024190461429486e-04 0.000000000000000000e+00 0.000000000000000000e+00 0.000000000000000000e+00 0.000000000000000000e+00 0.000000000000000000e+00
3.372459188389834162e-01 -9.469183286756542861e-01 1.356925532456486838e+00 -7.949974366279282112e-01 1.014024190461429486e-04 0.000000000000000000e+00 0.000000000000000000e+00 0.000000000000000000e+00 0.000000000000000000e+00 0.000000000000000000e+00
3.372459188389834162e-01 -9.469183286756542861e-01 1.356925532456486838e+00 -7.949974366279282112e-01 1.014024190461429486e-04 0.000000000000000000e+00 0.000000000000000000e+00 0.000000000000000000e+00 0.000000000000000000e+00 0.000000000000000000e+00
3.372459188389834162e-01 -9.469183286756542861e-01 1.356925532456486838e+00 -7.949974366279282112e-01 1.014024190461429486e-04 0.000000000000000000e+00 0.000000000000000000e+00 0.000000000000000000e+00 0.000000000000000000e+00 0.000000000000000000e+00
3.372459188389834162e-01 -9.469183286756542861e-01 1.356925532456486838e+00 -7.949974366279282112e-01 1.014024190461429486e-04 0.000000000000000000e+00 0.000000000000000000e+00 0.000000000000000000e+00 0.000000000000000000e+00 0.000000000000000000e+00
3.372459188389834162e-01 -9.469183286756542861e-01 1.356925532456486838e+00 -7.949974366279282112e-01 1.014024190461429486e-04 0.000000000000000000e+00 0.000000000000000000e+00 0.000000000000000000e+00 0.000000000000000000e+00 0.000000000000000000e+00
3.372459188389834162e-01 -9.469183286756542861e-01 1.356925532456486838e+00 -7.949974366279282112e-01 1.014024190461429486e-04 0.000000000000000000e+00 0.000000000000000000e+00 0.000000000000000000e+00 0.000000000000000000e+00 0.000000000000000000e+00
3.372459188389834162e-01 -9.469183286756542861e-01 1.356925532456486838e+00 -7.949974366279282112e-01 1.014024190461429486e-04 0.000000000000000000e+00 0.000000000000000000e+00 0.000000000000000000e+00 0.000000000000000000e+00 0.000000000000000000e+00
3.372459188389834162e-01 -9.469183286756542861e-01 1.356925532456486838e+00 -7.949974366279282112e-01 1.014024190461429486e-04 0.000000000000000000e+00 0.000000000000000000e+00 0.000000000000000000e+00 0.000000000000000000e+00 0.000000000000000000e+00
3.372459188389834162e-01 -9.469183286756542861e-01 1.356925532456486838e+00 -7.949974366279282112e-01 1.014024190461429486e-04 0.000000000000000000e+00 0.000000000000000000e+00 0.000000000000000000e+00 0.000000000000000000e+00 0.000000000000000000e+00
3.372459188389834162e-01 -9.469183286756542861e-01 1.356925532456486838e+00 -7.949974366279282112e-01 1.014024190461429486e-04 0.000000000000000000e+00 0.000000000000000000e+00 0.000000000000000000e+00 0.000000000000000000e+00 0.000000000000000000e+00
3.372459188389834162e-01 -9.469183286756542861e-01 1.356925532456486838e+00 -7.949974366279282112e-01 1.014024190461429486e-04 0.000000000000000000e+00 0.000000000000000000e+00 0.000000000000000000e+00 0.000000000000000000e+00 0.000000000000000000e+00
3.372459188389834162e-01 -9.469183286756542861e-01 1.356925532456486838e+00 -7.949974366279282112e-01 1.014024190461429486e-04 0.000000000000000000e+00 0.000000000000000000e+00 0.000000000000000000e+00 0.000000000000000000e+00 0.000000000000000000e+00
3.372459188389834162e-01 -9.469183286756542861e-01 1.356925532456486838e+00 -7.949974366279282112e-01 1.014024190461429486e-04 0.000000000000000000e+00 0.000000000000000000e+00 0.000000000000000000e+00 0.000000000000000000e+00 0.000000000000000000e+00
3.372459188389834162e-01 -9.469183286756542861e-01 1.356925532456486838e+00 -7.949974366279282112e-01 1.014024190461429486e-04 0.000000000000000000e+00 0.000000000000000000e+00 0.000000000000000000e+00 0.000000000000000000e+00 0.000000000000000000e+00
