-6.487817122538885872e-01 -9.273645206011060793e-01 1.719003710811786434e-01 -1.159258941298275225e+00 -9.443076171497309743e-04 -3.306785862655871600e-01 -1.052354370931260164e+00 -2.579397959095386939e-01 9.403232322701355894e-01 8.176964251548245665e-04
-6.654057081070646751e-01 -9.807401678890248498e-01 1.608781233294855340e-01 -1.108590295783307367e+00 -8.987460054427476698e-04 -3.324799170635207579e-01 -1.067512945758374521e+00 -2.204449550338619668e-01 1.013372910299356722e+00 9.112322341396654393e-04
-6.822789123885973916e-01 -1.034735060798995132e+00 1.513432721355528476e-01 -1.054773294518364990e+00 -8.586778241905530101e-04 -3.374640856306547754e-01 -1.079897858199405647e+00 -1.906970238786534766e-01 1.076340025298845537e+00 8.013636250438941700e-04
-6.996134620983698316e-01 -1.089219952236317734e+00 1.428424232017841411e-01 -9.983064881488407094e-01 -8.322905961366777435e-04 -3.466909941954495200e-01 -1.089697828746449826e+00 -1.700169786753740475e-01 1.129336127390485833e+00 5.277445610775053329e-04
-7.176946134945892952e-01 -1.144073456294362412e+00 1.348200451114981435e-01 -9.396601036323161127e-01 -8.293970834600294158e-04 -3.616230279243882184e-01 -1.097070081160892663e+00 -1.604475618057199238e-01 1.172927690330492156e+00 5.787025353296714912e-05
-7.369112732395941556e-01 -1.199176807249260568e+00 1.265598948154142422e-01 -8.792629453453499888e-01 -8.685372324224546097e-04 -3.843331949000968750e-01 -1.102067019097961342e+00 -1.652030059216779423e-01 1.207943165739321811e+00 -7.828029792485047440e-04
-7.577983398978352936e-01 -1.254406199111578024e+00 1.170959535387876005e-01 -8.174885712729889065e-01 -1.000514159895837980e-03 0.000000000000000000e+00 0.000000000000000000e+00 0.000000000000000000e+00 0.000000000000000000e+00 0.000000000000000000e+00
-7.577983398978352936e-01 -1.254406199111578024e+00 1.170959535387876005e-01 -8.174885712729889065e-01 -1.000514159895837980e-03 0.000000000000000000e+00 0.000000000000000000e+00 0.000000000000000000e+00 0.000000000000000000e+00 0.000000000000000000e+00
-7.577983398978352936e-01 -1.254406199111578024e+00 1.170959535387876005e-01 -8.174885712729889065e-01 -1.000514159895837980e-03 0.000000000000000000e+00 0.000000000000000000e+00 0.000000000000000000e+00 0.000000000000000000e+00 0.000000000000000000e+00
-7.577983398978352936e-01 -1.254406199111578024e+00 1.170959535387876005e-01 -8.174885712729889065e-01 -1.000514159895837980e-03 0.000000000000000000e+00 0.000000000000000000e+00 0.000000000000000000e+00 0.000000000000000000e+00 0.000000000000000000e+00
-7.577983398978352936e-01 -1.254406199111578024e+00 1.170959535387876005e-01 -8.174885712729889065e-01 -1.000514159895837980e-03 0.000000000000000000e+00 0.000000000000000000e+00 0.000000000000000000e+00 0.000000000000000000e+00 0.000000000000000000e+00
-7.577983398978352936e-01 -1.254406199111578024e+00 1.170959535387876005e-01 -8.174885712729889065e-01 -1.000514159895837980e-03 0.000000000000000000e+00 0.000000000000000000e+00 0.000000000000000000e+00 0.000000000000000000e+00 0.000000000000000000e+00
-7.577983398978352936e-01 -1.254406199111578024e+00 1.170959535387876005e-01 -8.174885712729889065e-01 -1.000514159895837980e-03 0.000000000000000000e+00 0.000000000000000000e+00 0.000000000000000000e+00 0.000000000000000000e+00 0.000000000000000000e+00
-7.577983398978352936e-01 -1.254406199111578024e+00 1.170959535387876005e-01 -8.174885712729889065e-01 -1.000514159895837980e-03 0.000000000000000000e+00 0.000000000000000000e+00 0.000000000000000000e+00 0.000000000000000000e+00 0.000000000000000000e+00
-7.577983398978352936e-01 -1.254406199111578024e+00 1.170959535387876005e-01 -8.174885712729889065e-01 -1.000514159895837980e-03 0.000000000000000000e+00 0.000000000000000000e+00 0.000000000000000000e+00 0.000000000000000000e+00 0.000000000000000000e+00
-7.577983398978352936e-01 -1.254406199111578024e+00 1.170959535387876005e-01 -8.174885712729889065e-01 -1.000514159895837980e-03 0.000000000000000000e+00 0.000000000000000000e+00 0.000000000000000000e+00 0.000000000000000000e+00 0.000000000000000000e+00
-7.577983398978352936e-01 -1.254406199111578024e+00 1.170959535387876005e-01 -8.174885712729889065e-01 -1.000514159895837980e-03 0.000000000000000000e+00 0.000000000000000000e+00 0.000000000000000000e+00 0.000000000000000000e+00 0.000000000000000000e+00
-7.577983398978352936e-01 -1.254406199111578024e+00 1.170959535387876005e-01 -8.174885712729889065e-01 -1.000514159895837980e-03 0.000000000000000000e+00 0.000000000000000000e+00 0.000000000000000000e+00 0.000000000000000000e+00 0.000000000000000000e+00
-7.577983398978352936e-01 -1.254406199111578024e+00 1.170959535387876005e-01 -8.174885712729889065e-01 -1.000514159895837980e-03 0.000000000000000000e+00 0.000000000000000000e+00 0.000000000000000000e+00 0.000000000000000000e+00 0.000000000000000000e+00
-7.577983398978352936e-01 -1.254406199111578024e+00 1.170959535387876005e-01 -8.174885712729889065e-01 -1.000514159895837980e-03 0.000000000000000000e+00 0.000000000000000000e+00 0.000000000000000000e+00 0.000000000000000000e+00 0.000000000000000000e+00
-7.577983398978352936e-01 -1.254406199111578024e+00 1.170959535387876005e-01 -8.174885712729889065e-01 -1.000514159895837980e-03 0.000000000000000000e+00 0.000000000000000000e+00 0.000000000000000000e+00 0.000000000000000000e+00 0.000000000000000000e+00
-7.577983398978352936e-01 -1.254406199111578024e+00 1.170959535387876005e-01 -8.174885712729889065e-01 -1.000514159895837980e-03 0.000000000000000000e+00 0.000000000000000000e+00 0.000000000000000000e+00 0.000000000000000000e+00 0.000000000000000000e+00
-7.577983398978352936e-01 -1.254406199111578024e+00 1.170959535387876005e-01 -8.174885712729889065e-01 -1.000514159895837980e-03 0.000000000000000000e+00 0.000000000000000000e+00 0.000000000000000000e+00 0.000000000000000000e+00 0.000000000000000000e+00
-7.577983398978352936e-01 -1.254406199111578024e+00 1.170959535387876005e-01 -8.174885712729889065e-01 -1.000514159895837980e-03 0.000000000000000000e+00 0.000000000000000000e+00 0.000000000000000000e+00 0.000000000000000000e+00 0.000000000000000000e+00
-7.577983398978352936e-01 -1.254406199111578024e+00 1.170959535387876005e-01 -8.174885712729889065e-01 -1.000514159895837980e-03 0.000000000000000000e+00 0.000000000000000000e+00 0.000000000000000000e+00 0.000000000000000000e+00 0.000000000000000000e+00
-7.577983398978352936e-01 -1.254406199111578024e+00 1.170959535387876005e-01 -8.174885712729889065e-01 -1.000514159895837980e-03 0.000000000000000000e+00 0.000000000000000000e+00 0.000000000000000000e+00 0.000000000000000000e+00 0.000000000000000000e+00
-7.577983398978352936e-01 -1.254406199111578024e+00 1.170959535387876005e-01 -8.174885712729889065e-01 -1.000514159895837980e-03 0.000000000000000000e+00 0.000000000000000000e+00 0.000000000000000000e+00 0.000000000000000000e+00 0.000000000000000000e+00
-7.577983398978352936e-01 -1.254406199111578024e+00 1.170959535387876005e-01 -8.174885712729889065e-01 -1.000514159895837980e-03 0.000000000000000000e+00 0.000000000000000000e+00 0.000000000000000000e+00 0.000000000000000000e+00 0.000000000000000000e+00
-7.577983398978352936e-01 -1.254406199111578024e+00 1.170959535387876005e-01 -8.174885712729889065e-01 -1.000514159895837980e-03 0.000000000000000000e+00 0.000000000000000000e+00 0.000000000000000000e+00 0.000000000000000000e+00 0.000000000000000000e+00
-7.577983398978352936e-01 -1.254406199111578024e+00 1.170959535387876005e-01 -8.174885712729889065e-01 -1.000514159895837980e-03 0.000000000000000000e+00 0.000000000000000000e+00 0.000000000000000000e+00 0.000000000000000000e+00 0.000000000000000000e+00
-7.577983398978352936e-01 -1.254406199111578024e+00 1.170959535387876005e-01 -8.174885712729889065e-01 -1.000514159895837980e-03 0.000000000000000000e+00 0.000000000000000000e+00 0.000000000000000000e+00 0.000000000000000000e+00 0.000000000000000000e+00
