-7.436009229435647239e-01 -4.551609739638713958e-01 -3.540775210193752853e-02 -9.133097138857129149e-01 -2.957943719112067407e-04 -3.870053073584266423e-01 -5.389326671397648427e-01 -3.518216737136067862e-01 6.805918057770837803e-01 -1.660207686983312817e-03
-7.631160425309051476e-01 -4.833152743292047915e-01 -4.998654391782364481e-02 -8.757174108725518380e-01 -3.645504965193620815e-04 -3.903023917468078086e-01 -5.630860073066683569e-01 -2.915758363177223811e-01 7.518460602632208722e-01 -1.375122492163106816e-03
-7.828127030009724985e-01 -5.124849758271344813e-01 -6.175361809500221760e-02 -8.350852585143900830e-01 -4.223585109891998574e-04 -3.939332094013467955e-01 -5.833940299585931299e-01 -2.353414835435714281e-01 8.126430471632339891e-01 -1.156160289396755084e-03
-8.027094518567907677e-01 -5.425039294271735146e-01 -7.090824107238290208e-02 -7.918865933010205138e-01 -4.711682259019552899e-04 -3.979349771163649407e-01 -6.003790720007802229e-01 -1.830924595476136063e-01 8.639733042673920504e-01 -9.761942982551082178e-04
-8.228280173286108834e-01 -5.732312154206804511e-01 -7.764652966908228149e-02 -7.465422224255643391e-01 -5.117344628671874123e-04 -4.023713094364018694e-01 -6.145457198701398394e-01 -1.347657719339874494e-01 9.068874175091227174e-01 -8.113247393046429902e-04
-8.431950499513760633e-01 -6.045478956351792998e-01 -8.216161836335959812e-02 -6.994265784581742418e-01 -5.448101098063122191e-04 -4.073406524553034314e-01 -6.263336042899768641e-01 -9.030177388554626317e-02 9.423128793478012799e-01 -6.615129387824950514e-04
-8.638432624035810026e-01 -6.363538732659523856e-01 -8.464789894082856703e-02 -6.508698868331207477e-01 -5.711987106802360976e-04 -4.129642490440987301e-01 -6.361195526154628244e-01 -4.972561154937928107e-02 9.711338325010705486e-01 -5.277720174784770275e-04
-8.848121979595298114e-01 -6.685649650775642439e-01 -8.530801487494128754e-02 -6.011572802514325575e-01 -5.913834298738263268e-04 -4.193787111189770100e-01 -6.442218362322360559e-01 -1.320231868225427846e-02 9.942521316337631365e-01 -4.036943838718037706e-04
-9.061494763510123951e-01 -7.011090558924802929e-01 -8.435911430218472062e-02 -5.505328279427244009e-01 -6.077117897419181654e-04 -4.267455678296512844e-01 -6.508818162983202038e-01 1.897801145513126897e-02 1.012489046174163354e+00 -3.265671973618361219e-04
-9.279125078810044336e-01 -7.339216642520578482e-01 -8.204196144352715603e-02 -4.992046059416292980e-01 -6.307259371358942251e-04 -4.352606305998416580e-01 -6.562521671915516608e-01 4.634305717315119477e-02 1.026564440021902502e+00 -4.602829478795203259e-04
-9.501704230325633826e-01 -7.669419086487017090e-01 -7.863478623672995327e-02 -4.473452479544167693e-01 -7.008646998497474259e-04 -4.451583030311794809e-01 -6.604048879328759947e-01 6.814350413594416622e-02 1.037187159744249909e+00 -1.402775254277064450e-03
-9.730069155554988969e-01 -8.001083758653118050e-01 -7.446879070067140283e-02 -3.950928020622108128e-01 -9.772911082356850951e-04 0.000000000000000000e+00 0.000000000000000000e+00 0.000000000000000000e+00 0.000000000000000000e+00 0.000000000000000000e+00
-9.730069155554988969e-01 -8.001083758653118050e-01 -7.446879070067140283e-02 -3.950928020622108128e-01 -9.772911082356850951e-04 0.000000000000000000e+00 0.000000000000000000e+00 0.000000000000000000e+00 0.000000000000000000e+00 0.000000000000000000e+00
-9.730069155554988969e-01 -8.001083758653118050e-01 -7.446879070067140283e-02 -3.950928020622108128e-01 -9.772911082356850951e-04 0.000000000000000000e+00 0.000000000000000000e+00 0.000000000000000000e+00 0.000000000000000000e+00 0.000000000000000000e+00
-9.730069155554988969e-01 -8.001083758653118050e-01 -7.446879070067140283e-02 -3.950928020622108128e-01 -9.772911082356850951e-04 0.000000000000000000e+00 0.000000000000000000e+00 0.000000000000000000e+00 0.000000000000000000e+00 0.000000000000000000e+00
-9.730069155554988969e-01 -8.001083758653118050e-01 -7.446879070067140283e-02 -3.950928020622108128e-01 -9.772911082356850951e-04 0.000000000000000000e+00 0.000000000000000000e+00 0.000000000000000000e+00 0.000000000000000000e+00 0.000000000000000000e+00
-9.730069155554988969e-01 -8.001083758653118050e-01 -7.446879070067140283e-02 -3.950928020622108128e-01 -9.772911082356850951e-04 0.000000000000000000e+00 0.000000000000000000e+00 0.000000000000000000e+00 0.000000000000000000e+00 0.000000000000000000e+00
-9.730069155554988969e-01 -8.001083758653118050e-01 -7.446879070067140283e-02 -3.950928020622108128e-01 -9.772911082356850951e-04 0.000000000000000000e+00 0.000000000000000000e+00 0.000000000000000000e+00 0.000000000000000000e+00 0.000000000000000000e+00
-9.730069155554988969e-01 -8.001083758653118050e-01 -7.446879070067140283e-02 -3.950928020622108128e-01 -9.772911082356850951e-04 0.000000000000000000e+00 0.000000000000000000e+00 0.000000000000000000e+00 0.000000000000000000e+00 0.000000000000000000e+00
-9.730069155554988969e-01 -8.001083758653118050e-01 -7.446879070067140283e-02 -3.950928020622108128e-01 -9.772911082356850951e-04 0.000000000000000000e+00 0.000000000000000000e+00 0.000000000000000000e+00 0.000000000000000000e+00 0.000000000000000000e+00
-9.730069155554988969e-01 -8.001083758653118050e-01 -7.446879070067140283e-02 -3.950928020622108128e-01 -9.772911082356850951e-04 0.000000000000000000e+00 0.000000000000000000e+00 0.000000000000000000e+00 0.000000000000000000e+00 0.000000000000000000e+00
-9.730069155554988969e-01 -8.001083758653118050e-01 -7.446879070067140283e-02 -3.950928020622108128e-01 -9.772911082356850951e-04 0.000000000000000000e+00 0.000000000000000000e+00 0.000000000000000000e+00 0.000000000000000000e+00 0.000000000000000000e+00
-9.730069155554988969e-01 -8.001083758653118050e-01 -7.446879070067140283e-02 -3.950928020622108128e-01 -9.772911082356850951e-04 0.000000000000000000e+00 0.000000000000000000e+00 0.000000000000000000e+00 0.000000000000000000e+00 0.000000000000000000e+00
-9.730069155554988969e-01 -8.001083758653118050e-01 -7.446879070067140283e-02 -3.950928020622108128e-01 -9.772911082356850951e-04 0.000000000000000000e+00 0.000000000000000000e+00 0.000000000000000000e+00 0.000000000000000000e+00 0.000000000000000000e+00
-9.730069155554988969e-01 -8.001083758653118050e-01 -7.446879070067140283e-02 -3.950928020622108128e-01 -9.772911082356850951e-04 0.000000000000000000e+00 0.000000000000000000e+00 0.000000000000000000e+00 0.000000000000000000e+00 0.000000000000000000e+00
-9.730069155554988969e-01 -8.001083758653118050e-01 -7.446879070067140283e-02 -3.950928020622108128e-01 -9.772911082356850951e-04 0.000000000000000000e+00 0.000000000000000000e+00 0.000000000000000000e+00 0.000000000000000000e+00 0.000000000000000000e+00
-9.730069155554988969e-01 -8.001083758653118050e-01 -7.446879070067140283e-02 -3.950928020622108128e-01 -9.772911082356850951e-04 0.000000000000000000e+00 0.000000000000000000e+00 0.000000000000000000e+00 0.000000000000000000e+00 0.000000000000000000e+00
-9.730069155554988969e-01 -8.001083758653118050e-01 -7.446879070067140283e-02 -3.950928020622108128e-01 -9.772911082356850951e-04 0.000000000000000000e+00 0.000000000000000000e+00 0.000000000000000000e+00 0.000000000000000000e+00 0.000000000000000000e+00
-9.730069155554988969e-01 -8.001083758653118050e-01 -7.446879070067140283e-02 -3.950928020622108128e-01 -9.772911082356850951e-04 0.000000000000000000e+00 0.000000000000000000e+00 0.000000000000000000e+00 0.000000000000000000e+00 0.000000000000000000e+00
-9.730069155554988969e-01 -8.001083758653118050e-01 -7.446879070067140283e-02 -3.950928020622108128e-01 -9.772911082356850951e-04 0.000000000000000000e+00 0.000000000000000000e+00 0.000000000000000000e+00 0.000000000000000000e+00 0.000000000000000000e+00
-9.730069155554988969e-01 -8.001083758653118050e-01 -7.446879070067140283e-02 -3.950928020622108128e-01 -9.772911082356850951e-04 0.000000000000000000e+00 0.000000000000000000e+00 0.000000000000000000e+00 0.000000000000000000e+00 0.000000000000000000e+00
