-5.438200897585802052e-01 -1.755882953825333437e-01 8.572938053737346742e-01 -9.474476939355609417e-01 1.039031647162596671e-03 2.537660443490546980e-05 -1.761532775202520607e-01 -4.504437668410642970e-01 -1.199280263614131314e+00 1.142122643886965203e-03
-5.421203444148807726e-01 -1.875360899207379750e-01 8.351733126035176813e-01 -1.012644050398670448e+00 1.043506260941114453e-03 3.399490687398899758e-02 -2.389558907640925711e-01 -4.424098554043404130e-01 -1.303927129262189233e+00 8.949227557035542395e-05
-5.382852679499227078e-01 -2.028916485100819844e-01 8.141261025787236427e-01 -1.080881993956215981e+00 1.008691016005987045e-03 7.670152929916110307e-02 -3.071111717868804103e-01 -4.209442004958801609e-01 -1.364758871150909991e+00 -6.963048987025471882e-04
-5.319006971594126831e-01 -2.218259107359892290e-01 7.945891729887588628e-01 -1.150026146468662080e+00 9.003341633598331778e-04 1.276914158102007979e-01 -3.786852445181451698e-01 -3.907385917992962643e-01 -1.382883050248921775e+00 -2.167137052923077782e-03
-5.225602579901469369e-01 -2.444175131134547763e-01 7.769030952659491396e-01 -1.218025212718436334e+00 7.164376721438213934e-04 1.868087833853149249e-01 -4.518320475493111110e-01 -3.537215544561952973e-01 -1.359981324995484853e+00 -3.677929824320235255e-03
-5.098569420536303021e-01 -2.706614946885951278e-01 7.614247285891612149e-01 -1.282938968774895105e+00 4.767719287800328831e-04 2.540663187303337511e-01 -5.248796315028068094e-01 -3.095673335357574385e-01 -1.298275121129174536e+00 -4.793314867275769338e-03
-4.933791318268387349e-01 -3.004788564813278828e-01 7.486017365957767788e-01 -1.342960519464799996e+00 2.063174255011074624e-04 3.295562045358311209e-01 -5.963472358546546559e-01 -2.564598398676881108e-01 -1.200431013798095581e+00 -5.409090065578507980e-03
-4.727100365853207364e-01 -3.337237135402646993e-01 7.390057372989340401e-01 -1.396440187008059386e+00 -7.016959019861797667e-05 4.133819048303600807e-01 -6.648971411787359953e-01 -1.919199859368548866e-01 -1.069593350865186476e+00 -5.529740313994508348e-03
-4.474297288455783006e-01 -3.701859531287396976e-01 7.333271276586846854e-01 -1.441916583637857352e+00 -3.307466543047199231e-04 5.056061547948483836e-01 -7.292447917694994119e-01 -1.135721928049867602e-01 -9.095279325959586547e-01 -5.211541282122039362e-03
-4.171186144579642763e-01 -4.095891508462536912e-01 7.323400134556778962e-01 -1.478155364766510660e+00 -5.581598251378593186e-04 6.062222877522803755e-01 -7.880639543502796496e-01 -1.974228406013583959e-02 -7.247756225730668245e-01 -4.548263416662787911e-03
-3.813613049132242305e-01 -4.515849215391504190e-01 7.368468074092899833e-01 -1.504190029491252245e+00 -7.410876987161260556e-04 7.151461908948008039e-01 -8.399154138579343343e-01 9.013587907224190898e-02 -5.206932944948309272e-01 -3.658557471565335607e-03
-3.397508571828184998e-01 -4.957458858230051058e-01 7.476141667014972736e-01 -1.519357942839127285e+00 -8.745476091564824590e-04 8.322089546081141709e-01 -8.832192856770934020e-01 2.153471858441451114e-01 -3.033582669575005664e-01 -2.669198208807128936e-03
-2.918934155191221236e-01 -5.415609226051599778e-01 7.653138112437323226e-01 -1.523320815994275712e+00 -9.593557184736885898e-04 9.571488332739279681e-01 -9.163007356430983297e-01 3.539928908447004807e-01 -7.925746310296702402e-02 -1.696162186344123916e-03
-2.374147655604288698e-01 -5.884353815146883271e-01 7.904799290388853095e-01 -1.516065862042498935e+00 -1.000866535027391093e-03 1.089572999173864964e+00 -9.374891781905669852e-01 5.033223559030597372e-01 1.450990790355335125e-01 -8.302163310740508185e-04
-1.759717789537746935e-01 -6.356971097325949671e-01 8.234874211483709239e-01 -1.497891990920062089e+00 -1.008635686061694564e-03 1.228859732133083416e+00 -9.452345643581316903e-01 6.601498421897125102e-01 3.634774224487362093e-01 -1.553830206860673741e-04
-1.072693666590396888e-01 -6.826089671753906574e-01 8.645488666467683325e-01 -1.469376696375237490e+00 -9.962597913177662946e-04 1.374048245894700093e+00 -9.382371488559143602e-01 8.212289099679477289e-01 5.703058908964903084e-01 2.475178948785669683e-04
-3.108266327500074089e-02 -7.283866394738744976e-01 9.137247589270630632e-01 -1.431326278134123609e+00 -9.524828961918049494e-04 1.523734067680778903e+00 -9.155534459696770266e-01 9.835178456058953911e-01 7.610083648222760733e-01 8.755379025192273380e-04
5.271395402936676633e-02 -7.722187421542215935e-01 9.709332362599302213e-01 -1.384721127275204244e+00 -8.779344128434610510e-04 1.675932346087350089e+00 -8.766420536069419178e-01 1.144169546657342273e+00 9.321030171783890594e-01 1.490969666966877319e-03
1.441145443181900687e-01 -8.132888965337029541e-01 1.035953416431211194e+00 -1.330654634569537809e+00 -7.676355397372628233e-04 1.828011805776466048e+00 -8.214030875896275452e-01 1.300403603425619004e+00 1.081329854113327160e+00 2.205977462123964988e-03
2.429521777959951501e-01 -8.508008810868211702e-01 1.108424752514780343e+00 -1.270263711226497616e+00 -6.127773185188349018e-04 1.976752669556101294e+00 -7.502396910623647663e-01 1.449426721671383866e+00 1.207818466860803408e+00 3.097164424368558863e-03
3.488816673299913185e-01 -8.840087280658385227e-01 1.187855744569351613e+00 -1.204650892352941316e+00 -4.024193909858584869e-04 2.118589790679922924e+00 -6.641569395803476050e-01 1.588619841091425844e+00 1.312256377471124225e+00 4.207158550659527430e-03
4.613864485330121390e-01 -9.122529245201391745e-01 1.273667161984756380e+00 -1.134804687353540231e+00 -1.259443443621116468e-04 2.250095624060416633e+00 -5.648839290860122597e-01 1.716228348308092899e+00 1.396924099988019918e+00 5.529500932474936369e-03
5.798219903413015519e-01 -9.349998691353701430e-01 1.365298625375563235e+00 -1.061527324958478014e+00 2.226607249884184872e-04 2.368710836165787814e+00 -4.549388923046193134e-01 1.832629267816136220e+00 1.465547247901244354e+00 6.972101387010602030e-03
7.035011052762795147e-01 -9.518747492620708295e-01 1.462401187543622472e+00 -9.853922740431501071e-01 6.313848901485282633e-04 2.473582298699559701e+00 -3.374976025340142849e-01 1.942051243361185398e+00 1.522701018306557685e+00 8.174483303202194004e-03
8.318142673638055928e-01 -9.626717907097910309e-01 1.565119334051458866e+00 -9.067532552211938768e-01 1.016290530646781062e-03 2.566263241750522006e+00 -2.159408289544038628e-01 2.054362930156726108e+00 1.572780376439124606e+00 7.698112809965055106e-03
9.643677242667549887e-01 -9.673224564265261449e-01 1.674447962141079271e+00 -8.258041743953136171e-01 1.000248935161738868e-03 0.000000000000000000e+00 0.000000000000000000e+00 0.000000000000000000e+00 0.000000000000000000e+00 0.000000000000000000e+00
9.643677242667549887e-01 -9.673224564265261449e-01 1.674447962141079271e+00 -8.258041743953136171e-01 1.000248935161738868e-03 0.000000000000000000e+00 0.000000000000000000e+00 0.000000000000000000e+00 0.000000000000000000e+00 0.000000000000000000e+00
9.643677242667549887e-01 -9.673224564265261449e-01 1.674447962141079271e+00 -8.258041743953136171e-01 1.000248935161738868e-03 0.000000000000000000e+00 0.000000000000000000e+00 0.000000000000000000e+00 0.000000000000000000e+00 0.000000000000000000e+00
9.643677242667549887e-01 -9.673224564265261449e-01 1.674447962141079271e+00 -8.258041743953136171e-01 1.000248935161738868e-03 0.000000000000000000e+00 0.000000000000000000e+00 0.000000000000000000e+00 0.000000000000000000e+00 0.000000000000000000e+00
9.643677242667549887e-01 -9.673224564265261449e-01 1.674447962141079271e+00 -8.258041743953136171e-01 1.000248935161738868e-03 0.000000000000000000e+00 0.000000000000000000e+00 0.000000000000000000e+00 0.000000000000000000e+00 0.000000000000000000e+00
9.643677242667549887e-01 -9.673224564265261449e-01 1.674447962141079271e+00 -8.258041743953136171e-01 1.000248935161738868e-03 0.000000000000000000e+00 0.000000000000000000e+00 0.000000000000000000e+00 0.000000000000000000e+00 0.000000000000000000e+00
