-4.490954702270238408e-01 -3.832419719853056850e-01 5.109327746804799286e-01 -1.205618531156840811e+00 3.680655252581504448e-05 -2.838028068938328041e-01 -5.547084380599832665e-01 -1.451845230385327423e-01 -1.487817327357303432e+00 -1.817399919550967847e-03
-4.639940353946305218e-01 -4.154634018669827733e-01 5.000525905376893565e-01 -1.280799512358538728e+00 -8.912709386927440279e-05 -2.979713033521331766e-01 -6.444285976335415445e-01 -2.176036828558119973e-01 -1.503619624033960545e+00 -2.518672927901788837e-03
-4.792648212541391062e-01 -4.521974283911882608e-01 4.851935205215909264e-01 -1.354267221444197311e+00 -2.428443084642205915e-04 -3.054157171901714651e-01 -7.346805304841101947e-01 -2.971814003219686584e-01 -1.469354181713170115e+00 -3.074344291898923991e-03
-4.945892964640914435e-01 -4.934272163226088859e-01 4.662580064725683204e-01 -1.423625912573709851e+00 -4.134882634843937499e-04 -3.064895041990465807e-01 -8.245957586284127228e-01 -3.787102809804525627e-01 -1.387173822590250349e+00 -3.412879100403462193e-03
-5.096821137788556388e-01 -5.390890017154510439e-01 4.434249938737228613e-01 -1.486689024076396359e+00 -5.870862013148856699e-04 -3.018563462952842946e-01 -9.132357078568439368e-01 -4.566602519769092927e-01 -1.261262230053731725e+00 -3.471958756609838832e-03
-5.243038644703826856e-01 -5.890718301231371301e-01 4.171373063550695148e-01 -1.541572501733751821e+00 -7.475613271790473033e-04 -2.924350138305413238e-01 -9.996565681537218362e-01 -5.257537503730664863e-01 -1.097669553147107235e+00 -3.209502517283232235e-03
-5.382700587237247980e-01 -6.432202499415349273e-01 3.880578952328755382e-01 -1.586765349848993978e+00 -8.789703857596626799e-04 -2.793238850668428030e-01 -1.082968396367956609e+00 -5.815882224438796433e-01 -9.038569623048435808e-01 -2.628181171612307965e-03
-5.514542400190071136e-01 -7.013398512889614800e-01 3.570005711994740927e-01 -1.621162005772283532e+00 -9.684650318306671762e-04 -2.636836259056470899e-01 -1.162392026948531276e+00 -6.211464806680285777e-01 -6.879331184657893061e-01 -1.789892921420089709e-03
-5.637844402831593271e-01 -7.632036124594095972e-01 3.248479584906550643e-01 -1.644060892195487789e+00 -1.011027738573805476e-03 -2.466040052830444362e-01 -1.237275223408962121e+00 -6.430522541763806776e-01 -4.579777284640873525e-01 -8.512541348627653427e-04
-5.752337208791868939e-01 -8.285568743366188427e-01 2.924680417069360217e-01 -1.655139949387479881e+00 -1.022218370767388881e-03 -2.289856119205516682e-01 -1.307065237544184244e+00 -6.475983356743811870e-01 -2.215811438398439248e-01 -2.238126438716690801e-04
-5.858054432797435984e-01 -8.971211672356901312e-01 2.606413921425458358e-01 -1.654414066811764394e+00 -1.022465431521279175e-03 -2.114344480111343405e-01 -1.371285857981425771e+00 -6.365329912878034957e-01 1.451765151431116951e-02 -4.941215077807538944e-06
-5.955147075881327412e-01 -9.685981882395330311e-01 2.300098316775862350e-01 -1.642180689250763104e+00 -1.019431578348354130e-03 -1.941852861677830777e-01 -1.429540420076857776e+00 -6.126312092991919034e-01 2.446675512200238434e-01 6.067706345850018893e-05
-6.043688039294667913e-01 -1.042674791142419011e+00 2.010508250451170931e-01 -1.618961822305505782e+00 -1.014081404201537919e-03 -1.770819268266806412e-01 -1.481532058057718482e+00 -5.791801326493829505e-01 4.643773389051482070e-01 1.070034829363228682e-04
-6.123480806911796304e-01 -1.119030221185914220e+00 1.740791693154060404e-01 -1.585444534895929625e+00 -1.002501352750347855e-03 -1.595855352342565592e-01 -1.527108600869904187e+00 -5.394331145942211636e-01 6.703457481915229277e-01 2.316010290238014631e-04
-6.193880391528386875e-01 -1.197345959306339580e+00 1.492741704104427192e-01 -1.542423034454119879e+00 -9.745779182297500650e-04 -1.407991692331801159e-01 -1.566314762408505867e+00 -4.960999780992665364e-01 8.604300088361969134e-01 5.584686904119549357e-04
-6.253692205228519319e-01 -1.277315833047173443e+00 1.267177420548880051e-01 -1.490751447195824531e+00 -9.322902129495653232e-04 -1.196236274002644984e-01 -1.599397474816676823e+00 -4.511285671110941697e-01 1.033431745165905191e+00 8.457541056036957036e-04
-6.301248663776231052e-01 -1.358655459647992059e+00 1.064257901382660437e-01 -1.431307108201132827e+00 -8.839566801537207573e-04 -9.511291709542342432e-02 -1.626792532016372306e+00 -4.058390383324391726e-01 1.188886779893832735e+00 9.666706559168920755e-04
-6.334823977669857831e-01 -1.441109435908235259e+00 8.834857059825558523e-02 -1.364963389363877733e+00 -8.389446700390755431e-04 -6.715062778725283676e-02 -1.649079525204863339e+00 -3.615443908002091145e-01 1.326874376745101891e+00 9.002402022929053681e-04
-6.353410091297339024e-01 -1.524456310604725084e+00 7.233160233884797230e-02 -1.292565726652086244e+00 -8.053431674357172318e-04 -3.717222725496155400e-02 -1.666937493929797842e+00 -3.203393651881522586e-01 1.447953254235830878e+00 6.720300520671664436e-04
-6.357508746630852192e-01 -1.608509726298745557e+00 5.806225599628454803e-02 -1.214910338680093460e+00 -7.880635466298371861e-04 -8.197310667026988518e-03 -1.681068313880408338e+00 -2.853869268512684854e-01 1.553107759439857238e+00 3.455924161176011315e-04
-6.349314665696118576e-01 -1.693113186306703266e+00 4.505345594067415582e-02 -1.132733110996208437e+00 -7.864908180334334586e-04 1.638816186946662895e-02 -1.692069200159153075e+00 -2.601760011122078997e-01 1.643544553677700470e+00 3.145457192807346418e-05
-6.331927711848922558e-01 -1.778131299620535843e+00 3.270638469820204286e-02 -1.046707951513430546e+00 -7.894758660084182826e-04 3.477390769439190482e-02 -1.700362266276650658e+00 -2.469414248494422315e-01 1.720503189655556264e+00 -5.970095949969680526e-05
-6.308212684698096817e-01 -1.863440985533913352e+00 2.040414138361850566e-02 -9.574545309039690366e-01 -7.536517177492060285e-04 4.743005430165218167e-02 -1.706193718267548398e+00 -2.460448662916707441e-01 1.785068412189230846e+00 7.164829651842459513e-04
-6.280167579104083408e-01 -1.948924429523415380e+00 7.557280359808996387e-03 -8.655491788706187739e-01 -5.096794219839588134e-04 0.000000000000000000e+00 0.000000000000000000e+00 0.000000000000000000e+00 0.000000000000000000e+00 0.000000000000000000e+00
-6.280167579104083408e-01 -1.948924429523415380e+00 7.557280359808996387e-03 -8.655491788706187739e-01 -5.096794219839588134e-04 0.000000000000000000e+00 0.000000000000000000e+00 0.000000000000000000e+00 0.000000000000000000e+00 0.000000000000000000e+00
-6.280167579104083408e-01 -1.948924429523415380e+00 7.557280359808996387e-03 -8.655491788706187739e-01 -5.096794219839588134e-04 0.000000000000000000e+00 0.000000000000000000e+00 0.000000000000000000e+00 0.000000000000000000e+00 0.000000000000000000e+00
-6.280167579104083408e-01 -1.948924429523415380e+00 7.557280359808996387e-03 -8.655491788706187739e-01 -5.096794219839588134e-04 0.000000000000000000e+00 0.000000000000000000e+00 0.000000000000000000e+00 0.000000000000000000e+00 0.000000000000000000e+00
-6.280167579104083408e-01 -1.948924429523415380e+00 7.557280359808996387e-03 -8.655491788706187739e-01 -5.096794219839588134e-04 0.000000000000000000e+00 0.000000000000000000e+00 0.000000000000000000e+00 0.000000000000000000e+00 0.000000000000000000e+00
-6.280167579104083408e-01 -1.948924429523415380e+00 7.557280359808996387e-03 -8.655491788706187739e-01 -5.096794219839588134e-04 0.000000000000000000e+00 0.000000000000000000e+00 0.000000000000000000e+00 0.000000000000000000e+00 0.000000000000000000e+00
-6.280167579104083408e-01 -1.948924429523415380e+00 7.557280359808996387e-03 -8.655491788706187739e-01 -5.096794219839588134e-04 0.000000000000000000e+00 0.000000000000000000e+00 0.000000000000000000e+00 0.000000000000000000e+00 0.000000000000000000e+00
-6.280167579104083408e-01 -1.948924429523415380e+00 7.557280359808996387e-03 -8.655491788706187739e-01 -5.096794219839588134e-04 0.000000000000000000e+00 0.000000000000000000e+00 0.000000000000000000e+00 0.000000000000000000e+00 0.000000000000000000e+00
