-7.976197241616012068e-01 1.013930889200947566e-01 7.386169803503147557e-01 -1.235202456821346217e+00 1.196233080449357567e-03 -9.291633310217412012e-01 5.154852797513086449e-01 -1.770285330430896087e+00 -2.426508306306444318e+00 1.860563320410378758e-04
-8.461823878788756748e-01 1.261677956037782766e-01 6.495125789456365206e-01 -1.360321469644997450e+00 1.181233661954071050e-03 -9.712532743454899142e-01 4.954941336736702340e-01 -1.782088028093564924e+00 -2.502380256473022424e+00 -2.999883699057302885e-04
-8.962215209916294389e-01 1.488092636593813800e-01 5.589527976863395420e-01 -1.483038471857693441e+00 1.137880361378456424e-03 -1.000782662255074396e+00 4.528293611120621232e-01 -1.811195625185938907e+00 -2.454340044253918496e+00 -8.670660115122920918e-04
-9.472344189968742167e-01 1.685655869912741356e-01 4.657065463623609736e-01 -1.597718633433823587e+00 1.020628552578736227e-03 -1.020257960104895556e+00 3.951264666378551671e-01 -1.864925026479570924e+00 -2.293603231522603814e+00 -2.345036175994405676e-03
-9.987585441034320111e-01 1.849611495082529866e-01 3.689838442906753224e-01 -1.699535880757885531e+00 7.196345636859568812e-04 -1.030482502131155442e+00 3.279112503395772427e-01 -1.934454041433713023e+00 -2.036344946481239759e+00 -6.019879777855586048e-03
-1.050366649857760626e+00 1.976540466354195225e-01 2.689801461673842486e-01 -1.784576254481162083e+00 2.646243024272947205e-04 -1.032162115086574072e+00 2.538579425433308279e-01 -2.000073962465821253e+00 -1.700807474465531932e+00 -9.100205225173241264e-03
-1.101726650171426014e+00 2.063187877574613194e-01 1.671298813864898758e-01 -1.849910364834819854e+00 -2.439578271449566898e-04 -1.027200006273309763e+00 1.732948224408357163e-01 -2.037005295617887679e+00 -1.306682207073154967e+00 -1.017164259144502647e-02
-1.152689644669171898e+00 2.106069060887388322e-01 6.601858172513208611e-02 -1.893694184219703036e+00 -6.916789497417809209e-04 -1.019259889954919229e+00 8.576236662555046519e-02 -2.022225993227155794e+00 -8.756763876976618732e-01 -8.954422451936484839e-03
-1.203348089893232054e+00 2.102061618943786292e-01 -3.106222648983152090e-02 -1.915290125119865738e+00 -9.836923437280113182e-04 -1.013168904481202892e+00 -8.014883887204213297e-03 -1.941616164299272196e+00 -4.319188180032560442e-01 -5.840267879724605343e-03
-1.254010509835252751e+00 2.049567704402375790e-01 -1.208042082270808365e-01 -1.915313926872125094e+00 -1.083494537368740167e-03 -1.013248398840413067e+00 -1.049878290828211297e-01 -1.794839634744986201e+00 -4.760350451872286115e-04 -1.996043872814575251e-03
-1.305092479621572821e+00 1.949495519215662387e-01 -2.005701011550845014e-01 -1.895527222136133005e+00 -1.095038019526316762e-03 -1.021639395726400279e+00 -2.001443703734269719e-01 -1.595317858560073354e+00 3.957340947198420000e-01 -2.308696431515331986e-04
-1.356981121483711528e+00 1.805432392087912286e-01 -2.688167716156221188e-01 -1.858544251275149328e+00 -1.071914485674521416e-03 -1.037772837242773916e+00 -2.881262542555002026e-01 -1.364933409210752124e+00 7.396594172196739869e-01 4.624706770359089799e-04
-1.409941475413464262e+00 1.623009262654718232e-01 -3.251409589063352645e-01 -1.807424510924412475e+00 -1.015070776889150529e-03 -1.059207078595054474e+00 -3.648462588663879957e-01 -1.126483745814263360e+00 1.022394807014737950e+00 1.136874175707416022e-03
-1.464091850339330314e+00 1.408918046373865973e-01 -3.700315896558309392e-01 -1.745282711984651680e+00 -8.842108782363575182e-04 -1.083007498517319034e+00 -4.281824325617047400e-01 -8.978126149899132713e-01 1.242835978795217455e+00 2.617197973055859772e-03
-1.519430362014111635e+00 1.170010358902676406e-01 -4.045094318036815961e-01 -1.675003714869042426e+00 -6.888550215362271648e-04 -1.106770233495626865e+00 -4.778153749423791896e-01 -6.895568429570135827e-01 1.405579942312184416e+00 3.907117134002607503e-03
-1.575880466788300627e+00 9.126572834870040618e-02 -4.298013527534994549e-01 -1.599079751310965358e+00 -4.643204934873284206e-04 -1.129002095483781387e+00 -5.147061508313447442e-01 -5.058384189963575084e-01 1.518479271161541355e+00 4.490690560977975317e-03
-1.633332350865066118e+00 6.423885266713702524e-02 -4.471164195847039391e-01 -1.519553449553969093e+00 -2.436804340898573464e-04 -1.149037681535311384e+00 -5.405375136312675632e-01 -3.463013366240899060e-01 1.590526035139925298e+00 4.412801187949420834e-03
-1.691671752081539193e+00 3.637212584649338054e-02 -4.575222855352800155e-01 -1.438023617595074466e+00 -5.058197123373737829e-05 -1.166788024329462603e+00 -5.573345364128727830e-01 -2.081173190115220561e-01 1.630596639177893215e+00 3.861969257122399145e-03
-1.750795859713869751e+00 8.011750981681824146e-03 -4.618986096912275907e-01 -1.355683810717275062e+00 1.013516070510530470e-04 -1.182482152646609164e+00 -5.672074972962311001e-01 -8.752648311895100397e-02 1.646796137555989414e+00 3.038671565695808506e-03
-1.810619109229570700e+00 -2.059683262987586222e-02 -4.609384446731065177e-01 -1.273376876899745991e+00 2.065355664309605265e-04 -1.196464990314017873e+00 -5.721716722311537273e-01 1.920330036242173799e-02 1.646138676350583196e+00 2.103679187598149480e-03
-1.871072927605591518e+00 -4.930048791233753586e-02 -4.551709806160276206e-01 -1.191646893842113197e+00 2.644976182073859841e-04 -1.209076367520416362e+00 -5.740731056492335282e-01 1.153492811415775948e-01 1.634599661152657202e+00 1.159241035528509045e-03
-1.932102061313857977e+00 -7.802818876834674566e-02 -4.449909124529152771e-01 -1.110783529083781529e+00 2.740893549534169577e-04 -1.220582674165327175e+00 -5.745540171201842794e-01 2.036013632622468705e-01 1.617267295166633367e+00 1.918347349206196879e-04
-1.993659345462477361e+00 -1.067809673546429583e-01 -4.306848046813370745e-01 -1.030855720875599735e+00 2.162134097776584861e-04 -1.231145682972385469e+00 -5.750555717259242527e-01 2.861221554315634963e-01 1.598556164163634552e+00 -1.157518903515169324e-03
-2.055699983511559914e+00 -1.356222511157166022e-01 -4.124473897995225569e-01 -9.517399758429847534e-01 -1.232464217651693173e-05 -1.240812760981648832e+00 -5.768256752214728778e-01 3.647482976362900753e-01 1.582314900652298961e+00 -4.570761039083507705e-03
-2.118175825162450288e+00 -1.646691324152722846e-01 -3.903825112455000523e-01 -8.731469343096889268e-01 -8.636296005491392617e-04 0.000000000000000000e+00 0.000000000000000000e+00 0.000000000000000000e+00 0.000000000000000000e+00 0.000000000000000000e+00
-2.118175825162450288e+00 -1.646691324152722846e-01 -3.903825112455000523e-01 -8.731469343096889268e-01 -8.636296005491392617e-04 0.000000000000000000e+00 0.000000000000000000e+00 0.000000000000000000e+00 0.000000000000000000e+00 0.000000000000000000e+00
-2.118175825162450288e+00 -1.646691324152722846e-01 -3.903825112455000523e-01 -8.731469343096889268e-01 -8.636296005491392617e-04 0.000000000000000000e+00 0.000000000000000000e+00 0.000000000000000000e+00 0.000000000000000000e+00 0.000000000000000000e+00
-2.118175825162450288e+00 -1.646691324152722846e-01 -3.903825112455000523e-01 -8.731469343096889268e-01 -8.636296005491392617e-04 0.000000000000000000e+00 0.000000000000000000e+00 0.000000000000000000e+00 0.000000000000000000e+00 0.000000000000000000e+00
-2.118175825162450288e+00 -1.646691324152722846e-01 -3.903825112455000523e-01 -8.731469343096889268e-01 -8.636296005491392617e-04 0.000000000000000000e+00 0.000000000000000000e+00 0.000000000000000000e+00 0.000000000000000000e+00 0.000000000000000000e+00
-2.118175825162450288e+00 -1.646691324152722846e-01 -3.903825112455000523e-01 -8.731469343096889268e-01 -8.636296005491392617e-04 0.000000000000000000e+00 0.000000000000000000e+00 0.000000000000000000e+00 0.000000000000000000e+00 0.000000000000000000e+00
-2.118175825162450288e+00 -1.646691324152722846e-01 -3.903825112455000523e-01 -8.731469343096889268e-01 -8.636296005491392617e-04 0.000000000000000000e+00 0.000000000000000000e+00 0.000000000000000000e+00 0.000000000000000000e+00 0.000000000000000000e+00
