-1.387334785783366886e+00 -6.609348812982799304e-01 -4.382881571643256757e-01 -1.498976041748749655e+00 -1.006911702176543130e-03 -1.461233260587714300e+00 -5.005817986875862324e-01 -1.324048077045771210e+00 2.757763533572371584e-01 3.827336856313836005e-05
-1.463000200850930632e+00 -6.843374348755584258e-01 -5.056333810721689304e-01 -1.480187031905264794e+00 -1.000396855308494570e-03 -1.513308301351274698e+00 -4.680510715455700188e-01 -1.346904478156864871e+00 3.757801968696963812e-01 1.302969373609712462e-04
-1.541233245944851671e+00 -7.057067179090198428e-01 -5.742240919011902811e-01 -1.456920888256928448e+00 -9.882576251153117088e-04 -1.564660901878420995e+00 -4.273856606692280624e-01 -1.371814216580426793e+00 4.653228729667282515e-01 2.427846038636569527e-04
-1.621953371566671631e+00 -7.246357824676862291e-01 -6.442043206913440345e-01 -1.429707424853400521e+00 -9.765753963040938509e-04 -1.614402512436399206e+00 -3.785812911733279496e-01 -1.399604575803075290e+00 5.442692680705568664e-01 2.336445762243558565e-04
-1.705025583287563151e+00 -7.407280339264731284e-01 -7.157301017025226031e-01 -1.399049782580188861e+00 -9.732057285031523244e-04 -1.661444234417830623e+00 -3.218450291757380399e-01 -1.430515620223572038e+00 6.131528454642352077e-01 6.739335601882990548e-05
-1.790252627863524904e+00 -7.536101741145199151e-01 -7.889404389598739797e-01 -1.365386342246034612e+00 -9.842098429893291617e-04 -1.704540891519233048e+00 -2.576428037609360122e-01 -1.464206745147026645e+00 6.732688066830856410e-01 -2.200822897235347661e-04
-1.877367958101370027e+00 -7.629542219306739703e-01 -8.639191384610760416e-01 -1.329018495548345502e+00 -1.000190220896332019e-03 0.000000000000000000e+00 0.000000000000000000e+00 0.000000000000000000e+00 0.000000000000000000e+00 0.000000000000000000e+00
-1.877367958101370027e+00 -7.629542219306739703e-01 -8.639191384610760416e-01 -1.329018495548345502e+00 -1.000190220896332019e-03 0.000000000000000000e+00 0.000000000000000000e+00 0.000000000000000000e+00 0.000000000000000000e+00 0.000000000000000000e+00
-1.877367958101370027e+00 -7.629542219306739703e-01 -8.639191384610760416e-01 -1.329018495548345502e+00 -1.000190220896332019e-03 0.000000000000000000e+00 0.000000000000000000e+00 0.000000000000000000e+00 0.000000000000000000e+00 0.000000000000000000e+00
-1.877367958101370027e+00 -7.629542219306739703e-01 -8.639191384610760416e-01 -1.329018495548345502e+00 -1.000190220896332019e-03 0.000000000000000000e+00 0.000000000000000000e+00 0.000000000000000000e+00 0.000000000000000000e+00 0.000000000000000000e+00
-1.877367958101370027e+00 -7.629542219306739703e-01 -8.639191384610760416e-01 -1.329018495548345502e+00 -1.000190220896332019e-03 0.000000000000000000e+00 0.000000000000000000e+00 0.000000000000000000e+00 0.000000000000000000e+00 0.000000000000000000e+00
-1.877367958101370027e+00 -7.629542219306739703e-01 -8.639191384610760416e-01 -1.329018495548345502e+00 -1.000190220896332019e-03 0.000000000000000000e+00 0.000000000000000000e+00 0.000000000000000000e+00 0.000000000000000000e+00 0.000000000000000000e+00
-1.877367958101370027e+00 -7.629542219306739703e-01 -8.639191384610760416e-01 -1.329018495548345502e+00 -1.000190220896332019e-03 0.000000000000000000e+00 0.000000000000000000e+00 0.000000000000000000e+00 0.000000000000000000e+00 0.000000000000000000e+00
-1.877367958101370027e+00 -7.629542219306739703e-01 -8.639191384610760416e-01 -1.329018495548345502e+00 -1.000190220896332019e-03 0.000000000000000000e+00 0.000000000000000000e+00 0.000000000000000000e+00 0.000000000000000000e+00 0.000000000000000000e+00
-1.877367958101370027e+00 -7.629542219306739703e-01 -8.639191384610760416e-01 -1.329018495548345502e+00 -1.000190220896332019e-03 0.000000000000000000e+00 0.000000000000000000e+00 0.000000000000000000e+00 0.000000000000000000e+00 0.000000000000000000e+00
-1.877367958101370027e+00 -7.629542219306739703e-01 -8.639191384610760416e-01 -1.329018495548345502e+00 -1.000190220896332019e-03 0.000000000000000000e+00 0.000000000000000000e+00 0.000000000000000000e+00 0.000000000000000000e+00 0.000000000000000000e+00
-1.877367958101370027e+00 -7.629542219306739703e-01 -8.639191384610760416e-01 -1.329018495548345502e+00 -1.000190220896332019e-03 0.000000000000000000e+00 0.000000000000000000e+00 0.000000000000000000e+00 0.000000000000000000e+00 0.000000000000000000e+00
-1.877367958101370027e+00 -7.629542219306739703e-01 -8.639191384610760416e-01 -1.329018495548345502e+00 -1.000190220896332019e-03 0.000000000000000000e+00 0.000000000000000000e+00 0.000000000000000000e+00 0.000000000000000000e+00 0.000000000000000000e+00
-1.877367958101370027e+00 -7.629542219306739703e-01 -8.639191384610760416e-01 -1.329018495548345502e+00 -1.000190220896332019e-03 0.000000000000000000e+00 0.000000000000000000e+00 0.000000000000000000e+00 0.000000000000000000e+00 0.000000000000000000e+00
-1.877367958101370027e+00 -7.629542219306739703e-01 -8.639191384610760416e-01 -1.329018495548345502e+00 -1.000190220896332019e-03 0.000000000000000000e+00 0.000000000000000000e+00 0.000000000000000000e+00 0.000000000000000000e+00 0.000000000000000000e+00
-1.877367958101370027e+00 -7.629542219306739703e-01 -8.639191384610760416e-01 -1.329018495548345502e+00 -1.000190220896332019e-03 0.000000000000000000e+00 0.000000000000000000e+00 0.000000000000000000e+00 0.000000000000000000e+00 0.000000000000000000e+00
-1.877367958101370027e+00 -7.629542219306739703e-01 -8.639191384610760416e-01 -1.329018495548345502e+00 -1.000190220896332019e-03 0.000000000000000000e+00 0.000000000000000000e+00 0.000000000000000000e+00 0.000000000000000000e+00 0.000000000000000000e+00
-1.877367958101370027e+00 -7.629542219306739703e-01 -8.639191384610760416e-01 -1.329018495548345502e+00 -1.000190220896332019e-03 0.000000000000000000e+00 0.000000000000000000e+00 0.000000000000000000e+00 0.000000000000000000e+00 0.000000000000000000e+00
-1.877367958101370027e+00 -7.629542219306739703e-01 -8.639191384610760416e-01 -1.329018495548345502e+00 -1.000190220896332019e-03 0.000000000000000000e+00 0.000000000000000000e+00 0.000000000000000000e+00 0.000000000000000000e+00 0.000000000000000000e+00
-1.877367958101370027e+00 -7.629542219306739703e-01 -8.639191384610760416e-01 -1.329018495548345502e+00 -1.000190220896332019e-03 0.000000000000000000e+00 0.000000000000000000e+00 0.000000000000000000e+00 0.000000000000000000e+00 0.000000000000000000e+00
-1.877367958101370027e+00 -7.629542219306739703e-01 -8.639191384610760416e-01 -1.329018495548345502e+00 -1.000190220896332019e-03 0.000000000000000000e+00 0.000000000000000000e+00 0.000000000000000000e+00 0.000000000000000000e+00 0.000000000000000000e+00
-1.877367958101370027e+00 -7.629542219306739703e-01 -8.639191384610760416e-01 -1.329018495548345502e+00 -1.000190220896332019e-03 0.000000000000000000e+00 0.000000000000000000e+00 0.000000000000000000e+00 0.000000000000000000e+00 0.000000000000000000e+00
-1.877367958101370027e+00 -7.629542219306739703e-01 -8.639191384610760416e-01 -1.329018495548345502e+00 -1.000190220896332019e-03 0.000000000000000000e+00 0.000000000000000000e+00 0.000000000000000000e+00 0.000000000000000000e+00 0.000000000000000000e+00
-1.877367958101370027e+00 -7.629542219306739703e-01 -8.639191384610760416e-01 -1.329018495548345502e+00 -1.000190220896332019e-03 0.000000000000000000e+00 0.000000000000000000e+00 0.000000000000000000e+00 0.000000000000000000e+00 0.000000000000000000e+00
-1.877367958101370027e+00 -7.629542219306739703e-01 -8.639191384610760416e-01 -1.329018495548345502e+00 -1.000190220896332019e-03 0.000000000000000000e+00 0.000000000000000000e+00 0.000000000000000000e+00 0.000000000000000000e+00 0.000000000000000000e+00
-1.877367958101370027e+00 -7.629542219306739703e-01 -8.639191384610760416e-01 -1.329018495548345502e+00 -1.000190220896332019e-03 0.000000000000000000e+00 0.000000000000000000e+00 0.000000000000000000e+00 0.000000000000000000e+00 0.000000000000000000e+00
