6.147769296591851784e-01 -6.430150447036118155e-01 1.452883686105557626e+00 -7.882862315802831032e-01 4.472443681691001490e-04 1.693153369289445154e+00 -2.863705356362475918e-01 8.547553741748350475e-01 1.760448302836683299e+00 6.534003034986017588e-03
7.008611695200969161e-01 -6.545880584295202809e-01 1.496736629404231023e+00 -6.982504741536663673e-01 7.828295818895865052e-04 1.721684797218234086e+00 -2.314602745181695564e-01 8.770588659734689374e-01 1.800715148532333609e+00 6.711704274409724738e-03
7.884621634396689061e-01 -6.636278897145094779e-01 1.542669502870225084e+00 -6.065009268124705866e-01 1.000582032312992854e-03 0.000000000000000000e+00 0.000000000000000000e+00 0.000000000000000000e+00 0.000000000000000000e+00 0.000000000000000000e+00
7.884621634396689061e-01 -6.636278897145094779e-01 1.542669502870225084e+00 -6.065009268124705866e-01 1.000582032312992854e-03 0.000000000000000000e+00 0.000000000000000000e+00 0.000000000000000000e+00 0.000000000000000000e+00 0.000000000000000000e+00
7.884621634396689061e-01 -6.636278897145094779e-01 1.542669502870225084e+00 -6.065009268124705866e-01 1.000582032312992854e-03 0.000000000000000000e+00 0.000000000000000000e+00 0.000000000000000000e+00 0.000000000000000000e+00 0.000000000000000000e+00
7.884621634396689061e-01 -6.636278897145094779e-01 1.542669502870225084e+00 -6.065009268124705866e-01 1.000582032312992854e-03 0.000000000000000000e+00 0.000000000000000000e+00 0.000000000000000000e+00 0.000000000000000000e+00 0.000000000000000000e+00
7.884621634396689061e-01 -6.636278897145094779e-01 1.542669502870225084e+00 -6.065009268124705866e-01 1.000582032312992854e-03 0.000000000000000000e+00 0.000000000000000000e+00 0.000000000000000000e+00 0.000000000000000000e+00 0.000000000000000000e+00
7.884621634396689061e-01 -6.636278897145094779e-01 1.542669502870225084e+00 -6.065009268124705866e-01 1.000582032312992854e-03 0.000000000000000000e+00 0.000000000000000000e+00 0.000000000000000000e+00 0.000000000000000000e+00 0.000000000000000000e+00
7.884621634396689061e-01 -6.636278897145094779e-01 1.542669502870225084e+00 -6.065009268124705866e-01 1.000582032312992854e-03 0.000000000000000000e+00 0.000000000000000000e+00 0.000000000000000000e+00 0.000000000000000000e+00 0.000000000000000000e+00
7.884621634396689061e-01 -6.636278897145094779e-01 1.542669502870225084e+00 -6.065009268124705866e-01 1.000582032312992854e-03 0.000000000000000000e+00 0.000000000000000000e+00 0.000000000000000000e+00 0.000000000000000000e+00 0.000000000000000000e+00
7.884621634396689061e-01 -6.636278897145094779e-01 1.542669502870225084e+00 -6.065009268124705866e-01 1.000582032312992854e-03 0.000000000000000000e+00 0.000000000000000000e+00 0.000000000000000000e+00 0.000000000000000000e+00 0.000000000000000000e+00
7.884621634396689061e-01 -6.636278897145094779e-01 1.542669502870225084e+00 -6.065009268124705866e-01 1.000582032312992854e-03 0.000000000000000000e+00 0.000000000000000000e+00 0.000000000000000000e+00 0.000000000000000000e+00 0.000000000000000000e+00
7.884621634396689061e-01 -6.636278897145094779e-01 1.542669502870225084e+00 -6.065009268124705866e-01 1.000582032312992854e-03 0.000000000000000000e+00 0.000000000000000000e+00 0.000000000000000000e+00 0.000000000000000000e+00 0.000000000000000000e+00
7.884621634396689061e-01 -6.636278897145094779e-01 1.542669502870225084e+00 -6.065009268124705866e-01 1.000582032312992854e-03 0.000000000000000000e+00 0.000000000000000000e+00 0.000000000000000000e+00 0.000000000000000000e+00 0.000000000000000000e+00
7.884621634396689061e-01 -6.636278897145094779e-01 1.542669502870225084e+00 -6.065009268124705866e-01 1.000582032312992854e-03 0.000000000000000000e+00 0.000000000000000000e+00 0.000000000000000000e+00 0.000000000000000000e+00 0.000000000000000000e+00
7.884621634396689061e-01 -6.636278897145094779e-01 1.542669502870225084e+00 -6.065009268124705866e-01 1.000582032312992854e-03 0.000000000000000000e+00 0.000000000000000000e+00 0.000000000000000000e+00 0.000000000000000000e+00 0.000000000000000000e+00
7.884621634396689061e-01 -6.636278897145094779e-01 1.542669502870225084e+00 -6.065009268124705866e-01 1.000582032312992854e-03 0.000000000000000000e+00 0.000000000000000000e+00 0.000000000000000000e+00 0.000000000000000000e+00 0.000000000000000000e+00
7.884621634396689061e-01 -6.636278897145094779e-01 1.542669502870225084e+00 -6.065009268124705866e-01 1.000582032312992854e-03 0.000000000000000000e+00 0.000000000000000000e+00 0.000000000000000000e+00 0.000000000000000000e+00 0.000000000000000000e+00
7.884621634396689061e-01 -6.636278897145094779e-01 1.542669502870225084e+00 -6.065009268124705866e-01 1.000582032312992854e-03 0.000000000000000000e+00 0.000000000000000000e+00 0.000000000000000000e+00 0.000000000000000000e+00 0.000000000000000000e+00
7.884621634396689061e-01 -6.636278897145094779e-01 1.542669502870225084e+00 -6.065009268124705866e-01 1.000582032312992854e-03 0.000000000000000000e+00 0.000000000000000000e+00 0.000000000000000000e+00 0.000000000000000000e+00 0.000000000000000000e+00
7.884621634396689061e-01 -6.636278897145094779e-01 1.542669502870225084e+00 -6.065009268124705866e-01 1.000582032312992854e-03 0.000000000000000000e+00 0.000000000000000000e+00 0.000000000000000000e+00 0.000000000000000000e+00 0.000000000000000000e+00
7.884621634396689061e-01 -6.636278897145094779e-01 1.542669502870225084e+00 -6.065009268124705866e-01 1.000582032312992854e-03 0.000000000000000000e+00 0.000000000000000000e+00 0.000000000000000000e+00 0.000000000000000000e+00 0.000000000000000000e+00
7.884621634396689061e-01 -6.636278897145094779e-01 1.542669502870225084e+00 -6.065009268124705866e-01 1.000582032312992854e-03 0.000000000000000000e+00 0.000000000000000000e+00 0.000000000000000000e+00 0.000000000000000000e+00 0.000000000000000000e+00
7.884621634396689061e-01 -6.636278897145094779e-01 1.542669502870225084e+00 -6.065009268124705866e-01 1.000582032312992854e-03 0.000000000000000000e+00 0.000000000000000000e+00 0.000000000000000000e+00 0.000000000000000000e+00 0.000000000000000000e+00
7.884621634396689061e-01 -6.636278897145094779e-01 1.542669502870225084e+00 -6.065009268124705866e-01 1.000582032312992854e-03 0.000000000000000000e+00 0.000000000000000000e+00 0.000000000000000000e+00 0.000000000000000000e+00 0.000000000000000000e+00
7.884621634396689061e-01 -6.636278897145094779e-01 1.542669502870225084e+00 -6.065009268124705866e-01 1.000582032312992854e-03 0.000000000000000000e+00 0.000000000000000000e+00 0.000000000000000000e+00 0.000000000000000000e+00 0.000000000000000000e+00
7.884621634396689061e-01 -6.636278897145094779e-01 1.542669502870225084e+00 -6.065009268124705866e-01 1.000582032312992854e-03 0.000000000000000000e+00 0.000000000000000000e+00 0.000000000000000000e+00 0.000000000000000000e+00 0.000000000000000000e+00
7.884621634396689061e-01 -6.636278897145094779e-01 1.542669502870225084e+00 -6.065009268124705866e-01 1.000582032312992854e-03 0.000000000000000000e+00 0.000000000000000000e+00 0.000000000000000000e+00 0.000000000000000000e+00 0.000000000000000000e+00
7.884621634396689061e-01 -6.636278897145094779e-01 1.542669502870225084e+00 -6.065009268124705866e-01 1.000582032312992854e-03 0.000000000000000000e+00 0.000000000000000000e+00 0.000000000000000000e+00 0.000000000000000000e+00 0.000000000000000000e+00
7.884621634396689061e-01 -6.636278897145094779e-01 1.542669502870225084e+00 -6.065009268124705866e-01 1.000582032312992854e-03 0.000000000000000000e+00 0.000000000000000000e+00 0.000000000000000000e+00 0.000000000000000000e+00 0.000000000000000000e+00
7.884621634396689061e-01 -6.636278897145094779e-01 1.542669502870225084e+00 -6.065009268124705866e-01 1.000582032312992854e-03 0.000000000000000000e+00 0.000000000000000000e+00 0.000000000000000000e+00 0.000000000000000000e+00 0.000000000000000000e+00
