-5.836317215088867583e-01 -3.132790999374954755e-01 3.518716607141307295e-01 -1.924202553866638299e+00 -1.047053868603847965e-03 -2.044473895558304721e-01 -9.920547312734047107e-01 -6.812550966394281815e-01 2.612539899291468903e-02 -2.289563587128967291e-04
-5.933052057292639292e-01 -3.670352041427650258e-01 3.189699806853198427e-01 -1.911898415006939134e+00 -1.048269060040128795e-03 -1.934696844075435851e-01 -1.075122084105391229e+00 -6.580336005762177365e-01 2.460827771939819164e-01 -2.430382872561630291e-05
-6.024907939120259792e-01 -4.245722834647250310e-01 2.881344855742888900e-01 -1.888677460628696014e+00 -1.044173499111754116e-03 -1.837117636552405286e-01 -1.150741586439199660e+00 -6.167099022206196102e-01 4.644190875648646077e-01 8.191121856749343174e-05
-6.112976316301553803e-01 -4.854534121377444555e-01 2.599546029164440664e-01 -1.855077134684244955e+00 -1.036850754762809728e-03 -1.761367543625881327e-01 -1.217622573460388269e+00 -5.635976531568966941e-01 6.720065188890190777e-01 1.464548869788889545e-04
-6.198620638822690543e-01 -5.491945620707419096e-01 2.346939287038505018e-01 -1.811966430721185572e+00 -1.028273797618059178e-03 -1.712886450422743401e-01 -1.274822998659948414e+00 -5.052134842518710700e-01 8.622140792611893145e-01 1.715391428950122684e-04
-6.283302315479226685e-01 -6.152907443865620607e-01 2.123381858842293968e-01 -1.760411577095355007e+00 -1.020065999114816175e-03 -1.693633533130725621e-01 -1.321923646316402579e+00 -4.471148563924220998e-01 1.031097072516609536e+00 1.641559700648620457e-04
-6.368459897500335920e-01 -6.832441549263881253e-01 1.926717880946131334e-01 -1.701554658703884337e+00 -1.012664379009321032e-03 -1.703151640422186641e-01 -1.359068210796521292e+00 -3.933279557923254899e-01 1.177138367829412280e+00 1.480324021099029463e-04
-6.455435191355531899e-01 -7.525888427141921300e-01 1.753569316695468561e-01 -1.636518223740474509e+00 -1.003362415857321933e-03 -1.739505877103910414e-01 -1.386893755756079427e+00 -3.462971285013255462e-01 1.300728699268195010e+00 1.860392630399836599e-04
-6.545423844154841797e-01 -8.229094848859321853e-01 1.600005068057928914e-01 -1.566337289531005705e+00 -9.819394768495809042e-04 -1.799773055986206849e-01 -1.406412843434801108e+00 -3.071284972750792930e-01 1.403618684189374521e+00 4.284587801548208957e-04
-6.639433876650624455e-01 -8.938536139841691819e-01 1.462023726367617238e-01 -1.491915476525910833e+00 -9.508789216686172390e-04 -1.880200649915649835e-01 -1.418882581964739487e+00 -2.759626833806236301e-01 1.488436260101899000e+00 6.212111036192741707e-04
-6.738245622339157359e-01 -9.651377923697987971e-01 1.335843094090904404e-01 -1.414000021725547951e+00 -9.133850636275057814e-04 -1.976234913770664459e-01 -1.425683567712593414e+00 -2.523612645534254462e-01 1.558309096007258088e+00 7.498771608222293706e-04
-6.842363282489670739e-01 -1.036547175860565773e+00 1.218056131973213468e-01 -1.333178663224136029e+00 -8.711933645160313240e-04 -2.082353203010277043e-01 -1.428187669815340621e+00 -2.355739242353818153e-01 1.616427170028239990e+00 8.438339822294890378e-04
-6.951969472536065897e-01 -1.107929249458283749e+00 1.105669987914759261e-01 -1.249895608644365330e+00 -8.249494703945730711e-04 -2.192123800927913146e-01 -1.427641471954361752e+00 -2.247722881169084141e-01 1.665661091595414200e+00 9.248778824291652764e-04
-7.066862175547261593e-01 -1.179185193127345821e+00 9.961105357378965963e-02 -1.164474226365535658e+00 -7.749003425266405391e-04 -2.297854060223922523e-01 -1.425118873381242102e+00 -2.191189043537254411e-01 1.708427645576593434e+00 1.000982557358650422e-03
-7.186376170372921202e-01 -1.250260395548792758e+00 8.872235844915318803e-02 -1.077141872903379483e+00 -7.219073470038235010e-04 -2.390279896513201330e-01 -1.421504048428936295e+00 -2.177739024927294320e-01 1.746647069243121519e+00 1.059859910456340112e-03
-7.309344794867882467e-01 -1.321134777172136010e+00 7.772204101944603372e-02 -9.880542787017442263e-01 -6.683702159148460602e-04 -2.459372489899234182e-01 -1.417487632466865710e+00 -2.200063485941431141e-01 1.781751884032704458e+00 1.070742621779549033e-03
-7.434160073825907267e-01 -1.391813856593205223e+00 6.645274365361256153e-02 -8.973159066719272881e-01 -6.185306389447217321e-04 -2.496305579160487120e-01 -1.413581588421384927e+00 -2.253859473166695826e-01 1.814767440596339432e+00 9.967915394024861285e-04
-7.559010943972884755e-01 -1.462320211751692911e+00 5.474451360890487950e-02 -8.049961903488767057e-01 -5.769040833960524788e-04 -2.497017402939545883e-01 -1.410127103169752427e+00 -2.341646008941536405e-01 1.846394326461011648e+00 8.325311109733851732e-04
-7.682336090523415040e-01 -1.532684956158117506e+00 4.235062785049468342e-02 -7.111381433729578871e-01 -5.394854878878612174e-04 -2.466502931010605137e-01 -1.407294888128491905e+00 -2.478777151682039492e-01 1.877160939518376148e+00 7.483719101638258795e-04
-7.803396710975518680e-01 -1.602937372852089037e+00 2.884889067777199681e-02 -6.157598853212222778e-01 -4.580001669745735644e-04 -2.421212409042072244e-01 -1.405048333879430178e+00 -2.700347434544537184e-01 1.907565161034711521e+00 1.629706418265752625e-03
-7.922770850203473270e-01 -1.673089843278845468e+00 1.350523715527385434e-02 -5.188498754000533397e-01 -9.207876620106103440e-05 0.000000000000000000e+00 0.000000000000000000e+00 0.000000000000000000e+00 0.000000000000000000e+00 0.000000000000000000e+00
-7.922770850203473270e-01 -1.673089843278845468e+00 1.350523715527385434e-02 -5.188498754000533397e-01 -9.207876620106103440e-05 0.000000000000000000e+00 0.000000000000000000e+00 0.000000000000000000e+00 0.000000000000000000e+00 0.000000000000000000e+00
-7.922770850203473270e-01 -1.673089843278845468e+00 1.350523715527385434e-02 -5.188498754000533397e-01 -9.207876620106103440e-05 0.000000000000000000e+00 0.000000000000000000e+00 0.000000000000000000e+00 0.000000000000000000e+00 0.000000000000000000e+00
-7.922770850203473270e-01 -1.673089843278845468e+00 1.350523715527385434e-02 -5.188498754000533397e-01 -9.207876620106103440e-05 0.000000000000000000e+00 0.000000000000000000e+00 0.000000000000000000e+00 0.000000000000000000e+00 0.000000000000000000e+00
-7.922770850203473270e-01 -1.673089843278845468e+00 1.350523715527385434e-02 -5.188498754000533397e-01 -9.207876620106103440e-05 0.000000000000000000e+00 0.000000000000000000e+00 0.000000000000000000e+00 0.000000000000000000e+00 0.000000000000000000e+00
-7.922770850203473270e-01 -1.673089843278845468e+00 1.350523715527385434e-02 -5.188498754000533397e-01 -9.207876620106103440e-05 0.000000000000000000e+00 0.000000000000000000e+00 0.000000000000000000e+00 0.000000000000000000e+00 0.000000000000000000e+00
-7.922770850203473270e-01 -1.673089843278845468e+00 1.350523715527385434e-02 -5.188498754000533397e-01 -9.207876620106103440e-05 0.000000000000000000e+00 0.000000000000000000e+00 0.000000000000000000e+00 0.000000000000000000e+00 0.000000000000000000e+00
-7.922770850203473270e-01 -1.673089843278845468e+00 1.350523715527385434e-02 -5.188498754000533397e-01 -9.207876620106103440e-05 0.000000000000000000e+00 0.000000000000000000e+00 0.000000000000000000e+00 0.000000000000000000e+00 0.000000000000000000e+00
-7.922770850203473270e-01 -1.673089843278845468e+00 1.350523715527385434e-02 -5.188498754000533397e-01 -9.207876620106103440e-05 0.000000000000000000e+00 0.000000000000000000e+00 0.000000000000000000e+00 0.000000000000000000e+00 0.000000000000000000e+00
-7.922770850203473270e-01 -1.673089843278845468e+00 1.350523715527385434e-02 -5.188498754000533397e-01 -9.207876620106103440e-05 0.000000000000000000e+00 0.000000000000000000e+00 0.000000000000000000e+00 0.000000000000000000e+00 0.000000000000000000e+00
-7.922770850203473270e-01 -1.673089843278845468e+00 1.350523715527385434e-02 -5.188498754000533397e-01 -9.207876620106103440e-05 0.000000000000000000e+00 0.000000000000000000e+00 0.000000000000000000e+00 0.000000000000000000e+00 0.000000000000000000e+00
