-1.051293875042712322e+00 -5.707050716940987867e-01 -2.747740845798455345e-01 -2.215658365274125963e+00 -2.565705603085591713e-04 -1.465183541759270403e-01 -1.650502287931640444e+00 -1.022535388939460610e+00 8.839259269345447478e-01 6.277554134919201105e-03
-1.058278704011189619e+00 -6.560300884085736861e-01 -3.182079446453557336e-01 -2.164127734132372805e+00 5.166310457094410412e-05 -1.396965793695455482e-01 -1.706500334289497101e+00 -8.686772013102036505e-01 1.030612622835066716e+00 6.164673297590064424e-03
-1.064909535441961097e+00 -7.434742700078570410e-01 -3.555736040730649861e-01 -2.107136835323682789e+00 3.319973516357305155e-04 -1.326166286154290552e-01 -1.748883631985666876e+00 -7.473131885541846042e-01 1.139817976173797209e+00 5.606684941295728662e-03
-1.071080103787752424e+00 -8.324582561406222991e-01 -3.883157166149132644e-01 -2.046204760402307699e+00 5.703235958722425742e-04 -1.234113669158262427e-01 -1.779679722655305829e+00 -6.548422508369656780e-01 1.218641498427503578e+00 4.766524884730240740e-03
-1.076601693823484140e+00 -9.225013276921716354e-01 -4.176088593744190502e-01 -1.982556489927749244e+00 7.575206010060508326e-04 -1.104318007146345704e-01 -1.800861431030987614e+00 -5.858628551901151615e-01 1.272965409491169098e+00 3.743940102676164734e-03
-1.081198973986808864e+00 -1.013223760574094134e+00 -4.443097471135528664e-01 -1.917142673901518934e+00 8.890470483391036760e-04 -9.194560326649506288e-02 -1.814448657638451312e+00 -5.340177547826762128e-01 1.308276320524606184e+00 2.630528946661056869e-03
-1.084503759754053220e+00 -1.104361901461895057e+00 -4.689381046208521697e-01 -1.850586227185710975e+00 9.690450834954654003e-04 -6.609571534488578592e-02 -1.822762817756018006e+00 -4.925671501459860657e-01 1.331128934316157197e+00 1.599960703127234702e-03
-1.086060977712893560e+00 -1.195742575238491812e+00 -4.917262318484880712e-01 -1.783255873597852315e+00 1.005919679428846818e-03 -3.114435917680891119e-02 -1.827613475531936427e+00 -4.557625445527174746e-01 1.346607071757172980e+00 7.374919186676268373e-04
-1.085374561722540321e+00 -1.287254341217758835e+00 -5.127033619741502291e-01 -1.715336525468941442e+00 1.015853145943524348e-03 1.372831980706559762e-02 -1.830235319585340470e+00 -4.195426025132434344e-01 1.358386962578219226e+00 1.986693302935526586e-04
-1.082027815957087746e+00 -1.378822096732928770e+00 -5.318372251342151635e-01 -1.646882556682039978e+00 1.016094546434518232e-03 6.693491530905230913e-02 -1.831355110303397815e+00 -3.826772632012996334e-01 1.369079375738030402e+00 4.828009819875830715e-06
-1.075907217345752453e+00 -1.470408735190425586e+00 -5.492715099996058337e-01 -1.577773815113371336e+00 1.009479760644434133e-03 1.224119722267040938e-01 -1.831732769149934992e+00 -3.486856973078142352e-01 1.382174831373373047e+00 -1.322957158016811860e-04
-1.067439206082005487e+00 -1.561995582291059836e+00 -5.656206507621025503e-01 -1.507797891530563650e+00 9.888630170040047396e-04 1.693602252749414894e-01 -1.831736942012683889e+00 -3.269828152499346108e-01 1.399518471656153951e+00 -4.123348728085881936e-04
-1.057648696796092525e+00 -1.653568855783970282e+00 -5.821299714143731707e-01 -1.436765026910382437e+00 9.589407196618762383e-04 1.958101857182594774e-01 -1.831465469858211126e+00 -3.301864130454119084e-01 1.420657292403623817e+00 -5.984459468425705692e-04
-1.047892777082489291e+00 -1.745111610249712841e+00 -6.005305533310969501e-01 -1.364615702269528885e+00 1.000883058044359838e-03 0.000000000000000000e+00 0.000000000000000000e+00 0.000000000000000000e+00 0.000000000000000000e+00 0.000000000000000000e+00
-1.047892777082489291e+00 -1.745111610249712841e+00 -6.005305533310969501e-01 -1.364615702269528885e+00 1.000883058044359838e-03 0.000000000000000000e+00 0.000000000000000000e+00 0.000000000000000000e+00 0.000000000000000000e+00 0.000000000000000000e+00
-1.047892777082489291e+00 -1.745111610249712841e+00 -6.005305533310969501e-01 -1.364615702269528885e+00 1.000883058044359838e-03 0.000000000000000000e+00 0.000000000000000000e+00 0.000000000000000000e+00 0.000000000000000000e+00 0.000000000000000000e+00
-1.047892777082489291e+00 -1.745111610249712841e+00 -6.005305533310969501e-01 -1.364615702269528885e+00 1.000883058044359838e-03 0.000000000000000000e+00 0.000000000000000000e+00 0.000000000000000000e+00 0.000000000000000000e+00 0.000000000000000000e+00
-1.047892777082489291e+00 -1.745111610249712841e+00 -6.005305533310969501e-01 -1.364615702269528885e+00 1.000883058044359838e-03 0.000000000000000000e+00 0.000000000000000000e+00 0.000000000000000000e+00 0.000000000000000000e+00 0.000000000000000000e+00
-1.047892777082489291e+00 -1.745111610249712841e+00 -6.005305533310969501e-01 -1.364615702269528885e+00 1.000883058044359838e-03 0.000000000000000000e+00 0.000000000000000000e+00 0.000000000000000000e+00 0.000000000000000000e+00 0.000000000000000000e+00
-1.047892777082489291e+00 -1.745111610249712841e+00 -6.005305533310969501e-01 -1.364615702269528885e+00 1.000883058044359838e-03 0.000000000000000000e+00 0.000000000000000000e+00 0.000000000000000000e+00 0.000000000000000000e+00 0.000000000000000000e+00
-1.047892777082489291e+00 -1.745111610249712841e+00 -6.005305533310969501e-01 -1.364615702269528885e+00 1.000883058044359838e-03 0.000000000000000000e+00 0.000000000000000000e+00 0.000000000000000000e+00 0.000000000000000000e+00 0.000000000000000000e+00
-1.047892777082489291e+00 -1.745111610249712841e+00 -6.005305533310969501e-01 -1.364615702269528885e+00 1.000883058044359838e-03 0.000000000000000000e+00 0.000000000000000000e+00 0.000000000000000000e+00 0.000000000000000000e+00 0.000000000000000000e+00
-1.047892777082489291e+00 -1.745111610249712841e+00 -6.005305533310969501e-01 -1.364615702269528885e+00 1.000883058044359838e-03 0.000000000000000000e+00 0.000000000000000000e+00 0.000000000000000000e+00 0.000000000000000000e+00 0.000000000000000000e+00
-1.047892777082489291e+00 -1.745111610249712841e+00 -6.005305533310969501e-01 -1.364615702269528885e+00 1.000883058044359838e-03 0.000000000000000000e+00 0.000000000000000000e+00 0.000000000000000000e+00 0.000000000000000000e+00 0.000000000000000000e+00
-1.047892777082489291e+00 -1.745111610249712841e+00 -6.005305533310969501e-01 -1.364615702269528885e+00 1.000883058044359838e-03 0.000000000000000000e+00 0.000000000000000000e+00 0.000000000000000000e+00 0.000000000000000000e+00 0.000000000000000000e+00
-1.047892777082489291e+00 -1.745111610249712841e+00 -6.005305533310969501e-01 -1.364615702269528885e+00 1.000883058044359838e-03 0.000000000000000000e+00 0.000000000000000000e+00 0.000000000000000000e+00 0.000000000000000000e+00 0.000000000000000000e+00
-1.047892777082489291e+00 -1.745111610249712841e+00 -6.005305533310969501e-01 -1.364615702269528885e+00 1.000883058044359838e-03 0.000000000000000000e+00 0.000000000000000000e+00 0.000000000000000000e+00 0.000000000000000000e+00 0.000000000000000000e+00
-1.047892777082489291e+00 -1.745111610249712841e+00 -6.005305533310969501e-01 -1.364615702269528885e+00 1.000883058044359838e-03 0.000000000000000000e+00 0.000000000000000000e+00 0.000000000000000000e+00 0.000000000000000000e+00 0.000000000000000000e+00
-1.047892777082489291e+00 -1.745111610249712841e+00 -6.005305533310969501e-01 -1.364615702269528885e+00 1.000883058044359838e-03 0.000000000000000000e+00 0.000000000000000000e+00 0.000000000000000000e+00 0.000000000000000000e+00 0.000000000000000000e+00
-1.047892777082489291e+00 -1.745111610249712841e+00 -6.005305533310969501e-01 -1.364615702269528885e+00 1.000883058044359838e-03 0.000000000000000000e+00 0.000000000000000000e+00 0.000000000000000000e+00 0.000000000000000000e+00 0.000000000000000000e+00
-1.047892777082489291e+00 -1.745111610249712841e+00 -6.005305533310969501e-01 -1.364615702269528885e+00 1.000883058044359838e-03 0.000000000000000000e+00 0.000000000000000000e+00 0.000000000000000000e+00 0.000000000000000000e+00 0.000000000000000000e+00
