-3.665358447585111978e-01 -1.414900130885244356e-01 8.467283548917253766e-01 -1.562409726228904283e+00 -9.805204807677163521e-04 8.628717070398944644e-01 -7.505690734202085102e-01 5.460240577459882783e-01 -7.439069348016028038e-02 3.131799364996239068e-04
-3.194843333720549516e-01 -1.802673135943103078e-01 8.758792750388061377e-01 -1.555857128889705621e+00 -9.665606408281841259e-04 9.410302277291248130e-01 -7.755460101157173325e-01 5.830184029416154434e-01 1.310519467839720009e-01 2.791967987906453924e-04
-2.687110299735888663e-01 -2.197775875566393144e-01 9.067294749774224005e-01 -1.539279241086226158e+00 -9.604593206100905467e-04 1.015466067969322150e+00 -7.902054792465802446e-01 6.170039987723252572e-01 3.315577560695910364e-01 1.220264043618707968e-04
-2.144234801826749859e-01 -2.595053350033671435e-01 9.390910464620769726e-01 -1.513161768404428953e+00 -9.647567467280362746e-04 1.085750995818277609e+00 -7.945549489345563599e-01 6.472314296930915534e-01 5.223494536359442053e-01 -8.594852235891545168e-05
-1.568376533819272056e-01 -2.989522292801861658e-01 9.727652191274613891e-01 -1.478150908239140859e+00 -9.775019338838456667e-04 1.151716536014955716e+00 -7.889378855363801124e-01 6.734834533076872187e-01 7.002172033057612044e-01 -2.549037431161884932e-04
-9.616858565383969160e-02 -3.376494434778094522e-01 1.007562447641817016e+00 -1.434985782418775946e+00 -9.928165099734888831e-04 1.213381354561750225e+00 -7.739442839524658391e-01 6.959445702871110973e-01 8.633025164072998248e-01 -3.062915217928661158e-04
-3.262397852411350052e-02 -3.751663274674159609e-01 1.043311748789118809e+00 -1.384440106290897310e+00 -1.002643509108606945e-03 1.270892142594523877e+00 -7.503376797921305075e-01 7.149860229460349714e-01 1.010913522557572275e+00 -1.965399827023623248e-04
3.359857902334535684e-02 -4.111158481926293073e-01 1.079859358442906592e+00 -1.327278114307091528e+00 -1.000127633761440206e-03 1.324451150949177203e+00 -7.189904145042668171e-01 7.309521930757544306e-01 1.143239839676115643e+00 5.031750694333352947e-05
1.023114531881720995e-01 -4.451581047190524831e-01 1.117060605311770871e+00 -1.264224749469182951e+00 -9.729565181189537464e-04 1.374257483296534854e+00 -6.808451305284631827e-01 7.440249373772849228e-01 1.261067296758170420e+00 5.434223128497283305e-04
1.733348725708219185e-01 -4.770031654508751773e-01 1.154769089950826499e+00 -1.195947903156088010e+00 -9.121948528190422338e-04 1.420468387652996656e+00 -6.369012146364536608e-01 7.541696927811133433e-01 1.365536926261898376e+00 1.215233305998230469e-03
2.464929129538243058e-01 -5.064140180119134360e-01 1.192826768734406295e+00 -1.123055086945689229e+00 -8.116219522614731259e-04 1.463160807660047302e+00 -5.882170512207652857e-01 7.611535756715940293e-01 1.457856324207977616e+00 2.011458011151382591e-03
3.216113087089642053e-01 -5.332111280496028005e-01 1.231063672797879649e+00 -1.046095143263256588e+00 -6.671034529329961755e-04 1.502367915102797546e+00 -5.359422007537872901e-01 7.647380812694668517e-01 1.539198873648651267e+00 2.890369986569539008e-03
3.985192439608408743e-01 -5.572788189757502675e-01 1.269314484347711991e+00 -9.655631789496890161e-01 -4.759561632971511728e-04 1.538158705037532936e+00 -4.813538185229502830e-01 7.650162309966446195e-01 1.610639286271350556e+00 3.822945792716899837e-03
4.770563403897686294e-01 -5.785727761172175798e-01 1.307457381245068273e+00 -8.819089204880115052e-01 -2.366557988370440431e-04 1.570741928578555546e+00 -4.258791428293456360e-01 7.628579379471247535e-01 1.673085169233551106e+00 4.786007289202142377e-03
5.570862205222477659e-01 -5.971268567182103082e-01 1.345479965967576463e+00 -7.955459272599008091e-01 5.076607876501121807e-05 1.600597602649582729e+00 -3.710816120198534573e-01 7.604516944501632514e-01 1.727259864562213698e+00 5.748437552041105007e-03
6.385177993600932300e-01 -6.130560244108107515e-01 1.383577758404016311e+00 -7.068594257505264045e-01 3.816917882572671596e-04 1.628631576756909283e+00 -3.185833538520089214e-01 7.619558487287961812e-01 1.773730030187488316e+00 6.618514189845118613e-03
7.213342060204729345e-01 -6.265504334333403813e-01 1.422288976180186459e+00 -6.162133470349733244e-01 7.328217276956641799e-04 1.656328133207594311e+00 -2.698881804505922077e-01 7.742243555234049612e-01 1.812921574311062045e+00 7.022598788767938673e-03
8.056295464397379424e-01 -6.378541746136313639e-01 1.462670440246531367e+00 -5.239572858941002886e-01 1.000818302810461274e-03 0.000000000000000000e+00 0.000000000000000000e+00 0.000000000000000000e+00 0.000000000000000000e+00 0.000000000000000000e+00
8.056295464397379424e-01 -6.378541746136313639e-01 1.462670440246531367e+00 -5.239572858941002886e-01 1.000818302810461274e-03 0.000000000000000000e+00 0.000000000000000000e+00 0.000000000000000000e+00 0.000000000000000000e+00 0.000000000000000000e+00
8.056295464397379424e-01 -6.378541746136313639e-01 1.462670440246531367e+00 -5.239572858941002886e-01 1.000818302810461274e-03 0.000000000000000000e+00 0.000000000000000000e+00 0.000000000000000000e+00 0.000000000000000000e+00 0.000000000000000000e+00
8.056295464397379424e-01 -6.378541746136313639e-01 1.462670440246531367e+00 -5.239572858941002886e-01 1.000818302810461274e-03 0.000000000000000000e+00 0.000000000000000000e+00 0.000000000000000000e+00 0.000000000000000000e+00 0.000000000000000000e+00
8.056295464397379424e-01 -6.378541746136313639e-01 1.462670440246531367e+00 -5.239572858941002886e-01 1.000818302810461274e-03 0.000000000000000000e+00 0.000000000000000000e+00 0.000000000000000000e+00 0.000000000000000000e+00 0.000000000000000000e+00
8.056295464397379424e-01 -6.378541746136313639e-01 1.462670440246531367e+00 -5.239572858941002886e-01 1.000818302810461274e-03 0.000000000000000000e+00 0.000000000000000000e+00 0.000000000000000000e+00 0.000000000000000000e+00 0.000000000000000000e+00
8.056295464397379424e-01 -6.378541746136313639e-01 1.462670440246531367e+00 -5.239572858941002886e-01 1.000818302810461274e-03 0.000000000000000000e+00 0.000000000000000000e+00 0.000000000000000000e+00 0.000000000000000000e+00 0.000000000000000000e+00
8.056295464397379424e-01 -6.378541746136313639e-01 1.462670440246531367e+00 -5.239572858941002886e-01 1.000818302810461274e-03 0.000000000000000000e+00 0.000000000000000000e+00 0.000000000000000000e+00 0.000000000000000000e+00 0.000000000000000000e+00
8.056295464397379424e-01 -6.378541746136313639e-01 1.462670440246531367e+00 -5.239572858941002886e-01 1.000818302810461274e-03 0.000000000000000000e+00 0.000000000000000000e+00 0.000000000000000000e+00 0.000000000000000000e+00 0.000000000000000000e+00
8.056295464397379424e-01 -6.378541746136313639e-01 1.462670440246531367e+00 -5.239572858941002886e-01 1.000818302810461274e-03 0.000000000000000000e+00 0.000000000000000000e+00 0.000000000000000000e+00 0.000000000000000000e+00 0.000000000000000000e+00
8.056295464397379424e-01 -6.378541746136313639e-01 1.462670440246531367e+00 -5.239572858941002886e-01 1.000818302810461274e-03 0.000000000000000000e+00 0.000000000000000000e+00 0.000000000000000000e+00 0.000000000000000000e+00 0.000000000000000000e+00
8.056295464397379424e-01 -6.378541746136313639e-01 1.462670440246531367e+00 -5.239572858941002886e-01 1.000818302810461274e-03 0.000000000000000000e+00 0.000000000000000000e+00 0.000000000000000000e+00 0.000000000000000000e+00 0.000000000000000000e+00
8.056295464397379424e-01 -6.378541746136313639e-01 1.462670440246531367e+00 -5.239572858941002886e-01 1.000818302810461274e-03 0.000000000000000000e+00 0.000000000000000000e+00 0.000000000000000000e+00 0.000000000000000000e+00 0.000000000000000000e+00
8.056295464397379424e-01 -6.378541746136313639e-01 1.462670440246531367e+00 -5.239572858941002886e-01 1.000818302810461274e-03 0.000000000000000000e+00 0.000000000000000000e+00 0.000000000000000000e+00 0.000000000000000000e+00 0.000000000000000000e+00
