-7.206606413773044562e-01 -2.704552129611066946e-01 5.484799959478404707e-01 -1.378530986808131464e+00 8.270761458612496675e-04 -4.356284146183509454e-01 1.321628446191922823e-01 -7.609750232972940509e-01 -9.778928248529661360e-01 3.852994920169676343e-03
-7.462534897044272864e-01 -2.636642682315955000e-01 5.037838414144246713e-01 -1.433436095863872328e+00 9.587064175977064477e-04 -5.118569665424556048e-01 1.358188945902240874e-01 -8.939230906683154343e-01 -1.098102181114819054e+00 2.632605434729135604e-03
-7.750857886773181438e-01 -2.571746809288560920e-01 4.531235538699931453e-01 -1.491766223020938309e+00 1.014631935304938530e-03 -5.766459794578162601e-01 1.297917460547886315e-01 -1.013205750888629852e+00 -1.166602543141319615e+00 1.118510354144640557e-03
-8.066311712603465578e-01 -2.514244632884429231e-01 3.970430496502395101e-01 -1.550908918090109667e+00 9.992289251685409612e-04 -6.309076516605681695e-01 1.150043528082629052e-01 -1.121610084395072038e+00 -1.182853901383425610e+00 -3.080602027279515879e-04
-8.404084489567413829e-01 -2.468111577743384022e-01 3.360595908930614772e-01 -1.608281117952892636e+00 8.912189044215392247e-04 -6.755455539278958366e-01 9.226611028209055765e-02 -1.219669175143560658e+00 -1.147443997255659376e+00 -2.160200414940033863e-03
-8.759866035751717739e-01 -2.436973642677315588e-01 2.707806428388973008e-01 -1.661414092889035521e+00 6.927127539346157516e-04 -7.115630923686075970e-01 6.227587013213683326e-02 -1.305578961083283751e+00 -1.062659498722857254e+00 -3.970123009738467726e-03
-9.129966815491663557e-01 -2.424137883226208379e-01 2.020013143377897835e-01 -1.708061480937761223e+00 4.157147085102722321e-04 -7.402015594798908582e-01 2.567151890221445326e-02 -1.375586570022150346e+00 -9.329477609745135958e-01 -5.539960908486870825e-03
-9.511379850103363065e-01 -2.432742329892350619e-01 1.308338339473669731e-01 -1.746302641240482068e+00 9.231849716770607148e-05 -7.628260692234000162e-01 -1.720889333228419610e-02 -1.423349607808456430e+00 -7.648232060544154498e-01 -6.467924226851322345e-03
-9.902093051899206744e-01 -2.465374386266266649e-01 5.859948888109904608e-02 -1.774694880182865253e+00 -2.397194300446523407e-04 -7.814264035916876905e-01 -6.526411274783226746e-02 -1.444686901325358486e+00 -5.678447788476636005e-01 -6.640758544247168244e-03
-1.030116137833100964e+00 -2.523851986813143711e-01 -1.326290147904835015e-02 -1.792356024486674304e+00 -5.417976611427518770e-04 -7.981366528636039126e-01 -1.169552010937546654e-01 -1.437247807202947980e+00 -3.532228860761792988e-01 -6.041564621961989859e-03
-1.070863273520376469e+00 -2.608965633613021806e-01 -8.333982310197680932e-02 -1.799001391487693668e+00 -7.813153934629237917e-04 -8.149427137455101944e-01 -1.702272935997559966e-01 -1.401538432458569128e+00 -1.329073400203880095e-01 -4.790354646403437860e-03
-1.112531652287559680e+00 -2.720272588364914257e-01 -1.503990240116142574e-01 -1.794922145987375872e+00 -9.390639560883864848e-04 -8.333675753436646794e-01 -2.226139095037848181e-01 -1.341184018192749239e+00 8.158491000635748058e-02 -3.154971252509253862e-03
-1.155243553198730622e+00 -2.856094881850129719e-01 -2.134994806066538853e-01 -1.780890624530280242e+00 -1.012229934139826162e-03 -8.542380182234170505e-01 -2.716445869704304794e-01 -1.262009131900792669e+00 2.806304291419127739e-01 -1.463319561028794420e-03
-1.199129038274025838e+00 -3.013641332990460442e-01 -2.720513254322098340e-01 -1.758035832105837359e+00 -1.026854994845096715e-03 -8.777097015059055485e-01 -3.150929022806618351e-01 -1.171036896511118419e+00 4.570958484888593132e-01 -2.925012141054125683e-04
-1.244299991537724415e+00 -3.189275811103133296e-01 -3.258097540667284076e-01 -1.727698899996159776e+00 -1.016525946280227247e-03 -9.034190652739735317e-01 -3.512689562253461517e-01 -1.075168572690371693e+00 6.067386421935495600e-01 2.065809712973872914e-04
-1.290835868603347647e+00 -3.378861091147355444e-01 -3.748197357762395598e-01 -1.691292446582571607e+00 -9.835787230606718098e-04 -9.307175413124625374e-01 -3.791705600884438532e-01 -9.801996341902228238e-01 7.281290682717619367e-01 6.589444643911084249e-04
-1.338779972736997337e+00 -3.578087486542793072e-01 -4.193377352323778284e-01 -1.650186623147520848e+00 -9.197683255224246152e-04 -9.588820826729945734e-01 -3.984527907908748112e-01 -8.903599891227647056e-01 8.221164687010162897e-01 1.276207950764943460e-03
-1.388142835408154419e+00 -3.782737674907941106e-01 -4.597541644982208742e-01 -1.605628935954235281e+00 -8.363721682109641949e-04 -9.872572534231397468e-01 -4.093003767302961782e-01 -8.083285853168609147e-01 8.911537438657111121e-01 1.667923146229209272e-03
-1.438909157283481344e+00 -3.988889088473910327e-01 -4.965285777428168346e-01 -1.558691090528382395e+00 -7.473684042750354225e-04 -1.015326437506537838e+00 -4.123028271319387206e-01 -7.354882648919190968e-01 9.387569085170572869e-01 1.780075278718575450e-03
-1.491045327573565116e+00 -4.193039738893877821e-01 -5.301433374296771195e-01 -1.510242844252861705e+00 -6.648081068081082784e-04 -1.042723405801674774e+00 -4.083013008399349886e-01 -6.722951937372065867e-01 9.689649255104120229e-01 1.651205949338543097e-03
-1.544506028466176240e+00 -4.392163462038146671e-01 -5.610759680645049929e-01 -1.460948686339184732e+00 -5.980465022797452207e-04 -1.069214017852222698e+00 -3.982474462885379762e-01 -6.186526126965570249e-01 9.858831582735412269e-01 1.335232090567260504e-03
-1.599239082066391537e+00 -4.583718181878988496e-01 -5.897849553596792305e-01 -1.411277751632517230e+00 -5.539342364675203280e-04 -1.094661072004306179e+00 -3.831094396816833170e-01 -5.741797459034840845e-01 9.934186941333520426e-01 8.822453162444972036e-04
-1.655188622464014880e+00 -4.765635776704760240e-01 -6.167017079022713011e-01 -1.361517738133384281e+00 -5.369633077010664514e-04 -1.118990807952465083e+00 -3.638351896515437667e-01 -5.383350508518405242e-01 9.952002699826604237e-01 3.394185753290781832e-04
-1.712297172330392803e+00 -4.936294909944917153e-01 -6.422272535486519551e-01 -1.311792253640058137e+00 -5.506999883195222304e-04 -1.142170997327557780e+00 -3.413182664803143251e-01 -5.105109129276134139e-01 9.945096898665226615e-01 -2.747336123691157973e-04
-1.770506433324472439e+00 -5.094484692531167092e-01 -6.667300771182292918e-01 -1.262079275465261219e+00 -6.019501308013115899e-04 -1.164185219881593403e+00 -3.163795651725009317e-01 -4.900564713915468440e-01 9.942595634959370265e-01 -1.025002849635787625e-03
-1.829757259622877941e+00 -5.239366657755742951e-01 -6.905437293900381635e-01 -1.212228920456667414e+00 -7.164511355804719815e-04 -1.185016525968111800e+00 -2.897639304491522183e-01 -4.762730454361780441e-01 9.970071001718754378e-01 -2.290020095583207398e-03
-1.889989271953478323e+00 -5.370440977738091259e-01 -7.139650466818205921e-01 -1.161977565642859922e+00 -1.000291534519519299e-03 0.000000000000000000e+00 0.000000000000000000e+00 0.000000000000000000e+00 0.000000000000000000e+00 0.000000000000000000e+00
-1.889989271953478323e+00 -5.370440977738091259e-01 -7.139650466818205921e-01 -1.161977565642859922e+00 -1.000291534519519299e-03 0.000000000000000000e+00 0.000000000000000000e+00 0.000000000000000000e+00 0.000000000000000000e+00 0.000000000000000000e+00
-1.889989271953478323e+00 -5.370440977738091259e-01 -7.139650466818205921e-01 -1.161977565642859922e+00 -1.000291534519519299e-03 0.000000000000000000e+00 0.000000000000000000e+00 0.000000000000000000e+00 0.000000000000000000e+00 0.000000000000000000e+00
-1.889989271953478323e+00 -5.370440977738091259e-01 -7.139650466818205921e-01 -1.161977565642859922e+00 -1.000291534519519299e-03 0.000000000000000000e+00 0.000000000000000000e+00 0.000000000000000000e+00 0.000000000000000000e+00 0.000000000000000000e+00
-1.889989271953478323e+00 -5.370440977738091259e-01 -7.139650466818205921e-01 -1.161977565642859922e+00 -1.000291534519519299e-03 0.000000000000000000e+00 0.000000000000000000e+00 0.000000000000000000e+00 0.000000000000000000e+00 0.000000000000000000e+00
