-5.660053920394133575e-01 9.931249737372613295e-02 4.974837662289285922e-01 -7.077943517065335977e-01 1.200212070100966245e-03 -4.127980903598265083e-01 6.393878251557321146e-01 -1.237035505273763158e+00 -2.571403559189013421e+00 4.839633624272379753e-06
-5.856722355215412401e-01 1.308911041653510743e-01 4.431567724166839972e-01 -8.435433120435260612e-01 1.150450184947748433e-03 -3.933368696425579292e-01 6.315721358324989376e-01 -1.086539876244891456e+00 -2.714979206739849271e+00 -9.952377030643579786e-04
-6.042214920550834645e-01 1.604435575374116574e-01 3.959391704081879348e-01 -9.803562328194905806e-01 1.079151687685236428e-03 -3.709851306708444874e-01 5.910490674412116618e-01 -9.443520401699214695e-01 -2.736258415519289500e+00 -1.425969945250239431e-03
-6.215736610079067859e-01 1.869046292817056198e-01 3.543204038789399823e-01 -1.113074848719961985e+00 9.594747604375164322e-04 -3.470433790564665388e-01 5.292214348858791384e-01 -8.323753305849590500e-01 -2.654372318009429410e+00 -2.393538544954399057e-03
-6.376231351699208627e-01 2.096435205552427128e-01 3.167590520222057782e-01 -1.237727353255559049e+00 7.060709631640841276e-04 -3.209894832402815368e-01 4.547778254707420809e-01 -7.512270371346846387e-01 -2.493050090711942612e+00 -5.068075945468646960e-03
-6.522579622020294732e-01 2.283455410893232007e-01 2.821162919042595196e-01 -1.351526659977742462e+00 4.066283280588773425e-04 -2.926965406421717653e-01 3.740404106816097585e-01 -6.928552023589247266e-01 -2.275986134443668263e+00 -5.988852702104135485e-03
-6.653967458220972908e-01 2.429257920599041942e-01 2.497328796984090438e-01 -1.452750664248284584e+00 1.172545158542477855e-04 -2.627756724013572409e-01 2.916050194116197036e-01 -6.476682441170096283e-01 -2.024480085410840680e+00 -5.787476244092591357e-03
-6.770103608668467388e-01 2.534646401959536610e-01 2.193541737962618754e-01 -1.540574026181262379e+00 -1.262006306269187995e-04 -2.322723008949885981e-01 2.107769627209891139e-01 -6.075741180429433674e-01 -1.756467238659554342e+00 -4.869102929623331591e-03
-6.871266522952439448e-01 2.601571555512580680e-01 1.910079076553255761e-01 -1.614887714038730770e+00 -3.034013542479783001e-04 -2.023258285679446211e-01 1.338503071060881122e-01 -5.669253228187259852e-01 -1.486273757149365604e+00 -3.544014472421190120e-03
-6.958230097715182305e-01 2.632722740420654906e-01 1.648804487794873763e-01 -1.676118836669051149e+00 -4.067395129369884938e-04 -1.739271495254861855e-01 6.230236981614835357e-02 -5.225491775167638853e-01 -1.224622452606405787e+00 -2.066763173780203442e-03
-7.032131029172138392e-01 2.631224341543004774e-01 1.412128801983608961e-01 -1.725069400023667043e+00 -4.373626601943811560e-04 -1.478018629139130624e-01 -2.996797755299818178e-03 -4.733513716225294377e-01 -9.790112670923156735e-01 -6.124629451478530266e-04
-7.094304117603084103e-01 2.600424138280660880e-01 1.202130003179296275e-01 -1.762771327106416486e+00 -4.014702334749331971e-04 -1.243461768618922408e-01 -6.160040652468731781e-02 -4.199975976086253171e-01 -7.540385416549895137e-01 7.178485343889593959e-04
-7.146158593480435028e-01 2.543774146680736203e-01 1.019999547249898220e-01 -1.790390928998955467e+00 -3.090280101159666951e-04 -1.037089517547025996e-01 -1.132999831998494078e-01 -3.642609118587958883e-01 -5.523920378507815032e-01 1.848844467179330256e-03
-7.189082230838270693e-01 2.464730784999497881e-01 8.658050372020525964e-02 -1.809153963753161287e+00 -1.722496072195680000e-04 -8.584727471567032975e-02 -1.580867233624768109e-01 -3.083890200956910799e-01 -3.752606950841145261e-01 2.735568057927973903e-03
-7.224372729865651266e-01 2.366654159237615296e-01 7.385104693836243295e-02 -1.820281711244162048e+00 -3.782936552651538012e-06 -7.058099805476214517e-02 -1.961532515237653651e-01 -2.545891356368564229e-01 -2.225549498200160847e-01 3.369333413338329239e-03
-7.253204237597354886e-01 2.252725407066342445e-01 6.361739707340818839e-02 -1.824946192484525609e+00 1.846903164987117284e-04 -5.766301546340774076e-02 -2.278575043425458135e-01 -2.046729972990847801e-01 -9.328962480727329143e-02 3.769465061027265328e-03
-7.276617180035968024e-01 2.125874539863150670e-01 5.562261601972869063e-02 -1.824237057315954535e+00 3.831803753451049868e-04 -4.682588487722573467e-02 -2.537017344063833280e-01 -1.598956210735898997e-01 1.418270337141941395e-02 3.969801176927864952e-03
-7.295524917852171942e-01 1.988727919800170607e-01 4.957583634113636728e-02 -1.819140925915612161e+00 5.831090913154543878e-04 -3.781547563240758580e-02 -2.742932401259600694e-01 -1.209355935718464670e-01 1.019226280068483426e-01 3.998574319406988237e-03
-7.310727858091478071e-01 1.843575744166366659e-01 4.517700275967796719e-02 -1.810529957071659091e+00 7.746787028970680226e-04 -3.040588047861315923e-02 -2.903043512676081184e-01 -8.797667162916802952e-02 1.722193768790632462e-01 3.831392231632270960e-03
-7.322930084512035975e-01 1.692361077604740138e-01 4.213537653665923310e-02 -1.799158716621252818e+00 9.361337984955761006e-04 -2.440445284111530597e-02 -3.024293331232528192e-01 -6.083252446037465400e-02 2.274248090081250062e-01 3.229101911970160260e-03
-7.332754992213158518e-01 1.536685897390080990e-01 4.018161734280475267e-02 -1.785666808181717302e+00 9.912948864250260318e-04 -1.964981540224541856e-02 -3.113503604293182958e-01 -3.907518387708966423e-02 2.698381687907123183e-01 1.103221758589000359e-03
-7.340757632430476853e-01 1.377831095065509825e-01 3.907404579590103427e-02 -1.770585801071663079e+00 1.003032582633417479e-03 -1.600528043463604611e-02 -3.177096046491421633e-01 -2.215143093807431587e-02 3.016201422010855171e-01 2.347539241678283988e-04
-7.347436082686785719e-01 1.216786343811755156e-01 3.860047594900598011e-02 -1.754348977351139816e+00 1.003872282119790040e-03 -1.335690051261864339e-02 -3.220895025075093399e-01 -9.471396937901051943e-03 3.247364744104670464e-01 1.679398972745128069e-05
-7.353240013575846890e-01 1.054287054078156399e-01 3.857704074150385132e-02 -1.737303042560908173e+00 1.003155773406934131e-03 -1.160786177812239695e-02 -3.249985794671975681e-01 -4.687041500426227664e-04 3.409186958046317995e-01 -1.433017425711864955e-05
-7.358577494007028097e-01 8.908547428273541624e-02 3.884509289935968168e-02 -1.719720586074701130e+00 1.002469741825896691e-03 -1.067496086236135663e-02 -3.268646225016046403e-01 5.361043157116641110e-03 3.516491297241423064e-01 -1.372063162074976594e-05
-7.363821033288627804e-01 7.268408241732582376e-02 3.926689666510031762e-02 -1.701813473279954136e+00 1.001698504768124953e-03 0.000000000000000000e+00 0.000000000000000000e+00 0.000000000000000000e+00 0.000000000000000000e+00 0.000000000000000000e+00
-7.363821033288627804e-01 7.268408241732582376e-02 3.926689666510031762e-02 -1.701813473279954136e+00 1.001698504768124953e-03 0.000000000000000000e+00 0.000000000000000000e+00 0.000000000000000000e+00 0.000000000000000000e+00 0.000000000000000000e+00
-7.363821033288627804e-01 7.268408241732582376e-02 3.926689666510031762e-02 -1.701813473279954136e+00 1.001698504768124953e-03 0.000000000000000000e+00 0.000000000000000000e+00 0.000000000000000000e+00 0.000000000000000000e+00 0.000000000000000000e+00
-7.363821033288627804e-01 7.268408241732582376e-02 3.926689666510031762e-02 -1.701813473279954136e+00 1.001698504768124953e-03 0.000000000000000000e+00 0.000000000000000000e+00 0.000000000000000000e+00 0.000000000000000000e+00 0.000000000000000000e+00
-7.363821033288627804e-01 7.268408241732582376e-02 3.926689666510031762e-02 -1.701813473279954136e+00 1.001698504768124953e-03 0.000000000000000000e+00 0.000000000000000000e+00 0.000000000000000000e+00 0.000000000000000000e+00 0.000000000000000000e+00
-7.363821033288627804e-01 7.268408241732582376e-02 3.926689666510031762e-02 -1.701813473279954136e+00 1.001698504768124953e-03 0.000000000000000000e+00 0.000000000000000000e+00 0.000000000000000000e+00 0.000000000000000000e+00 0.000000000000000000e+00
