5.487074889456986515e-01 3.976952570185711133e-01 8.819981425411842213e-02
5.487074889456986515e-01 3.976952570185711133e-01 8.819981425411842213e-02
5.487074889456986515e-01 3.976952570185711133e-01 8.819981425411842213e-02
5.487074889456986515e-01 3.976952570185711133e-01 8.819981425411842213e-02
5.487074889456986515e-01 3.976952570185711133e-01 8.819981425411842213e-02
5.487074889456986515e-01 3.976952570185711133e-01 8.819981425411842213e-02
5.487074889456986515e-01 3.976952570185711133e-01 8.819981425411842213e-02
5.487074889456986515e-01 3.976952570185711133e-01 8.819981425411842213e-02
5.487074889456986515e-01 3.976952570185711133e-01 8.819981425411842213e-02
5.487074889456986515e-01 3.976952570185711133e-01 8.819981425411842213e-02
5.487074889456986515e-01 3.976952570185711133e-01 8.819981425411842213e-02
5.487074889456986515e-01 3.976952570185711133e-01 8.819981425411842213e-02
5.487074889456986515e-01 3.976952570185711133e-01 8.819981425411842213e-02
5.487074889456986515e-01 3.976952570185711133e-01 8.819981425411842213e-02
5.487074889456986515e-01 3.976952570185711133e-01 8.819981425411842213e-02
5.487074889456986515e-01 3.976952570185711133e-01 8.819981425411842213e-02
5.487074889456986515e-01 3.976952570185711133e-01 8.819981425411842213e-02
5.487074889456986515e-01 3.976952570185711133e-01 8.819981425411842213e-02
5.487074889456986515e-01 3.976952570185711133e-01 8.819981425411842213e-02
5.487074889456986515e-01 3.976952570185711133e-01 8.819981425411842213e-02
5.487074889456986515e-01 3.976952570185711133e-01 8.819981425411842213e-02
5.487074889456986515e-01 3.976952570185711133e-01 8.819981425411842213e-02
5.487074889456986515e-01 3.976952570185711133e-01 8.819981425411842213e-02
5.487074889456986515e-01 3.976952570185711133e-01 8.819981425411842213e-02
5.487074889456986515e-01 3.976952570185711133e-01 8.819981425411842213e-02
5.487074889456986515e-01 3.976952570185711133e-01 8.819981425411842213e-02
5.487074889456986515e-01 3.976952570185711133e-01 8.819981425411842213e-02
5.487074889456986515e-01 3.976952570185711133e-01 8.819981425411842213e-02
5.487074889456986515e-01 3.976952570185711133e-01 8.819981425411842213e-02
5.487074889456986515e-01 3.976952570185711133e-01 8.819981425411842213e-02
