-1.138519622634662998e+00 -6.020383637701248736e-02 -3.617260447830539238e-01 -1.562150244145102063e+00 -4.368526094577472878e-04 -6.048502691302743983e-01 -6.355646177275734443e-01 -2.480287416984852666e-01 1.036685933640224766e+00 2.350412621013060928e-03
-1.169066641342354940e+00 -9.191255531894840236e-02 -3.713211224790567422e-01 -1.510206413773668599e+00 -3.334027335363892405e-04 -6.109403741538369514e-01 -6.341743788387181890e-01 -1.919015539200564779e-01 1.038876607428669274e+00 2.068997518427160513e-03
-1.199896175637360729e+00 -1.233857523811424800e-01 -3.785572234427062588e-01 -1.458622730358376529e+00 -2.460581130520885320e-04 -6.165906859001146767e-01 -6.294639412438816084e-01 -1.447220192729908039e-01 1.031673668305840064e+00 1.746892409686013736e-03
-1.231000857658384628e+00 -1.545114585068682878e-01 -3.838187403901790473e-01 -1.407703230098526159e+00 -1.750270471175364518e-04 -6.220936404204802095e-01 -6.225141225145159884e-01 -1.052303389494553543e-01 1.018390005197009174e+00 1.420621318691041388e-03
-1.262387640321962046e+00 -1.852232245018340107e-01 -3.874387170231647914e-01 -1.357614713205619772e+00 -1.193523767259461522e-04 -6.277356532715482329e-01 -6.142353198993144581e-01 -7.239953265971518781e-02 1.001770337858126636e+00 1.113493407831806208e-03
-1.294077091965888160e+00 -2.154920968619885580e-01 -3.897103977493207583e-01 -1.308411043144511510e+00 -7.746318987325405544e-05 -6.337890328785243943e-01 -6.053774472030907239e-01 -4.543361452311915627e-02 9.840734012221645788e-01 8.377837370538419350e-04
-1.326102563500160647e+00 -2.453191496995116572e-01 -3.908976823944882995e-01 -1.260054190231737703e+00 -4.776641898442179278e-05 -6.405094306854505204e-01 -5.965410567504620953e-01 -2.374569290335110106e-02 9.671370582554764672e-01 5.939354177766452804e-04
-1.358509369412808088e+00 -2.747289374350627700e-01 -3.912438689802258396e-01 -1.212431197672594330e+00 -2.949133023196004927e-05 -6.481361182529503662e-01 -5.881957547110219231e-01 -6.923731714750958749e-03 9.524598511828672454e-01 3.655017750492349244e-04
-1.391354020852572315e+00 -3.037638576794026157e-01 -3.909787345244208345e-01 -1.165367542009017932e+00 -2.505379262563191663e-05 -6.568930287952857716e-01 -5.806984048867972481e-01 5.302689116099660455e-03 9.412731132715294047e-01 8.875075212656265275e-05
-1.424703497582622713e+00 -3.324793506979651370e-01 -3.903236022852399900e-01 -1.118637786195166184e+00 -4.903066222834195681e-05 -6.669895346010068504e-01 -5.743098603712503136e-01 1.310264478361678267e-02 9.345951162770358422e-01 -4.795373920542006139e-04
-1.458634534472050603e+00 -3.609400299132696777e-01 -3.894946897370075156e-01 -1.071973257066047402e+00 -1.639078508321598006e-04 0.000000000000000000e+00 0.000000000000000000e+00 0.000000000000000000e+00 0.000000000000000000e+00 0.000000000000000000e+00
-1.458634534472050603e+00 -3.609400299132696777e-01 -3.894946897370075156e-01 -1.071973257066047402e+00 -1.639078508321598006e-04 0.000000000000000000e+00 0.000000000000000000e+00 0.000000000000000000e+00 0.000000000000000000e+00 0.000000000000000000e+00
-1.458634534472050603e+00 -3.609400299132696777e-01 -3.894946897370075156e-01 -1.071973257066047402e+00 -1.639078508321598006e-04 0.000000000000000000e+00 0.000000000000000000e+00 0.000000000000000000e+00 0.000000000000000000e+00 0.000000000000000000e+00
-1.458634534472050603e+00 -3.609400299132696777e-01 -3.894946897370075156e-01 -1.071973257066047402e+00 -1.639078508321598006e-04 0.000000000000000000e+00 0.000000000000000000e+00 0.000000000000000000e+00 0.000000000000000000e+00 0.000000000000000000e+00
-1.458634534472050603e+00 -3.609400299132696777e-01 -3.894946897370075156e-01 -1.071973257066047402e+00 -1.639078508321598006e-04 0.000000000000000000e+00 0.000000000000000000e+00 0.000000000000000000e+00 0.000000000000000000e+00 0.000000000000000000e+00
-1.458634534472050603e+00 -3.609400299132696777e-01 -3.894946897370075156e-01 -1.071973257066047402e+00 -1.639078508321598006e-04 0.000000000000000000e+00 0.000000000000000000e+00 0.000000000000000000e+00 0.000000000000000000e+00 0.000000000000000000e+00
-1.458634534472050603e+00 -3.609400299132696777e-01 -3.894946897370075156e-01 -1.071973257066047402e+00 -1.639078508321598006e-04 0.000000000000000000e+00 0.000000000000000000e+00 0.000000000000000000e+00 0.000000000000000000e+00 0.000000000000000000e+00
-1.458634534472050603e+00 -3.609400299132696777e-01 -3.894946897370075156e-01 -1.071973257066047402e+00 -1.639078508321598006e-04 0.000000000000000000e+00 0.000000000000000000e+00 0.000000000000000000e+00 0.000000000000000000e+00 0.000000000000000000e+00
-1.458634534472050603e+00 -3.609400299132696777e-01 -3.894946897370075156e-01 -1.071973257066047402e+00 -1.639078508321598006e-04 0.000000000000000000e+00 0.000000000000000000e+00 0.000000000000000000e+00 0.000000000000000000e+00 0.000000000000000000e+00
-1.458634534472050603e+00 -3.609400299132696777e-01 -3.894946897370075156e-01 -1.071973257066047402e+00 -1.639078508321598006e-04 0.000000000000000000e+00 0.000000000000000000e+00 0.000000000000000000e+00 0.000000000000000000e+00 0.000000000000000000e+00
-1.458634534472050603e+00 -3.609400299132696777e-01 -3.894946897370075156e-01 -1.071973257066047402e+00 -1.639078508321598006e-04 0.000000000000000000e+00 0.000000000000000000e+00 0.000000000000000000e+00 0.000000000000000000e+00 0.000000000000000000e+00
-1.458634534472050603e+00 -3.609400299132696777e-01 -3.894946897370075156e-01 -1.071973257066047402e+00 -1.639078508321598006e-04 0.000000000000000000e+00 0.000000000000000000e+00 0.000000000000000000e+00 0.000000000000000000e+00 0.000000000000000000e+00
-1.458634534472050603e+00 -3.609400299132696777e-01 -3.894946897370075156e-01 -1.071973257066047402e+00 -1.639078508321598006e-04 0.000000000000000000e+00 0.000000000000000000e+00 0.000000000000000000e+00 0.000000000000000000e+00 0.000000000000000000e+00
-1.458634534472050603e+00 -3.609400299132696777e-01 -3.894946897370075156e-01 -1.071973257066047402e+00 -1.639078508321598006e-04 0.000000000000000000e+00 0.000000000000000000e+00 0.000000000000000000e+00 0.000000000000000000e+00 0.000000000000000000e+00
-1.458634534472050603e+00 -3.609400299132696777e-01 -3.894946897370075156e-01 -1.071973257066047402e+00 -1.639078508321598006e-04 0.000000000000000000e+00 0.000000000000000000e+00 0.000000000000000000e+00 0.000000000000000000e+00 0.000000000000000000e+00
-1.458634534472050603e+00 -3.609400299132696777e-01 -3.894946897370075156e-01 -1.071973257066047402e+00 -1.639078508321598006e-04 0.000000000000000000e+00 0.000000000000000000e+00 0.000000000000000000e+00 0.000000000000000000e+00 0.000000000000000000e+00
-1.458634534472050603e+00 -3.609400299132696777e-01 -3.894946897370075156e-01 -1.071973257066047402e+00 -1.639078508321598006e-04 0.000000000000000000e+00 0.000000000000000000e+00 0.000000000000000000e+00 0.000000000000000000e+00 0.000000000000000000e+00
-1.458634534472050603e+00 -3.609400299132696777e-01 -3.894946897370075156e-01 -1.071973257066047402e+00 -1.639078508321598006e-04 0.000000000000000000e+00 0.000000000000000000e+00 0.000000000000000000e+00 0.000000000000000000e+00 0.000000000000000000e+00
-1.458634534472050603e+00 -3.609400299132696777e-01 -3.894946897370075156e-01 -1.071973257066047402e+00 -1.639078508321598006e-04 0.000000000000000000e+00 0.000000000000000000e+00 0.000000000000000000e+00 0.000000000000000000e+00 0.000000000000000000e+00
-1.458634534472050603e+00 -3.609400299132696777e-01 -3.894946897370075156e-01 -1.071973257066047402e+00 -1.639078508321598006e-04 0.000000000000000000e+00 0.000000000000000000e+00 0.000000000000000000e+00 0.000000000000000000e+00 0.000000000000000000e+00
-1.458634534472050603e+00 -3.609400299132696777e-01 -3.894946897370075156e-01 -1.071973257066047402e+00 -1.639078508321598006e-04 0.000000000000000000e+00 0.000000000000000000e+00 0.000000000000000000e+00 0.000000000000000000e+00 0.000000000000000000e+00
