-5.668724717942924540e-01 -1.187461941220422146e+00 1.407207457419324195e-02 -1.443389107298619800e+00 -6.687638687659839100e-04 7.923649425826748138e-02 -1.992573696897020907e+00 -3.335341406498192329e-01 1.968295154839742267e+00 2.604860510319001107e-03
-5.607812828639254787e-01 -1.288908510627896353e+00 9.747505171709448801e-04 -1.337595983864403149e+00 -5.442135360687857040e-04 1.218237786073390755e-01 -2.028931388149485038e+00 -2.619464811404459414e-01 2.115862468684333919e+00 2.491006653943964554e-03
-5.520600130723976040e-01 -1.391789150945103248e+00 -8.605008143166675491e-03 -1.225333784875939802e+00 -4.349777670117397320e-04 1.744253958305574947e-01 -2.057612806344139234e+00 -1.915951732067524005e-01 2.245243979769264264e+00 2.184715381140919007e-03
-5.404151246735141578e-01 -1.495815839526096980e+00 -1.472429331216952055e-02 -1.107403865526386255e+00 -3.482782834383625582e-04 2.328977679776681464e-01 -2.080533771619872851e+00 -1.223857033800569150e-01 2.358598386991073159e+00 1.733989671467543042e-03
-5.261035992678712025e-01 -1.600794696677601214e+00 -1.774785216559356810e-02 -9.845134168539829700e-01 -2.892833459301712693e-04 2.862305081128596052e-01 -2.099577143030083803e+00 -6.047117706848094409e-02 2.457808973448065260e+00 1.179898750163825994e-03
-5.100746609169718448e-01 -1.706604304221791102e+00 -1.859605272576128274e-02 -8.572790328584638520e-01 -2.591879220857933779e-04 3.205787670179862103e-01 -2.116192150883797307e+00 -1.696401120335426504e-02 2.544687679910381028e+00 6.019084768875573952e-04
-4.935819225366170904e-01 -1.813149239324375106e+00 -1.857842231655727760e-02 -7.262391773423182428e-01 -2.549680441247534411e-04 3.298547676070949786e-01 -2.130898702051677862e+00 3.526081840801199851e-04 2.620797110322913070e+00 8.439755922079884409e-05
-4.775571852514239879e-01 -1.920316847643479763e+00 -1.891722623774214768e-02 -5.918904324583621479e-01 -2.752565043254159372e-04 3.204947457038623826e-01 -2.143352166382092250e+00 -6.776078423697370207e-03 2.686974897679121010e+00 -4.057692040132504637e-04
-4.623508862533783903e-01 -2.027965129446076098e+00 -2.047153303300603203e-02 -4.547269026237898970e-01 -3.322620915576311035e-04 0.000000000000000000e+00 0.000000000000000000e+00 0.000000000000000000e+00 0.000000000000000000e+00 0.000000000000000000e+00
-4.623508862533783903e-01 -2.027965129446076098e+00 -2.047153303300603203e-02 -4.547269026237898970e-01 -3.322620915576311035e-04 0.000000000000000000e+00 0.000000000000000000e+00 0.000000000000000000e+00 0.000000000000000000e+00 0.000000000000000000e+00
-4.623508862533783903e-01 -2.027965129446076098e+00 -2.047153303300603203e-02 -4.547269026237898970e-01 -3.322620915576311035e-04 0.000000000000000000e+00 0.000000000000000000e+00 0.000000000000000000e+00 0.000000000000000000e+00 0.000000000000000000e+00
-4.623508862533783903e-01 -2.027965129446076098e+00 -2.047153303300603203e-02 -4.547269026237898970e-01 -3.322620915576311035e-04 0.000000000000000000e+00 0.000000000000000000e+00 0.000000000000000000e+00 0.000000000000000000e+00 0.000000000000000000e+00
-4.623508862533783903e-01 -2.027965129446076098e+00 -2.047153303300603203e-02 -4.547269026237898970e-01 -3.322620915576311035e-04 0.000000000000000000e+00 0.000000000000000000e+00 0.000000000000000000e+00 0.000000000000000000e+00 0.000000000000000000e+00
-4.623508862533783903e-01 -2.027965129446076098e+00 -2.047153303300603203e-02 -4.547269026237898970e-01 -3.322620915576311035e-04 0.000000000000000000e+00 0.000000000000000000e+00 0.000000000000000000e+00 0.000000000000000000e+00 0.000000000000000000e+00
-4.623508862533783903e-01 -2.027965129446076098e+00 -2.047153303300603203e-02 -4.547269026237898970e-01 -3.322620915576311035e-04 0.000000000000000000e+00 0.000000000000000000e+00 0.000000000000000000e+00 0.000000000000000000e+00 0.000000000000000000e+00
-4.623508862533783903e-01 -2.027965129446076098e+00 -2.047153303300603203e-02 -4.547269026237898970e-01 -3.322620915576311035e-04 0.000000000000000000e+00 0.000000000000000000e+00 0.000000000000000000e+00 0.000000000000000000e+00 0.000000000000000000e+00
-4.623508862533783903e-01 -2.027965129446076098e+00 -2.047153303300603203e-02 -4.547269026237898970e-01 -3.322620915576311035e-04 0.000000000000000000e+00 0.000000000000000000e+00 0.000000000000000000e+00 0.000000000000000000e+00 0.000000000000000000e+00
-4.623508862533783903e-01 -2.027965129446076098e+00 -2.047153303300603203e-02 -4.547269026237898970e-01 -3.322620915576311035e-04 0.000000000000000000e+00 0.000000000000000000e+00 0.000000000000000000e+00 0.000000000000000000e+00 0.000000000000000000e+00
-4.623508862533783903e-01 -2.027965129446076098e+00 -2.047153303300603203e-02 -4.547269026237898970e-01 -3.322620915576311035e-04 0.000000000000000000e+00 0.000000000000000000e+00 0.000000000000000000e+00 0.000000000000000000e+00 0.000000000000000000e+00
-4.623508862533783903e-01 -2.027965129446076098e+00 -2.047153303300603203e-02 -4.547269026237898970e-01 -3.322620915576311035e-04 0.000000000000000000e+00 0.000000000000000000e+00 0.000000000000000000e+00 0.000000000000000000e+00 0.000000000000000000e+00
-4.623508862533783903e-01 -2.027965129446076098e+00 -2.047153303300603203e-02 -4.547269026237898970e-01 -3.322620915576311035e-04 0.000000000000000000e+00 0.000000000000000000e+00 0.000000000000000000e+00 0.000000000000000000e+00 0.000000000000000000e+00
-4.623508862533783903e-01 -2.027965129446076098e+00 -2.047153303300603203e-02 -4.547269026237898970e-01 -3.322620915576311035e-04 0.000000000000000000e+00 0.000000000000000000e+00 0.000000000000000000e+00 0.000000000000000000e+00 0.000000000000000000e+00
-4.623508862533783903e-01 -2.027965129446076098e+00 -2.047153303300603203e-02 -4.547269026237898970e-01 -3.322620915576311035e-04 0.000000000000000000e+00 0.000000000000000000e+00 0.000000000000000000e+00 0.000000000000000000e+00 0.000000000000000000e+00
-4.623508862533783903e-01 -2.027965129446076098e+00 -2.047153303300603203e-02 -4.547269026237898970e-01 -3.322620915576311035e-04 0.000000000000000000e+00 0.000000000000000000e+00 0.000000000000000000e+00 0.000000000000000000e+00 0.000000000000000000e+00
-4.623508862533783903e-01 -2.027965129446076098e+00 -2.047153303300603203e-02 -4.547269026237898970e-01 -3.322620915576311035e-04 0.000000000000000000e+00 0.000000000000000000e+00 0.000000000000000000e+00 0.000000000000000000e+00 0.000000000000000000e+00
-4.623508862533783903e-01 -2.027965129446076098e+00 -2.047153303300603203e-02 -4.547269026237898970e-01 -3.322620915576311035e-04 0.000000000000000000e+00 0.000000000000000000e+00 0.000000000000000000e+00 0.000000000000000000e+00 0.000000000000000000e+00
-4.623508862533783903e-01 -2.027965129446076098e+00 -2.047153303300603203e-02 -4.547269026237898970e-01 -3.322620915576311035e-04 0.000000000000000000e+00 0.000000000000000000e+00 0.000000000000000000e+00 0.000000000000000000e+00 0.000000000000000000e+00
-4.623508862533783903e-01 -2.027965129446076098e+00 -2.047153303300603203e-02 -4.547269026237898970e-01 -3.322620915576311035e-04 0.000000000000000000e+00 0.000000000000000000e+00 0.000000000000000000e+00 0.000000000000000000e+00 0.000000000000000000e+00
-4.623508862533783903e-01 -2.027965129446076098e+00 -2.047153303300603203e-02 -4.547269026237898970e-01 -3.322620915576311035e-04 0.000000000000000000e+00 0.000000000000000000e+00 0.000000000000000000e+00 0.000000000000000000e+00 0.000000000000000000e+00
-4.623508862533783903e-01 -2.027965129446076098e+00 -2.047153303300603203e-02 -4.547269026237898970e-01 -3.322620915576311035e-04 0.000000000000000000e+00 0.000000000000000000e+00 0.000000000000000000e+00 0.000000000000000000e+00 0.000000000000000000e+00
-4.623508862533783903e-01 -2.027965129446076098e+00 -2.047153303300603203e-02 -4.547269026237898970e-01 -3.322620915576311035e-04 0.000000000000000000e+00 0.000000000000000000e+00 0.000000000000000000e+00 0.000000000000000000e+00 0.000000000000000000e+00
