-5.217133827836418769e-01 -7.262220060659163590e-01 2.480344451109950110e-01 -1.498674932641212987e+00 -9.219432919804830236e-04 -1.670412940244073163e-01 -1.055172170232433926e+00 -3.046151582237716093e-01 9.782657369865417341e-01 1.152937685534258412e-03
-5.296766228760048101e-01 -7.796325623003047545e-01 2.358082270698742544e-01 -1.445921382261425192e+00 -8.579876404124716933e-04 -1.592648018472585525e-01 -1.068211124687768354e+00 -2.445243608224150211e-01 1.055071007595756782e+00 1.279113031360225522e-03
-5.373160382912088862e-01 -8.334754186108896956e-01 2.262632483510948478e-01 -1.390092793029680474e+00 -7.938972998463543485e-04 -1.527883083040825485e-01 -1.076857126211698157e+00 -1.908995743755881880e-01 1.116571784634893705e+00 1.281806811322346463e-03
-5.446846570584522595e-01 -8.875806209563336102e-01 2.191027865621773818e-01 -1.331821044564618139e+00 -7.336037639013618609e-04 -1.473723753448682450e-01 -1.082104046908878958e+00 -1.432092357783493197e-01 1.165434969301244461e+00 1.205870718899848667e-03
-5.518265600416898398e-01 -9.418273375773998923e-01 2.140655232921611639e-01 -1.271605318928222372e+00 -6.791081290912651201e-04 -1.428380596647508827e-01 -1.084934332421326086e+00 -1.007452654003241355e-01 1.204314512727916009e+00 1.089912696201935684e-03
-5.587821616988436491e-01 -9.961385267722016046e-01 2.109260959363597754e-01 -1.209830495418638741e+00 -6.312896853022452286e-04 -1.391120331430752144e-01 -1.086223783896033135e+00 -6.278854711602795124e-02 1.235496470191670415e+00 9.563688757803981552e-04
-5.655926245703480904e-01 -1.050475608140752248e+00 2.094935112549393685e-01 -1.146782878843251252e+00 -5.905470134870010896e-04 -1.362092574300891590e-01 -1.086741627371013985e+00 -2.865169362840835204e-02 1.260952331507750435e+00 8.148534363048838634e-04
-5.723056878871616293e-01 -1.104832373124402967e+00 2.096043935570092442e-01 -1.082666320110928559e+00 -5.574847063820443467e-04 -1.342612663362709180e-01 -1.087135299673015698e+00 2.217646041397240003e-03 1.282331174646455185e+00 6.612461420991340997e-04
-5.789828081055125031e-01 -1.159229152079824132e+00 2.111126433661355550e-01 -1.017615722832966973e+00 -5.342314345117161328e-04 -1.335424043670185579e-01 -1.087935579108421313e+00 3.016499618252641360e-02 1.301011945559229943e+00 4.650654374065646022e-04
-5.857072239465979102e-01 -1.213707445690237252e+00 2.138761213790920102e-01 -9.517062182473580156e-01 -5.282352686626853606e-04 -1.344883168217085034e-01 -1.089565872208261510e+00 5.526956025912933834e-02 1.318190091712179379e+00 1.199233169806146861e-04
-5.925922705770948484e-01 -1.268324691428490913e+00 2.177413113192582239e-01 -8.849600538042290410e-01 -5.677553180367464350e-04 -1.377009326099377651e-01 -1.092344914765072783e+00 7.730379880332448328e-02 1.334923288862578827e+00 -7.904009874812208385e-04
-5.997902780579045245e-01 -1.323149094817982929e+00 2.225230498498904641e-01 -8.173493590617157967e-01 -7.628838390438025426e-04 0.000000000000000000e+00 0.000000000000000000e+00 0.000000000000000000e+00 0.000000000000000000e+00 0.000000000000000000e+00
-5.997902780579045245e-01 -1.323149094817982929e+00 2.225230498498904641e-01 -8.173493590617157967e-01 -7.628838390438025426e-04 0.000000000000000000e+00 0.000000000000000000e+00 0.000000000000000000e+00 0.000000000000000000e+00 0.000000000000000000e+00
-5.997902780579045245e-01 -1.323149094817982929e+00 2.225230498498904641e-01 -8.173493590617157967e-01 -7.628838390438025426e-04 0.000000000000000000e+00 0.000000000000000000e+00 0.000000000000000000e+00 0.000000000000000000e+00 0.000000000000000000e+00
-5.997902780579045245e-01 -1.323149094817982929e+00 2.225230498498904641e-01 -8.173493590617157967e-01 -7.628838390438025426e-04 0.000000000000000000e+00 0.000000000000000000e+00 0.000000000000000000e+00 0.000000000000000000e+00 0.000000000000000000e+00
-5.997902780579045245e-01 -1.323149094817982929e+00 2.225230498498904641e-01 -8.173493590617157967e-01 -7.628838390438025426e-04 0.000000000000000000e+00 0.000000000000000000e+00 0.000000000000000000e+00 0.000000000000000000e+00 0.000000000000000000e+00
-5.997902780579045245e-01 -1.323149094817982929e+00 2.225230498498904641e-01 -8.173493590617157967e-01 -7.628838390438025426e-04 0.000000000000000000e+00 0.000000000000000000e+00 0.000000000000000000e+00 0.000000000000000000e+00 0.000000000000000000e+00
-5.997902780579045245e-01 -1.323149094817982929e+00 2.225230498498904641e-01 -8.173493590617157967e-01 -7.628838390438025426e-04 0.000000000000000000e+00 0.000000000000000000e+00 0.000000000000000000e+00 0.000000000000000000e+00 0.000000000000000000e+00
-5.997902780579045245e-01 -1.323149094817982929e+00 2.225230498498904641e-01 -8.173493590617157967e-01 -7.628838390438025426e-04 0.000000000000000000e+00 0.000000000000000000e+00 0.000000000000000000e+00 0.000000000000000000e+00 0.000000000000000000e+00
-5.997902780579045245e-01 -1.323149094817982929e+00 2.225230498498904641e-01 -8.173493590617157967e-01 -7.628838390438025426e-04 0.000000000000000000e+00 0.000000000000000000e+00 0.000000000000000000e+00 0.000000000000000000e+00 0.000000000000000000e+00
-5.997902780579045245e-01 -1.323149094817982929e+00 2.225230498498904641e-01 -8.173493590617157967e-01 -7.628838390438025426e-04 0.000000000000000000e+00 0.000000000000000000e+00 0.000000000000000000e+00 0.000000000000000000e+00 0.000000000000000000e+00
-5.997902780579045245e-01 -1.323149094817982929e+00 2.225230498498904641e-01 -8.173493590617157967e-01 -7.628838390438025426e-04 0.000000000000000000e+00 0.000000000000000000e+00 0.000000000000000000e+00 0.000000000000000000e+00 0.000000000000000000e+00
-5.997902780579045245e-01 -1.323149094817982929e+00 2.225230498498904641e-01 -8.173493590617157967e-01 -7.628838390438025426e-04 0.000000000000000000e+00 0.000000000000000000e+00 0.000000000000000000e+00 0.000000000000000000e+00 0.000000000000000000e+00
-5.997902780579045245e-01 -1.323149094817982929e+00 2.225230498498904641e-01 -8.173493590617157967e-01 -7.628838390438025426e-04 0.000000000000000000e+00 0.000000000000000000e+00 0.000000000000000000e+00 0.000000000000000000e+00 0.000000000000000000e+00
-5.997902780579045245e-01 -1.323149094817982929e+00 2.225230498498904641e-01 -8.173493590617157967e-01 -7.628838390438025426e-04 0.000000000000000000e+00 0.000000000000000000e+00 0.000000000000000000e+00 0.000000000000000000e+00 0.000000000000000000e+00
-5.997902780579045245e-01 -1.323149094817982929e+00 2.225230498498904641e-01 -8.173493590617157967e-01 -7.628838390438025426e-04 0.000000000000000000e+00 0.000000000000000000e+00 0.000000000000000000e+00 0.000000000000000000e+00 0.000000000000000000e+00
-5.997902780579045245e-01 -1.323149094817982929e+00 2.225230498498904641e-01 -8.173493590617157967e-01 -7.628838390438025426e-04 0.000000000000000000e+00 0.000000000000000000e+00 0.000000000000000000e+00 0.000000000000000000e+00 0.000000000000000000e+00
-5.997902780579045245e-01 -1.323149094817982929e+00 2.225230498498904641e-01 -8.173493590617157967e-01 -7.628838390438025426e-04 0.000000000000000000e+00 0.000000000000000000e+00 0.000000000000000000e+00 0.000000000000000000e+00 0.000000000000000000e+00
-5.997902780579045245e-01 -1.323149094817982929e+00 2.225230498498904641e-01 -8.173493590617157967e-01 -7.628838390438025426e-04 0.000000000000000000e+00 0.000000000000000000e+00 0.000000000000000000e+00 0.000000000000000000e+00 0.000000000000000000e+00
-5.997902780579045245e-01 -1.323149094817982929e+00 2.225230498498904641e-01 -8.173493590617157967e-01 -7.628838390438025426e-04 0.000000000000000000e+00 0.000000000000000000e+00 0.000000000000000000e+00 0.000000000000000000e+00 0.000000000000000000e+00
-5.997902780579045245e-01 -1.323149094817982929e+00 2.225230498498904641e-01 -8.173493590617157967e-01 -7.628838390438025426e-04 0.000000000000000000e+00 0.000000000000000000e+00 0.000000000000000000e+00 0.000000000000000000e+00 0.000000000000000000e+00
