-5.320796763751507452e-01 2.374880050630539530e-01 4.549786849981469761e-01 -1.233985108294944677e+00 0.000000000000000000e+00 -3.535523676875991506e-04 2.652755948203390718e-04 2.093551140520755541e-04 -3.728254736439285712e-04 0.000000000000000000e+00
-5.388353014114005690e-01 2.371061663456785207e-01 4.572835615816581711e-01 -1.267884818624790855e+00 -1.554007155956059472e-04 -1.351125007249959209e-01 -7.636774347508416827e-03 4.609753167022412335e-02 -6.779942065969242204e-01 -3.108014311912118618e-03
-5.510075390193155398e-01 2.353889706251965919e-01 4.606539998198072028e-01 -1.328177938779793177e+00 -3.167459928726341564e-04 -2.434447521582998597e-01 -3.434391440963847908e-02 6.740876476298116038e-02 -1.205862403100048663e+00 -3.226905545540563643e-03
-5.673187606509281222e-01 2.314250349600159851e-01 4.633132270163573541e-01 -1.407644805208767558e+00 -4.491519596930923118e-04 -3.262244326322522037e-01 -7.927871330361191404e-02 5.318454393100327526e-02 -1.589337328579488728e+00 -2.648119336409162673e-03
-5.865519352783867824e-01 2.243955270721278983e-01 4.634577676775544774e-01 -1.499512496964043651e+00 -5.560568766223383894e-04 -3.846634925491728696e-01 -1.405901577577619022e-01 2.890813223942793886e-03 -1.837353835105523192e+00 -2.138098338584922421e-03
-6.075816050195509410e-01 2.136334162914896584e-01 4.595540142183729415e-01 -1.597613058758368121e+00 -6.521816037099415712e-04 -4.205933948232831732e-01 -2.152422156127646868e-01 -7.807506918363066317e-02 -1.962011235886490068e+00 -1.922494541752064069e-03
-6.294125243325229269e-01 1.986632591725041863e-01 4.504879983937636889e-01 -1.696514062489721253e+00 -7.493309139170129061e-04 -4.366183862594396059e-01 -2.994031423797093305e-01 -1.813203164921852184e-01 -1.978020074627060643e+00 -1.942986204141426698e-03
-6.512121469112106542e-01 1.792090780747035150e-01 4.356497352696102610e-01 -1.791602299068085768e+00 -8.490363181585112084e-04 -4.359924515737553241e-01 -3.890836219560133147e-01 -2.967652624830690034e-01 -1.901764731567290312e+00 -1.994108084829966480e-03
-6.723292969782835860e-01 1.551715961448329184e-01 4.149887233547864263e-01 -1.879121737856490171e+00 -9.408465900546335824e-04 -4.223430013414581352e-01 -4.807496385974118769e-01 -4.132202382964762499e-01 -1.750388775768087601e+00 -1.836205437922447262e-03
-6.922983227821695174e-01 1.265854950528652878e-01 3.890352456329719266e-01 -1.956172857745603011e+00 -1.006402757058365641e-03 -3.993805160777194052e-01 -5.717220218393525011e-01 -5.190695544362901037e-01 -1.541022397782257469e+00 -1.311123340074642034e-03
-7.108336429000567946e-01 9.357450926392815727e-02 3.588577198788373002e-01 -2.020691616455962070e+00 -1.036024975884385210e-03 -3.707064023577459899e-01 -6.602197157787424997e-01 -6.035505150826930842e-01 -1.290375174207185172e+00 -5.924443765203903003e-04
-7.278178985061416473e-01 5.631981401669759746e-02 3.259308336808461326e-01 -2.071416387256016289e+00 -1.049047841857196585e-03 -3.396851121216969971e-01 -7.450939049446112517e-01 -6.585377239598229071e-01 -1.014495416001082617e+00 -2.604573194562283061e-04
-7.432838242506579762e-01 1.505122115962828633e-02 2.919145858283400119e-01 -2.107847054346636106e+00 -1.053274518313722981e-03 -3.093185148903256909e-01 -8.253718571413860561e-01 -6.803249570501219701e-01 -7.286133418124001171e-01 -8.453352913052875192e-05
-7.573846370758049451e-01 -2.994700093796707346e-02 2.583977168435414029e-01 -2.130169426390325249e+00 -1.050366094025272437e-03 -2.820162565029392110e-01 -8.999644419519070571e-01 -6.703373796959718467e-01 -4.464474408737820199e-01 5.816848576901159336e-05
-7.703543602212888919e-01 -7.832784737577175305e-02 2.266768691335176444e-01 -2.139139884721986906e+00 -1.038171278519580288e-03 -2.593944629096785470e-01 -9.676169287560935084e-01 -6.344169542004751694e-01 -1.794091666332320867e-01 2.438963101138443912e-04
-7.824650941758140021e-01 -1.296835418772316895e-01 1.976294921245636549e-01 -2.135934542452075924e+00 -1.002763439738869064e-03 -2.422146790905016500e-01 -1.027113890029198506e+00 -5.809475401790795690e-01 6.410684539821862038e-02 7.081567756142262068e-04
-7.939911006797761850e-01 -1.835616497755021004e-01 1.716945458887630394e-01 -2.121984604211541114e+00 -9.064343104003648238e-04 -2.305201300792436847e-01 -1.077562157965408218e+00 -5.186989247160121996e-01 2.789987648106937446e-01 1.926582586770085028e-03
-8.051866066404751443e-01 -2.394897969429627405e-01 1.489329466234039501e-01 -2.098827916141770000e+00 -7.583320122885530042e-04 -2.239101192139781316e-01 -1.118562943349213024e+00 -4.552319853071818412e-01 4.631337613954245036e-01 2.962045962236235092e-03
-8.162772307181704878e-01 -2.970016251746392388e-01 1.291278267251243506e-01 -2.067994366767961445e+00 -5.763832785089461307e-04 -2.218124815539073147e-01 -1.150236564633529968e+00 -3.961023979655922678e-01 6.166709874761736598e-01 3.638974675592137904e-03
-8.274602192563436098e-01 -3.556602595237747799e-01 1.118917320892037909e-01 -2.030922035813037319e+00 -3.769332700175416148e-04 -2.236597707634621068e-01 -1.173172686982711044e+00 -3.447218927184111936e-01 7.414466190984858596e-01 3.989000169828090317e-03
-8.389089017745020582e-01 -4.150768441597239566e-01 9.675848546853248189e-02 -1.988899370483150353e+00 -1.719481546788431670e-04 -2.289736503631699116e-01 -1.188331692718983756e+00 -3.026649324134262353e-01 8.404533065977404238e-01 4.099702306773968415e-03
-8.507786430274214551e-01 -4.749223500135308362e-01 8.324901473917051264e-02 -1.943032171038170164e+00 3.147243053639185630e-05 -2.373948250583878539e-01 -1.196910117076137148e+00 -2.701894145872392183e-01 9.173439888996025582e-01 4.068411704304700574e-03
-8.632134597272681509e-01 -5.349321808817797397e-01 7.090842106169725767e-02 -1.894233204700158879e+00 2.301726997491883937e-04 -2.486963339969336939e-01 -1.200196617364978735e+00 -2.468118735494650995e-01 9.759793267602253630e-01 3.974005384255930098e-03
-8.763530722654047089e-01 -5.949050228659883421e-01 5.931938808675263353e-02 -1.843228034458297637e+00 4.233509645240137896e-04 -2.627922507627319937e-01 -1.199456839684172049e+00 -2.317806594988924551e-01 1.020103404837225503e+00 3.863565295496508133e-03
-8.903405708075994296e-01 -6.546978125630158463e-01 4.809931651796453544e-02 -1.790570707411571094e+00 6.104926223228926765e-04 -2.797499708438946908e-01 -1.195855793940549194e+00 -2.244014313757619061e-01 1.053146540934530639e+00 3.742833155977577739e-03
-9.053306293341792932e-01 -7.142190595709204670e-01 3.688867141563353241e-02 -1.736661846546145416e+00 7.879732647153401149e-04 -2.998011705315971054e-01 -1.190424940158093081e+00 -2.242129020466200051e-01 1.078177217308511349e+00 3.549612847848947900e-03
-9.214986317280068340e-01 -7.734214858487935551e-01 2.533459387478538549e-02 -1.681766617626146765e+00 9.386310051551867081e-04 -3.233600478765508712e-01 -1.184048525557461540e+00 -2.310815508169628552e-01 1.097904578399972353e+00 3.013154808796930997e-03
-9.390519561113883640e-01 -8.322937738830757937e-01 1.306953851961941901e-02 -1.626033740158230101e+00 9.908660671870558011e-04 -3.510664876676315438e-01 -1.177445760685645215e+00 -2.453011071033193158e-01 1.114657549358333277e+00 1.044701240637381425e-03
-9.582448308262551118e-01 -8.908514106657468012e-01 -3.165659534711713630e-04 -1.569515160448280211e+00 1.004008489419856882e-03 -3.838574942973341786e-01 -1.171152735653418819e+00 -2.677220894618117519e-01 1.130371594199000018e+00 2.628484446560224938e-04
-9.793979655435918197e-01 -9.491272711640935666e-01 -1.531106814837786267e-02 -1.512184003338184812e+00 1.007868131873755494e-03 -4.230626943467336032e-01 -1.165517209966936196e+00 -2.998900438981337846e-01 1.146623142201907086e+00 7.719284907797428676e-05
-1.002924463100363317e+00 -1.007161893799941144e+00 -3.252310411625238679e-02 -1.453950368952247496e+00 1.000426012746080673e-03 -4.705299511354307240e-01 -1.160692452716950429e+00 -3.442407193574904545e-01 1.164672687718744326e+00 -1.488423825534948997e-04
