-1.119921738359569208e+00 2.191001490268532637e-01 -2.382307202495283216e-01 -1.517576769132369607e+00 -5.688309463080706277e-04 -6.758585356366615393e-01 -5.918251993984127157e-01 -4.999413496413601665e-02 8.491458768931010592e-01 2.767875020479610565e-03
-1.153758666978774272e+00 1.886623846382960157e-01 -2.371955432818463605e-01 -1.472454601150090747e+00 -4.324962974129419177e-04 -6.767385723841031764e-01 -6.087552877711450705e-01 2.070353935363901388e-02 9.024433596455758710e-01 2.726692977902574200e-03
-1.187601813785924776e+00 1.576074534603512378e-01 -2.330759399323104053e-01 -1.425522216008729082e+00 -3.052220635752491903e-04 -6.768629361430081870e-01 -6.210986235588953353e-01 8.239206699071881246e-02 9.386477028272347534e-01 2.545484676753854980e-03
-1.221429593218514187e+00 1.261104323138923233e-01 -2.262734885545627794e-01 -1.377454756813080161e+00 -1.908611943095160830e-04 -6.765555886517897743e-01 -6.299404229291782897e-01 1.360490275549527395e-01 9.613491839129779670e-01 2.287217385314662364e-03
-1.255235287709888015e+00 9.429759931914914739e-02 -2.171407399528261228e-01 -1.328766188482942479e+00 -9.102584265536023335e-05 -6.761138898274785536e-01 -6.362566598948635743e-01 1.826549720347329098e-01 9.737713666027535409e-01 1.996707033083116884e-03
-1.289025139068261883e+00 6.225266763508752882e-02 -2.059856890688552822e-01 -1.279828380793045950e+00 -6.093978578448970259e-06 -6.757970271674755836e-01 -6.408986336812322326e-01 2.231010176794168687e-01 9.787561537979325710e-01 1.698637281538225045e-03
-1.322816293433192625e+00 3.002317392602867757e-02 -1.930778894043627403e-01 -1.230889305891649244e+00 6.310745651671659110e-05 -6.758230872986168425e-01 -6.445898741811770805e-01 2.581559932898506715e-01 9.787814980279360144e-01 1.384028701903311119e-03
-1.356634842783692285e+00 -2.373400435878754433e-03 -1.786542820885297089e-01 -1.182089467627507995e+00 1.104003533723661587e-04 -6.763709870099928745e-01 -6.479314872381485291e-01 2.884721463166606270e-01 9.759967652828234197e-01 9.458579371129911904e-04
-1.390514064500658398e+00 -3.494405772985271358e-02 -1.629235673033273546e-01 -1.133476175708562295e+00 1.058887288363245989e-04 -6.775844343393230274e-01 -6.514131458794791829e-01 3.146142957040471422e-01 9.722658383789136716e-01 -9.023249072083092646e-05
-1.424492876270110564e+00 -6.771544739419929626e-02 -1.460683954483334435e-01 -1.085015611043501860e+00 -7.705836420734358465e-05 0.000000000000000000e+00 0.000000000000000000e+00 0.000000000000000000e+00 0.000000000000000000e+00 0.000000000000000000e+00
-1.424492876270110564e+00 -6.771544739419929626e-02 -1.460683954483334435e-01 -1.085015611043501860e+00 -7.705836420734358465e-05 0.000000000000000000e+00 0.000000000000000000e+00 0.000000000000000000e+00 0.000000000000000000e+00 0.000000000000000000e+00
-1.424492876270110564e+00 -6.771544739419929626e-02 -1.460683954483334435e-01 -1.085015611043501860e+00 -7.705836420734358465e-05 0.000000000000000000e+00 0.000000000000000000e+00 0.000000000000000000e+00 0.000000000000000000e+00 0.000000000000000000e+00
-1.424492876270110564e+00 -6.771544739419929626e-02 -1.460683954483334435e-01 -1.085015611043501860e+00 -7.705836420734358465e-05 0.000000000000000000e+00 0.000000000000000000e+00 0.000000000000000000e+00 0.000000000000000000e+00 0.000000000000000000e+00
-1.424492876270110564e+00 -6.771544739419929626e-02 -1.460683954483334435e-01 -1.085015611043501860e+00 -7.705836420734358465e-05 0.000000000000000000e+00 0.000000000000000000e+00 0.000000000000000000e+00 0.000000000000000000e+00 0.000000000000000000e+00
-1.424492876270110564e+00 -6.771544739419929626e-02 -1.460683954483334435e-01 -1.085015611043501860e+00 -7.705836420734358465e-05 0.000000000000000000e+00 0.000000000000000000e+00 0.000000000000000000e+00 0.000000000000000000e+00 0.000000000000000000e+00
-1.424492876270110564e+00 -6.771544739419929626e-02 -1.460683954483334435e-01 -1.085015611043501860e+00 -7.705836420734358465e-05 0.000000000000000000e+00 0.000000000000000000e+00 0.000000000000000000e+00 0.000000000000000000e+00 0.000000000000000000e+00
-1.424492876270110564e+00 -6.771544739419929626e-02 -1.460683954483334435e-01 -1.085015611043501860e+00 -7.705836420734358465e-05 0.000000000000000000e+00 0.000000000000000000e+00 0.000000000000000000e+00 0.000000000000000000e+00 0.000000000000000000e+00
-1.424492876270110564e+00 -6.771544739419929626e-02 -1.460683954483334435e-01 -1.085015611043501860e+00 -7.705836420734358465e-05 0.000000000000000000e+00 0.000000000000000000e+00 0.000000000000000000e+00 0.000000000000000000e+00 0.000000000000000000e+00
-1.424492876270110564e+00 -6.771544739419929626e-02 -1.460683954483334435e-01 -1.085015611043501860e+00 -7.705836420734358465e-05 0.000000000000000000e+00 0.000000000000000000e+00 0.000000000000000000e+00 0.000000000000000000e+00 0.000000000000000000e+00
-1.424492876270110564e+00 -6.771544739419929626e-02 -1.460683954483334435e-01 -1.085015611043501860e+00 -7.705836420734358465e-05 0.000000000000000000e+00 0.000000000000000000e+00 0.000000000000000000e+00 0.000000000000000000e+00 0.000000000000000000e+00
-1.424492876270110564e+00 -6.771544739419929626e-02 -1.460683954483334435e-01 -1.085015611043501860e+00 -7.705836420734358465e-05 0.000000000000000000e+00 0.000000000000000000e+00 0.000000000000000000e+00 0.000000000000000000e+00 0.000000000000000000e+00
-1.424492876270110564e+00 -6.771544739419929626e-02 -1.460683954483334435e-01 -1.085015611043501860e+00 -7.705836420734358465e-05 0.000000000000000000e+00 0.000000000000000000e+00 0.000000000000000000e+00 0.000000000000000000e+00 0.000000000000000000e+00
-1.424492876270110564e+00 -6.771544739419929626e-02 -1.460683954483334435e-01 -1.085015611043501860e+00 -7.705836420734358465e-05 0.000000000000000000e+00 0.000000000000000000e+00 0.000000000000000000e+00 0.000000000000000000e+00 0.000000000000000000e+00
-1.424492876270110564e+00 -6.771544739419929626e-02 -1.460683954483334435e-01 -1.085015611043501860e+00 -7.705836420734358465e-05 0.000000000000000000e+00 0.000000000000000000e+00 0.000000000000000000e+00 0.000000000000000000e+00 0.000000000000000000e+00
-1.424492876270110564e+00 -6.771544739419929626e-02 -1.460683954483334435e-01 -1.085015611043501860e+00 -7.705836420734358465e-05 0.000000000000000000e+00 0.000000000000000000e+00 0.000000000000000000e+00 0.000000000000000000e+00 0.000000000000000000e+00
-1.424492876270110564e+00 -6.771544739419929626e-02 -1.460683954483334435e-01 -1.085015611043501860e+00 -7.705836420734358465e-05 0.000000000000000000e+00 0.000000000000000000e+00 0.000000000000000000e+00 0.000000000000000000e+00 0.000000000000000000e+00
-1.424492876270110564e+00 -6.771544739419929626e-02 -1.460683954483334435e-01 -1.085015611043501860e+00 -7.705836420734358465e-05 0.000000000000000000e+00 0.000000000000000000e+00 0.000000000000000000e+00 0.000000000000000000e+00 0.000000000000000000e+00
-1.424492876270110564e+00 -6.771544739419929626e-02 -1.460683954483334435e-01 -1.085015611043501860e+00 -7.705836420734358465e-05 0.000000000000000000e+00 0.000000000000000000e+00 0.000000000000000000e+00 0.000000000000000000e+00 0.000000000000000000e+00
-1.424492876270110564e+00 -6.771544739419929626e-02 -1.460683954483334435e-01 -1.085015611043501860e+00 -7.705836420734358465e-05 0.000000000000000000e+00 0.000000000000000000e+00 0.000000000000000000e+00 0.000000000000000000e+00 0.000000000000000000e+00
-1.424492876270110564e+00 -6.771544739419929626e-02 -1.460683954483334435e-01 -1.085015611043501860e+00 -7.705836420734358465e-05 0.000000000000000000e+00 0.000000000000000000e+00 0.000000000000000000e+00 0.000000000000000000e+00 0.000000000000000000e+00
-1.424492876270110564e+00 -6.771544739419929626e-02 -1.460683954483334435e-01 -1.085015611043501860e+00 -7.705836420734358465e-05 0.000000000000000000e+00 0.000000000000000000e+00 0.000000000000000000e+00 0.000000000000000000e+00 0.000000000000000000e+00
