-4.205840650417792537e-01 -1.155831028028143193e+00 6.336283251718168863e-01 -1.455648412010767334e+00 -3.079071416116220105e-04 -1.304003361665449501e-01 -1.390857031247449083e+00 1.023411533138990637e-01 -2.308457908776634926e-01 -1.803867063181107929e-03
-4.264425032701799623e-01 -1.226432543673524389e+00 6.381278598336751484e-01 -1.464257551128008927e+00 -4.102587791911335865e-04 -1.171687645680141998e-01 -1.412030312907625262e+00 8.999069323716515911e-02 -1.721827823448298656e-01 -2.047032751590231736e-03
-4.318515628729095446e-01 -1.297737282834682926e+00 6.416820013131593337e-01 -1.470589470318610426e+00 -5.772166309322373070e-04 -1.081811920545919653e-01 -1.426094783223172513e+00 7.108282958968450971e-02 -1.266383838120304639e-01 -3.339157034822074627e-03
-4.372689633190724456e-01 -1.369377767622633302e+00 6.435919454090300862e-01 -1.475368585727047988e+00 -1.002053227878850483e-03 0.000000000000000000e+00 0.000000000000000000e+00 0.000000000000000000e+00 0.000000000000000000e+00 0.000000000000000000e+00
-4.372689633190724456e-01 -1.369377767622633302e+00 6.435919454090300862e-01 -1.475368585727047988e+00 -1.002053227878850483e-03 0.000000000000000000e+00 0.000000000000000000e+00 0.000000000000000000e+00 0.000000000000000000e+00 0.000000000000000000e+00
-4.372689633190724456e-01 -1.369377767622633302e+00 6.435919454090300862e-01 -1.475368585727047988e+00 -1.002053227878850483e-03 0.000000000000000000e+00 0.000000000000000000e+00 0.000000000000000000e+00 0.000000000000000000e+00 0.000000000000000000e+00
-4.372689633190724456e-01 -1.369377767622633302e+00 6.435919454090300862e-01 -1.475368585727047988e+00 -1.002053227878850483e-03 0.000000000000000000e+00 0.000000000000000000e+00 0.000000000000000000e+00 0.000000000000000000e+00 0.000000000000000000e+00
-4.372689633190724456e-01 -1.369377767622633302e+00 6.435919454090300862e-01 -1.475368585727047988e+00 -1.002053227878850483e-03 0.000000000000000000e+00 0.000000000000000000e+00 0.000000000000000000e+00 0.000000000000000000e+00 0.000000000000000000e+00
-4.372689633190724456e-01 -1.369377767622633302e+00 6.435919454090300862e-01 -1.475368585727047988e+00 -1.002053227878850483e-03 0.000000000000000000e+00 0.000000000000000000e+00 0.000000000000000000e+00 0.000000000000000000e+00 0.000000000000000000e+00
-4.372689633190724456e-01 -1.369377767622633302e+00 6.435919454090300862e-01 -1.475368585727047988e+00 -1.002053227878850483e-03 0.000000000000000000e+00 0.000000000000000000e+00 0.000000000000000000e+00 0.000000000000000000e+00 0.000000000000000000e+00
-4.372689633190724456e-01 -1.369377767622633302e+00 6.435919454090300862e-01 -1.475368585727047988e+00 -1.002053227878850483e-03 0.000000000000000000e+00 0.000000000000000000e+00 0.000000000000000000e+00 0.000000000000000000e+00 0.000000000000000000e+00
-4.372689633190724456e-01 -1.369377767622633302e+00 6.435919454090300862e-01 -1.475368585727047988e+00 -1.002053227878850483e-03 0.000000000000000000e+00 0.000000000000000000e+00 0.000000000000000000e+00 0.000000000000000000e+00 0.000000000000000000e+00
-4.372689633190724456e-01 -1.369377767622633302e+00 6.435919454090300862e-01 -1.475368585727047988e+00 -1.002053227878850483e-03 0.000000000000000000e+00 0.000000000000000000e+00 0.000000000000000000e+00 0.000000000000000000e+00 0.000000000000000000e+00
-4.372689633190724456e-01 -1.369377767622633302e+00 6.435919454090300862e-01 -1.475368585727047988e+00 -1.002053227878850483e-03 0.000000000000000000e+00 0.000000000000000000e+00 0.000000000000000000e+00 0.000000000000000000e+00 0.000000000000000000e+00
-4.372689633190724456e-01 -1.369377767622633302e+00 6.435919454090300862e-01 -1.475368585727047988e+00 -1.002053227878850483e-03 0.000000000000000000e+00 0.000000000000000000e+00 0.000000000000000000e+00 0.000000000000000000e+00 0.000000000000000000e+00
-4.372689633190724456e-01 -1.369377767622633302e+00 6.435919454090300862e-01 -1.475368585727047988e+00 -1.002053227878850483e-03 0.000000000000000000e+00 0.000000000000000000e+00 0.000000000000000000e+00 0.000000000000000000e+00 0.000000000000000000e+00
-4.372689633190724456e-01 -1.369377767622633302e+00 6.435919454090300862e-01 -1.475368585727047988e+00 -1.002053227878850483e-03 0.000000000000000000e+00 0.000000000000000000e+00 0.000000000000000000e+00 0.000000000000000000e+00 0.000000000000000000e+00
-4.372689633190724456e-01 -1.369377767622633302e+00 6.435919454090300862e-01 -1.475368585727047988e+00 -1.002053227878850483e-03 0.000000000000000000e+00 0.000000000000000000e+00 0.000000000000000000e+00 0.000000000000000000e+00 0.000000000000000000e+00
-4.372689633190724456e-01 -1.369377767622633302e+00 6.435919454090300862e-01 -1.475368585727047988e+00 -1.002053227878850483e-03 0.000000000000000000e+00 0.000000000000000000e+00 0.000000000000000000e+00 0.000000000000000000e+00 0.000000000000000000e+00
-4.372689633190724456e-01 -1.369377767622633302e+00 6.435919454090300862e-01 -1.475368585727047988e+00 -1.002053227878850483e-03 0.000000000000000000e+00 0.000000000000000000e+00 0.000000000000000000e+00 0.000000000000000000e+00 0.000000000000000000e+00
-4.372689633190724456e-01 -1.369377767622633302e+00 6.435919454090300862e-01 -1.475368585727047988e+00 -1.002053227878850483e-03 0.000000000000000000e+00 0.000000000000000000e+00 0.000000000000000000e+00 0.000000000000000000e+00 0.000000000000000000e+00
-4.372689633190724456e-01 -1.369377767622633302e+00 6.435919454090300862e-01 -1.475368585727047988e+00 -1.002053227878850483e-03 0.000000000000000000e+00 0.000000000000000000e+00 0.000000000000000000e+00 0.000000000000000000e+00 0.000000000000000000e+00
-4.372689633190724456e-01 -1.369377767622633302e+00 6.435919454090300862e-01 -1.475368585727047988e+00 -1.002053227878850483e-03 0.000000000000000000e+00 0.000000000000000000e+00 0.000000000000000000e+00 0.000000000000000000e+00 0.000000000000000000e+00
-4.372689633190724456e-01 -1.369377767622633302e+00 6.435919454090300862e-01 -1.475368585727047988e+00 -1.002053227878850483e-03 0.000000000000000000e+00 0.000000000000000000e+00 0.000000000000000000e+00 0.000000000000000000e+00 0.000000000000000000e+00
-4.372689633190724456e-01 -1.369377767622633302e+00 6.435919454090300862e-01 -1.475368585727047988e+00 -1.002053227878850483e-03 0.000000000000000000e+00 0.000000000000000000e+00 0.000000000000000000e+00 0.000000000000000000e+00 0.000000000000000000e+00
-4.372689633190724456e-01 -1.369377767622633302e+00 6.435919454090300862e-01 -1.475368585727047988e+00 -1.002053227878850483e-03 0.000000000000000000e+00 0.000000000000000000e+00 0.000000000000000000e+00 0.000000000000000000e+00 0.000000000000000000e+00
-4.372689633190724456e-01 -1.369377767622633302e+00 6.435919454090300862e-01 -1.475368585727047988e+00 -1.002053227878850483e-03 0.000000000000000000e+00 0.000000000000000000e+00 0.000000000000000000e+00 0.000000000000000000e+00 0.000000000000000000e+00
-4.372689633190724456e-01 -1.369377767622633302e+00 6.435919454090300862e-01 -1.475368585727047988e+00 -1.002053227878850483e-03 0.000000000000000000e+00 0.000000000000000000e+00 0.000000000000000000e+00 0.000000000000000000e+00 0.000000000000000000e+00
-4.372689633190724456e-01 -1.369377767622633302e+00 6.435919454090300862e-01 -1.475368585727047988e+00 -1.002053227878850483e-03 0.000000000000000000e+00 0.000000000000000000e+00 0.000000000000000000e+00 0.000000000000000000e+00 0.000000000000000000e+00
-4.372689633190724456e-01 -1.369377767622633302e+00 6.435919454090300862e-01 -1.475368585727047988e+00 -1.002053227878850483e-03 0.000000000000000000e+00 0.000000000000000000e+00 0.000000000000000000e+00 0.000000000000000000e+00 0.000000000000000000e+00
-4.372689633190724456e-01 -1.369377767622633302e+00 6.435919454090300862e-01 -1.475368585727047988e+00 -1.002053227878850483e-03 0.000000000000000000e+00 0.000000000000000000e+00 0.000000000000000000e+00 0.000000000000000000e+00 0.000000000000000000e+00
