-7.809968540685295890e-01 -1.057944574173054764e-01 -2.601487517548169426e-01 -2.237599730619112659e+00 -8.959593823403677994e-04 -3.302940594479300551e-01 -4.112036659318944465e-01 -7.594478994904918512e-01 2.785985273464142153e-01 1.873666626929787775e-03
-7.974844654000063926e-01 -1.277717087014105524e-01 -2.934038229210230719e-01 -2.217974764430092893e+00 -7.580539790391613341e-04 -3.297522266295354609e-01 -4.395450256821015755e-01 -6.651014233241223650e-01 3.924993237803913182e-01 2.758108066024128439e-03
-8.140217284983749524e-01 -1.508217959257256990e-01 -3.225029264821829278e-01 -2.193976296951456906e+00 -5.921968854253602211e-04 -3.307452619673721950e-01 -4.610017444863031555e-01 -5.819820712231975612e-01 4.799693495727192505e-01 3.317141872276022259e-03
-8.306565940329541098e-01 -1.746242970546949824e-01 -3.481164133659526705e-01 -2.166787486622466563e+00 -4.154749661572773242e-04 -3.326973106915831480e-01 -4.760500225793855011e-01 -5.122697376753949650e-01 5.437762065798055211e-01 3.534438385361657504e-03
-8.474204389640274115e-01 -1.989027758226702414e-01 -3.709335525511481269e-01 -2.137395278746577532e+00 -2.419845359719815787e-04 -3.352768986214650915e-01 -4.855695753595052899e-01 -4.563427837039096824e-01 5.878441575177846268e-01 3.469808603705914693e-03
-8.643385668992799031e-01 -2.234386914119111389e-01 -3.915980954313074691e-01 -2.106551962389517474e+00 -7.966965830859886214e-05 -3.383625587050490546e-01 -4.907183117848178955e-01 -4.132908576031867343e-01 6.168663271412052618e-01 3.246297553267653898e-03
-8.814376482876551400e-01 -2.480706618338698322e-01 -4.106839625193052790e-01 -2.074785045124680760e+00 6.831308445500130946e-05 -3.419816277675045701e-01 -4.926394084391736428e-01 -3.817173417599558638e-01 6.353383452967328315e-01 2.959654855272002890e-03
-8.987501317790123068e-01 -2.726857286355916510e-01 -4.286943469114863903e-01 -2.042434107768555052e+00 2.016798249961183952e-04 -3.462496698271422257e-01 -4.923013360344363765e-01 -3.602076878436219487e-01 6.470187471225147258e-01 2.667334810822341497e-03
-9.163164622313385577e-01 -2.972107354569958892e-01 -4.460681995451368231e-01 -2.009685668840188288e+00 3.245935871509412303e-04 -3.513266090465247959e-01 -4.905001364280849319e-01 -3.474770526730086018e-01 6.549687785673330431e-01 2.458275243096455943e-03
-9.341861420423512863e-01 -3.216060388305392870e-01 -4.631864949566227851e-01 -1.976598089493350363e+00 4.572333081856415349e-04 -3.573935962202550720e-01 -4.879060674708681211e-01 -3.423659082297189626e-01 6.617515869367592840e-01 2.652794420694005225e-03
-9.524177116080334571e-01 -3.458595018323144532e-01 -4.803791340276222233e-01 -1.943124513988411017e+00 6.832423455229493653e-04 0.000000000000000000e+00 0.000000000000000000e+00 0.000000000000000000e+00 0.000000000000000000e+00 0.000000000000000000e+00
-9.524177116080334571e-01 -3.458595018323144532e-01 -4.803791340276222233e-01 -1.943124513988411017e+00 6.832423455229493653e-04 0.000000000000000000e+00 0.000000000000000000e+00 0.000000000000000000e+00 0.000000000000000000e+00 0.000000000000000000e+00
-9.524177116080334571e-01 -3.458595018323144532e-01 -4.803791340276222233e-01 -1.943124513988411017e+00 6.832423455229493653e-04 0.000000000000000000e+00 0.000000000000000000e+00 0.000000000000000000e+00 0.000000000000000000e+00 0.000000000000000000e+00
-9.524177116080334571e-01 -3.458595018323144532e-01 -4.803791340276222233e-01 -1.943124513988411017e+00 6.832423455229493653e-04 0.000000000000000000e+00 0.000000000000000000e+00 0.000000000000000000e+00 0.000000000000000000e+00 0.000000000000000000e+00
-9.524177116080334571e-01 -3.458595018323144532e-01 -4.803791340276222233e-01 -1.943124513988411017e+00 6.832423455229493653e-04 0.000000000000000000e+00 0.000000000000000000e+00 0.000000000000000000e+00 0.000000000000000000e+00 0.000000000000000000e+00
-9.524177116080334571e-01 -3.458595018323144532e-01 -4.803791340276222233e-01 -1.943124513988411017e+00 6.832423455229493653e-04 0.000000000000000000e+00 0.000000000000000000e+00 0.000000000000000000e+00 0.000000000000000000e+00 0.000000000000000000e+00
-9.524177116080334571e-01 -3.458595018323144532e-01 -4.803791340276222233e-01 -1.943124513988411017e+00 6.832423455229493653e-04 0.000000000000000000e+00 0.000000000000000000e+00 0.000000000000000000e+00 0.000000000000000000e+00 0.000000000000000000e+00
-9.524177116080334571e-01 -3.458595018323144532e-01 -4.803791340276222233e-01 -1.943124513988411017e+00 6.832423455229493653e-04 0.000000000000000000e+00 0.000000000000000000e+00 0.000000000000000000e+00 0.000000000000000000e+00 0.000000000000000000e+00
-9.524177116080334571e-01 -3.458595018323144532e-01 -4.803791340276222233e-01 -1.943124513988411017e+00 6.832423455229493653e-04 0.000000000000000000e+00 0.000000000000000000e+00 0.000000000000000000e+00 0.000000000000000000e+00 0.000000000000000000e+00
-9.524177116080334571e-01 -3.458595018323144532e-01 -4.803791340276222233e-01 -1.943124513988411017e+00 6.832423455229493653e-04 0.000000000000000000e+00 0.000000000000000000e+00 0.000000000000000000e+00 0.000000000000000000e+00 0.000000000000000000e+00
-9.524177116080334571e-01 -3.458595018323144532e-01 -4.803791340276222233e-01 -1.943124513988411017e+00 6.832423455229493653e-04 0.000000000000000000e+00 0.000000000000000000e+00 0.000000000000000000e+00 0.000000000000000000e+00 0.000000000000000000e+00
-9.524177116080334571e-01 -3.458595018323144532e-01 -4.803791340276222233e-01 -1.943124513988411017e+00 6.832423455229493653e-04 0.000000000000000000e+00 0.000000000000000000e+00 0.000000000000000000e+00 0.000000000000000000e+00 0.000000000000000000e+00
-9.524177116080334571e-01 -3.458595018323144532e-01 -4.803791340276222233e-01 -1.943124513988411017e+00 6.832423455229493653e-04 0.000000000000000000e+00 0.000000000000000000e+00 0.000000000000000000e+00 0.000000000000000000e+00 0.000000000000000000e+00
-9.524177116080334571e-01 -3.458595018323144532e-01 -4.803791340276222233e-01 -1.943124513988411017e+00 6.832423455229493653e-04 0.000000000000000000e+00 0.000000000000000000e+00 0.000000000000000000e+00 0.000000000000000000e+00 0.000000000000000000e+00
-9.524177116080334571e-01 -3.458595018323144532e-01 -4.803791340276222233e-01 -1.943124513988411017e+00 6.832423455229493653e-04 0.000000000000000000e+00 0.000000000000000000e+00 0.000000000000000000e+00 0.000000000000000000e+00 0.000000000000000000e+00
-9.524177116080334571e-01 -3.458595018323144532e-01 -4.803791340276222233e-01 -1.943124513988411017e+00 6.832423455229493653e-04 0.000000000000000000e+00 0.000000000000000000e+00 0.000000000000000000e+00 0.000000000000000000e+00 0.000000000000000000e+00
-9.524177116080334571e-01 -3.458595018323144532e-01 -4.803791340276222233e-01 -1.943124513988411017e+00 6.832423455229493653e-04 0.000000000000000000e+00 0.000000000000000000e+00 0.000000000000000000e+00 0.000000000000000000e+00 0.000000000000000000e+00
-9.524177116080334571e-01 -3.458595018323144532e-01 -4.803791340276222233e-01 -1.943124513988411017e+00 6.832423455229493653e-04 0.000000000000000000e+00 0.000000000000000000e+00 0.000000000000000000e+00 0.000000000000000000e+00 0.000000000000000000e+00
-9.524177116080334571e-01 -3.458595018323144532e-01 -4.803791340276222233e-01 -1.943124513988411017e+00 6.832423455229493653e-04 0.000000000000000000e+00 0.000000000000000000e+00 0.000000000000000000e+00 0.000000000000000000e+00 0.000000000000000000e+00
-9.524177116080334571e-01 -3.458595018323144532e-01 -4.803791340276222233e-01 -1.943124513988411017e+00 6.832423455229493653e-04 0.000000000000000000e+00 0.000000000000000000e+00 0.000000000000000000e+00 0.000000000000000000e+00 0.000000000000000000e+00
-9.524177116080334571e-01 -3.458595018323144532e-01 -4.803791340276222233e-01 -1.943124513988411017e+00 6.832423455229493653e-04 0.000000000000000000e+00 0.000000000000000000e+00 0.000000000000000000e+00 0.000000000000000000e+00 0.000000000000000000e+00
