-8.558972440409973181e-01 2.008172312916087776e-01 -1.878993836764604464e-02 -1.885857591959190227e+00 -1.033870015409845593e-03 -5.219147132513112242e-01 -2.088195573543041861e-01 -1.285331751536094247e+00 -4.341976300177644021e-01 -3.438041455711481759e-03
-8.821610019272979608e-01 1.862280968871212194e-01 -7.917376346637873541e-02 -1.892896005936816062e+00 -1.081540014241717156e-03 -5.252751577260121874e-01 -2.917826880897508857e-01 -1.207676501974653815e+00 -1.407682795525179720e-01 -9.533999766374295221e-04
-9.087186117535447361e-01 1.677562838661680322e-01 -1.341253984785409636e-01 -1.886356013240199969e+00 -1.080577614378357316e-03 -5.311521965249365040e-01 -3.694362604190638555e-01 -1.099032700243244731e+00 1.307998539323206311e-01 1.924799726719472834e-05
-9.356972698706328417e-01 1.458232171238580122e-01 -1.827258108549180970e-01 -1.867907770954623237e+00 -1.064455347410425690e-03 -5.395731623417624467e-01 -4.386613348462001793e-01 -9.720082475275426681e-01 3.689648457115337066e-01 3.224453393586334594e-04
-9.631856713407155324e-01 1.209535867686455379e-01 -2.246743194910468533e-01 -1.839521202047394777e+00 -1.041484227013206917e-03 -5.497680294016544789e-01 -4.973926071042495400e-01 -8.389701727225750139e-01 5.677313781445705310e-01 4.594224079443767587e-04
-9.912204527555492639e-01 9.371744262924386337e-02 -2.601622808405875120e-01 -1.803231133621338911e+00 -1.002972434025614038e-03 -5.606956282966739646e-01 -5.447228827880333801e-01 -7.097592269908133966e-01 7.258013685211176513e-01 7.702358597518559448e-04
-1.019792399692138973e+00 6.467796480354304212e-02 -2.896975814902569279e-01 -1.760962742914018886e+00 -9.214516783445572809e-04 -5.714389387317962976e-01 -5.807895565140164251e-01 -5.907060129933877635e-01 8.453678141464022744e-01 1.630415113621134495e-03
-1.048861905097600467e+00 3.435295034782372137e-02 -3.139424312866214706e-01 -1.714420938934646310e+00 -8.081871561536626246e-04 -5.813901081092281986e-01 -6.065002891143864705e-01 -4.848969959272909636e-01 9.308360795874509597e-01 2.265290443817893559e-03
-1.078375193653126729e+00 3.193234274093216529e-03 -3.335961214611254944e-01 -1.665041398118170424e+00 -6.811292078899723167e-04 -5.902657711105260274e-01 -6.231943214746100690e-01 -3.930738034900808087e-01 9.875908163295191722e-01 2.541158965273807024e-03
-1.108277109178149367e+00 -2.842560549063381098e-02 -3.493246076981296744e-01 -1.613984540827113401e+00 -5.543732405084003450e-04 -5.980383105004509758e-01 -6.323767952945404947e-01 -3.145697247400830454e-01 1.021137145821140013e+00 2.535119347631438567e-03
-1.138519622634662998e+00 -6.020383637701248736e-02 -3.617260447830539238e-01 -1.562150244145102063e+00 -4.368526094577472878e-04 -6.048502691302743983e-01 -6.355646177275734443e-01 -2.480287416984852666e-01 1.036685933640224766e+00 2.350412621013060928e-03
-1.169066641342354940e+00 -9.191255531894840236e-02 -3.713211224790567422e-01 -1.510206413773668599e+00 -3.334027335363892405e-04 -6.109403741538369514e-01 -6.341743788387181890e-01 -1.919015539200564779e-01 1.038876607428669274e+00 2.068997518427160513e-03
-1.199896175637360729e+00 -1.233857523811424800e-01 -3.785572234427062588e-01 -1.458622730358376529e+00 -2.460581130520885320e-04 -6.165906859001146767e-01 -6.294639412438816084e-01 -1.447220192729908039e-01 1.031673668305840064e+00 1.746892409686013736e-03
-1.231000857658384628e+00 -1.545114585068682878e-01 -3.838187403901790473e-01 -1.407703230098526159e+00 -1.750270471175364518e-04 -6.220936404204802095e-01 -6.225141225145159884e-01 -1.052303389494553543e-01 1.018390005197009174e+00 1.420621318691041388e-03
-1.262387640321962046e+00 -1.852232245018340107e-01 -3.874387170231647914e-01 -1.357614713205619772e+00 -1.193523767259461522e-04 -6.277356532715482329e-01 -6.142353198993144581e-01 -7.239953265971518781e-02 1.001770337858126636e+00 1.113493407831806208e-03
-1.294077091965888160e+00 -2.154920968619885580e-01 -3.897103977493207583e-01 -1.308411043144511510e+00 -7.746318987325405544e-05 -6.337890328785243943e-01 -6.053774472030907239e-01 -4.543361452311915627e-02 9.840734012221645788e-01 8.377837370538419350e-04
-1.326102563500160647e+00 -2.453191496995116572e-01 -3.908976823944882995e-01 -1.260054190231737703e+00 -4.776641898442179278e-05 -6.405094306854505204e-01 -5.965410567504620953e-01 -2.374569290335110106e-02 9.671370582554764672e-01 5.939354177766452804e-04
-1.358509369412808088e+00 -2.747289374350627700e-01 -3.912438689802258396e-01 -1.212431197672594330e+00 -2.949133023196004927e-05 -6.481361182529503662e-01 -5.881957547110219231e-01 -6.923731714750958749e-03 9.524598511828672454e-01 3.655017750492349244e-04
-1.391354020852572315e+00 -3.037638576794026157e-01 -3.909787345244208345e-01 -1.165367542009017932e+00 -2.505379262563191663e-05 -6.568930287952857716e-01 -5.806984048867972481e-01 5.302689116099660455e-03 9.412731132715294047e-01 8.875075212656265275e-05
-1.424703497582622713e+00 -3.324793506979651370e-01 -3.903236022852399900e-01 -1.118637786195166184e+00 -4.903066222834195681e-05 -6.669895346010068504e-01 -5.743098603712503136e-01 1.310264478361678267e-02 9.345951162770358422e-01 -4.795373920542006139e-04
-1.458634534472050603e+00 -3.609400299132696777e-01 -3.894946897370075156e-01 -1.071973257066047402e+00 -1.639078508321598006e-04 0.000000000000000000e+00 0.000000000000000000e+00 0.000000000000000000e+00 0.000000000000000000e+00 0.000000000000000000e+00
-1.458634534472050603e+00 -3.609400299132696777e-01 -3.894946897370075156e-01 -1.071973257066047402e+00 -1.639078508321598006e-04 0.000000000000000000e+00 0.000000000000000000e+00 0.000000000000000000e+00 0.000000000000000000e+00 0.000000000000000000e+00
-1.458634534472050603e+00 -3.609400299132696777e-01 -3.894946897370075156e-01 -1.071973257066047402e+00 -1.639078508321598006e-04 0.000000000000000000e+00 0.000000000000000000e+00 0.000000000000000000e+00 0.000000000000000000e+00 0.000000000000000000e+00
-1.458634534472050603e+00 -3.609400299132696777e-01 -3.894946897370075156e-01 -1.071973257066047402e+00 -1.639078508321598006e-04 0.000000000000000000e+00 0.000000000000000000e+00 0.000000000000000000e+00 0.000000000000000000e+00 0.000000000000000000e+00
-1.458634534472050603e+00 -3.609400299132696777e-01 -3.894946897370075156e-01 -1.071973257066047402e+00 -1.639078508321598006e-04 0.000000000000000000e+00 0.000000000000000000e+00 0.000000000000000000e+00 0.000000000000000000e+00 0.000000000000000000e+00
-1.458634534472050603e+00 -3.609400299132696777e-01 -3.894946897370075156e-01 -1.071973257066047402e+00 -1.639078508321598006e-04 0.000000000000000000e+00 0.000000000000000000e+00 0.000000000000000000e+00 0.000000000000000000e+00 0.000000000000000000e+00
-1.458634534472050603e+00 -3.609400299132696777e-01 -3.894946897370075156e-01 -1.071973257066047402e+00 -1.639078508321598006e-04 0.000000000000000000e+00 0.000000000000000000e+00 0.000000000000000000e+00 0.000000000000000000e+00 0.000000000000000000e+00
-1.458634534472050603e+00 -3.609400299132696777e-01 -3.894946897370075156e-01 -1.071973257066047402e+00 -1.639078508321598006e-04 0.000000000000000000e+00 0.000000000000000000e+00 0.000000000000000000e+00 0.000000000000000000e+00 0.000000000000000000e+00
-1.458634534472050603e+00 -3.609400299132696777e-01 -3.894946897370075156e-01 -1.071973257066047402e+00 -1.639078508321598006e-04 0.000000000000000000e+00 0.000000000000000000e+00 0.000000000000000000e+00 0.000000000000000000e+00 0.000000000000000000e+00
-1.458634534472050603e+00 -3.609400299132696777e-01 -3.894946897370075156e-01 -1.071973257066047402e+00 -1.639078508321598006e-04 0.000000000000000000e+00 0.000000000000000000e+00 0.000000000000000000e+00 0.000000000000000000e+00 0.000000000000000000e+00
-1.458634534472050603e+00 -3.609400299132696777e-01 -3.894946897370075156e-01 -1.071973257066047402e+00 -1.639078508321598006e-04 0.000000000000000000e+00 0.000000000000000000e+00 0.000000000000000000e+00 0.000000000000000000e+00 0.000000000000000000e+00
