5.585711183574124661e-01 1.250157184518098930e-01 1.075151661525483721e-01
5.585711183574124661e-01 1.250157184518098930e-01 1.075151661525483721e-01
5.585711183574124661e-01 1.250157184518098930e-01 1.075151661525483721e-01
5.585711183574124661e-01 1.250157184518098930e-01 1.075151661525483721e-01
5.585711183574124661e-01 1.250157184518098930e-01 1.075151661525483721e-01
5.585711183574124661e-01 1.250157184518098930e-01 1.075151661525483721e-01
5.585711183574124661e-01 1.250157184518098930e-01 1.075151661525483721e-01
5.585711183574124661e-01 1.250157184518098930e-01 1.075151661525483721e-01
5.585711183574124661e-01 1.250157184518098930e-01 1.075151661525483721e-01
5.585711183574124661e-01 1.250157184518098930e-01 1.075151661525483721e-01
5.585711183574124661e-01 1.250157184518098930e-01 1.075151661525483721e-01
5.585711183574124661e-01 1.250157184518098930e-01 1.075151661525483721e-01
5.585711183574124661e-01 1.250157184518098930e-01 1.075151661525483721e-01
5.585711183574124661e-01 1.250157184518098930e-01 1.075151661525483721e-01
5.585711183574124661e-01 1.250157184518098930e-01 1.075151661525483721e-01
5.585711183574124661e-01 1.250157184518098930e-01 1.075151661525483721e-01
5.585711183574124661e-01 1.250157184518098930e-01 1.075151661525483721e-01
5.585711183574124661e-01 1.250157184518098930e-01 1.075151661525483721e-01
5.585711183574124661e-01 1.250157184518098930e-01 1.075151661525483721e-01
5.585711183574124661e-01 1.250157184518098930e-01 1.075151661525483721e-01
5.585711183574124661e-01 1.250157184518098930e-01 1.075151661525483721e-01
5.585711183574124661e-01 1.250157184518098930e-01 1.075151661525483721e-01
5.585711183574124661e-01 1.250157184518098930e-01 1.075151661525483721e-01
5.585711183574124661e-01 1.250157184518098930e-01 1.075151661525483721e-01
5.585711183574124661e-01 1.250157184518098930e-01 1.075151661525483721e-01
5.585711183574124661e-01 1.250157184518098930e-01 1.075151661525483721e-01
5.585711183574124661e-01 1.250157184518098930e-01 1.075151661525483721e-01
5.585711183574124661e-01 1.250157184518098930e-01 1.075151661525483721e-01
5.585711183574124661e-01 1.250157184518098930e-01 1.075151661525483721e-01
5.585711183574124661e-01 1.250157184518098930e-01 1.075151661525483721e-01
