-5.203947932410156740e-01 -7.045314988258493116e-01 6.794587822772915064e-01 -1.011416093638591862e+00 -3.621314714815055498e-04 1.551119377122663345e-01 -6.913891516473209542e-01 1.254095565011309199e-01 2.384121508940085787e-01 -1.571490211176845581e-03
-5.105523437117021057e-01 -7.403565744003021143e-01 6.885828994010286808e-01 -9.937566056405964243e-01 -4.134236719778582340e-04 1.968489905862714773e-01 -7.165015114890563863e-01 1.824823424747427092e-01 3.531897599599080895e-01 -1.025844009927053685e-03
-4.985400065364503086e-01 -7.772445343800837847e-01 7.007130711336398976e-01 -9.707348517873946037e-01 -4.374256069576115246e-04 2.402467435050354427e-01 -7.377591995956330750e-01 2.426034346522235596e-01 4.604350770640364687e-01 -4.800386995950659203e-04
-4.842875380294929810e-01 -8.150020147923480174e-01 7.159935679139024511e-01 -9.428470291397558212e-01 -4.343654703291182414e-04 2.850493701391461632e-01 -7.551496082452846537e-01 3.056099356052501825e-01 5.577564529527762049e-01 6.120273256986588119e-05
-4.677326759965193537e-01 -8.534401642081478334e-01 7.345708188575040820e-01 -9.106826793869414738e-01 -4.044546824359282976e-04 3.310972406594727135e-01 -7.687629883159964317e-01 3.715450188720315627e-01 6.432869950562862815e-01 5.982157578637987668e-04
-4.488140239323077929e-01 -8.923799861775284503e-01 7.566093804620057650e-01 -8.748969367025710708e-01 -3.479050932040018865e-04 3.783730412842307711e-01 -7.787964393876130043e-01 4.407712320900346592e-01 7.157148536874082811e-01 1.130991784638528223e-03
-4.274607736701792615e-01 -9.316577305930626718e-01 7.823132858654775479e-01 -8.361814774948602702e-01 -2.652604675326686312e-04 4.270650052425702947e-01 -7.855548883106840963e-01 5.140781080694345473e-01 7.743091841542150133e-01 1.652892513426665322e-03
-4.035784204483868209e-01 -9.711301005854532375e-01 8.119548024126763686e-01 -7.952378911816907481e-01 -1.601575525853930976e-04 4.776470644358482565e-01 -7.894473998478105381e-01 5.928303309439775237e-01 8.188717262633905536e-01 2.102058298945510672e-03
-3.770281569774066033e-01 -1.010679489320655877e+00 8.459159763317001257e-01 -7.527559717934574346e-01 -5.250764035913613658e-05 5.310052694196039091e-01 -7.909877747040522378e-01 6.792234783804758091e-01 8.496383877646664917e-01 2.152998244525139437e-03
-3.475959867487104504e-01 -1.050219617836355646e+00 8.847529145091478364e-01 -7.094009123009966666e-01 -3.491203004085018579e-05 5.886434045739230569e-01 -7.908025703139969220e-01 7.767387635489547693e-01 8.671011898492158032e-01 3.519122063657192327e-04
-3.149449968145891510e-01 -1.089701927140648730e+00 9.292954441714961211e-01 -6.658101646505789617e-01 -5.020585097072554574e-04 0.000000000000000000e+00 0.000000000000000000e+00 0.000000000000000000e+00 0.000000000000000000e+00 0.000000000000000000e+00
-3.149449968145891510e-01 -1.089701927140648730e+00 9.292954441714961211e-01 -6.658101646505789617e-01 -5.020585097072554574e-04 0.000000000000000000e+00 0.000000000000000000e+00 0.000000000000000000e+00 0.000000000000000000e+00 0.000000000000000000e+00
-3.149449968145891510e-01 -1.089701927140648730e+00 9.292954441714961211e-01 -6.658101646505789617e-01 -5.020585097072554574e-04 0.000000000000000000e+00 0.000000000000000000e+00 0.000000000000000000e+00 0.000000000000000000e+00 0.000000000000000000e+00
-3.149449968145891510e-01 -1.089701927140648730e+00 9.292954441714961211e-01 -6.658101646505789617e-01 -5.020585097072554574e-04 0.000000000000000000e+00 0.000000000000000000e+00 0.000000000000000000e+00 0.000000000000000000e+00 0.000000000000000000e+00
-3.149449968145891510e-01 -1.089701927140648730e+00 9.292954441714961211e-01 -6.658101646505789617e-01 -5.020585097072554574e-04 0.000000000000000000e+00 0.000000000000000000e+00 0.000000000000000000e+00 0.000000000000000000e+00 0.000000000000000000e+00
-3.149449968145891510e-01 -1.089701927140648730e+00 9.292954441714961211e-01 -6.658101646505789617e-01 -5.020585097072554574e-04 0.000000000000000000e+00 0.000000000000000000e+00 0.000000000000000000e+00 0.000000000000000000e+00 0.000000000000000000e+00
-3.149449968145891510e-01 -1.089701927140648730e+00 9.292954441714961211e-01 -6.658101646505789617e-01 -5.020585097072554574e-04 0.000000000000000000e+00 0.000000000000000000e+00 0.000000000000000000e+00 0.000000000000000000e+00 0.000000000000000000e+00
-3.149449968145891510e-01 -1.089701927140648730e+00 9.292954441714961211e-01 -6.658101646505789617e-01 -5.020585097072554574e-04 0.000000000000000000e+00 0.000000000000000000e+00 0.000000000000000000e+00 0.000000000000000000e+00 0.000000000000000000e+00
-3.149449968145891510e-01 -1.089701927140648730e+00 9.292954441714961211e-01 -6.658101646505789617e-01 -5.020585097072554574e-04 0.000000000000000000e+00 0.000000000000000000e+00 0.000000000000000000e+00 0.000000000000000000e+00 0.000000000000000000e+00
-3.149449968145891510e-01 -1.089701927140648730e+00 9.292954441714961211e-01 -6.658101646505789617e-01 -5.020585097072554574e-04 0.000000000000000000e+00 0.000000000000000000e+00 0.000000000000000000e+00 0.000000000000000000e+00 0.000000000000000000e+00
-3.149449968145891510e-01 -1.089701927140648730e+00 9.292954441714961211e-01 -6.658101646505789617e-01 -5.020585097072554574e-04 0.000000000000000000e+00 0.000000000000000000e+00 0.000000000000000000e+00 0.000000000000000000e+00 0.000000000000000000e+00
-3.149449968145891510e-01 -1.089701927140648730e+00 9.292954441714961211e-01 -6.658101646505789617e-01 -5.020585097072554574e-04 0.000000000000000000e+00 0.000000000000000000e+00 0.000000000000000000e+00 0.000000000000000000e+00 0.000000000000000000e+00
-3.149449968145891510e-01 -1.089701927140648730e+00 9.292954441714961211e-01 -6.658101646505789617e-01 -5.020585097072554574e-04 0.000000000000000000e+00 0.000000000000000000e+00 0.000000000000000000e+00 0.000000000000000000e+00 0.000000000000000000e+00
-3.149449968145891510e-01 -1.089701927140648730e+00 9.292954441714961211e-01 -6.658101646505789617e-01 -5.020585097072554574e-04 0.000000000000000000e+00 0.000000000000000000e+00 0.000000000000000000e+00 0.000000000000000000e+00 0.000000000000000000e+00
-3.149449968145891510e-01 -1.089701927140648730e+00 9.292954441714961211e-01 -6.658101646505789617e-01 -5.020585097072554574e-04 0.000000000000000000e+00 0.000000000000000000e+00 0.000000000000000000e+00 0.000000000000000000e+00 0.000000000000000000e+00
-3.149449968145891510e-01 -1.089701927140648730e+00 9.292954441714961211e-01 -6.658101646505789617e-01 -5.020585097072554574e-04 0.000000000000000000e+00 0.000000000000000000e+00 0.000000000000000000e+00 0.000000000000000000e+00 0.000000000000000000e+00
-3.149449968145891510e-01 -1.089701927140648730e+00 9.292954441714961211e-01 -6.658101646505789617e-01 -5.020585097072554574e-04 0.000000000000000000e+00 0.000000000000000000e+00 0.000000000000000000e+00 0.000000000000000000e+00 0.000000000000000000e+00
-3.149449968145891510e-01 -1.089701927140648730e+00 9.292954441714961211e-01 -6.658101646505789617e-01 -5.020585097072554574e-04 0.000000000000000000e+00 0.000000000000000000e+00 0.000000000000000000e+00 0.000000000000000000e+00 0.000000000000000000e+00
-3.149449968145891510e-01 -1.089701927140648730e+00 9.292954441714961211e-01 -6.658101646505789617e-01 -5.020585097072554574e-04 0.000000000000000000e+00 0.000000000000000000e+00 0.000000000000000000e+00 0.000000000000000000e+00 0.000000000000000000e+00
-3.149449968145891510e-01 -1.089701927140648730e+00 9.292954441714961211e-01 -6.658101646505789617e-01 -5.020585097072554574e-04 0.000000000000000000e+00 0.000000000000000000e+00 0.000000000000000000e+00 0.000000000000000000e+00 0.000000000000000000e+00
-3.149449968145891510e-01 -1.089701927140648730e+00 9.292954441714961211e-01 -6.658101646505789617e-01 -5.020585097072554574e-04 0.000000000000000000e+00 0.000000000000000000e+00 0.000000000000000000e+00 0.000000000000000000e+00 0.000000000000000000e+00
