-1.090240677734800157e+00 2.643779461193384583e-01 3.778262759500561896e-01 -1.819134009974821220e+00 6.592340017907372335e-04 -9.149394257661188634e-01 3.458399963760014906e-01 -2.251813506761756400e+00 -1.958701058935062633e+00 -7.966321592549846162e-03
-1.135387080998437659e+00 2.783324953316333450e-01 2.590315376267259273e-01 -1.898104576395103660e+00 5.998728630864666542e-05 -9.029280652727519341e-01 2.790909842458981771e-01 -2.375894766466605024e+00 -1.579411328405649684e+00 -1.198493430964181136e-02
-1.179441602764162988e+00 2.881696724961944067e-01 1.373883976478043889e-01 -1.953938111211531048e+00 -5.541895858040820711e-04 -8.810904353145054824e-01 1.967435432912211790e-01 -2.432862799578430657e+00 -1.116670696328549539e+00 -1.228353744225457386e-02
-1.222354881722019782e+00 2.931129925108457157e-01 1.769076872594467498e-02 -1.984327671210178945e+00 -9.885192418221133183e-04 -8.582655791571369708e-01 9.886640029302634636e-02 -2.393952578437194223e+00 -6.077911999729569414e-01 -8.686593120360627113e-03
-1.264537741673299243e+00 2.925739507371161729e-01 -9.478688500640117254e-02 -1.989046385765709024e+00 -1.140501374702650346e-03 -8.436571990255889997e-01 -1.078083547459060543e-02 -2.249553074646916784e+00 -9.437429111059980613e-02 -3.039642657610742288e-03
-1.306689398122163226e+00 2.863692108426170169e-01 -1.955524040645952311e-01 -1.969877715955989261e+00 -1.157796276945740645e-03 -8.430331289772782233e-01 -1.240947978899827053e-01 -2.015310381163880837e+00 3.833733961943972535e-01 -3.458980448618059755e-04
-1.349516155787226612e+00 2.748002601587640759e-01 -2.818383219685356988e-01 -1.930157375618072990e+00 -1.120604045461537400e-03 -8.565351533012695029e-01 -2.313790136770583761e-01 -1.725718358078809134e+00 7.944068067583245352e-01 7.438446296840644546e-04
-1.393510988361421399e+00 2.585531584099186597e-01 -3.528200153302748499e-01 -1.874048067375538196e+00 -1.038590003243036091e-03 -8.798966514838951758e-01 -3.249420349769082672e-01 -1.419633867234782576e+00 1.122186164850697221e+00 1.640280844370026192e-03
-1.438885604437083021e+00 2.385117285344423299e-01 -4.091991824909665398e-01 -1.805819928755931114e+00 -8.635872913036781980e-04 -9.074923215132333354e-01 -4.008285975095264853e-01 -1.127583343213833800e+00 1.364562772392141188e+00 3.500054238787157854e-03
-1.485622444930654318e+00 2.155898237775506765e-01 -4.525355330943440224e-01 -1.729351210159147501e+00 -5.955274675654433861e-04 -9.347368098714236018e-01 -4.584380951378332347e-01 -8.667270120675497624e-01 1.529374371935670274e+00 5.361196474764695803e-03
-1.533568087781995715e+00 1.906249209576592607e-01 -4.846616794554323704e-01 -1.647888384632396841e+00 -2.834817106865405740e-04 -9.589128570268257157e-01 -4.992980563978283159e-01 -6.425229272217671816e-01 1.629256510535012525e+00 6.240915137578056243e-03
-1.582514843196994869e+00 1.643260970918120345e-01 -5.073140003577215618e-01 -1.563991949225460143e+00 2.774565315022701822e-05 -9.789351082999846465e-01 -5.259764773169444130e-01 -4.530464180457831058e-01 1.677928708138735070e+00 6.224547276735351194e-03
-1.632253748817756867e+00 1.372570095779852006e-01 -5.219625486055144981e-01 -1.479583394509127459e+00 3.080958112710353598e-04 -9.947781124152399457e-01 -5.413817502765366774e-01 -2.929709649558584483e-01 1.688171094326655686e+00 5.607003162416165747e-03
-1.682601769363149868e+00 1.098390567875851542e-01 -5.297709016095933920e-01 -1.396037833829589569e+00 5.415251949259553173e-04 -1.006960410907858039e+00 -5.483590558080009281e-01 -1.561670600815789067e-01 1.670911213590758670e+00 4.668587673098398283e-03
-1.733411440057521569e+00 8.236361318541757237e-02 -5.316258045835239310e-01 -1.314280094596636861e+00 7.225820003307790659e-04 -1.016193413887435559e+00 -5.495088720433517482e-01 -3.709805947861097297e-02 1.635154784659053284e+00 3.621136108096474973e-03
-1.784570705280496439e+00 5.500823291482382499e-02 -5.281926176508926485e-01 -1.234871823536052293e+00 8.532415840249550501e-04 -1.023185304459498290e+00 -5.471076054118749754e-01 6.866373865262474785e-02 1.588165421211689576e+00 2.613191673883519684e-03
-1.835997930565519187e+00 2.785503713643773180e-02 -5.199734491369774059e-01 -1.158089305957772819e+00 9.399339279891480914e-04 -1.028544505700454748e+00 -5.430639155677218222e-01 1.643833702783044082e-01 1.535650351565587046e+00 1.733846879283861258e-03
-1.887635571739027407e+00 9.085423249345116192e-04 -5.073556259739173679e-01 -1.083986556293074832e+00 9.903077642586775604e-04 -1.032752823470165504e+00 -5.389298962300643758e-01 2.523564632611998704e-01 1.482054993293957512e+00 1.007476725390588513e-03
-1.939444020719446327e+00 -2.588720515297275246e-02 -4.906461983848528496e-01 -1.012448435115251177e+00 1.005536178483475629e-03 -1.036168979608377061e+00 -5.359149495581452260e-01 3.341885517812905881e-01 1.430762423556472429e+00 3.045682844959603881e-04
-1.991396142247156886e+00 -5.263274380144310205e-02 -4.700924461225941542e-01 -9.432354111851714018e-01 1.009032006254557620e-03 -1.039042430554211638e+00 -5.349107729694069224e-01 4.110750452451744641e-01 1.384260478601594846e+00 6.991655542163831456e-05
-2.043473169978731185e+00 -7.946080065740229736e-02 -4.458877382078113571e-01 -8.760149665008259978e-01 9.826963408926612381e-04 -1.041540554631487980e+00 -5.365611371191839618e-01 4.840941582956553857e-01 1.344408893686908302e+00 -5.267133072379262320e-04
-2.095661503872396914e+00 -1.065278881024439295e-01 -4.181638623191670234e-01 -8.103816873229611195e-01 7.754668999027001467e-04 -1.043766677873314341e+00 -5.413417489008325312e-01 5.544775177728865634e-01 1.312665583557296900e+00 -4.144588819799222695e-03
-2.147949992682790299e+00 -1.340104533991118840e-01 -3.869683273345524421e-01 -7.458688412436629278e-01 -1.214628269556865692e-04 0.000000000000000000e+00 0.000000000000000000e+00 0.000000000000000000e+00 0.000000000000000000e+00 0.000000000000000000e+00
-2.147949992682790299e+00 -1.340104533991118840e-01 -3.869683273345524421e-01 -7.458688412436629278e-01 -1.214628269556865692e-04 0.000000000000000000e+00 0.000000000000000000e+00 0.000000000000000000e+00 0.000000000000000000e+00 0.000000000000000000e+00
-2.147949992682790299e+00 -1.340104533991118840e-01 -3.869683273345524421e-01 -7.458688412436629278e-01 -1.214628269556865692e-04 0.000000000000000000e+00 0.000000000000000000e+00 0.000000000000000000e+00 0.000000000000000000e+00 0.000000000000000000e+00
-2.147949992682790299e+00 -1.340104533991118840e-01 -3.869683273345524421e-01 -7.458688412436629278e-01 -1.214628269556865692e-04 0.000000000000000000e+00 0.000000000000000000e+00 0.000000000000000000e+00 0.000000000000000000e+00 0.000000000000000000e+00
-2.147949992682790299e+00 -1.340104533991118840e-01 -3.869683273345524421e-01 -7.458688412436629278e-01 -1.214628269556865692e-04 0.000000000000000000e+00 0.000000000000000000e+00 0.000000000000000000e+00 0.000000000000000000e+00 0.000000000000000000e+00
-2.147949992682790299e+00 -1.340104533991118840e-01 -3.869683273345524421e-01 -7.458688412436629278e-01 -1.214628269556865692e-04 0.000000000000000000e+00 0.000000000000000000e+00 0.000000000000000000e+00 0.000000000000000000e+00 0.000000000000000000e+00
-2.147949992682790299e+00 -1.340104533991118840e-01 -3.869683273345524421e-01 -7.458688412436629278e-01 -1.214628269556865692e-04 0.000000000000000000e+00 0.000000000000000000e+00 0.000000000000000000e+00 0.000000000000000000e+00 0.000000000000000000e+00
-2.147949992682790299e+00 -1.340104533991118840e-01 -3.869683273345524421e-01 -7.458688412436629278e-01 -1.214628269556865692e-04 0.000000000000000000e+00 0.000000000000000000e+00 0.000000000000000000e+00 0.000000000000000000e+00 0.000000000000000000e+00
-2.147949992682790299e+00 -1.340104533991118840e-01 -3.869683273345524421e-01 -7.458688412436629278e-01 -1.214628269556865692e-04 0.000000000000000000e+00 0.000000000000000000e+00 0.000000000000000000e+00 0.000000000000000000e+00 0.000000000000000000e+00
