-6.705924811888088755e-01 1.501668575950838511e-02 6.211424492247659135e-01 -1.801173852218979521e+00 -1.009650815917661083e-03 1.479714679128283361e-01 -5.755515189148483479e-01 -1.295598407455459400e-01 -2.472472062895022527e-01 6.892764046627629934e-05
-6.618503451129111870e-01 -1.509379817135472063e-02 6.153915169196879642e-01 -1.806193711912464694e+00 -9.974584174527285300e-04 1.748427215179535754e-01 -6.022096786172620453e-01 -1.150186461015586387e-01 -1.003971938697053312e-01 2.438479692986512157e-04
-6.519224384444554099e-01 -4.629982116848564699e-02 6.105768391262887951e-01 -1.804492079649766767e+00 -9.643881120466430649e-04 1.985581333691149031e-01 -6.241204599426185551e-01 -9.629355586798429845e-02 3.403264525395818807e-02 6.614061081217082177e-04
-6.409630581810670247e-01 -7.837392986918226279e-02 6.068270892735952993e-01 -1.796773491552713375e+00 -9.109183503084800678e-04 2.191876052677677322e-01 -6.414821740139323714e-01 -7.499499705387076276e-02 1.543717619410676645e-01 1.069395234763259941e-03
-6.291167237126980005e-01 -1.111043558362743988e-01 6.042013616367073459e-01 -1.783777174075884320e+00 -8.405455519413687453e-04 2.369266893673796504e-01 -6.546085193418428316e-01 -5.251455273775840205e-02 2.599263495365805587e-01 1.407455967342226451e-03
-6.165138394533243860e-01 -1.443001386885202630e-01 6.027054431986019756e-01 -1.766236664750383767e+00 -7.570207492210261069e-04 2.520576851874724023e-01 -6.639156570449172845e-01 -2.991836876210807183e-02 3.508101865100096139e-01 1.670496054406852334e-03
-6.032680960304088735e-01 -1.777950642584815721e-01 6.023093453388245200e-01 -1.744849138086521423e+00 -6.634187409867687256e-04 2.649148684583098046e-01 -6.698985113992261820e-01 -7.921957195549823166e-03 4.277505332772463809e-01 1.872040164685146325e-03
-5.894754719009729360e-01 -2.114500581167984283e-01 6.029629150702546792e-01 -1.720255222267895734e+00 -5.619768264718544423e-04 2.758524825887179732e-01 -6.730998771663372349e-01 1.307139462860281570e-02 4.918783163725156116e-01 2.028838290298286100e-03
-5.752143025711939917e-01 -2.451541776937235517e-01 6.046084614299850335e-01 -1.693027322356196684e+00 -4.542097876115246255e-04 2.852233865955788317e-01 -6.740823915385023568e-01 3.291092719460673999e-02 5.445579982339809888e-01 2.155340777206595903e-03
-5.605460529430922323e-01 -2.788243382944492477e-01 6.071901177514572590e-01 -1.663664768205713296e+00 -3.411529864797781296e-04 2.933649925620345211e-01 -6.734032120145141409e-01 5.163312642944412056e-02 5.872510830096663303e-01 2.261136022634929483e-03
-5.455163405094728413e-01 -3.124040964755117056e-01 6.106604119097387429e-01 -1.632593181022451878e+00 -2.235770463049907705e-04 3.005942486723873763e-01 -6.715951636212492692e-01 6.940588316563030269e-02 6.214317436652282423e-01 2.351518803495747292e-03
-5.301558206547513086e-01 -3.458618673122712539e-01 6.149851230638352373e-01 -1.600166112547713571e+00 -1.020032295536880756e-04 3.072103970944309315e-01 -6.691554167351909665e-01 8.649422308192986075e-02 6.485413694947639307e-01 2.431476335026053898e-03
-5.144809390217893741e-01 -3.791886095745408691e-01 6.201469362676352848e-01 -1.566668949106642561e+00 2.368068960764674715e-05 3.134976326592390783e-01 -6.665348452453926376e-01 1.032362640760008388e-01 6.699432688214203013e-01 2.513678383226696563e-03
-4.984945988501778280e-01 -4.123950711080011100e-01 6.261480985644670705e-01 -1.532324972779930183e+00 1.558264427560545522e-04 3.197268034322309216e-01 -6.641292306692043734e-01 1.200232459366348259e-01 6.868795265342462208e-01 2.642915062968156318e-03
-4.821864527448142534e-01 -4.455088727796155390e-01 6.330125873725425123e-01 -1.497301559834242513e+00 3.058702432409529572e-04 3.261629221072716023e-01 -6.622760334322884690e-01 1.372897761615083090e-01 7.004682589137525284e-01 3.000876009697966799e-03
-4.655331183295188802e-01 -4.785712879257452701e-01 6.407874031494582567e-01 -1.461717433975392444e+00 5.217783634052244011e-04 3.330666883059077432e-01 -6.612483029225949549e-01 1.554963155383142226e-01 7.116825171770000402e-01 4.318162403285427144e-03
-4.484981038960576538e-01 -5.116339173426265319e-01 6.495433635274977524e-01 -1.425649658047991153e+00 9.987768620338456117e-04 0.000000000000000000e+00 0.000000000000000000e+00 0.000000000000000000e+00 0.000000000000000000e+00 0.000000000000000000e+00
-4.484981038960576538e-01 -5.116339173426265319e-01 6.495433635274977524e-01 -1.425649658047991153e+00 9.987768620338456117e-04 0.000000000000000000e+00 0.000000000000000000e+00 0.000000000000000000e+00 0.000000000000000000e+00 0.000000000000000000e+00
-4.484981038960576538e-01 -5.116339173426265319e-01 6.495433635274977524e-01 -1.425649658047991153e+00 9.987768620338456117e-04 0.000000000000000000e+00 0.000000000000000000e+00 0.000000000000000000e+00 0.000000000000000000e+00 0.000000000000000000e+00
-4.484981038960576538e-01 -5.116339173426265319e-01 6.495433635274977524e-01 -1.425649658047991153e+00 9.987768620338456117e-04 0.000000000000000000e+00 0.000000000000000000e+00 0.000000000000000000e+00 0.000000000000000000e+00 0.000000000000000000e+00
-4.484981038960576538e-01 -5.116339173426265319e-01 6.495433635274977524e-01 -1.425649658047991153e+00 9.987768620338456117e-04 0.000000000000000000e+00 0.000000000000000000e+00 0.000000000000000000e+00 0.000000000000000000e+00 0.000000000000000000e+00
-4.484981038960576538e-01 -5.116339173426265319e-01 6.495433635274977524e-01 -1.425649658047991153e+00 9.987768620338456117e-04 0.000000000000000000e+00 0.000000000000000000e+00 0.000000000000000000e+00 0.000000000000000000e+00 0.000000000000000000e+00
-4.484981038960576538e-01 -5.116339173426265319e-01 6.495433635274977524e-01 -1.425649658047991153e+00 9.987768620338456117e-04 0.000000000000000000e+00 0.000000000000000000e+00 0.000000000000000000e+00 0.000000000000000000e+00 0.000000000000000000e+00
-4.484981038960576538e-01 -5.116339173426265319e-01 6.495433635274977524e-01 -1.425649658047991153e+00 9.987768620338456117e-04 0.000000000000000000e+00 0.000000000000000000e+00 0.000000000000000000e+00 0.000000000000000000e+00 0.000000000000000000e+00
-4.484981038960576538e-01 -5.116339173426265319e-01 6.495433635274977524e-01 -1.425649658047991153e+00 9.987768620338456117e-04 0.000000000000000000e+00 0.000000000000000000e+00 0.000000000000000000e+00 0.000000000000000000e+00 0.000000000000000000e+00
-4.484981038960576538e-01 -5.116339173426265319e-01 6.495433635274977524e-01 -1.425649658047991153e+00 9.987768620338456117e-04 0.000000000000000000e+00 0.000000000000000000e+00 0.000000000000000000e+00 0.000000000000000000e+00 0.000000000000000000e+00
-4.484981038960576538e-01 -5.116339173426265319e-01 6.495433635274977524e-01 -1.425649658047991153e+00 9.987768620338456117e-04 0.000000000000000000e+00 0.000000000000000000e+00 0.000000000000000000e+00 0.000000000000000000e+00 0.000000000000000000e+00
-4.484981038960576538e-01 -5.116339173426265319e-01 6.495433635274977524e-01 -1.425649658047991153e+00 9.987768620338456117e-04 0.000000000000000000e+00 0.000000000000000000e+00 0.000000000000000000e+00 0.000000000000000000e+00 0.000000000000000000e+00
-4.484981038960576538e-01 -5.116339173426265319e-01 6.495433635274977524e-01 -1.425649658047991153e+00 9.987768620338456117e-04 0.000000000000000000e+00 0.000000000000000000e+00 0.000000000000000000e+00 0.000000000000000000e+00 0.000000000000000000e+00
-4.484981038960576538e-01 -5.116339173426265319e-01 6.495433635274977524e-01 -1.425649658047991153e+00 9.987768620338456117e-04 0.000000000000000000e+00 0.000000000000000000e+00 0.000000000000000000e+00 0.000000000000000000e+00 0.000000000000000000e+00
-4.484981038960576538e-01 -5.116339173426265319e-01 6.495433635274977524e-01 -1.425649658047991153e+00 9.987768620338456117e-04 0.000000000000000000e+00 0.000000000000000000e+00 0.000000000000000000e+00 0.000000000000000000e+00 0.000000000000000000e+00
