-1.810748411054456941e+00 -3.879292518457811978e-01 -5.154584338998805526e-01 -1.339318851222186968e+00 8.094318149522717861e-04 -1.151616718670183337e+00 -7.173023935014583019e-01 -4.005654358848430574e-01 1.298652361113153741e+00 2.594516333513586809e-03
-1.869820781084060579e+00 -4.229456987576091231e-01 -5.332643028610669633e-01 -1.273663356011158987e+00 8.878340419052331870e-04 -1.181447400592071650e+00 -7.003289382365588400e-01 -3.561173792237279923e-01 1.313109904220561397e+00 1.568044539059227586e-03
-1.930481790535908182e+00 -4.569133777502625282e-01 -5.494948272506992026e-01 -1.207676429392832818e+00 9.150787133434108668e-04 -1.213220189036951391e+00 -6.793535798530678793e-01 -3.246104877926447863e-01 1.319738532366524719e+00 5.448934287635542450e-04
-1.992836370301944493e+00 -4.896747267183645391e-01 -5.647323209164875069e-01 -1.141588649844118120e+00 8.844442870671456259e-04 -1.247091595320725110e+00 -6.552269793620398852e-01 -3.047498733157668616e-01 1.321755590974293515e+00 -6.126885255253056856e-04
-2.056994574241726603e+00 -5.211067327563334572e-01 -5.795179163301037439e-01 -1.075482902694665732e+00 7.597009178346477831e-04 -1.283164078795642205e+00 -6.286401207593783624e-01 -2.957119082723239090e-01 1.322114942989048414e+00 -2.494867384649957723e-03
-2.123068161836214607e+00 -5.511146332776262202e-01 -5.943723673691130305e-01 -1.009300059838653452e+00 3.856696746150197678e-04 0.000000000000000000e+00 0.000000000000000000e+00 0.000000000000000000e+00 0.000000000000000000e+00 0.000000000000000000e+00
-2.123068161836214607e+00 -5.511146332776262202e-01 -5.943723673691130305e-01 -1.009300059838653452e+00 3.856696746150197678e-04 0.000000000000000000e+00 0.000000000000000000e+00 0.000000000000000000e+00 0.000000000000000000e+00 0.000000000000000000e+00
-2.123068161836214607e+00 -5.511146332776262202e-01 -5.943723673691130305e-01 -1.009300059838653452e+00 3.856696746150197678e-04 0.000000000000000000e+00 0.000000000000000000e+00 0.000000000000000000e+00 0.000000000000000000e+00 0.000000000000000000e+00
-2.123068161836214607e+00 -5.511146332776262202e-01 -5.943723673691130305e-01 -1.009300059838653452e+00 3.856696746150197678e-04 0.000000000000000000e+00 0.000000000000000000e+00 0.000000000000000000e+00 0.000000000000000000e+00 0.000000000000000000e+00
-2.123068161836214607e+00 -5.511146332776262202e-01 -5.943723673691130305e-01 -1.009300059838653452e+00 3.856696746150197678e-04 0.000000000000000000e+00 0.000000000000000000e+00 0.000000000000000000e+00 0.000000000000000000e+00 0.000000000000000000e+00
-2.123068161836214607e+00 -5.511146332776262202e-01 -5.943723673691130305e-01 -1.009300059838653452e+00 3.856696746150197678e-04 0.000000000000000000e+00 0.000000000000000000e+00 0.000000000000000000e+00 0.000000000000000000e+00 0.000000000000000000e+00
-2.123068161836214607e+00 -5.511146332776262202e-01 -5.943723673691130305e-01 -1.009300059838653452e+00 3.856696746150197678e-04 0.000000000000000000e+00 0.000000000000000000e+00 0.000000000000000000e+00 0.000000000000000000e+00 0.000000000000000000e+00
-2.123068161836214607e+00 -5.511146332776262202e-01 -5.943723673691130305e-01 -1.009300059838653452e+00 3.856696746150197678e-04 0.000000000000000000e+00 0.000000000000000000e+00 0.000000000000000000e+00 0.000000000000000000e+00 0.000000000000000000e+00
-2.123068161836214607e+00 -5.511146332776262202e-01 -5.943723673691130305e-01 -1.009300059838653452e+00 3.856696746150197678e-04 0.000000000000000000e+00 0.000000000000000000e+00 0.000000000000000000e+00 0.000000000000000000e+00 0.000000000000000000e+00
-2.123068161836214607e+00 -5.511146332776262202e-01 -5.943723673691130305e-01 -1.009300059838653452e+00 3.856696746150197678e-04 0.000000000000000000e+00 0.000000000000000000e+00 0.000000000000000000e+00 0.000000000000000000e+00 0.000000000000000000e+00
-2.123068161836214607e+00 -5.511146332776262202e-01 -5.943723673691130305e-01 -1.009300059838653452e+00 3.856696746150197678e-04 0.000000000000000000e+00 0.000000000000000000e+00 0.000000000000000000e+00 0.000000000000000000e+00 0.000000000000000000e+00
-2.123068161836214607e+00 -5.511146332776262202e-01 -5.943723673691130305e-01 -1.009300059838653452e+00 3.856696746150197678e-04 0.000000000000000000e+00 0.000000000000000000e+00 0.000000000000000000e+00 0.000000000000000000e+00 0.000000000000000000e+00
-2.123068161836214607e+00 -5.511146332776262202e-01 -5.943723673691130305e-01 -1.009300059838653452e+00 3.856696746150197678e-04 0.000000000000000000e+00 0.000000000000000000e+00 0.000000000000000000e+00 0.000000000000000000e+00 0.000000000000000000e+00
-2.123068161836214607e+00 -5.511146332776262202e-01 -5.943723673691130305e-01 -1.009300059838653452e+00 3.856696746150197678e-04 0.000000000000000000e+00 0.000000000000000000e+00 0.000000000000000000e+00 0.000000000000000000e+00 0.000000000000000000e+00
-2.123068161836214607e+00 -5.511146332776262202e-01 -5.943723673691130305e-01 -1.009300059838653452e+00 3.856696746150197678e-04 0.000000000000000000e+00 0.000000000000000000e+00 0.000000000000000000e+00 0.000000000000000000e+00 0.000000000000000000e+00
-2.123068161836214607e+00 -5.511146332776262202e-01 -5.943723673691130305e-01 -1.009300059838653452e+00 3.856696746150197678e-04 0.000000000000000000e+00 0.000000000000000000e+00 0.000000000000000000e+00 0.000000000000000000e+00 0.000000000000000000e+00
-2.123068161836214607e+00 -5.511146332776262202e-01 -5.943723673691130305e-01 -1.009300059838653452e+00 3.856696746150197678e-04 0.000000000000000000e+00 0.000000000000000000e+00 0.000000000000000000e+00 0.000000000000000000e+00 0.000000000000000000e+00
-2.123068161836214607e+00 -5.511146332776262202e-01 -5.943723673691130305e-01 -1.009300059838653452e+00 3.856696746150197678e-04 0.000000000000000000e+00 0.000000000000000000e+00 0.000000000000000000e+00 0.000000000000000000e+00 0.000000000000000000e+00
-2.123068161836214607e+00 -5.511146332776262202e-01 -5.943723673691130305e-01 -1.009300059838653452e+00 3.856696746150197678e-04 0.000000000000000000e+00 0.000000000000000000e+00 0.000000000000000000e+00 0.000000000000000000e+00 0.000000000000000000e+00
-2.123068161836214607e+00 -5.511146332776262202e-01 -5.943723673691130305e-01 -1.009300059838653452e+00 3.856696746150197678e-04 0.000000000000000000e+00 0.000000000000000000e+00 0.000000000000000000e+00 0.000000000000000000e+00 0.000000000000000000e+00
-2.123068161836214607e+00 -5.511146332776262202e-01 -5.943723673691130305e-01 -1.009300059838653452e+00 3.856696746150197678e-04 0.000000000000000000e+00 0.000000000000000000e+00 0.000000000000000000e+00 0.000000000000000000e+00 0.000000000000000000e+00
-2.123068161836214607e+00 -5.511146332776262202e-01 -5.943723673691130305e-01 -1.009300059838653452e+00 3.856696746150197678e-04 0.000000000000000000e+00 0.000000000000000000e+00 0.000000000000000000e+00 0.000000000000000000e+00 0.000000000000000000e+00
-2.123068161836214607e+00 -5.511146332776262202e-01 -5.943723673691130305e-01 -1.009300059838653452e+00 3.856696746150197678e-04 0.000000000000000000e+00 0.000000000000000000e+00 0.000000000000000000e+00 0.000000000000000000e+00 0.000000000000000000e+00
-2.123068161836214607e+00 -5.511146332776262202e-01 -5.943723673691130305e-01 -1.009300059838653452e+00 3.856696746150197678e-04 0.000000000000000000e+00 0.000000000000000000e+00 0.000000000000000000e+00 0.000000000000000000e+00 0.000000000000000000e+00
-2.123068161836214607e+00 -5.511146332776262202e-01 -5.943723673691130305e-01 -1.009300059838653452e+00 3.856696746150197678e-04 0.000000000000000000e+00 0.000000000000000000e+00 0.000000000000000000e+00 0.000000000000000000e+00 0.000000000000000000e+00
-2.123068161836214607e+00 -5.511146332776262202e-01 -5.943723673691130305e-01 -1.009300059838653452e+00 3.856696746150197678e-04 0.000000000000000000e+00 0.000000000000000000e+00 0.000000000000000000e+00 0.000000000000000000e+00 0.000000000000000000e+00
