-8.485450555784078697e-01 1.696117242515707974e-02 9.156920134720941684e-01 -1.130590070547699666e+00 0.000000000000000000e+00 -5.862282956489456992e-04 4.736412427426670187e-05 5.355824551113164134e-04 -3.825409848190941195e-04 0.000000000000000000e+00
-8.525618393358425084e-01 1.240711802820682053e-02 9.168787476994403329e-01 -1.166497547034359261e+00 -1.251353433850128753e-04 -8.033567514869215109e-02 -9.108108793900518418e-02 2.373468454692430341e-02 -7.181495297331937921e-01 -2.502706867700257073e-03
-8.589999156327199348e-01 3.088823872058823680e-03 9.181825827170817522e-01 -1.230320394911935011e+00 -2.697007275329514142e-04 -1.287615259375484156e-01 -1.863658831229599300e-01 2.607670035282785848e-02 -1.276456957551516336e+00 -2.891307682958771212e-03
-8.663612231623133431e-01 -1.118768979768491705e-02 9.179316307848649492e-01 -1.314368105236463080e+00 -4.044247596656037674e-04 -1.472261505918681102e-01 -2.855302733948748006e-01 -5.019038644336382832e-03 -1.680954206490560932e+00 -2.694480642653046196e-03
-8.732434262240343914e-01 -3.054897096369982995e-02 9.144694312032772832e-01 -1.411406681823796472e+00 -5.270058805600647380e-04 -1.376440612344208836e-01 -3.872256233202982512e-01 -6.924399163175358474e-02 -1.940771531746666945e+00 -2.451622417889218978e-03
-8.783838051345781439e-01 -5.501437637751539073e-02 9.065308860023837401e-01 -1.514819531312770140e+00 -6.442389682843270614e-04 -1.028075782108753417e-01 -4.893081082763111045e-01 -1.587709040178711395e-01 -2.068256989779475141e+00 -2.344661754485246469e-03
-8.807008042320688679e-01 -8.447945049109474580e-02 8.934274378952805629e-01 -1.618741754689937418e+00 -7.608569523183320157e-04 -4.633998194981462510e-02 -5.893014822715869627e-01 -2.620689621420630444e-01 -2.078444467543346441e+00 -2.332359680680098218e-03
-8.793130984465938882e-01 -1.187246058647266206e-01 8.751340388629006428e-01 -1.718151510948036753e+00 -8.727838440393405036e-04 2.775411570949944812e-02 -6.849031074726374957e-01 -3.658679806475991225e-01 -1.988195125161987598e+00 -2.238537834420170625e-03
-8.735298957138019071e-01 -1.574447179261495577e-01 8.523271679892014951e-01 -1.808912606207294882e+00 -9.654709418066515034e-04 1.156640546558394544e-01 -7.744022412284586876e-01 -4.561374174739826759e-01 -1.815221905185163687e+00 -1.853741955346220865e-03
-8.628222364363482555e-01 -2.002884201935093977e-01 8.263713489362356501e-01 -1.887781812649782065e+00 -1.020762686896785256e-03 2.141531855490729497e-01 -8.568740453471969110e-01 -5.191163810593177885e-01 -1.577384128849745881e+00 -1.105834901802674186e-03
-8.467900732523848673e-01 -2.468923098895711432e-01 7.992255297591749352e-01 -1.952397464552190431e+00 -1.045511351911875561e-03 3.206432636792679869e-01 -9.320777939212350205e-01 -5.429163835412145200e-01 -1.292313038048167106e+00 -4.949733003018071901e-04
-8.251348699572433887e-01 -2.968953199094574447e-01 7.732453050126721905e-01 -2.001257338158995314e+00 -1.056264385689632259e-03 4.331040659028299600e-01 -1.000060200397725918e+00 -5.196044949300555604e-01 -9.771974721361018634e-01 -2.150606755551359110e-04
-7.976369106177108037e-01 -3.499262179530258643e-01 7.508973909135419067e-01 -2.033679447156703013e+00 -1.058588127005474343e-03 5.499591867906516995e-01 -1.060617960871368615e+00 -4.469582819826064535e-01 -6.484421799541530973e-01 -4.647482631683962171e-05
-7.641322714263505400e-01 -4.055692797273559580e-01 7.344478603263375760e-01 -2.049739650085594889e+00 -1.054133730487594092e-03 6.700927838272041637e-01 -1.112861235486601430e+00 -3.289906117440863920e-01 -3.212040585778376811e-01 8.908793035760658352e-05
-7.244859628944256835e-01 -4.633253295565796237e-01 7.257100337301284343e-01 -2.050178495256838485e+00 -1.044746539440834926e-03 7.929261706384976849e-01 -1.155120996584473092e+00 -1.747565319241833615e-01 -8.776903424872306569e-03 1.877438209351845041e-04
-6.785639304469687216e-01 -5.225886393257094253e-01 7.259173898046220597e-01 -2.036272138850751201e+00 -1.033003018271217441e-03 9.184406489491387937e-01 -1.185266195382595811e+00 4.147121489871979927e-03 2.781271281217444491e-01 2.348704233923500214e-04
-6.262098465343773901e-01 -5.826522252398672608e-01 7.357377985704751655e-01 -2.009666153154442636e+00 -1.020985456498186769e-03 1.047081678251827519e+00 -1.201271718283156043e+00 1.964081753170620337e-01 5.321197139261730769e-01 2.403512354606154996e-04
-5.672359405477563898e-01 -6.427367892073557742e-01 7.553896099512691364e-01 -1.972205516528715119e+00 -1.007712257872205161e-03 1.179478119732419561e+00 -1.201691279349770936e+00 3.930362276158790857e-01 7.492127325145517824e-01 2.654639725196314653e-04
-5.014318920104579025e-01 -7.020303929921796193e-01 7.847937694779056894e-01 -1.925789958940731683e+00 -9.861097872179034815e-04 1.316080970745969081e+00 -1.185872075696476013e+00 5.880831905327307263e-01 9.283111517596676077e-01 4.320494130860325533e-04
-4.285907972320352477e-01 -7.597266690009537582e-01 8.237041256455848171e-01 -1.872268010986458231e+00 -9.513766589325736321e-04 1.456821895568452652e+00 -1.153925520175482333e+00 7.782071233535815535e-01 1.070438959085468600e+00 6.946625657065978558e-04
-3.485484262562517088e-01 -8.150541862948964544e-01 8.717869796769399660e-01 -1.813372251318127182e+00 -9.043413226188848613e-04 1.600847419515670778e+00 -1.106550345878854591e+00 9.616570806271033112e-01 1.177915193366622981e+00 9.407067262737742229e-04
-2.612291036053040472e-01 -8.672959781261513346e-01 9.286486538368408095e-01 -1.750684440826517863e+00 -8.428966658674298673e-04 1.746386453018952567e+00 -1.044835836625096492e+00 1.137233483198017314e+00 1.253756209832187940e+00 1.228893135029099012e-03
-1.666885417717705320e-01 -9.158024984207058239e-01 9.938267157917753947e-01 -1.685607752960666339e+00 -7.616940146481796306e-04 1.890811236670669970e+00 -9.701304058910904526e-01 1.303561239098691926e+00 1.301533757317031581e+00 1.624053024385003650e-03
-6.514182236282393956e-02 -9.600012374832113116e-01 1.066770866145444696e+00 -1.619332407767711590e+00 -6.535401944426868668e-04 2.030934388178931904e+00 -8.839747812501090873e-01 1.458883007073388249e+00 1.325506903859095864e+00 2.163076404109855709e-03
4.303387475551946617e-02 -9.994047682991390458e-01 1.146838534883193761e+00 -1.552794715977090956e+00 -5.110285401971864216e-04 2.163513942366867671e+00 -7.880706163185551283e-01 1.601353374754979964e+00 1.330753835812412467e+00 2.850233084910010206e-03
1.573313143851010620e-01 -1.033618542589726186e+00 1.233329164428746294e+00 -1.486633289402440550e+00 -3.281529514776045618e-04 2.285948792591631307e+00 -6.842754858117433558e-01 1.729812590911051107e+00 1.323228531493010118e+00 3.657511774391637195e-03
2.771838368379320183e-01 -1.062347620455451391e+00 1.325573107071401635e+00 -1.421151915186666947e+00 -1.017137488129386510e-04 2.397050449056619126e+00 -5.745815573145049981e-01 1.844878852853105489e+00 1.309627484315471158e+00 4.528784053293318651e-03
4.020691998954114554e-01 -1.085398467122730581e+00 1.423077768130411425e+00 -1.356302265724902645e+00 1.676283498593464784e-04 2.497707261149588742e+00 -4.610169333455828022e-01 1.950093221180194902e+00 1.296992989235285165e+00 5.386841973445702370e-03
5.316288437001417400e-01 -1.102669229578624233e+00 1.525714311475289131e+00 -1.291700015276431079e+00 4.727899967662361081e-04 2.591192876094605690e+00 -3.454152491178751894e-01 2.052730866897552353e+00 1.292045008969429976e+00 6.103232938137792378e-03
6.657778702597428877e-01 -1.114121561845217379e+00 1.633916767167929551e+00 -1.226677770270996559e+00 7.869003893740011317e-04 2.682980531192023399e+00 -2.290466453318643625e-01 2.164049113852807515e+00 1.300444900108692403e+00 6.282207852155300039e-03
