-5.256777755799610929e-01 1.649623332037489579e-02 5.792889070110979199e-01 -7.917243141087036973e-01 1.023306858896467055e-03 -3.831273593209383321e-02 -3.267165652007825161e-01 -2.394511451686585357e-01 -7.876121437407683779e-01 3.610498163971665635e-04
-5.275156250834159843e-01 -3.077118893971313857e-03 5.697558697536040384e-01 -8.333719857539155784e-01 1.023330494418936811e-03 -3.675699006909683569e-02 -3.914670442869241929e-01 -1.906607451498781580e-01 -8.329534329042367347e-01 4.727104493960953072e-07
-5.291838755086881729e-01 -2.600047457204675283e-02 5.629655361347779552e-01 -8.762641072140582299e-01 1.012443218301792031e-03 -3.336500850544388275e-02 -4.584671135615087656e-01 -1.358066723765216088e-01 -8.578424292028530296e-01 -2.177455223428941000e-04
-5.305664067435515996e-01 -5.234559385007433313e-02 5.590584985918717331e-01 -9.193506896432027675e-01 9.806971320134364161e-04 -2.765062469726742994e-02 -5.269023855605515783e-01 -7.814075085812469124e-02 -8.617316485828913075e-01 -6.349217257671129541e-04
-5.315204193452819359e-01 -8.214456852698025224e-02 5.580760263434947355e-01 -9.615909392860015892e-01 9.171784209567875957e-04 -1.908025203460765595e-02 -5.959794935381182990e-01 -1.964944496754067460e-02 -8.448049928559773214e-01 -1.270374221132976192e-03
-5.318774547263889207e-01 -1.153912730015612120e-01 5.600162576589783336e-01 -1.001988633685529040e+00 8.284823486119704140e-04 -7.140707622139523536e-03 -6.649340894916192513e-01 3.880462630967305288e-02 -8.079538879905494575e-01 -1.773921446896343200e-03
-5.314460574191870457e-01 -1.520433311276221944e-01 5.648785019744545499e-01 -1.039621096865767313e+00 7.253218360501298596e-04 8.627946144036544029e-03 -7.330411625212197579e-01 9.724488630952501933e-02 -7.526492636047638074e-01 -2.063210251236811520e-03
-5.300152345208792859e-01 -1.920244143936304382e-01 5.726953540272865517e-01 -1.073663947997076873e+00 6.183025723419057927e-04 2.861645796615593096e-02 -7.996216653201645430e-01 1.563370410566402857e-01 -6.808570226261905223e-01 -2.140385274164481339e-03
-5.273574287387923221e-01 -2.352263921201037111e-01 5.835508193268829080e-01 -1.103410557532606528e+00 5.165394033065486348e-04 5.315611564173913783e-02 -8.640395545294652369e-01 2.171093059919275148e-01 -5.949321907105913354e-01 -2.035263380707144458e-03
-5.232305130759969947e-01 -2.815111332666724864e-01 5.975863580907752048e-01 -1.128287385484247896e+00 4.271273839553858418e-04 8.253831325590679779e-02 -9.256948229313752829e-01 2.807107752778464360e-01 -4.975365590328262866e-01 -1.788240387023256293e-03
-5.173785444230499797e-01 -3.307118484218036780e-01 6.149978413000770638e-01 -1.147865332100047597e+00 3.553169280927823115e-04 1.170393730589411735e-01 -9.840143031026241660e-01 3.482296641860370134e-01 -3.915589323159942570e-01 -1.436209117252070389e-03
-5.095310262359034059e-01 -3.826347883294299312e-01 6.360303090291260508e-01 -1.161867484405777917e+00 3.045035916993658496e-04 1.569503637429308651e-01 -1.038458798152524620e+00 4.206493545809801282e-01 -2.800430461146055094e-01 -1.016266727868329672e-03
-4.994004731613634895e-01 -4.370611536868782565e-01 6.609741346152477881e-01 -1.170173935013767652e+00 2.762497130400182557e-04 2.026110614907986052e-01 -1.088527307148966283e+00 4.988765117224337464e-01 -1.661290121597942537e-01 -5.650775731869514453e-04
-4.866781055943265044e-01 -4.937490515383077816e-01 6.901639005079535094e-01 -1.172823572088842914e+00 2.705419216769036454e-04 2.544473513407395360e-01 -1.133757957028590280e+00 5.837953178541137600e-01 -5.299274150150556917e-02 -1.141558272622922592e-04
-4.710277785158040187e-01 -5.524351358377045385e-01 7.239802775277144331e-01 -1.170013214572911187e+00 2.865182882971796779e-04 3.130065415704502696e-01 -1.173721685987934471e+00 6.763275403952191400e-01 5.620715031863242339e-02 3.195273324055206490e-04
-4.520785172227794746e-01 -6.128357487530919911e-01 7.628565392251402955e-01 -1.162097309291316494e+00 3.231047756365119971e-04 3.789852258604904933e-01 -1.208012258307749054e+00 7.775252339485172470e-01 1.583181056318956059e-01 7.317297467866460585e-04
-4.294161294059039569e-01 -6.746471696169001886e-01 8.072885901131234831e-01 -1.149590586556624716e+00 3.795242738115124788e-04 4.532477563375102991e-01 -1.236228417276163061e+00 8.886410177596636428e-01 2.501344546938369939e-01 1.128389963500009419e-03
-4.025743211790507314e-01 -7.375449611402425942e-01 8.578458190150139995e-01 -1.133173804145400476e+00 4.557191115911067352e-04 5.368361645370647306e-01 -1.257955830466847447e+00 1.011144578037808994e+00 3.283356482244839114e-01 1.523896755591884478e-03
-3.710253714333122121e-01 -8.011829358170221571e-01 9.151812836865721446e-01 -1.113701821103494805e+00 5.523347538114242250e-04 6.309789949147706078e-01 -1.272759493535591702e+00 1.146709293431162457e+00 3.894396608381125446e-01 1.932312844406349145e-03
-3.341699131531410960e-01 -8.651927714763228972e-01 9.800392975652070238e-01 -1.092211062518453124e+00 6.694834305845701831e-04 7.371091656034219897e-01 -1.280196713186014801e+00 1.297160277572697140e+00 4.298151717008327766e-01 2.342973535462919595e-03
-2.913241369866620412e-01 -9.291860271583014530e-01 1.053260147080499864e+00 -1.069921790940072892e+00 8.009676113469397368e-04 8.569155233295812080e-01 -1.279865113639570451e+00 1.464416990305856148e+00 4.457854315676045842e-01 2.629683615247391942e-03
-2.417023523369666305e-01 -9.927601333713036436e-01 1.135782584772692116e+00 -1.048234199473527140e+00 9.110879070826627662e-04 9.924356929939084360e-01 -1.271482124260044255e+00 1.650448753843845928e+00 4.337518293309147177e-01 2.202405914714461021e-03
-1.843879782512916343e-01 -1.055511059336988966e+00 1.228652823114389392e+00 -1.028714587928168278e+00 8.420407923893454992e-04 1.146287481713499812e+00 -1.255018519313707559e+00 1.857404766833943954e+00 3.903922309071793939e-01 -1.380942293866345340e-03
-1.182786137757293882e-01 -1.117054926669864168e+00 1.333059878197159875e+00 -1.013068286171922239e+00 -5.677877865470208098e-05 0.000000000000000000e+00 0.000000000000000000e+00 0.000000000000000000e+00 0.000000000000000000e+00 0.000000000000000000e+00
-1.182786137757293882e-01 -1.117054926669864168e+00 1.333059878197159875e+00 -1.013068286171922239e+00 -5.677877865470208098e-05 0.000000000000000000e+00 0.000000000000000000e+00 0.000000000000000000e+00 0.000000000000000000e+00 0.000000000000000000e+00
-1.182786137757293882e-01 -1.117054926669864168e+00 1.333059878197159875e+00 -1.013068286171922239e+00 -5.677877865470208098e-05 0.000000000000000000e+00 0.000000000000000000e+00 0.000000000000000000e+00 0.000000000000000000e+00 0.000000000000000000e+00
-1.182786137757293882e-01 -1.117054926669864168e+00 1.333059878197159875e+00 -1.013068286171922239e+00 -5.677877865470208098e-05 0.000000000000000000e+00 0.000000000000000000e+00 0.000000000000000000e+00 0.000000000000000000e+00 0.000000000000000000e+00
-1.182786137757293882e-01 -1.117054926669864168e+00 1.333059878197159875e+00 -1.013068286171922239e+00 -5.677877865470208098e-05 0.000000000000000000e+00 0.000000000000000000e+00 0.000000000000000000e+00 0.000000000000000000e+00 0.000000000000000000e+00
-1.182786137757293882e-01 -1.117054926669864168e+00 1.333059878197159875e+00 -1.013068286171922239e+00 -5.677877865470208098e-05 0.000000000000000000e+00 0.000000000000000000e+00 0.000000000000000000e+00 0.000000000000000000e+00 0.000000000000000000e+00
-1.182786137757293882e-01 -1.117054926669864168e+00 1.333059878197159875e+00 -1.013068286171922239e+00 -5.677877865470208098e-05 0.000000000000000000e+00 0.000000000000000000e+00 0.000000000000000000e+00 0.000000000000000000e+00 0.000000000000000000e+00
-1.182786137757293882e-01 -1.117054926669864168e+00 1.333059878197159875e+00 -1.013068286171922239e+00 -5.677877865470208098e-05 0.000000000000000000e+00 0.000000000000000000e+00 0.000000000000000000e+00 0.000000000000000000e+00 0.000000000000000000e+00
