-6.595776444728549404e-01 -7.641277512804499628e-01 5.985087483172383260e-01 -1.110465701479734779e+00 -4.658872144689799088e-04 2.825401899512245407e-01 -1.133128513848059349e+00 3.826886970368620355e-01 1.196686129221680606e+00 2.291637555934995969e-03
-6.433642606487044446e-01 -8.212643004593653817e-01 6.224689784634530598e-01 -1.047871042990132562e+00 -3.522758846294138683e-04 3.242676764830092484e-01 -1.142730983578307269e+00 4.792046029242947869e-01 1.251893169792046345e+00 2.272226596791320375e-03
-6.248990064303499015e-01 -8.787794660394437907e-01 6.515853175660741847e-01 -9.833344014329800098e-01 -2.515291077128368699e-04 3.693050843670914185e-01 -1.150303311601567513e+00 5.823267820524231642e-01 1.290732831143051040e+00 2.014935538331539752e-03
-6.039413218387406079e-01 -9.365916368541806758e-01 6.863553443430862044e-01 -9.176243019050045469e-01 -2.221567975046078358e-04 4.191536918321853711e-01 -1.156243416294736592e+00 6.954005355402399502e-01 1.314201990559508593e+00 5.874462041645805727e-04
-5.801466222720775834e-01 -9.946345279711144016e-01 7.274976656470137915e-01 -8.514760191188872618e-01 -5.195615362258807369e-04 0.000000000000000000e+00 0.000000000000000000e+00 0.000000000000000000e+00 0.000000000000000000e+00 0.000000000000000000e+00
-5.801466222720775834e-01 -9.946345279711144016e-01 7.274976656470137915e-01 -8.514760191188872618e-01 -5.195615362258807369e-04 0.000000000000000000e+00 0.000000000000000000e+00 0.000000000000000000e+00 0.000000000000000000e+00 0.000000000000000000e+00
-5.801466222720775834e-01 -9.946345279711144016e-01 7.274976656470137915e-01 -8.514760191188872618e-01 -5.195615362258807369e-04 0.000000000000000000e+00 0.000000000000000000e+00 0.000000000000000000e+00 0.000000000000000000e+00 0.000000000000000000e+00
-5.801466222720775834e-01 -9.946345279711144016e-01 7.274976656470137915e-01 -8.514760191188872618e-01 -5.195615362258807369e-04 0.000000000000000000e+00 0.000000000000000000e+00 0.000000000000000000e+00 0.000000000000000000e+00 0.000000000000000000e+00
-5.801466222720775834e-01 -9.946345279711144016e-01 7.274976656470137915e-01 -8.514760191188872618e-01 -5.195615362258807369e-04 0.000000000000000000e+00 0.000000000000000000e+00 0.000000000000000000e+00 0.000000000000000000e+00 0.000000000000000000e+00
-5.801466222720775834e-01 -9.946345279711144016e-01 7.274976656470137915e-01 -8.514760191188872618e-01 -5.195615362258807369e-04 0.000000000000000000e+00 0.000000000000000000e+00 0.000000000000000000e+00 0.000000000000000000e+00 0.000000000000000000e+00
-5.801466222720775834e-01 -9.946345279711144016e-01 7.274976656470137915e-01 -8.514760191188872618e-01 -5.195615362258807369e-04 0.000000000000000000e+00 0.000000000000000000e+00 0.000000000000000000e+00 0.000000000000000000e+00 0.000000000000000000e+00
-5.801466222720775834e-01 -9.946345279711144016e-01 7.274976656470137915e-01 -8.514760191188872618e-01 -5.195615362258807369e-04 0.000000000000000000e+00 0.000000000000000000e+00 0.000000000000000000e+00 0.000000000000000000e+00 0.000000000000000000e+00
-5.801466222720775834e-01 -9.946345279711144016e-01 7.274976656470137915e-01 -8.514760191188872618e-01 -5.195615362258807369e-04 0.000000000000000000e+00 0.000000000000000000e+00 0.000000000000000000e+00 0.000000000000000000e+00 0.000000000000000000e+00
-5.801466222720775834e-01 -9.946345279711144016e-01 7.274976656470137915e-01 -8.514760191188872618e-01 -5.195615362258807369e-04 0.000000000000000000e+00 0.000000000000000000e+00 0.000000000000000000e+00 0.000000000000000000e+00 0.000000000000000000e+00
-5.801466222720775834e-01 -9.946345279711144016e-01 7.274976656470137915e-01 -8.514760191188872618e-01 -5.195615362258807369e-04 0.000000000000000000e+00 0.000000000000000000e+00 0.000000000000000000e+00 0.000000000000000000e+00 0.000000000000000000e+00
-5.801466222720775834e-01 -9.946345279711144016e-01 7.274976656470137915e-01 -8.514760191188872618e-01 -5.195615362258807369e-04 0.000000000000000000e+00 0.000000000000000000e+00 0.000000000000000000e+00 0.000000000000000000e+00 0.000000000000000000e+00
-5.801466222720775834e-01 -9.946345279711144016e-01 7.274976656470137915e-01 -8.514760191188872618e-01 -5.195615362258807369e-04 0.000000000000000000e+00 0.000000000000000000e+00 0.000000000000000000e+00 0.000000000000000000e+00 0.000000000000000000e+00
-5.801466222720775834e-01 -9.946345279711144016e-01 7.274976656470137915e-01 -8.514760191188872618e-01 -5.195615362258807369e-04 0.000000000000000000e+00 0.000000000000000000e+00 0.000000000000000000e+00 0.000000000000000000e+00 0.000000000000000000e+00
-5.801466222720775834e-01 -9.946345279711144016e-01 7.274976656470137915e-01 -8.514760191188872618e-01 -5.195615362258807369e-04 0.000000000000000000e+00 0.000000000000000000e+00 0.000000000000000000e+00 0.000000000000000000e+00 0.000000000000000000e+00
-5.801466222720775834e-01 -9.946345279711144016e-01 7.274976656470137915e-01 -8.514760191188872618e-01 -5.195615362258807369e-04 0.000000000000000000e+00 0.000000000000000000e+00 0.000000000000000000e+00 0.000000000000000000e+00 0.000000000000000000e+00
-5.801466222720775834e-01 -9.946345279711144016e-01 7.274976656470137915e-01 -8.514760191188872618e-01 -5.195615362258807369e-04 0.000000000000000000e+00 0.000000000000000000e+00 0.000000000000000000e+00 0.000000000000000000e+00 0.000000000000000000e+00
-5.801466222720775834e-01 -9.946345279711144016e-01 7.274976656470137915e-01 -8.514760191188872618e-01 -5.195615362258807369e-04 0.000000000000000000e+00 0.000000000000000000e+00 0.000000000000000000e+00 0.000000000000000000e+00 0.000000000000000000e+00
-5.801466222720775834e-01 -9.946345279711144016e-01 7.274976656470137915e-01 -8.514760191188872618e-01 -5.195615362258807369e-04 0.000000000000000000e+00 0.000000000000000000e+00 0.000000000000000000e+00 0.000000000000000000e+00 0.000000000000000000e+00
-5.801466222720775834e-01 -9.946345279711144016e-01 7.274976656470137915e-01 -8.514760191188872618e-01 -5.195615362258807369e-04 0.000000000000000000e+00 0.000000000000000000e+00 0.000000000000000000e+00 0.000000000000000000e+00 0.000000000000000000e+00
-5.801466222720775834e-01 -9.946345279711144016e-01 7.274976656470137915e-01 -8.514760191188872618e-01 -5.195615362258807369e-04 0.000000000000000000e+00 0.000000000000000000e+00 0.000000000000000000e+00 0.000000000000000000e+00 0.000000000000000000e+00
-5.801466222720775834e-01 -9.946345279711144016e-01 7.274976656470137915e-01 -8.514760191188872618e-01 -5.195615362258807369e-04 0.000000000000000000e+00 0.000000000000000000e+00 0.000000000000000000e+00 0.000000000000000000e+00 0.000000000000000000e+00
-5.801466222720775834e-01 -9.946345279711144016e-01 7.274976656470137915e-01 -8.514760191188872618e-01 -5.195615362258807369e-04 0.000000000000000000e+00 0.000000000000000000e+00 0.000000000000000000e+00 0.000000000000000000e+00 0.000000000000000000e+00
-5.801466222720775834e-01 -9.946345279711144016e-01 7.274976656470137915e-01 -8.514760191188872618e-01 -5.195615362258807369e-04 0.000000000000000000e+00 0.000000000000000000e+00 0.000000000000000000e+00 0.000000000000000000e+00 0.000000000000000000e+00
-5.801466222720775834e-01 -9.946345279711144016e-01 7.274976656470137915e-01 -8.514760191188872618e-01 -5.195615362258807369e-04 0.000000000000000000e+00 0.000000000000000000e+00 0.000000000000000000e+00 0.000000000000000000e+00 0.000000000000000000e+00
-5.801466222720775834e-01 -9.946345279711144016e-01 7.274976656470137915e-01 -8.514760191188872618e-01 -5.195615362258807369e-04 0.000000000000000000e+00 0.000000000000000000e+00 0.000000000000000000e+00 0.000000000000000000e+00 0.000000000000000000e+00
-5.801466222720775834e-01 -9.946345279711144016e-01 7.274976656470137915e-01 -8.514760191188872618e-01 -5.195615362258807369e-04 0.000000000000000000e+00 0.000000000000000000e+00 0.000000000000000000e+00 0.000000000000000000e+00 0.000000000000000000e+00
