-9.674036633994385070e-01 -5.369891449394326166e-01 6.245576474415623913e-01 -1.368939923719852958e+00 1.338747731078694702e-04 -6.759346979012581524e-01 -7.791036711600688447e-01 -2.080179722274470677e+00 -2.154679019854314426e+00 -9.552755274444114583e-03
-9.978046017552862912e-01 -5.825681461794851579e-01 5.238260803931789056e-01 -1.456030678958806224e+00 -3.280050123967466350e-04 -6.080187671169546837e-01 -9.115800248010504925e-01 -2.014631340967668383e+00 -1.741815104779063983e+00 -9.237595710092321236e-03
-1.025014304526283393e+00 -6.343420591699219235e-01 4.265558746121920763e-01 -1.521894382506494114e+00 -6.976047285530494841e-04 -5.441940554199418134e-01 -1.035478259808735535e+00 -1.945404115619736141e+00 -1.317274070953759368e+00 -7.391994323126056116e-03
-1.049187465092900728e+00 -6.919407692074971417e-01 3.338540677496543152e-01 -1.566787512429122176e+00 -9.282427994851071527e-04 -4.834632113323458769e-01 -1.151974200751504362e+00 -1.854036137250755223e+00 -8.978625984525600012e-01 -4.612761418641152938e-03
-1.070480066116633822e+00 -7.550363734673121163e-01 2.471423088023952941e-01 -1.591619218294122007e+00 -1.002405737095871802e-03 -4.258520204746598647e-01 -1.261912085196299049e+00 -1.734235178945180422e+00 -4.966341172999956255e-01 -1.483258752215295146e-03
-1.089056167293827704e+00 -8.232959759414646417e-01 1.676822484766972710e-01 -1.597770665856441896e+00 -9.300838938167957023e-04 -3.715220235438784768e-01 -1.365192049483050951e+00 -1.589201206513960241e+00 -1.230289512463998425e-01 1.446436865581522419e-03
-1.105059959322662877e+00 -8.963414556698768854e-01 9.628786448787322871e-02 -1.586908997219703688e+00 -7.354748849225650883e-04 -3.200758405767022419e-01 -1.460909594568243985e+00 -1.427887679776480789e+00 2.172333727347655064e-01 3.892180177884610980e-03
-1.118570553613273066e+00 -9.737356449425020877e-01 3.323464528762416770e-02 -1.560808338709752441e+00 -4.566668670997536469e-04 -2.702118858122040668e-01 -1.547883785452505156e+00 -1.261064384004981109e+00 5.220131701990253781e-01 5.576160356456227526e-03
-1.129557964148880878e+00 -1.054993247100348031e+00 -2.167587276340198627e-02 -1.521206853844845774e+00 -1.361384996565515428e-04 -2.197482107121564165e-01 -1.625152043156918413e+00 -1.098210361020522940e+00 7.920296972981309969e-01 6.410567348864041649e-03
-1.137853745176079290e+00 -1.139604717330955141e+00 -6.896557529605393255e-02 -1.469717522698257506e+00 1.861017432496668762e-04 -1.659156205439675791e-01 -1.692229404612143995e+00 -9.457940506530391200e-01 1.029786622931763596e+00 6.444804858124368596e-03
-1.143149032043841107e+00 -1.227061529080311963e+00 -1.093128715599781392e-01 -1.407791796574983545e+00 4.768568737550365338e-04 -1.059057373552374920e-01 -1.749136234987136218e+00 -8.069459252784839665e-01 1.238514522465479883e+00 5.815102610107392503e-03
-1.145042169173394742e+00 -1.316877598833158913e+00 -1.434301524769989733e-01 -1.336716001242877372e+00 7.121761150588627395e-04 -3.786274259107388906e-02 -1.796321395056939663e+00 -6.823456183404167374e-01 1.421515906642121241e+00 4.706384826076522379e-03
-1.143167621228330377e+00 -1.408607672609509143e+00 -1.720374955413692952e-01 -1.257613648040809995e+00 8.786669569188190927e-04 3.749095890128592568e-02 -1.834601475527005032e+00 -5.721468612874062165e-01 1.582047064041346207e+00 3.329816837199126630e-03
-1.137421283559248986e+00 -1.501860428239647716e+00 -1.959729781668161919e-01 -1.171452165907095333e+00 9.735222856624514785e-04 1.149267533816285408e-01 -1.865055112602773235e+00 -4.787096525089375998e-01 1.723229642674291018e+00 1.897106574872648582e-03
-1.128190961994783637e+00 -1.596304976181143420e+00 -2.163883615215264344e-01 -1.079054146514866419e+00 1.001506084800164818e-03 1.846064312893082593e-01 -1.888890958829912092e+00 -4.083076670942047404e-01 1.847960387844578500e+00 5.596759827542683013e-04
-1.116391423233311420e+00 -1.691658794432605584e+00 -2.348719351685899792e-01 -9.811429110962346378e-01 9.685151685577008708e-04 2.359907752294460037e-01 -1.907076365029242160e+00 -3.696714729412710621e-01 1.958224708372635181e+00 -6.598183248492791534e-04
-1.103167499958906284e+00 -1.787658237896351920e+00 -2.533135028969368263e-01 -8.784183891032425473e-01 8.529857818366606316e-04 2.644784654881035535e-01 -1.919988869274925847e+00 -3.688313545669368310e-01 2.054490439859840922e+00 -2.310587734420803049e-03
-1.089488101826511013e+00 -1.884025731108651902e+00 -2.736357268375350094e-01 -7.716171609539398402e-01 7.135319681975630258e-04 2.735879626479055804e-01 -1.927349864245998301e+00 -4.064444788119631613e-01 2.136024562986053255e+00 -2.789076272781950815e-03
-1.075956129105885450e+00 -1.980443669173746812e+00 -2.976845600262948976e-01 -6.615346590996289411e-01 6.397044224635068310e-04 2.706394544125113599e-01 -1.928358761301899316e+00 -4.809766637751979879e-01 2.201650037086217537e+00 -1.476550914681123029e-03
-1.062865434779019402e+00 -2.076531469781727868e+00 -3.273710040144948152e-01 -5.490203492165417476e-01 9.999710272410662799e-04 0.000000000000000000e+00 0.000000000000000000e+00 0.000000000000000000e+00 0.000000000000000000e+00 0.000000000000000000e+00
-1.062865434779019402e+00 -2.076531469781727868e+00 -3.273710040144948152e-01 -5.490203492165417476e-01 9.999710272410662799e-04 0.000000000000000000e+00 0.000000000000000000e+00 0.000000000000000000e+00 0.000000000000000000e+00 0.000000000000000000e+00
-1.062865434779019402e+00 -2.076531469781727868e+00 -3.273710040144948152e-01 -5.490203492165417476e-01 9.999710272410662799e-04 0.000000000000000000e+00 0.000000000000000000e+00 0.000000000000000000e+00 0.000000000000000000e+00 0.000000000000000000e+00
-1.062865434779019402e+00 -2.076531469781727868e+00 -3.273710040144948152e-01 -5.490203492165417476e-01 9.999710272410662799e-04 0.000000000000000000e+00 0.000000000000000000e+00 0.000000000000000000e+00 0.000000000000000000e+00 0.000000000000000000e+00
-1.062865434779019402e+00 -2.076531469781727868e+00 -3.273710040144948152e-01 -5.490203492165417476e-01 9.999710272410662799e-04 0.000000000000000000e+00 0.000000000000000000e+00 0.000000000000000000e+00 0.000000000000000000e+00 0.000000000000000000e+00
-1.062865434779019402e+00 -2.076531469781727868e+00 -3.273710040144948152e-01 -5.490203492165417476e-01 9.999710272410662799e-04 0.000000000000000000e+00 0.000000000000000000e+00 0.000000000000000000e+00 0.000000000000000000e+00 0.000000000000000000e+00
-1.062865434779019402e+00 -2.076531469781727868e+00 -3.273710040144948152e-01 -5.490203492165417476e-01 9.999710272410662799e-04 0.000000000000000000e+00 0.000000000000000000e+00 0.000000000000000000e+00 0.000000000000000000e+00 0.000000000000000000e+00
-1.062865434779019402e+00 -2.076531469781727868e+00 -3.273710040144948152e-01 -5.490203492165417476e-01 9.999710272410662799e-04 0.000000000000000000e+00 0.000000000000000000e+00 0.000000000000000000e+00 0.000000000000000000e+00 0.000000000000000000e+00
-1.062865434779019402e+00 -2.076531469781727868e+00 -3.273710040144948152e-01 -5.490203492165417476e-01 9.999710272410662799e-04 0.000000000000000000e+00 0.000000000000000000e+00 0.000000000000000000e+00 0.000000000000000000e+00 0.000000000000000000e+00
-1.062865434779019402e+00 -2.076531469781727868e+00 -3.273710040144948152e-01 -5.490203492165417476e-01 9.999710272410662799e-04 0.000000000000000000e+00 0.000000000000000000e+00 0.000000000000000000e+00 0.000000000000000000e+00 0.000000000000000000e+00
-1.062865434779019402e+00 -2.076531469781727868e+00 -3.273710040144948152e-01 -5.490203492165417476e-01 9.999710272410662799e-04 0.000000000000000000e+00 0.000000000000000000e+00 0.000000000000000000e+00 0.000000000000000000e+00 0.000000000000000000e+00
-1.062865434779019402e+00 -2.076531469781727868e+00 -3.273710040144948152e-01 -5.490203492165417476e-01 9.999710272410662799e-04 0.000000000000000000e+00 0.000000000000000000e+00 0.000000000000000000e+00 0.000000000000000000e+00 0.000000000000000000e+00
