-4.981713109897377145e-01 2.373049375443838649e-01 5.175966415339391391e-01 -7.390745035393486706e-01 4.177209178573174997e-04 -1.736716179141105099e-01 -8.756455221379223774e-02 -5.992243994734268442e-02 -9.567936862737366210e-01 5.087808973742950075e-03
-5.101992345739104762e-01 2.295764386077404073e-01 5.138034141604440608e-01 -8.046051913906777653e-01 6.831602611101729103e-04 -2.405584716834550107e-01 -1.545699787328692343e-01 -7.586454746990101139e-02 -1.310613757026582116e+00 5.308786865057107777e-03
-5.249890317245722304e-01 2.177498121950312004e-01 5.092219842272265318e-01 -8.837985723692370899e-01 8.941303368748207154e-04 -2.957959430132360845e-01 -2.365325282541843877e-01 -9.162859866434971967e-02 -1.583867619571186935e+00 4.219401515292956970e-03
-5.419921206730182739e-01 2.011713127192204242e-01 5.034347826584800734e-01 -9.727724280421728986e-01 1.011945651956441296e-03 -3.400617789689198145e-01 -3.315699895162154687e-01 -1.157440313749295152e-01 -1.779477113458715953e+00 2.356306301632409873e-03
-5.606761008134963920e-01 1.793208115742190578e-01 4.956895491605612936e-01 -1.067834617615215809e+00 1.038460317234112191e-03 -3.736796028095628608e-01 -4.370100229000271619e-01 -1.549046699583751796e-01 -1.901243791460857091e+00 5.302933055534181112e-04
-5.805220609043028057e-01 1.518303057516813270e-01 4.850707523078981454e-01 -1.165518685377066266e+00 9.996721214636935474e-04 -3.969192018161272761e-01 -5.498101164507546157e-01 -2.123759370532626867e-01 -1.953681355237009809e+00 -7.757639154083745964e-04
-6.010368343750618347e-01 1.184853023166473063e-01 4.706868672385440822e-01 -1.262609457950509162e+00 8.588578357821752187e-04 -4.102954694151798587e-01 -6.669000687006803041e-01 -2.876777013870808752e-01 -1.941815451468858145e+00 -2.816285713630366141e-03
-6.217725413847109417e-01 7.921387212954342227e-02 4.518337264511635976e-01 -1.356164199934609238e+00 6.251736236019932039e-04 -4.147141401929817506e-01 -7.854286037420775690e-01 -3.770628157476098030e-01 -1.871094839682001743e+00 -4.673684243603639862e-03
-6.423449824796292340e-01 3.406626922088245440e-02 4.281196846311244864e-01 -1.443534402095947300e+00 3.243343970519362669e-04 -4.114488218983663459e-01 -9.029520581732192186e-01 -4.742808364007822242e-01 -1.747404043226759240e+00 -6.016784531001137873e-03
-6.624463285570924009e-01 -1.681068451664179120e-02 3.995446643520912944e-01 -1.522394592685340831e+00 -1.019734624570299130e-05 -4.020269215492622839e-01 -1.017539074750484884e+00 -5.715004055806636174e-01 -1.577203811787872612e+00 -6.690634865952784296e-03
-6.818512649504024914e-01 -7.320142828200365548e-02 3.665284139689622966e-01 -1.590775159360031887e+00 -3.415132705015490517e-04 -3.880987278662011986e-01 -1.127814875307237452e+00 -6.603250076625803988e-01 -1.367611333493822023e+00 -6.626318485116920558e-03
-7.004183627615161445e-01 -1.348472764253300094e-01 3.298819671496467376e-01 -1.647094499431539516e+00 -6.333763464167170912e-04 -3.713419562222734505e-01 -1.232916962866527300e+00 -7.329289363863111806e-01 -1.126386801430151463e+00 -5.837261518303360139e-03
-7.180885746084014754e-01 -2.014644594053852100e-01 2.907175889609574515e-01 -1.690184434453295248e+00 -8.550125903822515961e-04 -3.534042369377062842e-01 -1.332343659601104235e+00 -7.832875637737856112e-01 -8.617987004351130853e-01 -4.432724879310688364e-03
-7.348813765142193644e-01 -2.727513166821001755e-01 2.503050662817312699e-01 -1.719302270165370627e+00 -9.870648484697937264e-04 -3.358560381163584463e-01 -1.425737145534298644e+00 -8.082504535845232985e-01 -5.823567142415077003e-01 -2.641045161750845208e-03
-7.508869916378178022e-01 -3.483869694892199331e-01 2.099004876066597747e-01 -1.734117761268862967e+00 -1.030964269102885474e-03 -3.201123024719688126e-01 -1.512713056142395374e+00 -8.080915735014297940e-01 -2.963098220698447416e-01 -8.779884126618338596e-04
-7.662541010804478914e-01 -4.280267405676107528e-01 1.705846664165823479e-01 -1.734672066441449223e+00 -1.035586041109171421e-03 -3.073421888526016166e-01 -1.592795421567816172e+00 -7.863164238015483143e-01 -1.108610345172322820e-02 -9.243544012571883444e-05
-7.811745049750660197e-01 -5.112998248196546358e-01 1.331447669254859634e-01 -1.721315303372325634e+00 -1.025015232067479597e-03 -2.984080778923624555e-01 -1.665461685040878326e+00 -7.487979898219278008e-01 2.671352613824714561e-01 2.114161808338383243e-04
-7.958677534561975353e-01 -5.978116977886912542e-01 9.801769286361922129e-02 -1.694639403660597621e+00 -9.950255040181341624e-04 -2.938649696226303121e-01 -1.730237459380731257e+00 -7.025414812373349527e-01 5.335179942345605886e-01 5.997945609869081421e-04
-8.105683015075308973e-01 -6.871515509851887638e-01 6.529149829989078224e-02 -1.655418628570928474e+00 -9.184599843897183358e-04 -2.940109610266682938e-01 -1.786797063929950635e+00 -6.545238912745687809e-01 7.844155017933841512e-01 1.531310392568316749e-03
-8.255164527148126652e-01 -7.789011985088483137e-01 3.474677019818660229e-02 -1.604571265079002274e+00 -8.077316192236473017e-04 -2.989630241456344151e-01 -1.834992950473189888e+00 -6.108945620340835436e-01 1.016947269838521795e+00 2.214567303321419815e-03
-8.409510339181127669e-01 -8.726421604125578213e-01 5.918604142326863021e-03 -1.543148347080793403e+00 -6.764709457397191563e-04 -3.086916240660022015e-01 -1.874819238074190375e+00 -5.765633211171947714e-01 1.228458359964178070e+00 2.625213469678562908e-03
-8.570958162871925579e-01 -9.679719238399103753e-01 -2.183947775180443765e-02 -1.472266868552867702e+00 -5.360971721171394703e-04 -3.228956473815966510e-01 -1.906595268547050859e+00 -5.551616378826259579e-01 1.417629570558512908e+00 2.807475472451592419e-03
-8.741384516380498182e-01 -1.064517743655196025e+00 -4.930003960778068378e-02 -1.393042562604204226e+00 -3.950448029327367316e-04 -3.408527070171442630e-01 -1.930916396305714988e+00 -5.492112371195247977e-01 1.584486118973269075e+00 2.821047383688054556e-03
-8.921977318220830622e-01 -1.161940979675592178e+00 -7.731960827369623035e-02 -1.306557186339771581e+00 -2.603443809334343457e-04 -3.611856036806646575e-01 -1.948464720407921957e+00 -5.603913733183109036e-01 1.729707525288653791e+00 2.694008439986047068e-03
-9.112764573048789396e-01 -1.259933479093478637e+00 -1.068094585759376824e-01 -1.213852420698739998e+00 -1.398361529923388032e-04 -3.815745096559171601e-01 -1.959849988357730277e+00 -5.897970060448290974e-01 1.854095312820630337e+00 2.410164558821910850e-03
-9.312154155802454536e-01 -1.358208542383365192e+00 -1.387269966663753074e-01 -1.115941545503273513e+00 -4.177778762907413397e-05 -3.987791655073300023e-01 -1.965501265797730213e+00 -6.383507618087524982e-01 1.958217503909329915e+00 1.961167307265293709e-03
-9.517062046256694607e-01 -1.456489129747185363e+00 -1.741332344140419375e-01 -1.013827588328214846e+00 4.042329655539799794e-05 -4.098157809084808645e-01 -1.965611747276403642e+00 -7.081247549533327135e-01 2.042279143501173344e+00 1.644021683689442584e-03
-9.724619857373157927e-01 -1.554492744145569150e+00 -2.144249691757678655e-01 -9.085164151940298138e-01 2.080151025668285449e-04 -4.151156222329256962e-01 -1.960072287967675297e+00 -8.058346952345184500e-01 2.106223462683701086e+00 3.351836120228610452e-03
-9.935708602880474194e-01 -1.651903297898078549e+00 -2.618475569637369604e-01 -8.010303798724013324e-01 1.000466176164269139e-03 0.000000000000000000e+00 0.000000000000000000e+00 0.000000000000000000e+00 0.000000000000000000e+00 0.000000000000000000e+00
-9.935708602880474194e-01 -1.651903297898078549e+00 -2.618475569637369604e-01 -8.010303798724013324e-01 1.000466176164269139e-03 0.000000000000000000e+00 0.000000000000000000e+00 0.000000000000000000e+00 0.000000000000000000e+00 0.000000000000000000e+00
-9.935708602880474194e-01 -1.651903297898078549e+00 -2.618475569637369604e-01 -8.010303798724013324e-01 1.000466176164269139e-03 0.000000000000000000e+00 0.000000000000000000e+00 0.000000000000000000e+00 0.000000000000000000e+00 0.000000000000000000e+00
