-4.063489274841392551e-01 -6.840534100672214235e-01 5.125868283855452567e-01 -1.197586489014598632e+00 8.969402041469058022e-04 9.266280431215710711e-02 -3.760727230401955667e-01 4.241514333409292931e-02 4.706688829960141152e-01 1.105231860572940088e-03
-4.013311836591599291e-01 -7.030909859818661456e-01 5.158210281990742718e-01 -1.173452394795351461e+00 9.461253404957932619e-04 1.003548764995861181e-01 -3.807515182928953301e-01 6.468399627058127321e-02 4.826818843849434715e-01 9.837027269777481094e-04
-3.960025792916327947e-01 -7.223024485703755104e-01 5.199457544915551122e-01 -1.148871359826406424e+00 9.741282241677456672e-04 1.065720873505430627e-01 -3.842292517701872412e-01 8.249452584961611268e-02 4.916206993789000168e-01 5.600576734390481058e-04
-3.904351309497293698e-01 -7.416359238174076163e-01 5.247374072189106009e-01 -1.123959839806005778e+00 9.230585443926131667e-04 0.000000000000000000e+00 0.000000000000000000e+00 0.000000000000000000e+00 0.000000000000000000e+00 0.000000000000000000e+00
-3.904351309497293698e-01 -7.416359238174076163e-01 5.247374072189106009e-01 -1.123959839806005778e+00 9.230585443926131667e-04 0.000000000000000000e+00 0.000000000000000000e+00 0.000000000000000000e+00 0.000000000000000000e+00 0.000000000000000000e+00
-3.904351309497293698e-01 -7.416359238174076163e-01 5.247374072189106009e-01 -1.123959839806005778e+00 9.230585443926131667e-04 0.000000000000000000e+00 0.000000000000000000e+00 0.000000000000000000e+00 0.000000000000000000e+00 0.000000000000000000e+00
-3.904351309497293698e-01 -7.416359238174076163e-01 5.247374072189106009e-01 -1.123959839806005778e+00 9.230585443926131667e-04 0.000000000000000000e+00 0.000000000000000000e+00 0.000000000000000000e+00 0.000000000000000000e+00 0.000000000000000000e+00
-3.904351309497293698e-01 -7.416359238174076163e-01 5.247374072189106009e-01 -1.123959839806005778e+00 9.230585443926131667e-04 0.000000000000000000e+00 0.000000000000000000e+00 0.000000000000000000e+00 0.000000000000000000e+00 0.000000000000000000e+00
-3.904351309497293698e-01 -7.416359238174076163e-01 5.247374072189106009e-01 -1.123959839806005778e+00 9.230585443926131667e-04 0.000000000000000000e+00 0.000000000000000000e+00 0.000000000000000000e+00 0.000000000000000000e+00 0.000000000000000000e+00
-3.904351309497293698e-01 -7.416359238174076163e-01 5.247374072189106009e-01 -1.123959839806005778e+00 9.230585443926131667e-04 0.000000000000000000e+00 0.000000000000000000e+00 0.000000000000000000e+00 0.000000000000000000e+00 0.000000000000000000e+00
-3.904351309497293698e-01 -7.416359238174076163e-01 5.247374072189106009e-01 -1.123959839806005778e+00 9.230585443926131667e-04 0.000000000000000000e+00 0.000000000000000000e+00 0.000000000000000000e+00 0.000000000000000000e+00 0.000000000000000000e+00
-3.904351309497293698e-01 -7.416359238174076163e-01 5.247374072189106009e-01 -1.123959839806005778e+00 9.230585443926131667e-04 0.000000000000000000e+00 0.000000000000000000e+00 0.000000000000000000e+00 0.000000000000000000e+00 0.000000000000000000e+00
-3.904351309497293698e-01 -7.416359238174076163e-01 5.247374072189106009e-01 -1.123959839806005778e+00 9.230585443926131667e-04 0.000000000000000000e+00 0.000000000000000000e+00 0.000000000000000000e+00 0.000000000000000000e+00 0.000000000000000000e+00
-3.904351309497293698e-01 -7.416359238174076163e-01 5.247374072189106009e-01 -1.123959839806005778e+00 9.230585443926131667e-04 0.000000000000000000e+00 0.000000000000000000e+00 0.000000000000000000e+00 0.000000000000000000e+00 0.000000000000000000e+00
-3.904351309497293698e-01 -7.416359238174076163e-01 5.247374072189106009e-01 -1.123959839806005778e+00 9.230585443926131667e-04 0.000000000000000000e+00 0.000000000000000000e+00 0.000000000000000000e+00 0.000000000000000000e+00 0.000000000000000000e+00
-3.904351309497293698e-01 -7.416359238174076163e-01 5.247374072189106009e-01 -1.123959839806005778e+00 9.230585443926131667e-04 0.000000000000000000e+00 0.000000000000000000e+00 0.000000000000000000e+00 0.000000000000000000e+00 0.000000000000000000e+00
-3.904351309497293698e-01 -7.416359238174076163e-01 5.247374072189106009e-01 -1.123959839806005778e+00 9.230585443926131667e-04 0.000000000000000000e+00 0.000000000000000000e+00 0.000000000000000000e+00 0.000000000000000000e+00 0.000000000000000000e+00
-3.904351309497293698e-01 -7.416359238174076163e-01 5.247374072189106009e-01 -1.123959839806005778e+00 9.230585443926131667e-04 0.000000000000000000e+00 0.000000000000000000e+00 0.000000000000000000e+00 0.000000000000000000e+00 0.000000000000000000e+00
-3.904351309497293698e-01 -7.416359238174076163e-01 5.247374072189106009e-01 -1.123959839806005778e+00 9.230585443926131667e-04 0.000000000000000000e+00 0.000000000000000000e+00 0.000000000000000000e+00 0.000000000000000000e+00 0.000000000000000000e+00
-3.904351309497293698e-01 -7.416359238174076163e-01 5.247374072189106009e-01 -1.123959839806005778e+00 9.230585443926131667e-04 0.000000000000000000e+00 0.000000000000000000e+00 0.000000000000000000e+00 0.000000000000000000e+00 0.000000000000000000e+00
-3.904351309497293698e-01 -7.416359238174076163e-01 5.247374072189106009e-01 -1.123959839806005778e+00 9.230585443926131667e-04 0.000000000000000000e+00 0.000000000000000000e+00 0.000000000000000000e+00 0.000000000000000000e+00 0.000000000000000000e+00
-3.904351309497293698e-01 -7.416359238174076163e-01 5.247374072189106009e-01 -1.123959839806005778e+00 9.230585443926131667e-04 0.000000000000000000e+00 0.000000000000000000e+00 0.000000000000000000e+00 0.000000000000000000e+00 0.000000000000000000e+00
-3.904351309497293698e-01 -7.416359238174076163e-01 5.247374072189106009e-01 -1.123959839806005778e+00 9.230585443926131667e-04 0.000000000000000000e+00 0.000000000000000000e+00 0.000000000000000000e+00 0.000000000000000000e+00 0.000000000000000000e+00
-3.904351309497293698e-01 -7.416359238174076163e-01 5.247374072189106009e-01 -1.123959839806005778e+00 9.230585443926131667e-04 0.000000000000000000e+00 0.000000000000000000e+00 0.000000000000000000e+00 0.000000000000000000e+00 0.000000000000000000e+00
-3.904351309497293698e-01 -7.416359238174076163e-01 5.247374072189106009e-01 -1.123959839806005778e+00 9.230585443926131667e-04 0.000000000000000000e+00 0.000000000000000000e+00 0.000000000000000000e+00 0.000000000000000000e+00 0.000000000000000000e+00
-3.904351309497293698e-01 -7.416359238174076163e-01 5.247374072189106009e-01 -1.123959839806005778e+00 9.230585443926131667e-04 0.000000000000000000e+00 0.000000000000000000e+00 0.000000000000000000e+00 0.000000000000000000e+00 0.000000000000000000e+00
-3.904351309497293698e-01 -7.416359238174076163e-01 5.247374072189106009e-01 -1.123959839806005778e+00 9.230585443926131667e-04 0.000000000000000000e+00 0.000000000000000000e+00 0.000000000000000000e+00 0.000000000000000000e+00 0.000000000000000000e+00
-3.904351309497293698e-01 -7.416359238174076163e-01 5.247374072189106009e-01 -1.123959839806005778e+00 9.230585443926131667e-04 0.000000000000000000e+00 0.000000000000000000e+00 0.000000000000000000e+00 0.000000000000000000e+00 0.000000000000000000e+00
-3.904351309497293698e-01 -7.416359238174076163e-01 5.247374072189106009e-01 -1.123959839806005778e+00 9.230585443926131667e-04 0.000000000000000000e+00 0.000000000000000000e+00 0.000000000000000000e+00 0.000000000000000000e+00 0.000000000000000000e+00
-3.904351309497293698e-01 -7.416359238174076163e-01 5.247374072189106009e-01 -1.123959839806005778e+00 9.230585443926131667e-04 0.000000000000000000e+00 0.000000000000000000e+00 0.000000000000000000e+00 0.000000000000000000e+00 0.000000000000000000e+00
-3.904351309497293698e-01 -7.416359238174076163e-01 5.247374072189106009e-01 -1.123959839806005778e+00 9.230585443926131667e-04 0.000000000000000000e+00 0.000000000000000000e+00 0.000000000000000000e+00 0.000000000000000000e+00 0.000000000000000000e+00
