-4.480871931433550448e-01 -4.209432336351539572e-01 9.617822091403597229e-01 -1.217847524317912544e+00 4.444513790836191001e-04 -2.747949176219641187e-01 9.394935549497690497e-02 -5.952068153743967915e-01 -5.419966524146300202e-01 4.965493503519250243e-03
-4.671895650655710219e-01 -4.146776311786963820e-01 9.205922691868472230e-01 -1.255577665056448522e+00 6.813507678578265307e-04 -3.820474384443194316e-01 1.253120491291519478e-01 -8.237987990702498875e-01 -7.546028147707183331e-01 4.737987775484148179e-03
-4.906837924012324992e-01 -4.072904362260778011e-01 8.700259590419434641e-01 -1.301996246620657161e+00 8.708915192970354338e-04 -4.698845467132293230e-01 1.477438990523721463e-01 -1.011326202898074955e+00 -9.283716312841714391e-01 3.790815028784176761e-03
-5.176674308880316877e-01 -3.991978168081303791e-01 8.118028058144223236e-01 -1.355054653885555904e+00 9.908406122363742213e-04 -5.396727697359829934e-01 1.618523883589479406e-01 -1.164463064550421700e+00 -1.061168145297973542e+00 2.398981858786777485e-03
-5.473203782172950671e-01 -3.907981806373684308e-01 7.472951234094938888e-01 -1.412560617957242082e+00 1.035583199356743863e-03 -5.930589465852664777e-01 1.679927234152394089e-01 -1.290153648098569361e+00 -1.150119281433725549e+00 8.948517424073937007e-04
-5.789042097949219645e-01 -3.824778709648427588e-01 6.775873428847296598e-01 -1.472184703723571797e+00 1.046258129769016710e-03 -6.316766315525386144e-01 1.664061934505130513e-01 -1.394155610495285247e+00 -1.192481715326594305e+00 2.134986082454563968e-04
-6.117555663852355385e-01 -3.746144305371943983e-01 6.035846107205974365e-01 -1.531507077608113887e+00 1.035543646203896263e-03 -6.570271318062722576e-01 1.572688085529674318e-01 -1.480054643282643356e+00 -1.186447477690842245e+00 -2.142896713024084040e-04
-6.452811802265310259e-01 -3.675808755410070461e-01 5.261439729607070293e-01 -1.588097935789572368e+00 9.756550362986498182e-04 -6.705122768259105248e-01 1.406710999237475168e-01 -1.548812755197808366e+00 -1.131817163629168066e+00 -1.197772198104928455e-03
-6.789604995533932152e-01 -3.617505836103082073e-01 4.462006871794457208e-01 -1.639627582109870474e+00 7.952274607895806671e-04 -6.735863865372434534e-01 1.166058386139770670e-01 -1.598865715625225503e+00 -1.030592926405960341e+00 -3.608551510181383891e-03
-7.123572762212750931e-01 -3.574992663527007952e-01 3.648614808421102862e-01 -1.683994386091618667e+00 5.312107116822663462e-04 -6.679355333576383336e-01 8.502634515214867184e-02 -1.626784126746708914e+00 -8.873360796349649693e-01 -5.280334982146286417e-03
-7.451376574213653958e-01 -3.551984717029088578e-01 2.834371117887897751e-01 -1.719454878638924322e+00 2.206170894375411866e-04 -6.556076240018058332e-01 4.601589299583866421e-02 -1.628487381066410000e+00 -7.092098509461143285e-01 -6.211872444894503409e-03
-7.770883010268393454e-01 -3.551952204519469580e-01 2.033989417144311251e-01 -1.744743052064122946e+00 -9.541033253325091786e-05 -6.390128721094794351e-01 6.502501923748987833e-05 -1.600763401487172333e+00 -5.057634685039705813e-01 -6.320548439415841005e-03
-8.081250006175946243e-01 -3.577774653416803119e-01 1.262628690286591304e-01 -1.759161741671647849e+00 -3.753122976561191408e-04 -6.207339918151063562e-01 -5.164489779466695241e-02 -1.542721453715439450e+00 -2.883737921504960777e-01 -5.598039302457364676e-03
-8.382844030447439421e-01 -3.631321898672754678e-01 5.342850954423382370e-02 -1.762628968792829154e+00 -5.836535655699131176e-04 -6.031880485429854666e-01 -1.070944905119028123e-01 -1.456687189688505857e+00 -6.934454242362486642e-02 -4.166825358275879319e-03
-8.676965902069374570e-01 -3.713121483158851599e-01 -1.397800303759982876e-02 -1.755654814640140948e+00 -6.970436882927084736e-04 -5.882437432438710756e-01 -1.635991689721938980e-01 -1.348130251636673105e+00 1.394830830537642785e-01 -2.267802454455907987e-03
-8.965461367591791575e-01 -3.822222238556905460e-01 -7.521268821408705341e-02 -1.739252503712424902e+00 -7.069981954857316835e-04 -5.769909310448332329e-01 -2.182015107961073064e-01 -1.224693703529744493e+00 3.280462185543195908e-01 -1.990901438604650645e-04
-9.250333404526448478e-01 -3.956301000992232808e-01 -1.299500368267987316e-01 -1.714798242418177354e+00 -6.196879277068953040e-04 -5.697440738693148043e-01 -2.681575248706544179e-01 -1.094746972254233341e+00 4.890852258849517353e-01 1.746205355576727590e-03
-9.533449565095702960e-01 -4.111983323180249950e-01 -1.782491089050031730e-01 -1.683861660627218759e+00 -4.528104758557232028e-04 -5.662323211385078547e-01 -3.113646443760340610e-01 -9.659814415640888274e-01 6.187316358191714549e-01 3.337549037023442022e-03
-9.816383918325313207e-01 -4.285280190255528199e-01 -2.204704785061999406e-01 -1.648039876758123468e+00 -2.306555772860375696e-04 -5.658687064592202720e-01 -3.465937341505559433e-01 -8.444273920239356856e-01 7.164356773819051671e-01 4.443097971393712882e-03
-1.010037801129794355e+00 -4.472041393773701357e-01 -2.571745303636356894e-01 -1.608815300936629278e+00 2.138119863833554775e-05 -5.679881859452591275e-01 -3.735224070363463156e-01 -7.340810371487151986e-01 7.844915164298825738e-01 5.040735518487462347e-03
-1.038638198207604502e+00 -4.668335834483092750e-01 -2.890271308962339969e-01 -1.567455158311721108e+00 2.811605150625098664e-04 -5.720079415562013825e-01 -3.925888814187823428e-01 -6.370520106519665937e-01 8.272028524981617226e-01 5.195586328483486373e-03
-1.067513540887707224e+00 -4.870704198053660283e-01 -3.167297169211106822e-01 -1.524959409000817168e+00 5.314594722127131271e-04 -5.775068536020547816e-01 -4.047367271411344558e-01 -5.540517204975338172e-01 8.499149862180770398e-01 5.005979143004065865e-03
-1.096725242800248523e+00 -5.076274489942210755e-01 -3.409757128120536884e-01 -1.482053806408590191e+00 7.578566214529891152e-04 -5.842340382508244279e-01 -4.111405837771008320e-01 -4.849199178188605130e-01 8.581120518445370937e-01 4.527942984805520196e-03
-1.126329347838648465e+00 -5.282769548517561864e-01 -3.624282703077076340e-01 -1.439215187355599834e+00 9.376443541622909213e-04 -5.920821007680008297e-01 -4.129901171507014412e-01 -4.290511499130785222e-01 8.567723810598083523e-01 3.595754654186036989e-03
-1.156381837863437401e+00 -5.488456885600482282e-01 -3.817131663915505069e-01 -1.396707613267836434e+00 9.981445201973420875e-04 -6.010498004957794960e-01 -4.113746741658398931e-01 -3.856979216768578467e-01 8.501514817552688896e-01 1.210003320701022889e-03
-1.186941934037485158e+00 -5.692069123713255907e-01 -3.994200312503799477e-01 -1.354621131425602920e+00 1.008440799228715098e-03 -6.112019234809568102e-01 -4.072244762255481376e-01 -3.541372971765883726e-01 8.417296368446722798e-01 2.059255806274595552e-04
-1.218074094586245382e+00 -5.892730213579358001e-01 -4.161071147288876171e-01 -1.312901202762845498e+00 9.914343074913284284e-04 -6.226432109752058075e-01 -4.013221797322033546e-01 -3.337416695701531100e-01 8.343985732551468804e-01 -3.401298347477345807e-04
-1.249848688801002083e+00 -6.089900557932936831e-01 -4.323042082860911184e-01 -1.271369180945196353e+00 9.145483874188690661e-04 -6.354918842951350344e-01 -3.943406887071583267e-01 -3.239418711440700815e-01 8.306404363529824586e-01 -1.537718401449186811e-03
-1.282341971980279105e+00 -6.283302725360937480e-01 -4.485181402466252298e-01 -1.229748369824868792e+00 7.074631553293969947e-04 0.000000000000000000e+00 0.000000000000000000e+00 0.000000000000000000e+00 0.000000000000000000e+00 0.000000000000000000e+00
-1.282341971980279105e+00 -6.283302725360937480e-01 -4.485181402466252298e-01 -1.229748369824868792e+00 7.074631553293969947e-04 0.000000000000000000e+00 0.000000000000000000e+00 0.000000000000000000e+00 0.000000000000000000e+00 0.000000000000000000e+00
-1.282341971980279105e+00 -6.283302725360937480e-01 -4.485181402466252298e-01 -1.229748369824868792e+00 7.074631553293969947e-04 0.000000000000000000e+00 0.000000000000000000e+00 0.000000000000000000e+00 0.000000000000000000e+00 0.000000000000000000e+00
