-1.158711206537556437e+00 -6.709236320592761871e-01 2.728546229119626146e-02 -1.285357982773983387e+00 4.033401430765564321e-04 -1.424624012584696231e-01 -4.736645469400936892e-01 -6.956697975985308424e-02 5.385310812917077916e-01 2.852453744657347523e-03
-1.165760321244497799e+00 -6.945502661788083287e-01 2.429300493660040833e-02 -1.257904806270137676e+00 5.448751511672621966e-04 -1.409822941388280959e-01 -4.725326823906423890e-01 -5.984914709191708343e-02 5.490635300769134419e-01 2.830700161814114421e-03
-1.172796675076609896e+00 -7.181192045498879795e-01 2.165800268818635077e-02 -1.230052089506245894e+00 6.843799987928052319e-04 -1.407270766422426267e-01 -4.713787674215931811e-01 -5.270004496828111645e-02 5.570543352778375423e-01 2.790096952510860706e-03
-1.179886727724408058e+00 -7.416423591879961474e-01 1.925296801172651784e-02 -1.201882548403932160e+00 8.189915466754611175e-04 -1.418010529559611266e-01 -4.704630927621641923e-01 -4.810069352919668639e-02 5.633908220462746641e-01 2.692230957653117714e-03
-1.187102900882742951e+00 -7.651417544826950579e-01 1.694881336244803693e-02 -1.173440996677843406e+00 9.381834700965491301e-04 -1.443234631666968359e-01 -4.699879058939771537e-01 -4.608309298556959033e-02 5.688310345217767461e-01 2.383838468421760684e-03
-1.194524330957475122e+00 -7.886466911188521056e-01 1.461188628948511918e-02 -1.144740300810665357e+00 1.000837683004418078e-03 0.000000000000000000e+00 0.000000000000000000e+00 0.000000000000000000e+00 0.000000000000000000e+00 0.000000000000000000e+00
-1.194524330957475122e+00 -7.886466911188521056e-01 1.461188628948511918e-02 -1.144740300810665357e+00 1.000837683004418078e-03 0.000000000000000000e+00 0.000000000000000000e+00 0.000000000000000000e+00 0.000000000000000000e+00 0.000000000000000000e+00
-1.194524330957475122e+00 -7.886466911188521056e-01 1.461188628948511918e-02 -1.144740300810665357e+00 1.000837683004418078e-03 0.000000000000000000e+00 0.000000000000000000e+00 0.000000000000000000e+00 0.000000000000000000e+00 0.000000000000000000e+00
-1.194524330957475122e+00 -7.886466911188521056e-01 1.461188628948511918e-02 -1.144740300810665357e+00 1.000837683004418078e-03 0.000000000000000000e+00 0.000000000000000000e+00 0.000000000000000000e+00 0.000000000000000000e+00 0.000000000000000000e+00
-1.194524330957475122e+00 -7.886466911188521056e-01 1.461188628948511918e-02 -1.144740300810665357e+00 1.000837683004418078e-03 0.000000000000000000e+00 0.000000000000000000e+00 0.000000000000000000e+00 0.000000000000000000e+00 0.000000000000000000e+00
-1.194524330957475122e+00 -7.886466911188521056e-01 1.461188628948511918e-02 -1.144740300810665357e+00 1.000837683004418078e-03 0.000000000000000000e+00 0.000000000000000000e+00 0.000000000000000000e+00 0.000000000000000000e+00 0.000000000000000000e+00
-1.194524330957475122e+00 -7.886466911188521056e-01 1.461188628948511918e-02 -1.144740300810665357e+00 1.000837683004418078e-03 0.000000000000000000e+00 0.000000000000000000e+00 0.000000000000000000e+00 0.000000000000000000e+00 0.000000000000000000e+00
-1.194524330957475122e+00 -7.886466911188521056e-01 1.461188628948511918e-02 -1.144740300810665357e+00 1.000837683004418078e-03 0.000000000000000000e+00 0.000000000000000000e+00 0.000000000000000000e+00 0.000000000000000000e+00 0.000000000000000000e+00
-1.194524330957475122e+00 -7.886466911188521056e-01 1.461188628948511918e-02 -1.144740300810665357e+00 1.000837683004418078e-03 0.000000000000000000e+00 0.000000000000000000e+00 0.000000000000000000e+00 0.000000000000000000e+00 0.000000000000000000e+00
-1.194524330957475122e+00 -7.886466911188521056e-01 1.461188628948511918e-02 -1.144740300810665357e+00 1.000837683004418078e-03 0.000000000000000000e+00 0.000000000000000000e+00 0.000000000000000000e+00 0.000000000000000000e+00 0.000000000000000000e+00
-1.194524330957475122e+00 -7.886466911188521056e-01 1.461188628948511918e-02 -1.144740300810665357e+00 1.000837683004418078e-03 0.000000000000000000e+00 0.000000000000000000e+00 0.000000000000000000e+00 0.000000000000000000e+00 0.000000000000000000e+00
-1.194524330957475122e+00 -7.886466911188521056e-01 1.461188628948511918e-02 -1.144740300810665357e+00 1.000837683004418078e-03 0.000000000000000000e+00 0.000000000000000000e+00 0.000000000000000000e+00 0.000000000000000000e+00 0.000000000000000000e+00
-1.194524330957475122e+00 -7.886466911188521056e-01 1.461188628948511918e-02 -1.144740300810665357e+00 1.000837683004418078e-03 0.000000000000000000e+00 0.000000000000000000e+00 0.000000000000000000e+00 0.000000000000000000e+00 0.000000000000000000e+00
-1.194524330957475122e+00 -7.886466911188521056e-01 1.461188628948511918e-02 -1.144740300810665357e+00 1.000837683004418078e-03 0.000000000000000000e+00 0.000000000000000000e+00 0.000000000000000000e+00 0.000000000000000000e+00 0.000000000000000000e+00
-1.194524330957475122e+00 -7.886466911188521056e-01 1.461188628948511918e-02 -1.144740300810665357e+00 1.000837683004418078e-03 0.000000000000000000e+00 0.000000000000000000e+00 0.000000000000000000e+00 0.000000000000000000e+00 0.000000000000000000e+00
-1.194524330957475122e+00 -7.886466911188521056e-01 1.461188628948511918e-02 -1.144740300810665357e+00 1.000837683004418078e-03 0.000000000000000000e+00 0.000000000000000000e+00 0.000000000000000000e+00 0.000000000000000000e+00 0.000000000000000000e+00
-1.194524330957475122e+00 -7.886466911188521056e-01 1.461188628948511918e-02 -1.144740300810665357e+00 1.000837683004418078e-03 0.000000000000000000e+00 0.000000000000000000e+00 0.000000000000000000e+00 0.000000000000000000e+00 0.000000000000000000e+00
-1.194524330957475122e+00 -7.886466911188521056e-01 1.461188628948511918e-02 -1.144740300810665357e+00 1.000837683004418078e-03 0.000000000000000000e+00 0.000000000000000000e+00 0.000000000000000000e+00 0.000000000000000000e+00 0.000000000000000000e+00
-1.194524330957475122e+00 -7.886466911188521056e-01 1.461188628948511918e-02 -1.144740300810665357e+00 1.000837683004418078e-03 0.000000000000000000e+00 0.000000000000000000e+00 0.000000000000000000e+00 0.000000000000000000e+00 0.000000000000000000e+00
-1.194524330957475122e+00 -7.886466911188521056e-01 1.461188628948511918e-02 -1.144740300810665357e+00 1.000837683004418078e-03 0.000000000000000000e+00 0.000000000000000000e+00 0.000000000000000000e+00 0.000000000000000000e+00 0.000000000000000000e+00
-1.194524330957475122e+00 -7.886466911188521056e-01 1.461188628948511918e-02 -1.144740300810665357e+00 1.000837683004418078e-03 0.000000000000000000e+00 0.000000000000000000e+00 0.000000000000000000e+00 0.000000000000000000e+00 0.000000000000000000e+00
-1.194524330957475122e+00 -7.886466911188521056e-01 1.461188628948511918e-02 -1.144740300810665357e+00 1.000837683004418078e-03 0.000000000000000000e+00 0.000000000000000000e+00 0.000000000000000000e+00 0.000000000000000000e+00 0.000000000000000000e+00
-1.194524330957475122e+00 -7.886466911188521056e-01 1.461188628948511918e-02 -1.144740300810665357e+00 1.000837683004418078e-03 0.000000000000000000e+00 0.000000000000000000e+00 0.000000000000000000e+00 0.000000000000000000e+00 0.000000000000000000e+00
-1.194524330957475122e+00 -7.886466911188521056e-01 1.461188628948511918e-02 -1.144740300810665357e+00 1.000837683004418078e-03 0.000000000000000000e+00 0.000000000000000000e+00 0.000000000000000000e+00 0.000000000000000000e+00 0.000000000000000000e+00
-1.194524330957475122e+00 -7.886466911188521056e-01 1.461188628948511918e-02 -1.144740300810665357e+00 1.000837683004418078e-03 0.000000000000000000e+00 0.000000000000000000e+00 0.000000000000000000e+00 0.000000000000000000e+00 0.000000000000000000e+00
-1.194524330957475122e+00 -7.886466911188521056e-01 1.461188628948511918e-02 -1.144740300810665357e+00 1.000837683004418078e-03 0.000000000000000000e+00 0.000000000000000000e+00 0.000000000000000000e+00 0.000000000000000000e+00 0.000000000000000000e+00
