-1.796291889858771196e+00 -6.263182179768522762e-01 -5.544282815554414379e-01 -1.346879466234755851e+00 -1.393080503578136647e-04 -1.657807735728990650e+00 -1.009111465201373736e+00 -1.084924805861081420e+00 1.635989119742042197e+00 2.564823991694562336e-03
-1.883855271636673656e+00 -6.739676236433228551e-01 -6.104502229029939997e-01 -1.262033183886948073e+00 -6.370704424338151947e-05 -1.751267635558049429e+00 -9.529881133294120232e-01 -1.120438826951051237e+00 1.696925646956153333e+00 1.512020122288642741e-03
-1.976402289345426055e+00 -7.182395031793420426e-01 -6.692053385626183237e-01 -1.174970846793476520e+00 -5.194766139459983676e-05 -1.850940354175046876e+00 -8.854375907203826390e-01 -1.175102313192486925e+00 1.741246741869431736e+00 2.351876569756338169e-04
-2.074188717848835406e+00 -7.585889721061959134e-01 -7.315842865525608030e-01 -1.086324699415902151e+00 -1.114147674986010509e-04 -1.955728570068183902e+00 -8.069893785370774175e-01 -1.247578959798850029e+00 1.772922947551488937e+00 -1.189342122080023741e-03
-2.177391245669417774e+00 -7.945001711175446735e-01 -7.984096223607579645e-01 -9.965076701634391076e-01 -2.407863268647985960e-04 -2.064050556411646475e+00 -7.182239802269757556e-01 -1.336506716163942565e+00 1.796340585049261085e+00 -2.587431187323950034e-03
-2.286080596624244343e+00 -8.254913722831609402e-01 -8.704475023793593058e-01 -9.056776410583882164e-01 -4.053557340620900684e-04 0.000000000000000000e+00 0.000000000000000000e+00 0.000000000000000000e+00 0.000000000000000000e+00 0.000000000000000000e+00
-2.286080596624244343e+00 -8.254913722831609402e-01 -8.704475023793593058e-01 -9.056776410583882164e-01 -4.053557340620900684e-04 0.000000000000000000e+00 0.000000000000000000e+00 0.000000000000000000e+00 0.000000000000000000e+00 0.000000000000000000e+00
-2.286080596624244343e+00 -8.254913722831609402e-01 -8.704475023793593058e-01 -9.056776410583882164e-01 -4.053557340620900684e-04 0.000000000000000000e+00 0.000000000000000000e+00 0.000000000000000000e+00 0.000000000000000000e+00 0.000000000000000000e+00
-2.286080596624244343e+00 -8.254913722831609402e-01 -8.704475023793593058e-01 -9.056776410583882164e-01 -4.053557340620900684e-04 0.000000000000000000e+00 0.000000000000000000e+00 0.000000000000000000e+00 0.000000000000000000e+00 0.000000000000000000e+00
-2.286080596624244343e+00 -8.254913722831609402e-01 -8.704475023793593058e-01 -9.056776410583882164e-01 -4.053557340620900684e-04 0.000000000000000000e+00 0.000000000000000000e+00 0.000000000000000000e+00 0.000000000000000000e+00 0.000000000000000000e+00
-2.286080596624244343e+00 -8.254913722831609402e-01 -8.704475023793593058e-01 -9.056776410583882164e-01 -4.053557340620900684e-04 0.000000000000000000e+00 0.000000000000000000e+00 0.000000000000000000e+00 0.000000000000000000e+00 0.000000000000000000e+00
-2.286080596624244343e+00 -8.254913722831609402e-01 -8.704475023793593058e-01 -9.056776410583882164e-01 -4.053557340620900684e-04 0.000000000000000000e+00 0.000000000000000000e+00 0.000000000000000000e+00 0.000000000000000000e+00 0.000000000000000000e+00
-2.286080596624244343e+00 -8.254913722831609402e-01 -8.704475023793593058e-01 -9.056776410583882164e-01 -4.053557340620900684e-04 0.000000000000000000e+00 0.000000000000000000e+00 0.000000000000000000e+00 0.000000000000000000e+00 0.000000000000000000e+00
-2.286080596624244343e+00 -8.254913722831609402e-01 -8.704475023793593058e-01 -9.056776410583882164e-01 -4.053557340620900684e-04 0.000000000000000000e+00 0.000000000000000000e+00 0.000000000000000000e+00 0.000000000000000000e+00 0.000000000000000000e+00
-2.286080596624244343e+00 -8.254913722831609402e-01 -8.704475023793593058e-01 -9.056776410583882164e-01 -4.053557340620900684e-04 0.000000000000000000e+00 0.000000000000000000e+00 0.000000000000000000e+00 0.000000000000000000e+00 0.000000000000000000e+00
-2.286080596624244343e+00 -8.254913722831609402e-01 -8.704475023793593058e-01 -9.056776410583882164e-01 -4.053557340620900684e-04 0.000000000000000000e+00 0.000000000000000000e+00 0.000000000000000000e+00 0.000000000000000000e+00 0.000000000000000000e+00
-2.286080596624244343e+00 -8.254913722831609402e-01 -8.704475023793593058e-01 -9.056776410583882164e-01 -4.053557340620900684e-04 0.000000000000000000e+00 0.000000000000000000e+00 0.000000000000000000e+00 0.000000000000000000e+00 0.000000000000000000e+00
-2.286080596624244343e+00 -8.254913722831609402e-01 -8.704475023793593058e-01 -9.056776410583882164e-01 -4.053557340620900684e-04 0.000000000000000000e+00 0.000000000000000000e+00 0.000000000000000000e+00 0.000000000000000000e+00 0.000000000000000000e+00
-2.286080596624244343e+00 -8.254913722831609402e-01 -8.704475023793593058e-01 -9.056776410583882164e-01 -4.053557340620900684e-04 0.000000000000000000e+00 0.000000000000000000e+00 0.000000000000000000e+00 0.000000000000000000e+00 0.000000000000000000e+00
-2.286080596624244343e+00 -8.254913722831609402e-01 -8.704475023793593058e-01 -9.056776410583882164e-01 -4.053557340620900684e-04 0.000000000000000000e+00 0.000000000000000000e+00 0.000000000000000000e+00 0.000000000000000000e+00 0.000000000000000000e+00
-2.286080596624244343e+00 -8.254913722831609402e-01 -8.704475023793593058e-01 -9.056776410583882164e-01 -4.053557340620900684e-04 0.000000000000000000e+00 0.000000000000000000e+00 0.000000000000000000e+00 0.000000000000000000e+00 0.000000000000000000e+00
-2.286080596624244343e+00 -8.254913722831609402e-01 -8.704475023793593058e-01 -9.056776410583882164e-01 -4.053557340620900684e-04 0.000000000000000000e+00 0.000000000000000000e+00 0.000000000000000000e+00 0.000000000000000000e+00 0.000000000000000000e+00
-2.286080596624244343e+00 -8.254913722831609402e-01 -8.704475023793593058e-01 -9.056776410583882164e-01 -4.053557340620900684e-04 0.000000000000000000e+00 0.000000000000000000e+00 0.000000000000000000e+00 0.000000000000000000e+00 0.000000000000000000e+00
-2.286080596624244343e+00 -8.254913722831609402e-01 -8.704475023793593058e-01 -9.056776410583882164e-01 -4.053557340620900684e-04 0.000000000000000000e+00 0.000000000000000000e+00 0.000000000000000000e+00 0.000000000000000000e+00 0.000000000000000000e+00
-2.286080596624244343e+00 -8.254913722831609402e-01 -8.704475023793593058e-01 -9.056776410583882164e-01 -4.053557340620900684e-04 0.000000000000000000e+00 0.000000000000000000e+00 0.000000000000000000e+00 0.000000000000000000e+00 0.000000000000000000e+00
-2.286080596624244343e+00 -8.254913722831609402e-01 -8.704475023793593058e-01 -9.056776410583882164e-01 -4.053557340620900684e-04 0.000000000000000000e+00 0.000000000000000000e+00 0.000000000000000000e+00 0.000000000000000000e+00 0.000000000000000000e+00
-2.286080596624244343e+00 -8.254913722831609402e-01 -8.704475023793593058e-01 -9.056776410583882164e-01 -4.053557340620900684e-04 0.000000000000000000e+00 0.000000000000000000e+00 0.000000000000000000e+00 0.000000000000000000e+00 0.000000000000000000e+00
-2.286080596624244343e+00 -8.254913722831609402e-01 -8.704475023793593058e-01 -9.056776410583882164e-01 -4.053557340620900684e-04 0.000000000000000000e+00 0.000000000000000000e+00 0.000000000000000000e+00 0.000000000000000000e+00 0.000000000000000000e+00
-2.286080596624244343e+00 -8.254913722831609402e-01 -8.704475023793593058e-01 -9.056776410583882164e-01 -4.053557340620900684e-04 0.000000000000000000e+00 0.000000000000000000e+00 0.000000000000000000e+00 0.000000000000000000e+00 0.000000000000000000e+00
-2.286080596624244343e+00 -8.254913722831609402e-01 -8.704475023793593058e-01 -9.056776410583882164e-01 -4.053557340620900684e-04 0.000000000000000000e+00 0.000000000000000000e+00 0.000000000000000000e+00 0.000000000000000000e+00 0.000000000000000000e+00
-2.286080596624244343e+00 -8.254913722831609402e-01 -8.704475023793593058e-01 -9.056776410583882164e-01 -4.053557340620900684e-04 0.000000000000000000e+00 0.000000000000000000e+00 0.000000000000000000e+00 0.000000000000000000e+00 0.000000000000000000e+00
