-6.194786836469299285e-01 -8.462865979141391826e-01 1.341811686666355141e-01 -1.687855677826669565e+00 -7.341693919193413922e-04 -2.765347559970923186e-01 -1.023765339934833429e+00 -2.531348866435828571e-01 5.246685477613901583e-01 2.309777873117971423e-03
-6.328659339116220472e-01 -8.989515475776387321e-01 1.241323353468773288e-01 -1.655405105688740219e+00 -6.097417366590025855e-04 -2.677450052938423752e-01 -1.053298993269991435e+00 -2.009766663951637333e-01 6.490114427585877976e-01 2.488553105206776569e-03
-6.460145970823238937e-01 -9.528274660351658820e-01 1.162054737821431594e-01 -1.617671619760348012e+00 -4.885880388831132870e-04 -2.629732634140373726e-01 -1.077518369150542110e+00 -1.585372312946833617e-01 7.546697185678452602e-01 2.423073955517786402e-03
-6.591885340966869844e-01 -1.007642225365813271e+00 1.097970968608256020e-01 -1.575647921392449469e+00 -3.806985567857854524e-04 -2.634787402872617035e-01 -1.096295186612949779e+00 -1.281675384263512019e-01 8.404739673579693093e-01 2.157789641946556477e-03
-6.727283332582428832e-01 -1.063129544193307963e+00 1.042003766072185922e-01 -1.530326931568196880e+00 -2.919960818380610006e-04 -2.707959832311171988e-01 -1.109746376549892055e+00 -1.119344050721400585e-01 9.064197964850519984e-01 1.774049498954489252e-03
-6.870647124392996741e-01 -1.119041270677695987e+00 9.861060328428369881e-02 -1.482636909521606539e+00 -2.188974525409936801e-04 -2.867275836211367612e-01 -1.118234529687761381e+00 -1.117954664586979230e-01 9.538004409318063814e-01 1.461972585941346409e-03
-7.027307948821517325e-01 -1.175157313572424922e+00 9.211910703202561002e-02 -1.433377597161836325e+00 -1.281408656019884459e-04 0.000000000000000000e+00 0.000000000000000000e+00 0.000000000000000000e+00 0.000000000000000000e+00 0.000000000000000000e+00
-7.027307948821517325e-01 -1.175157313572424922e+00 9.211910703202561002e-02 -1.433377597161836325e+00 -1.281408656019884459e-04 0.000000000000000000e+00 0.000000000000000000e+00 0.000000000000000000e+00 0.000000000000000000e+00 0.000000000000000000e+00
-7.027307948821517325e-01 -1.175157313572424922e+00 9.211910703202561002e-02 -1.433377597161836325e+00 -1.281408656019884459e-04 0.000000000000000000e+00 0.000000000000000000e+00 0.000000000000000000e+00 0.000000000000000000e+00 0.000000000000000000e+00
-7.027307948821517325e-01 -1.175157313572424922e+00 9.211910703202561002e-02 -1.433377597161836325e+00 -1.281408656019884459e-04 0.000000000000000000e+00 0.000000000000000000e+00 0.000000000000000000e+00 0.000000000000000000e+00 0.000000000000000000e+00
-7.027307948821517325e-01 -1.175157313572424922e+00 9.211910703202561002e-02 -1.433377597161836325e+00 -1.281408656019884459e-04 0.000000000000000000e+00 0.000000000000000000e+00 0.000000000000000000e+00 0.000000000000000000e+00 0.000000000000000000e+00
-7.027307948821517325e-01 -1.175157313572424922e+00 9.211910703202561002e-02 -1.433377597161836325e+00 -1.281408656019884459e-04 0.000000000000000000e+00 0.000000000000000000e+00 0.000000000000000000e+00 0.000000000000000000e+00 0.000000000000000000e+00
-7.027307948821517325e-01 -1.175157313572424922e+00 9.211910703202561002e-02 -1.433377597161836325e+00 -1.281408656019884459e-04 0.000000000000000000e+00 0.000000000000000000e+00 0.000000000000000000e+00 0.000000000000000000e+00 0.000000000000000000e+00
-7.027307948821517325e-01 -1.175157313572424922e+00 9.211910703202561002e-02 -1.433377597161836325e+00 -1.281408656019884459e-04 0.000000000000000000e+00 0.000000000000000000e+00 0.000000000000000000e+00 0.000000000000000000e+00 0.000000000000000000e+00
-7.027307948821517325e-01 -1.175157313572424922e+00 9.211910703202561002e-02 -1.433377597161836325e+00 -1.281408656019884459e-04 0.000000000000000000e+00 0.000000000000000000e+00 0.000000000000000000e+00 0.000000000000000000e+00 0.000000000000000000e+00
-7.027307948821517325e-01 -1.175157313572424922e+00 9.211910703202561002e-02 -1.433377597161836325e+00 -1.281408656019884459e-04 0.000000000000000000e+00 0.000000000000000000e+00 0.000000000000000000e+00 0.000000000000000000e+00 0.000000000000000000e+00
-7.027307948821517325e-01 -1.175157313572424922e+00 9.211910703202561002e-02 -1.433377597161836325e+00 -1.281408656019884459e-04 0.000000000000000000e+00 0.000000000000000000e+00 0.000000000000000000e+00 0.000000000000000000e+00 0.000000000000000000e+00
-7.027307948821517325e-01 -1.175157313572424922e+00 9.211910703202561002e-02 -1.433377597161836325e+00 -1.281408656019884459e-04 0.000000000000000000e+00 0.000000000000000000e+00 0.000000000000000000e+00 0.000000000000000000e+00 0.000000000000000000e+00
-7.027307948821517325e-01 -1.175157313572424922e+00 9.211910703202561002e-02 -1.433377597161836325e+00 -1.281408656019884459e-04 0.000000000000000000e+00 0.000000000000000000e+00 0.000000000000000000e+00 0.000000000000000000e+00 0.000000000000000000e+00
-7.027307948821517325e-01 -1.175157313572424922e+00 9.211910703202561002e-02 -1.433377597161836325e+00 -1.281408656019884459e-04 0.000000000000000000e+00 0.000000000000000000e+00 0.000000000000000000e+00 0.000000000000000000e+00 0.000000000000000000e+00
-7.027307948821517325e-01 -1.175157313572424922e+00 9.211910703202561002e-02 -1.433377597161836325e+00 -1.281408656019884459e-04 0.000000000000000000e+00 0.000000000000000000e+00 0.000000000000000000e+00 0.000000000000000000e+00 0.000000000000000000e+00
-7.027307948821517325e-01 -1.175157313572424922e+00 9.211910703202561002e-02 -1.433377597161836325e+00 -1.281408656019884459e-04 0.000000000000000000e+00 0.000000000000000000e+00 0.000000000000000000e+00 0.000000000000000000e+00 0.000000000000000000e+00
-7.027307948821517325e-01 -1.175157313572424922e+00 9.211910703202561002e-02 -1.433377597161836325e+00 -1.281408656019884459e-04 0.000000000000000000e+00 0.000000000000000000e+00 0.000000000000000000e+00 0.000000000000000000e+00 0.000000000000000000e+00
-7.027307948821517325e-01 -1.175157313572424922e+00 9.211910703202561002e-02 -1.433377597161836325e+00 -1.281408656019884459e-04 0.000000000000000000e+00 0.000000000000000000e+00 0.000000000000000000e+00 0.000000000000000000e+00 0.000000000000000000e+00
-7.027307948821517325e-01 -1.175157313572424922e+00 9.211910703202561002e-02 -1.433377597161836325e+00 -1.281408656019884459e-04 0.000000000000000000e+00 0.000000000000000000e+00 0.000000000000000000e+00 0.000000000000000000e+00 0.000000000000000000e+00
-7.027307948821517325e-01 -1.175157313572424922e+00 9.211910703202561002e-02 -1.433377597161836325e+00 -1.281408656019884459e-04 0.000000000000000000e+00 0.000000000000000000e+00 0.000000000000000000e+00 0.000000000000000000e+00 0.000000000000000000e+00
-7.027307948821517325e-01 -1.175157313572424922e+00 9.211910703202561002e-02 -1.433377597161836325e+00 -1.281408656019884459e-04 0.000000000000000000e+00 0.000000000000000000e+00 0.000000000000000000e+00 0.000000000000000000e+00 0.000000000000000000e+00
-7.027307948821517325e-01 -1.175157313572424922e+00 9.211910703202561002e-02 -1.433377597161836325e+00 -1.281408656019884459e-04 0.000000000000000000e+00 0.000000000000000000e+00 0.000000000000000000e+00 0.000000000000000000e+00 0.000000000000000000e+00
-7.027307948821517325e-01 -1.175157313572424922e+00 9.211910703202561002e-02 -1.433377597161836325e+00 -1.281408656019884459e-04 0.000000000000000000e+00 0.000000000000000000e+00 0.000000000000000000e+00 0.000000000000000000e+00 0.000000000000000000e+00
-7.027307948821517325e-01 -1.175157313572424922e+00 9.211910703202561002e-02 -1.433377597161836325e+00 -1.281408656019884459e-04 0.000000000000000000e+00 0.000000000000000000e+00 0.000000000000000000e+00 0.000000000000000000e+00 0.000000000000000000e+00
-7.027307948821517325e-01 -1.175157313572424922e+00 9.211910703202561002e-02 -1.433377597161836325e+00 -1.281408656019884459e-04 0.000000000000000000e+00 0.000000000000000000e+00 0.000000000000000000e+00 0.000000000000000000e+00 0.000000000000000000e+00
