3.774725065210128849e-01 3.083395095307354117e-01 3.005934113158650334e-01
3.774725065210128849e-01 3.083395095307354117e-01 3.005934113158650334e-01
3.774725065210128849e-01 3.083395095307354117e-01 3.005934113158650334e-01
3.774725065210128849e-01 3.083395095307354117e-01 3.005934113158650334e-01
3.774725065210128849e-01 3.083395095307354117e-01 3.005934113158650334e-01
3.774725065210128849e-01 3.083395095307354117e-01 3.005934113158650334e-01
3.774725065210128849e-01 3.083395095307354117e-01 3.005934113158650334e-01
3.774725065210128849e-01 3.083395095307354117e-01 3.005934113158650334e-01
3.774725065210128849e-01 3.083395095307354117e-01 3.005934113158650334e-01
3.774725065210128849e-01 3.083395095307354117e-01 3.005934113158650334e-01
3.774725065210128849e-01 3.083395095307354117e-01 3.005934113158650334e-01
3.774725065210128849e-01 3.083395095307354117e-01 3.005934113158650334e-01
3.774725065210128849e-01 3.083395095307354117e-01 3.005934113158650334e-01
3.774725065210128849e-01 3.083395095307354117e-01 3.005934113158650334e-01
3.774725065210128849e-01 3.083395095307354117e-01 3.005934113158650334e-01
3.774725065210128849e-01 3.083395095307354117e-01 3.005934113158650334e-01
3.774725065210128849e-01 3.083395095307354117e-01 3.005934113158650334e-01
3.774725065210128849e-01 3.083395095307354117e-01 3.005934113158650334e-01
3.774725065210128849e-01 3.083395095307354117e-01 3.005934113158650334e-01
3.774725065210128849e-01 3.083395095307354117e-01 3.005934113158650334e-01
3.774725065210128849e-01 3.083395095307354117e-01 3.005934113158650334e-01
3.774725065210128849e-01 3.083395095307354117e-01 3.005934113158650334e-01
3.774725065210128849e-01 3.083395095307354117e-01 3.005934113158650334e-01
3.774725065210128849e-01 3.083395095307354117e-01 3.005934113158650334e-01
3.774725065210128849e-01 3.083395095307354117e-01 3.005934113158650334e-01
3.774725065210128849e-01 3.083395095307354117e-01 3.005934113158650334e-01
3.774725065210128849e-01 3.083395095307354117e-01 3.005934113158650334e-01
3.774725065210128849e-01 3.083395095307354117e-01 3.005934113158650334e-01
3.774725065210128849e-01 3.083395095307354117e-01 3.005934113158650334e-01
3.774725065210128849e-01 3.083395095307354117e-01 3.005934113158650334e-01
