-3.816105031302164385e-01 -5.952170836703181145e-01 9.243601437963082645e-01 -1.152048705490123837e+00 7.299154559509521585e-04 3.087332466535706518e-02 -3.108793441074432784e-01 -2.653817867029988897e-01 -3.491429949699791369e-01 -2.066838543026410825e-03
-3.785403930664308914e-01 -6.121612886441279988e-01 9.135608634626014579e-01 -1.167060150636678451e+00 6.179353996105729427e-04 6.140220127571070774e-02 -3.388840994761971315e-01 -2.159856066741354663e-01 -3.002289029310905022e-01 -2.239601126807584750e-03
-3.738018164596330628e-01 -6.304332736108799740e-01 9.054364235580045772e-01 -1.179205906542924787e+00 5.037969225835460573e-04 9.477153213595637671e-02 -3.654396993350396694e-01 -1.624887980919375308e-01 -2.429151181249263602e-01 -2.282769540540537274e-03
-3.672689057384442290e-01 -6.499435466955575391e-01 9.001471038532011804e-01 -1.188133284477574270e+00 3.935044077589879030e-04 1.306582144237768972e-01 -3.902054616935503595e-01 -1.057863940960669102e-01 -1.785475586929884950e-01 -2.205850296491162869e-03
-3.588341944798507654e-01 -6.705880093942572229e-01 8.978106918760310196e-01 -1.193567067889265365e+00 2.922189715971595654e-04 1.686942251718691055e-01 -4.128892539739931755e-01 -4.672823954340217523e-02 -1.086756682338215901e-01 -2.025708723236566318e-03
-3.484103615236827656e-01 -6.922506171656482854e-01 8.985044590655286711e-01 -1.195316342159468137e+00 2.041491178607314960e-04 2.084766591233598587e-01 -4.332521554278210285e-01 1.387534378995306655e-02 -3.498548540405385654e-02 -1.761397074728561279e-03
-3.359323537042919749e-01 -7.148058089972314511e-01 9.022666389669149467e-01 -1.193282048022782815e+00 1.323524203417941367e-04 2.495601563878161455e-01 -4.511038366316628689e-01 7.524359802772623285e-02 4.068588273370497832e-02 -1.435933950378747185e-03
-3.213586137295788014e-01 -7.381211379153703733e-01 9.090988272653438562e-01 -1.187460575233720173e+00 7.883634270539459582e-05 2.914747994942636367e-01 -4.663065783627777794e-01 1.366437659685785788e-01 1.164294557812538544e-01 -1.070321552727990927e-03
-3.046702876147567851e-01 -7.620606129253801875e-01 9.189716411074817515e-01 -1.177941293403172329e+00 4.478396435847407231e-05 3.337665222964406597e-01 -4.787895002001956724e-01 1.974562768427589599e-01 1.903856366109555331e-01 -6.810475669384104432e-04
-2.858693430431697435e-01 -7.864881498869364940e-01 9.318328296548725742e-01 -1.164902216837782944e+00 3.078020308367468709e-05 3.760188914317411646e-01 -4.885507392311250197e-01 2.572237709478154000e-01 2.607815313077887498e-01 -2.800752254959877857e-04
-2.649746654295599968e-01 -8.112713998480360900e-01 9.476194459283237004e-01 -1.148602693902398997e+00 3.685204459086220403e-05 4.178935522721953233e-01 -4.956649992219925305e-01 3.157323254690227454e-01 3.259904587076789539e-01 1.214368301437503388e-04
-2.420171634586399390e-01 -8.362853711366831089e-01 9.662722567874437729e-01 -1.129376813169856941e+00 6.172191531733170890e-05 4.591500394184011569e-01 -5.002794257729408223e-01 3.730562171824012285e-01 3.845176146508415549e-01 4.973974145293898804e-04
-2.170332717211304052e-01 -8.614155829648808549e-01 9.877469809198217154e-01 -1.107615821697424785e+00 1.031013707091171317e-04 4.996778347501904527e-01 -5.026042365639552534e-01 4.294944826475595723e-01 4.352198294486445684e-01 8.275891078357083472e-04
-1.900587381276558352e-01 -8.865602330177787538e-01 1.012021549672632803e+00 -1.083747711232468269e+00 1.578429517701222936e-04 5.394906718694915115e-01 -5.028930010579586440e-01 4.854913750562217523e-01 4.773622092991323118e-01 1.094831621220103456e-03
-1.611209227684345935e-01 -9.116319901700935535e-01 1.039103220635120728e+00 -1.058212100556002566e+00 2.214914460865269677e-04 5.787563071844248341e-01 -5.014351430462962167e-01 5.416334192497578304e-01 5.107122135293123977e-01 1.272969886328093264e-03
-1.302283282701453826e-01 -9.365599810006787207e-01 1.069043804567550771e+00 -1.031440398505088396e+00 2.818493852820573749e-04 6.178518899657842178e-01 -4.985598166117030106e-01 5.988116786486017418e-01 5.354340410182836241e-01 1.207158783910607927e-03
-9.735898260309464036e-02 -9.612911916385241673e-01 1.101961391110422683e+00 -1.003848197577644097e+00 2.913399500785736991e-04 6.573869133410149557e-01 -4.946242127569099312e-01 6.583517308574369231e-01 5.518440185488844296e-01 1.898112959303269176e-04
-6.244596442599747305e-02 -9.857911870603490723e-01 1.138064937144944500e+00 -9.758260756409297132e-01 5.926817940710461265e-05 0.000000000000000000e+00 0.000000000000000000e+00 0.000000000000000000e+00 0.000000000000000000e+00 0.000000000000000000e+00
-6.244596442599747305e-02 -9.857911870603490723e-01 1.138064937144944500e+00 -9.758260756409297132e-01 5.926817940710461265e-05 0.000000000000000000e+00 0.000000000000000000e+00 0.000000000000000000e+00 0.000000000000000000e+00 0.000000000000000000e+00
-6.244596442599747305e-02 -9.857911870603490723e-01 1.138064937144944500e+00 -9.758260756409297132e-01 5.926817940710461265e-05 0.000000000000000000e+00 0.000000000000000000e+00 0.000000000000000000e+00 0.000000000000000000e+00 0.000000000000000000e+00
-6.244596442599747305e-02 -9.857911870603490723e-01 1.138064937144944500e+00 -9.758260756409297132e-01 5.926817940710461265e-05 0.000000000000000000e+00 0.000000000000000000e+00 0.000000000000000000e+00 0.000000000000000000e+00 0.000000000000000000e+00
-6.244596442599747305e-02 -9.857911870603490723e-01 1.138064937144944500e+00 -9.758260756409297132e-01 5.926817940710461265e-05 0.000000000000000000e+00 0.000000000000000000e+00 0.000000000000000000e+00 0.000000000000000000e+00 0.000000000000000000e+00
-6.244596442599747305e-02 -9.857911870603490723e-01 1.138064937144944500e+00 -9.758260756409297132e-01 5.926817940710461265e-05 0.000000000000000000e+00 0.000000000000000000e+00 0.000000000000000000e+00 0.000000000000000000e+00 0.000000000000000000e+00
-6.244596442599747305e-02 -9.857911870603490723e-01 1.138064937144944500e+00 -9.758260756409297132e-01 5.926817940710461265e-05 0.000000000000000000e+00 0.000000000000000000e+00 0.000000000000000000e+00 0.000000000000000000e+00 0.000000000000000000e+00
-6.244596442599747305e-02 -9.857911870603490723e-01 1.138064937144944500e+00 -9.758260756409297132e-01 5.926817940710461265e-05 0.000000000000000000e+00 0.000000000000000000e+00 0.000000000000000000e+00 0.000000000000000000e+00 0.000000000000000000e+00
-6.244596442599747305e-02 -9.857911870603490723e-01 1.138064937144944500e+00 -9.758260756409297132e-01 5.926817940710461265e-05 0.000000000000000000e+00 0.000000000000000000e+00 0.000000000000000000e+00 0.000000000000000000e+00 0.000000000000000000e+00
-6.244596442599747305e-02 -9.857911870603490723e-01 1.138064937144944500e+00 -9.758260756409297132e-01 5.926817940710461265e-05 0.000000000000000000e+00 0.000000000000000000e+00 0.000000000000000000e+00 0.000000000000000000e+00 0.000000000000000000e+00
-6.244596442599747305e-02 -9.857911870603490723e-01 1.138064937144944500e+00 -9.758260756409297132e-01 5.926817940710461265e-05 0.000000000000000000e+00 0.000000000000000000e+00 0.000000000000000000e+00 0.000000000000000000e+00 0.000000000000000000e+00
-6.244596442599747305e-02 -9.857911870603490723e-01 1.138064937144944500e+00 -9.758260756409297132e-01 5.926817940710461265e-05 0.000000000000000000e+00 0.000000000000000000e+00 0.000000000000000000e+00 0.000000000000000000e+00 0.000000000000000000e+00
-6.244596442599747305e-02 -9.857911870603490723e-01 1.138064937144944500e+00 -9.758260756409297132e-01 5.926817940710461265e-05 0.000000000000000000e+00 0.000000000000000000e+00 0.000000000000000000e+00 0.000000000000000000e+00 0.000000000000000000e+00
-6.244596442599747305e-02 -9.857911870603490723e-01 1.138064937144944500e+00 -9.758260756409297132e-01 5.926817940710461265e-05 0.000000000000000000e+00 0.000000000000000000e+00 0.000000000000000000e+00 0.000000000000000000e+00 0.000000000000000000e+00
