-9.129941401714214422e-01 -9.568764701779985948e-01 1.927237958964298503e-01 -1.673713714335697267e+00 -6.359632767883662300e-04 -1.317726776651562126e-01 -1.722561330306780158e+00 -8.613934279382809978e-01 7.257982396331689179e-01 3.548667984921446625e-03
-9.183678411492031124e-01 -1.045373904785255492e+00 1.540744402594075302e-01 -1.628076585944117749e+00 -4.269815883659848358e-04 -1.074740195556325856e-01 -1.769948692145137503e+00 -7.729871127404461806e-01 9.127425678315898017e-01 4.179633768447627018e-03
-9.223538486722178131e-01 -1.135926984980454968e+00 1.197815066324380423e-01 -1.573936556027821343e+00 -2.051252613126747443e-04 -7.972015046029509722e-02 -1.811061603903987738e+00 -6.858586725393895911e-01 1.082800598325929453e+00 4.437126541066201829e-03
-9.247106197605632349e-01 -1.228211961792012197e+00 8.966512249316374583e-02 -1.512185930261826350e+00 1.193522094357978383e-05 -4.713542176690913021e-02 -1.845699536231145910e+00 -6.023276827854857629e-01 1.235012515319897863e+00 4.341209645125090888e-03
-9.251690050312255664e-01 -1.321907456349048937e+00 6.346136340240746132e-02 -1.443744992536817984e+00 2.080556560058516768e-04 -9.167705413247406732e-03 -1.873909891140735917e+00 -5.240751818151256902e-01 1.368818754500165324e+00 3.922408701245438077e-03
-9.235517488387137153e-01 -1.416704977819176037e+00 4.077101123122860160e-02 -1.369549499685349003e+00 3.699809725046316255e-04 3.234512385023612796e-02 -1.895950429402541104e+00 -4.538070434235771389e-01 1.483909857029380497e+00 3.238506329975597998e-03
-9.199595695759973379e-01 -1.512322026482104675e+00 2.092430818375303966e-02 -1.290495785473162238e+00 4.970911518260654610e-04 7.184358525432787967e-02 -1.912340973258574328e+00 -3.969340609495111694e-01 1.581074284243733530e+00 2.542203586428677144e-03
-9.149529601298727055e-01 -1.608504125945828589e+00 2.788527205037607398e-03 -1.207392540839238526e+00 6.336292269373363555e-04 1.001321889224926487e-01 -1.923641989274478714e+00 -3.627156195743087008e-01 1.662064892678472239e+00 2.730761502225417456e-03
-9.095265650640492749e-01 -1.705010808610445627e+00 -1.530434354992862150e-02 -1.120926874205070423e+00 9.984624239591545491e-04 0.000000000000000000e+00 0.000000000000000000e+00 0.000000000000000000e+00 0.000000000000000000e+00 0.000000000000000000e+00
-9.095265650640492749e-01 -1.705010808610445627e+00 -1.530434354992862150e-02 -1.120926874205070423e+00 9.984624239591545491e-04 0.000000000000000000e+00 0.000000000000000000e+00 0.000000000000000000e+00 0.000000000000000000e+00 0.000000000000000000e+00
-9.095265650640492749e-01 -1.705010808610445627e+00 -1.530434354992862150e-02 -1.120926874205070423e+00 9.984624239591545491e-04 0.000000000000000000e+00 0.000000000000000000e+00 0.000000000000000000e+00 0.000000000000000000e+00 0.000000000000000000e+00
-9.095265650640492749e-01 -1.705010808610445627e+00 -1.530434354992862150e-02 -1.120926874205070423e+00 9.984624239591545491e-04 0.000000000000000000e+00 0.000000000000000000e+00 0.000000000000000000e+00 0.000000000000000000e+00 0.000000000000000000e+00
-9.095265650640492749e-01 -1.705010808610445627e+00 -1.530434354992862150e-02 -1.120926874205070423e+00 9.984624239591545491e-04 0.000000000000000000e+00 0.000000000000000000e+00 0.000000000000000000e+00 0.000000000000000000e+00 0.000000000000000000e+00
-9.095265650640492749e-01 -1.705010808610445627e+00 -1.530434354992862150e-02 -1.120926874205070423e+00 9.984624239591545491e-04 0.000000000000000000e+00 0.000000000000000000e+00 0.000000000000000000e+00 0.000000000000000000e+00 0.000000000000000000e+00
-9.095265650640492749e-01 -1.705010808610445627e+00 -1.530434354992862150e-02 -1.120926874205070423e+00 9.984624239591545491e-04 0.000000000000000000e+00 0.000000000000000000e+00 0.000000000000000000e+00 0.000000000000000000e+00 0.000000000000000000e+00
-9.095265650640492749e-01 -1.705010808610445627e+00 -1.530434354992862150e-02 -1.120926874205070423e+00 9.984624239591545491e-04 0.000000000000000000e+00 0.000000000000000000e+00 0.000000000000000000e+00 0.000000000000000000e+00 0.000000000000000000e+00
-9.095265650640492749e-01 -1.705010808610445627e+00 -1.530434354992862150e-02 -1.120926874205070423e+00 9.984624239591545491e-04 0.000000000000000000e+00 0.000000000000000000e+00 0.000000000000000000e+00 0.000000000000000000e+00 0.000000000000000000e+00
-9.095265650640492749e-01 -1.705010808610445627e+00 -1.530434354992862150e-02 -1.120926874205070423e+00 9.984624239591545491e-04 0.000000000000000000e+00 0.000000000000000000e+00 0.000000000000000000e+00 0.000000000000000000e+00 0.000000000000000000e+00
-9.095265650640492749e-01 -1.705010808610445627e+00 -1.530434354992862150e-02 -1.120926874205070423e+00 9.984624239591545491e-04 0.000000000000000000e+00 0.000000000000000000e+00 0.000000000000000000e+00 0.000000000000000000e+00 0.000000000000000000e+00
-9.095265650640492749e-01 -1.705010808610445627e+00 -1.530434354992862150e-02 -1.120926874205070423e+00 9.984624239591545491e-04 0.000000000000000000e+00 0.000000000000000000e+00 0.000000000000000000e+00 0.000000000000000000e+00 0.000000000000000000e+00
-9.095265650640492749e-01 -1.705010808610445627e+00 -1.530434354992862150e-02 -1.120926874205070423e+00 9.984624239591545491e-04 0.000000000000000000e+00 0.000000000000000000e+00 0.000000000000000000e+00 0.000000000000000000e+00 0.000000000000000000e+00
-9.095265650640492749e-01 -1.705010808610445627e+00 -1.530434354992862150e-02 -1.120926874205070423e+00 9.984624239591545491e-04 0.000000000000000000e+00 0.000000000000000000e+00 0.000000000000000000e+00 0.000000000000000000e+00 0.000000000000000000e+00
-9.095265650640492749e-01 -1.705010808610445627e+00 -1.530434354992862150e-02 -1.120926874205070423e+00 9.984624239591545491e-04 0.000000000000000000e+00 0.000000000000000000e+00 0.000000000000000000e+00 0.000000000000000000e+00 0.000000000000000000e+00
-9.095265650640492749e-01 -1.705010808610445627e+00 -1.530434354992862150e-02 -1.120926874205070423e+00 9.984624239591545491e-04 0.000000000000000000e+00 0.000000000000000000e+00 0.000000000000000000e+00 0.000000000000000000e+00 0.000000000000000000e+00
-9.095265650640492749e-01 -1.705010808610445627e+00 -1.530434354992862150e-02 -1.120926874205070423e+00 9.984624239591545491e-04 0.000000000000000000e+00 0.000000000000000000e+00 0.000000000000000000e+00 0.000000000000000000e+00 0.000000000000000000e+00
-9.095265650640492749e-01 -1.705010808610445627e+00 -1.530434354992862150e-02 -1.120926874205070423e+00 9.984624239591545491e-04 0.000000000000000000e+00 0.000000000000000000e+00 0.000000000000000000e+00 0.000000000000000000e+00 0.000000000000000000e+00
-9.095265650640492749e-01 -1.705010808610445627e+00 -1.530434354992862150e-02 -1.120926874205070423e+00 9.984624239591545491e-04 0.000000000000000000e+00 0.000000000000000000e+00 0.000000000000000000e+00 0.000000000000000000e+00 0.000000000000000000e+00
-9.095265650640492749e-01 -1.705010808610445627e+00 -1.530434354992862150e-02 -1.120926874205070423e+00 9.984624239591545491e-04 0.000000000000000000e+00 0.000000000000000000e+00 0.000000000000000000e+00 0.000000000000000000e+00 0.000000000000000000e+00
-9.095265650640492749e-01 -1.705010808610445627e+00 -1.530434354992862150e-02 -1.120926874205070423e+00 9.984624239591545491e-04 0.000000000000000000e+00 0.000000000000000000e+00 0.000000000000000000e+00 0.000000000000000000e+00 0.000000000000000000e+00
-9.095265650640492749e-01 -1.705010808610445627e+00 -1.530434354992862150e-02 -1.120926874205070423e+00 9.984624239591545491e-04 0.000000000000000000e+00 0.000000000000000000e+00 0.000000000000000000e+00 0.000000000000000000e+00 0.000000000000000000e+00
-9.095265650640492749e-01 -1.705010808610445627e+00 -1.530434354992862150e-02 -1.120926874205070423e+00 9.984624239591545491e-04 0.000000000000000000e+00 0.000000000000000000e+00 0.000000000000000000e+00 0.000000000000000000e+00 0.000000000000000000e+00
