-8.699167645759162681e-01 -5.429806859409697095e-01 1.144506871808721737e-01 -1.815101481825707630e+00 -1.017708227002691798e-03 -1.746431661932797974e-01 -1.025644834057652943e+00 -5.264890767988961162e-01 8.648418315989212513e-01 1.829337394344340167e-04
-8.785095755883082225e-01 -5.956977497741612337e-01 9.095920457888068134e-02 -1.767532807869868217e+00 -1.010380492247868293e-03 -1.718562202478387813e-01 -1.054341276663830262e+00 -4.698296520398297926e-01 9.513734791167893778e-01 1.465546950964719648e-04
-8.870190738305626654e-01 -6.493903722713830762e-01 6.989409629114354261e-02 -1.716654485249536899e+00 -1.001711312635111990e-03 -1.701899648450897196e-01 -1.073852449944436627e+00 -4.213021657547428855e-01 1.017566452406626576e+00 1.733835922551276885e-04
-8.954818999861495765e-01 -7.036577588674938211e-01 5.083653796793777269e-02 -1.663348221600322807e+00 -9.810447539176792974e-04 -1.692565231117383606e-01 -1.085347731922215342e+00 -3.811511664641153430e-01 1.066125272984282280e+00 4.133311743486544547e-04
-9.039164381276285631e-01 -7.581617925461872076e-01 3.338971868861070197e-02 -1.608354189935283340e+00 -9.280833783512364198e-04 -1.686907628295807315e-01 -1.090080673573868175e+00 -3.489363855865413866e-01 1.099880633300787114e+00 1.059227511328857986e-03
-9.123244138605886011e-01 -8.126275971561784939e-01 1.719726881697209928e-02 -1.552273235376656624e+00 -8.672370420949452371e-04 -1.681595146592015644e-01 -1.089316092199825725e+00 -3.238489974327720122e-01 1.121619091172533000e+00 1.216926725125822570e-03
-9.206923190110531952e-01 -8.668412347941182317e-01 1.951899953502866936e-03 -1.495575588164539838e+00 -8.056222712716260177e-04 -1.673581030092926303e-01 -1.084272752758795644e+00 -3.049073772693846052e-01 1.133952944242335059e+00 1.232295416466385471e-03
-9.289941001495499728e-01 -9.206450209585734790e-01 -1.260547252376920807e-02 -1.438613900280092395e+00 -7.452281464269124934e-04 -1.660356227699354426e-01 -1.076075723289106056e+00 -2.911474495454414724e-01 1.139233757688951076e+00 1.207882496894270271e-03
-9.371946445115075797e-01 -9.739318730508937927e-01 -2.669091810813434967e-02 -1.381637358577651131e+00 -6.863394503976481082e-04 -1.640108872391528583e-01 -1.065737041846406497e+00 -2.817089116873027765e-01 1.139530834048826602e+00 1.177773920585287269e-03
-9.452550451377108587e-01 -1.026639004709300584e+00 -4.048661845308991480e-02 -1.324806563018488870e+00 -6.287071570555989369e-04 -1.612080125240661355e-01 -1.054142633168136056e+00 -2.759140068991113304e-01 1.136615911183246785e+00 1.152645866840983427e-03
-9.531392954947174312e-01 -1.078741573537802312e+00 -5.415144306697667470e-02 -1.268208008544313037e+00 -5.720730137833156172e-04 -1.576850071401321163e-01 -1.042051376570035437e+00 -2.732964922777351702e-01 1.131971089483516879e+00 1.132682865445666827e-03
-9.608227417811608939e-01 -1.130246707460447864e+00 -6.783341709237111772e-02 -1.211866150201913239e+00 -5.165241539604385583e-04 -1.536689257288699761e-01 -1.030102678452908815e+00 -2.736394805078887771e-01 1.126837166847993954e+00 1.110977196457541396e-03
-9.683043375979570877e-01 -1.181188015544492709e+00 -8.168769817080509532e-02 -1.155752295267719276e+00 -4.625648317831903915e-04 -1.496319163359228210e-01 -1.018826161680895792e+00 -2.770856215686795521e-01 1.122277098683877483e+00 1.079186443544963769e-03
-9.756219985547651685e-01 -1.231620366204149830e+00 -9.589889564791891086e-02 -1.099791923668933524e+00 -4.109920030570613837e-04 -1.463532191361608115e-01 -1.008647013193144426e+00 -2.842239495422762552e-01 1.119207431975713263e+00 1.031456574522579940e-03
-9.828720280989307057e-01 -1.281614740803095120e+00 -1.107108528276315451e-01 -1.043870670215145680e+00 -3.618141752357985439e-04 -1.450005908833116863e-01 -9.998874919789071392e-01 -2.962391435942526852e-01 1.118425069075755784e+00 9.835565564252565784e-04
-9.902336940980670521e-01 -1.331252921232121800e+00 -1.264682388607355767e-01 -9.878384431769153817e-01 -3.085907393791013724e-04 -1.472333199827260963e-01 -9.927636085805331412e-01 -3.151477206620807991e-01 1.120644540764605956e+00 1.064468717133943212e-03
-9.980008693698368960e-01 -1.380621303483829276e+00 -1.436767306407587264e-01 -9.315128990118393126e-01 -2.137378183100158624e-04 -1.553435054353975997e-01 -9.873676450341491995e-01 -3.441698356004627146e-01 1.126510883301520938e+00 1.897058421381710202e-03
-1.006624598976402662e+00 -1.429802870309289320e+00 -1.630937282014729706e-01 -8.746836480279078785e-01 9.432738084922081927e-05 0.000000000000000000e+00 0.000000000000000000e+00 0.000000000000000000e+00 0.000000000000000000e+00 0.000000000000000000e+00
-1.006624598976402662e+00 -1.429802870309289320e+00 -1.630937282014729706e-01 -8.746836480279078785e-01 9.432738084922081927e-05 0.000000000000000000e+00 0.000000000000000000e+00 0.000000000000000000e+00 0.000000000000000000e+00 0.000000000000000000e+00
-1.006624598976402662e+00 -1.429802870309289320e+00 -1.630937282014729706e-01 -8.746836480279078785e-01 9.432738084922081927e-05 0.000000000000000000e+00 0.000000000000000000e+00 0.000000000000000000e+00 0.000000000000000000e+00 0.000000000000000000e+00
-1.006624598976402662e+00 -1.429802870309289320e+00 -1.630937282014729706e-01 -8.746836480279078785e-01 9.432738084922081927e-05 0.000000000000000000e+00 0.000000000000000000e+00 0.000000000000000000e+00 0.000000000000000000e+00 0.000000000000000000e+00
-1.006624598976402662e+00 -1.429802870309289320e+00 -1.630937282014729706e-01 -8.746836480279078785e-01 9.432738084922081927e-05 0.000000000000000000e+00 0.000000000000000000e+00 0.000000000000000000e+00 0.000000000000000000e+00 0.000000000000000000e+00
-1.006624598976402662e+00 -1.429802870309289320e+00 -1.630937282014729706e-01 -8.746836480279078785e-01 9.432738084922081927e-05 0.000000000000000000e+00 0.000000000000000000e+00 0.000000000000000000e+00 0.000000000000000000e+00 0.000000000000000000e+00
-1.006624598976402662e+00 -1.429802870309289320e+00 -1.630937282014729706e-01 -8.746836480279078785e-01 9.432738084922081927e-05 0.000000000000000000e+00 0.000000000000000000e+00 0.000000000000000000e+00 0.000000000000000000e+00 0.000000000000000000e+00
-1.006624598976402662e+00 -1.429802870309289320e+00 -1.630937282014729706e-01 -8.746836480279078785e-01 9.432738084922081927e-05 0.000000000000000000e+00 0.000000000000000000e+00 0.000000000000000000e+00 0.000000000000000000e+00 0.000000000000000000e+00
-1.006624598976402662e+00 -1.429802870309289320e+00 -1.630937282014729706e-01 -8.746836480279078785e-01 9.432738084922081927e-05 0.000000000000000000e+00 0.000000000000000000e+00 0.000000000000000000e+00 0.000000000000000000e+00 0.000000000000000000e+00
-1.006624598976402662e+00 -1.429802870309289320e+00 -1.630937282014729706e-01 -8.746836480279078785e-01 9.432738084922081927e-05 0.000000000000000000e+00 0.000000000000000000e+00 0.000000000000000000e+00 0.000000000000000000e+00 0.000000000000000000e+00
-1.006624598976402662e+00 -1.429802870309289320e+00 -1.630937282014729706e-01 -8.746836480279078785e-01 9.432738084922081927e-05 0.000000000000000000e+00 0.000000000000000000e+00 0.000000000000000000e+00 0.000000000000000000e+00 0.000000000000000000e+00
-1.006624598976402662e+00 -1.429802870309289320e+00 -1.630937282014729706e-01 -8.746836480279078785e-01 9.432738084922081927e-05 0.000000000000000000e+00 0.000000000000000000e+00 0.000000000000000000e+00 0.000000000000000000e+00 0.000000000000000000e+00
-1.006624598976402662e+00 -1.429802870309289320e+00 -1.630937282014729706e-01 -8.746836480279078785e-01 9.432738084922081927e-05 0.000000000000000000e+00 0.000000000000000000e+00 0.000000000000000000e+00 0.000000000000000000e+00 0.000000000000000000e+00
-1.006624598976402662e+00 -1.429802870309289320e+00 -1.630937282014729706e-01 -8.746836480279078785e-01 9.432738084922081927e-05 0.000000000000000000e+00 0.000000000000000000e+00 0.000000000000000000e+00 0.000000000000000000e+00 0.000000000000000000e+00
