-8.075808053448659818e-01 -7.484497442983303328e-01 -1.831558021133977421e-01 -5.971574154403622714e-01 -7.108192606490329685e-04 -6.737572492550942815e-01 -7.342658706053497575e-01 -1.756773466402798134e-01 1.413588282731671253e+00 -2.452350285193883109e-03
-8.427015214729537407e-01 -7.850264149327043084e-01 -1.917691506302514892e-01 -5.261333713908055154e-01 -1.002369197978492457e-03 0.000000000000000000e+00 0.000000000000000000e+00 0.000000000000000000e+00 0.000000000000000000e+00 0.000000000000000000e+00
-8.427015214729537407e-01 -7.850264149327043084e-01 -1.917691506302514892e-01 -5.261333713908055154e-01 -1.002369197978492457e-03 0.000000000000000000e+00 0.000000000000000000e+00 0.000000000000000000e+00 0.000000000000000000e+00 0.000000000000000000e+00
-8.427015214729537407e-01 -7.850264149327043084e-01 -1.917691506302514892e-01 -5.261333713908055154e-01 -1.002369197978492457e-03 0.000000000000000000e+00 0.000000000000000000e+00 0.000000000000000000e+00 0.000000000000000000e+00 0.000000000000000000e+00
-8.427015214729537407e-01 -7.850264149327043084e-01 -1.917691506302514892e-01 -5.261333713908055154e-01 -1.002369197978492457e-03 0.000000000000000000e+00 0.000000000000000000e+00 0.000000000000000000e+00 0.000000000000000000e+00 0.000000000000000000e+00
-8.427015214729537407e-01 -7.850264149327043084e-01 -1.917691506302514892e-01 -5.261333713908055154e-01 -1.002369197978492457e-03 0.000000000000000000e+00 0.000000000000000000e+00 0.000000000000000000e+00 0.000000000000000000e+00 0.000000000000000000e+00
-8.427015214729537407e-01 -7.850264149327043084e-01 -1.917691506302514892e-01 -5.261333713908055154e-01 -1.002369197978492457e-03 0.000000000000000000e+00 0.000000000000000000e+00 0.000000000000000000e+00 0.000000000000000000e+00 0.000000000000000000e+00
-8.427015214729537407e-01 -7.850264149327043084e-01 -1.917691506302514892e-01 -5.261333713908055154e-01 -1.002369197978492457e-03 0.000000000000000000e+00 0.000000000000000000e+00 0.000000000000000000e+00 0.000000000000000000e+00 0.000000000000000000e+00
-8.427015214729537407e-01 -7.850264149327043084e-01 -1.917691506302514892e-01 -5.261333713908055154e-01 -1.002369197978492457e-03 0.000000000000000000e+00 0.000000000000000000e+00 0.000000000000000000e+00 0.000000000000000000e+00 0.000000000000000000e+00
-8.427015214729537407e-01 -7.850264149327043084e-01 -1.917691506302514892e-01 -5.261333713908055154e-01 -1.002369197978492457e-03 0.000000000000000000e+00 0.000000000000000000e+00 0.000000000000000000e+00 0.000000000000000000e+00 0.000000000000000000e+00
-8.427015214729537407e-01 -7.850264149327043084e-01 -1.917691506302514892e-01 -5.261333713908055154e-01 -1.002369197978492457e-03 0.000000000000000000e+00 0.000000000000000000e+00 0.000000000000000000e+00 0.000000000000000000e+00 0.000000000000000000e+00
-8.427015214729537407e-01 -7.850264149327043084e-01 -1.917691506302514892e-01 -5.261333713908055154e-01 -1.002369197978492457e-03 0.000000000000000000e+00 0.000000000000000000e+00 0.000000000000000000e+00 0.000000000000000000e+00 0.000000000000000000e+00
-8.427015214729537407e-01 -7.850264149327043084e-01 -1.917691506302514892e-01 -5.261333713908055154e-01 -1.002369197978492457e-03 0.000000000000000000e+00 0.000000000000000000e+00 0.000000000000000000e+00 0.000000000000000000e+00 0.000000000000000000e+00
-8.427015214729537407e-01 -7.850264149327043084e-01 -1.917691506302514892e-01 -5.261333713908055154e-01 -1.002369197978492457e-03 0.000000000000000000e+00 0.000000000000000000e+00 0.000000000000000000e+00 0.000000000000000000e+00 0.000000000000000000e+00
-8.427015214729537407e-01 -7.850264149327043084e-01 -1.917691506302514892e-01 -5.261333713908055154e-01 -1.002369197978492457e-03 0.000000000000000000e+00 0.000000000000000000e+00 0.000000000000000000e+00 0.000000000000000000e+00 0.000000000000000000e+00
-8.427015214729537407e-01 -7.850264149327043084e-01 -1.917691506302514892e-01 -5.261333713908055154e-01 -1.002369197978492457e-03 0.000000000000000000e+00 0.000000000000000000e+00 0.000000000000000000e+00 0.000000000000000000e+00 0.000000000000000000e+00
-8.427015214729537407e-01 -7.850264149327043084e-01 -1.917691506302514892e-01 -5.261333713908055154e-01 -1.002369197978492457e-03 0.000000000000000000e+00 0.000000000000000000e+00 0.000000000000000000e+00 0.000000000000000000e+00 0.000000000000000000e+00
-8.427015214729537407e-01 -7.850264149327043084e-01 -1.917691506302514892e-01 -5.261333713908055154e-01 -1.002369197978492457e-03 0.000000000000000000e+00 0.000000000000000000e+00 0.000000000000000000e+00 0.000000000000000000e+00 0.000000000000000000e+00
-8.427015214729537407e-01 -7.850264149327043084e-01 -1.917691506302514892e-01 -5.261333713908055154e-01 -1.002369197978492457e-03 0.000000000000000000e+00 0.000000000000000000e+00 0.000000000000000000e+00 0.000000000000000000e+00 0.000000000000000000e+00
-8.427015214729537407e-01 -7.850264149327043084e-01 -1.917691506302514892e-01 -5.261333713908055154e-01 -1.002369197978492457e-03 0.000000000000000000e+00 0.000000000000000000e+00 0.000000000000000000e+00 0.000000000000000000e+00 0.000000000000000000e+00
-8.427015214729537407e-01 -7.850264149327043084e-01 -1.917691506302514892e-01 -5.261333713908055154e-01 -1.002369197978492457e-03 0.000000000000000000e+00 0.000000000000000000e+00 0.000000000000000000e+00 0.000000000000000000e+00 0.000000000000000000e+00
-8.427015214729537407e-01 -7.850264149327043084e-01 -1.917691506302514892e-01 -5.261333713908055154e-01 -1.002369197978492457e-03 0.000000000000000000e+00 0.000000000000000000e+00 0.000000000000000000e+00 0.000000000000000000e+00 0.000000000000000000e+00
-8.427015214729537407e-01 -7.850264149327043084e-01 -1.917691506302514892e-01 -5.261333713908055154e-01 -1.002369197978492457e-03 0.000000000000000000e+00 0.000000000000000000e+00 0.000000000000000000e+00 0.000000000000000000e+00 0.000000000000000000e+00
-8.427015214729537407e-01 -7.850264149327043084e-01 -1.917691506302514892e-01 -5.261333713908055154e-01 -1.002369197978492457e-03 0.000000000000000000e+00 0.000000000000000000e+00 0.000000000000000000e+00 0.000000000000000000e+00 0.000000000000000000e+00
-8.427015214729537407e-01 -7.850264149327043084e-01 -1.917691506302514892e-01 -5.261333713908055154e-01 -1.002369197978492457e-03 0.000000000000000000e+00 0.000000000000000000e+00 0.000000000000000000e+00 0.000000000000000000e+00 0.000000000000000000e+00
-8.427015214729537407e-01 -7.850264149327043084e-01 -1.917691506302514892e-01 -5.261333713908055154e-01 -1.002369197978492457e-03 0.000000000000000000e+00 0.000000000000000000e+00 0.000000000000000000e+00 0.000000000000000000e+00 0.000000000000000000e+00
-8.427015214729537407e-01 -7.850264149327043084e-01 -1.917691506302514892e-01 -5.261333713908055154e-01 -1.002369197978492457e-03 0.000000000000000000e+00 0.000000000000000000e+00 0.000000000000000000e+00 0.000000000000000000e+00 0.000000000000000000e+00
-8.427015214729537407e-01 -7.850264149327043084e-01 -1.917691506302514892e-01 -5.261333713908055154e-01 -1.002369197978492457e-03 0.000000000000000000e+00 0.000000000000000000e+00 0.000000000000000000e+00 0.000000000000000000e+00 0.000000000000000000e+00
-8.427015214729537407e-01 -7.850264149327043084e-01 -1.917691506302514892e-01 -5.261333713908055154e-01 -1.002369197978492457e-03 0.000000000000000000e+00 0.000000000000000000e+00 0.000000000000000000e+00 0.000000000000000000e+00 0.000000000000000000e+00
-8.427015214729537407e-01 -7.850264149327043084e-01 -1.917691506302514892e-01 -5.261333713908055154e-01 -1.002369197978492457e-03 0.000000000000000000e+00 0.000000000000000000e+00 0.000000000000000000e+00 0.000000000000000000e+00 0.000000000000000000e+00
-8.427015214729537407e-01 -7.850264149327043084e-01 -1.917691506302514892e-01 -5.261333713908055154e-01 -1.002369197978492457e-03 0.000000000000000000e+00 0.000000000000000000e+00 0.000000000000000000e+00 0.000000000000000000e+00 0.000000000000000000e+00
