-5.685684569045732495e-01 -1.585579650408389940e-01 7.036664141821684648e-01 -1.088234161637436692e+00 1.030442197457957874e-03 -3.327346333912409859e-01 -1.552164837127958386e-01 -4.417101039690936592e-01 -1.289183579503724530e+00 3.359590653218904070e-04
-5.864147671877780743e-01 -1.688893813760102836e-01 6.803411266429321147e-01 -1.156210696691249540e+00 1.033482545630482483e-03 -3.569262056640961078e-01 -2.066283267034258186e-01 -4.665057507847264473e-01 -1.359530701076255177e+00 6.080696345049120804e-05
-6.052127324753362458e-01 -1.819962979381076207e-01 6.555607085474112194e-01 -1.226071817802125041e+00 1.030653289614833715e-03 -3.759593057511630421e-01 -2.621383312419466316e-01 -4.956083619104168503e-01 -1.397222422217510029e+00 -5.658512031297545809e-05
-6.246950780561409955e-01 -1.980368560828475455e-01 6.290673804571451644e-01 -1.296102431583711745e+00 1.012665071743596573e-03 -3.896469116160943824e-01 -3.208111628947983296e-01 -5.298665618053203241e-01 -1.400612275631732073e+00 -3.597643574247412187e-04
-6.445895901668857730e-01 -2.171260710450829690e-01 6.006452832715034607e-01 -1.364545194583656862e+00 9.389229174731279813e-04 -3.978902422148958284e-01 -3.817842992447083583e-01 -5.684419437128335195e-01 -1.368855259998901674e+00 -1.474843085409372270e-03
-6.646289781949563658e-01 -2.393394459952753461e-01 5.701905835983949178e-01 -1.429660860715149973e+00 7.273533724691026801e-04 -4.007877605614125205e-01 -4.442674990038473770e-01 -6.090939934621717455e-01 -1.302313322629860881e+00 -4.231390900080504724e-03
-6.845635935009332096e-01 -2.647163996716014878e-01 5.377619117216245748e-01 -1.489802096427796041e+00 4.568579196684482415e-04 -3.986923061195361551e-01 -5.075390735265223885e-01 -6.485734375354069714e-01 -1.202824714252920257e+00 -5.409909056013087469e-03
-7.041746311874339526e-01 -2.932634227176347808e-01 5.036065424814341052e-01 -1.543491120713671672e+00 1.612307821055087198e-04 -3.922207537300153035e-01 -5.709404609206657488e-01 -6.831073848038099472e-01 -1.073780485717510613e+00 -5.912542751258790218e-03
-7.232848125254823790e-01 -3.249569924864749715e-01 4.681581438539649809e-01 -1.589486215555867554e+00 -1.368294127219256873e-04 -3.822036267609675297e-01 -6.338713953768037035e-01 -7.089679725493823748e-01 -9.199018968439189869e-01 -5.961203896548688576e-03
-7.417647566647691537e-01 -3.597466575854731397e-01 4.320063350671841107e-01 -1.626824357348530592e+00 -4.183538691327236877e-04 -3.695988827857348280e-01 -6.957933019799632524e-01 -7.230361757356175145e-01 -7.467628358532597543e-01 -5.630489128215959357e-03
-7.595350719772708814e-01 -3.975574056704042625e-01 3.958433199790721835e-01 -1.654839808974676529e+00 -6.673833086312339763e-04 -3.554063062500335546e-01 -7.562149616986227896e-01 -7.232603017622389885e-01 -5.603090325229203028e-01 -4.980588789970203170e-03
-7.765646312024943043e-01 -4.382907895018694489e-01 3.603955921263034545e-01 -1.673160859166820558e+00 -8.716231936945089721e-04 -3.405911845044677366e-01 -8.146676766293036165e-01 -7.089545570553749121e-01 -3.664210038428790117e-01 -4.084797701265498182e-03
-7.928665380161498133e-01 -4.818241446447276144e-01 3.263497621060457710e-01 -1.681691691845066838e+00 -1.023099900334308379e-03 -3.260381362731110122e-01 -8.706671028571629778e-01 -6.809166004051535603e-01 -1.706166535649244476e-01 -3.029534132795987274e-03
-8.084937965793860259e-01 -5.280076101522067633e-01 2.942828025177244844e-01 -1.680589885672969741e+00 -1.118763430156401216e-03 -3.125451712647242530e-01 -9.236693101495825342e-01 -6.413391917664259534e-01 2.203612344194286199e-02 -1.913270596441858477e-03
-8.235355713931860056e-01 -5.766607120262109420e-01 2.646065681796189173e-01 -1.670240806824145663e+00 -1.160837375990083969e-03 -3.008354962759991480e-01 -9.730620374800837968e-01 -5.935246867621118971e-01 2.069815769764798974e-01 -8.414789166736570073e-04
-8.381139494972451587e-01 -6.275714274877922660e-01 2.375356033914467202e-01 -1.651224525178782709e+00 -1.156271651942340122e-03 -2.915675620811826185e-01 -1.018214309231626480e+00 -5.414192957634441639e-01 3.803256329072580155e-01 9.131448095487759535e-05
-8.523825563377080972e-01 -6.804982274678227361e-01 2.130787909667614388e-01 -1.624278853861279126e+00 -1.115726427711702688e-03 -2.853721368092591582e-01 -1.058535999600610067e+00 -4.891362484937055721e-01 5.389134263500711119e-01 8.109044846127474874e-04
-8.665268060573344533e-01 -7.351762030655394353e-01 1.910523067394159780e-01 -1.590254958368056970e+00 -1.051875470101290653e-03 -2.828849943925274557e-01 -1.093559511954334651e+00 -4.405296845469089950e-01 6.804779098644450075e-01 1.277019152208241567e-03
-8.807667536696303090e-01 -7.913258992181849694e-01 1.711045516584576709e-01 -1.550069911213744378e+00 -9.776981534267935574e-04 -2.847989522459165035e-01 -1.122993923052910237e+00 -3.989551016191663080e-01 8.037009430862502857e-01 1.483546333489943643e-03
-8.953626850855092023e-01 -8.486630513481017157e-01 1.527443303060150026e-01 -1.504660811962345024e+00 -9.049944169867570835e-04 -2.919186283175785324e-01 -1.146743042598334927e+00 -3.672044270488534767e-01 9.081819850279884143e-01 1.454074728800729480e-03
-9.106239708925403242e-01 -9.069078136945550872e-01 1.353626161027541019e-01 -1.454941978278292414e+00 -8.434889626594805441e-04 -3.052257161406218278e-01 -1.164895246929068096e+00 -3.476342840652180133e-01 9.943766736810515372e-01 1.230109086545530788e-03
-9.269236892527470406e-01 -9.657905289073009936e-01 1.182373781496207366e-01 -1.401772580879184105e+00 -8.006358091752997438e-04 -3.259943672041332174e-01 -1.177654304254917683e+00 -3.425047590626674743e-01 1.063387947982166182e+00 8.570630696836151370e-04
-9.447207336903504782e-01 -1.025053366163481972e+00 1.005164267425096847e-01 -1.345934704725620490e+00 -7.811022010947861038e-04 -3.559408887520696396e-01 -1.185256745123621558e+00 -3.544190281422209821e-01 1.116757523071274294e+00 3.906721616102736688e-04
-9.645890727362200767e-01 -1.084448636679928857e+00 8.117903199587121754e-02 -1.288117549485416680e+00 -7.828732599579930765e-04 0.000000000000000000e+00 0.000000000000000000e+00 0.000000000000000000e+00 0.000000000000000000e+00 0.000000000000000000e+00
-9.645890727362200767e-01 -1.084448636679928857e+00 8.117903199587121754e-02 -1.288117549485416680e+00 -7.828732599579930765e-04 0.000000000000000000e+00 0.000000000000000000e+00 0.000000000000000000e+00 0.000000000000000000e+00 0.000000000000000000e+00
-9.645890727362200767e-01 -1.084448636679928857e+00 8.117903199587121754e-02 -1.288117549485416680e+00 -7.828732599579930765e-04 0.000000000000000000e+00 0.000000000000000000e+00 0.000000000000000000e+00 0.000000000000000000e+00 0.000000000000000000e+00
-9.645890727362200767e-01 -1.084448636679928857e+00 8.117903199587121754e-02 -1.288117549485416680e+00 -7.828732599579930765e-04 0.000000000000000000e+00 0.000000000000000000e+00 0.000000000000000000e+00 0.000000000000000000e+00 0.000000000000000000e+00
-9.645890727362200767e-01 -1.084448636679928857e+00 8.117903199587121754e-02 -1.288117549485416680e+00 -7.828732599579930765e-04 0.000000000000000000e+00 0.000000000000000000e+00 0.000000000000000000e+00 0.000000000000000000e+00 0.000000000000000000e+00
-9.645890727362200767e-01 -1.084448636679928857e+00 8.117903199587121754e-02 -1.288117549485416680e+00 -7.828732599579930765e-04 0.000000000000000000e+00 0.000000000000000000e+00 0.000000000000000000e+00 0.000000000000000000e+00 0.000000000000000000e+00
-9.645890727362200767e-01 -1.084448636679928857e+00 8.117903199587121754e-02 -1.288117549485416680e+00 -7.828732599579930765e-04 0.000000000000000000e+00 0.000000000000000000e+00 0.000000000000000000e+00 0.000000000000000000e+00 0.000000000000000000e+00
-9.645890727362200767e-01 -1.084448636679928857e+00 8.117903199587121754e-02 -1.288117549485416680e+00 -7.828732599579930765e-04 0.000000000000000000e+00 0.000000000000000000e+00 0.000000000000000000e+00 0.000000000000000000e+00 0.000000000000000000e+00
