-9.143388510902027422e-01 -5.687816072943019385e-01 2.534476698848077067e-02 -6.816622087949225639e-01 -2.632286587383247467e-04 -4.969964737083550910e-01 -6.071755337033043487e-01 -8.378033648760606356e-02 8.607360871315058448e-01 -2.113490479059375055e-03
-9.397610607204970323e-01 -5.995178516578860695e-01 2.274424905801878879e-02 -6.374149841832507102e-01 -3.950609791044148154e-04 -5.084441926058864691e-01 -6.147248872716823964e-01 -5.201035860923965137e-02 8.849444922334365193e-01 -2.636646407321801590e-03
-9.657960052337349888e-01 -6.304760170868435321e-01 2.133407934118151938e-02 -5.922767253594172221e-01 -6.182225335068277771e-04 -5.206988902647595729e-01 -6.191633085791485858e-01 -2.820339433674539861e-02 9.027651764766704279e-01 -4.463231088048259451e-03
-9.924914374997080291e-01 -6.615028590525331431e-01 2.064069377321762697e-02 -5.465096369459230274e-01 -1.188186686981461014e-03 0.000000000000000000e+00 0.000000000000000000e+00 0.000000000000000000e+00 0.000000000000000000e+00 0.000000000000000000e+00
-9.924914374997080291e-01 -6.615028590525331431e-01 2.064069377321762697e-02 -5.465096369459230274e-01 -1.188186686981461014e-03 0.000000000000000000e+00 0.000000000000000000e+00 0.000000000000000000e+00 0.000000000000000000e+00 0.000000000000000000e+00
-9.924914374997080291e-01 -6.615028590525331431e-01 2.064069377321762697e-02 -5.465096369459230274e-01 -1.188186686981461014e-03 0.000000000000000000e+00 0.000000000000000000e+00 0.000000000000000000e+00 0.000000000000000000e+00 0.000000000000000000e+00
-9.924914374997080291e-01 -6.615028590525331431e-01 2.064069377321762697e-02 -5.465096369459230274e-01 -1.188186686981461014e-03 0.000000000000000000e+00 0.000000000000000000e+00 0.000000000000000000e+00 0.000000000000000000e+00 0.000000000000000000e+00
-9.924914374997080291e-01 -6.615028590525331431e-01 2.064069377321762697e-02 -5.465096369459230274e-01 -1.188186686981461014e-03 0.000000000000000000e+00 0.000000000000000000e+00 0.000000000000000000e+00 0.000000000000000000e+00 0.000000000000000000e+00
-9.924914374997080291e-01 -6.615028590525331431e-01 2.064069377321762697e-02 -5.465096369459230274e-01 -1.188186686981461014e-03 0.000000000000000000e+00 0.000000000000000000e+00 0.000000000000000000e+00 0.000000000000000000e+00 0.000000000000000000e+00
-9.924914374997080291e-01 -6.615028590525331431e-01 2.064069377321762697e-02 -5.465096369459230274e-01 -1.188186686981461014e-03 0.000000000000000000e+00 0.000000000000000000e+00 0.000000000000000000e+00 0.000000000000000000e+00 0.000000000000000000e+00
-9.924914374997080291e-01 -6.615028590525331431e-01 2.064069377321762697e-02 -5.465096369459230274e-01 -1.188186686981461014e-03 0.000000000000000000e+00 0.000000000000000000e+00 0.000000000000000000e+00 0.000000000000000000e+00 0.000000000000000000e+00
-9.924914374997080291e-01 -6.615028590525331431e-01 2.064069377321762697e-02 -5.465096369459230274e-01 -1.188186686981461014e-03 0.000000000000000000e+00 0.000000000000000000e+00 0.000000000000000000e+00 0.000000000000000000e+00 0.000000000000000000e+00
-9.924914374997080291e-01 -6.615028590525331431e-01 2.064069377321762697e-02 -5.465096369459230274e-01 -1.188186686981461014e-03 0.000000000000000000e+00 0.000000000000000000e+00 0.000000000000000000e+00 0.000000000000000000e+00 0.000000000000000000e+00
-9.924914374997080291e-01 -6.615028590525331431e-01 2.064069377321762697e-02 -5.465096369459230274e-01 -1.188186686981461014e-03 0.000000000000000000e+00 0.000000000000000000e+00 0.000000000000000000e+00 0.000000000000000000e+00 0.000000000000000000e+00
-9.924914374997080291e-01 -6.615028590525331431e-01 2.064069377321762697e-02 -5.465096369459230274e-01 -1.188186686981461014e-03 0.000000000000000000e+00 0.000000000000000000e+00 0.000000000000000000e+00 0.000000000000000000e+00 0.000000000000000000e+00
-9.924914374997080291e-01 -6.615028590525331431e-01 2.064069377321762697e-02 -5.465096369459230274e-01 -1.188186686981461014e-03 0.000000000000000000e+00 0.000000000000000000e+00 0.000000000000000000e+00 0.000000000000000000e+00 0.000000000000000000e+00
-9.924914374997080291e-01 -6.615028590525331431e-01 2.064069377321762697e-02 -5.465096369459230274e-01 -1.188186686981461014e-03 0.000000000000000000e+00 0.000000000000000000e+00 0.000000000000000000e+00 0.000000000000000000e+00 0.000000000000000000e+00
-9.924914374997080291e-01 -6.615028590525331431e-01 2.064069377321762697e-02 -5.465096369459230274e-01 -1.188186686981461014e-03 0.000000000000000000e+00 0.000000000000000000e+00 0.000000000000000000e+00 0.000000000000000000e+00 0.000000000000000000e+00
-9.924914374997080291e-01 -6.615028590525331431e-01 2.064069377321762697e-02 -5.465096369459230274e-01 -1.188186686981461014e-03 0.000000000000000000e+00 0.000000000000000000e+00 0.000000000000000000e+00 0.000000000000000000e+00 0.000000000000000000e+00
-9.924914374997080291e-01 -6.615028590525331431e-01 2.064069377321762697e-02 -5.465096369459230274e-01 -1.188186686981461014e-03 0.000000000000000000e+00 0.000000000000000000e+00 0.000000000000000000e+00 0.000000000000000000e+00 0.000000000000000000e+00
-9.924914374997080291e-01 -6.615028590525331431e-01 2.064069377321762697e-02 -5.465096369459230274e-01 -1.188186686981461014e-03 0.000000000000000000e+00 0.000000000000000000e+00 0.000000000000000000e+00 0.000000000000000000e+00 0.000000000000000000e+00
-9.924914374997080291e-01 -6.615028590525331431e-01 2.064069377321762697e-02 -5.465096369459230274e-01 -1.188186686981461014e-03 0.000000000000000000e+00 0.000000000000000000e+00 0.000000000000000000e+00 0.000000000000000000e+00 0.000000000000000000e+00
-9.924914374997080291e-01 -6.615028590525331431e-01 2.064069377321762697e-02 -5.465096369459230274e-01 -1.188186686981461014e-03 0.000000000000000000e+00 0.000000000000000000e+00 0.000000000000000000e+00 0.000000000000000000e+00 0.000000000000000000e+00
-9.924914374997080291e-01 -6.615028590525331431e-01 2.064069377321762697e-02 -5.465096369459230274e-01 -1.188186686981461014e-03 0.000000000000000000e+00 0.000000000000000000e+00 0.000000000000000000e+00 0.000000000000000000e+00 0.000000000000000000e+00
-9.924914374997080291e-01 -6.615028590525331431e-01 2.064069377321762697e-02 -5.465096369459230274e-01 -1.188186686981461014e-03 0.000000000000000000e+00 0.000000000000000000e+00 0.000000000000000000e+00 0.000000000000000000e+00 0.000000000000000000e+00
-9.924914374997080291e-01 -6.615028590525331431e-01 2.064069377321762697e-02 -5.465096369459230274e-01 -1.188186686981461014e-03 0.000000000000000000e+00 0.000000000000000000e+00 0.000000000000000000e+00 0.000000000000000000e+00 0.000000000000000000e+00
-9.924914374997080291e-01 -6.615028590525331431e-01 2.064069377321762697e-02 -5.465096369459230274e-01 -1.188186686981461014e-03 0.000000000000000000e+00 0.000000000000000000e+00 0.000000000000000000e+00 0.000000000000000000e+00 0.000000000000000000e+00
-9.924914374997080291e-01 -6.615028590525331431e-01 2.064069377321762697e-02 -5.465096369459230274e-01 -1.188186686981461014e-03 0.000000000000000000e+00 0.000000000000000000e+00 0.000000000000000000e+00 0.000000000000000000e+00 0.000000000000000000e+00
-9.924914374997080291e-01 -6.615028590525331431e-01 2.064069377321762697e-02 -5.465096369459230274e-01 -1.188186686981461014e-03 0.000000000000000000e+00 0.000000000000000000e+00 0.000000000000000000e+00 0.000000000000000000e+00 0.000000000000000000e+00
-9.924914374997080291e-01 -6.615028590525331431e-01 2.064069377321762697e-02 -5.465096369459230274e-01 -1.188186686981461014e-03 0.000000000000000000e+00 0.000000000000000000e+00 0.000000000000000000e+00 0.000000000000000000e+00 0.000000000000000000e+00
-9.924914374997080291e-01 -6.615028590525331431e-01 2.064069377321762697e-02 -5.465096369459230274e-01 -1.188186686981461014e-03 0.000000000000000000e+00 0.000000000000000000e+00 0.000000000000000000e+00 0.000000000000000000e+00 0.000000000000000000e+00
