-3.556913372072988411e-01 -4.870882525282461684e-01 7.908263692011712198e-01 -1.220276345676918117e+00 9.543351192129358044e-04 -3.098736350853620314e-01 3.484048047623870825e-02 -8.021197775320306755e-01 -8.107264927281587763e-01 -9.136838181911177085e-04
-3.697681706566889326e-01 -4.869294275661296134e-01 7.526691506085209094e-01 -1.256311544564340910e+00 8.857001127142158977e-04 -2.815366689878023299e-01 3.176499242331494444e-03 -7.631443718530053211e-01 -7.207039777484557375e-01 -1.372700129974399001e-03
-3.822898299227528440e-01 -4.884845786466223694e-01 7.167925951731181078e-01 -1.287123544535609065e+00 8.044025518219472546e-04 -2.504331853212787284e-01 -3.110302160985483483e-02 -7.175311087080552541e-01 -6.162399994253615620e-01 -1.625951217845371995e-03
-3.931779080393426606e-01 -4.918313018815353987e-01 6.834796950525290349e-01 -1.312247342768138481e+00 7.209957834578869899e-04 -2.177615623317961657e-01 -6.693446469826103140e-02 -6.662580024117820132e-01 -5.024759646505867483e-01 -1.668135367281205293e-03
-4.024063587786017027e-01 -4.969952056897552484e-01 6.529648514130470538e-01 -1.331469233037265720e+00 6.445165143412876938e-04 -1.845690147851812291e-01 -1.032780761643972978e-01 -6.102968727896391776e-01 -3.844378053825465713e-01 -1.529585382331985488e-03
-4.099932348406934990e-01 -5.039534579179267837e-01 6.254278124406200678e-01 -1.344804809639707166e+00 5.815617604163595160e-04 -1.517375212418361763e-01 -1.391650445634300404e-01 -5.507407794485399410e-01 -2.667115320488292474e-01 -1.259095078498564209e-03
-4.159915683343030635e-01 -5.126407331110663934e-01 6.009863759381709469e-01 -1.352461992213360498e+00 5.360726855041538343e-04 -1.199666698721911645e-01 -1.737455038627930548e-01 -4.888287300489822518e-01 -1.531436514730671605e-01 -9.097814982441131994e-04
-4.204808090112455710e-01 -5.229563629133051617e-01 5.796900191467524444e-01 -1.354797322413075156e+00 5.098042274617634951e-04 -8.978481353884962268e-02 -2.063125960447760865e-01 -4.259271358283691078e-01 -4.670660399429417409e-02 -5.253691608478071101e-04
-4.235590196972920940e-01 -5.347724494659364947e-01 5.615203196093145888e-01 -1.352273960286257681e+00 5.026295953804871958e-04 -6.156421372093062727e-02 -2.363217310526258552e-01 -3.633939907487560572e-01 5.046724253634857216e-02 -1.434926416255268532e-04
-4.253359805059559462e-01 -5.479426169347092479e-01 5.463962062532152775e-01 -1.345421150013774492e+00 5.130208539533985448e-04 -3.553921617327680804e-02 -2.634033493754557309e-01 -3.024822671219853376e-01 1.370562054496625437e-01 2.078251714582267633e-04
-4.259281168341232937e-01 -5.623097918045562027e-01 5.341827365167786112e-01 -1.334802168921106036e+00 5.384487975206314224e-04 -1.184272656334734580e-02 -2.873434973969393180e-01 -2.442693947287323808e-01 2.123796218533707814e-01 5.085588713446564674e-04
-4.254540282101839654e-01 -5.777139314248441737e-01 5.247020668021157297e-01 -1.320984137783303813e+00 5.758174235083027065e-04 9.481772478786443942e-03 -3.080827924057604750e-01 -1.896133942932583805e-01 2.763606227560432282e-01 7.473725197534251399e-04
-4.240306920427149850e-01 -5.939990142849180810e-01 5.177452722643125504e-01 -1.304511456471945774e+00 6.219202917478819110e-04 2.846672334937989587e-02 -3.257016572014779787e-01 -1.391358907560627522e-01 3.294536262271614002e-01 9.220573647915834403e-04
-4.217705460800081907e-01 -6.110187489463311250e-01 5.130835813855466609e-01 -1.285884907733890969e+00 6.736575391260427774e-04 4.520291925413582462e-02 -3.403946932282598259e-01 -9.323381757531834513e-02 3.725309747610979216e-01 1.034744947563217546e-03
-4.187789276515994641e-01 -6.286411777638268861e-01 5.104778167219656826e-01 -1.265543185826108807e+00 7.285494740221791412e-04 5.983236856817424759e-02 -3.524485763499142221e-01 -5.211529327161949776e-02 4.068344381556433520e-01 1.097838697922725974e-03
-4.151529934503456198e-01 -6.467510742332174267e-01 5.096853298219705675e-01 -1.243854326083811301e+00 7.849421875393407808e-04 7.251868402507724576e-02 -3.621979293878100359e-01 -1.584973799990241350e-02 4.337771948459493432e-01 1.127854270343233009e-03
-4.109820676997471001e-01 -6.652497739152116729e-01 5.104660712188405780e-01 -1.221119933164399374e+00 8.416786111182587545e-04 8.341851501197025676e-02 -3.699739936398838691e-01 1.561482793740031488e-02 4.546878583882377756e-01 1.134728471578359908e-03
-4.063489274841392551e-01 -6.840534100672214235e-01 5.125868283855452567e-01 -1.197586489014598632e+00 8.969402041469058022e-04 9.266280431215710711e-02 -3.760727230401955667e-01 4.241514333409292931e-02 4.706688829960141152e-01 1.105231860572940088e-03
-4.013311836591599291e-01 -7.030909859818661456e-01 5.158210281990742718e-01 -1.173452394795351461e+00 9.461253404957932619e-04 1.003548764995861181e-01 -3.807515182928953301e-01 6.468399627058127321e-02 4.826818843849434715e-01 9.837027269777481094e-04
-3.960025792916327947e-01 -7.223024485703755104e-01 5.199457544915551122e-01 -1.148871359826406424e+00 9.741282241677456672e-04 1.065720873505430627e-01 -3.842292517701872412e-01 8.249452584961611268e-02 4.916206993789000168e-01 5.600576734390481058e-04
-3.904351309497293698e-01 -7.416359238174076163e-01 5.247374072189106009e-01 -1.123959839806005778e+00 9.230585443926131667e-04 0.000000000000000000e+00 0.000000000000000000e+00 0.000000000000000000e+00 0.000000000000000000e+00 0.000000000000000000e+00
-3.904351309497293698e-01 -7.416359238174076163e-01 5.247374072189106009e-01 -1.123959839806005778e+00 9.230585443926131667e-04 0.000000000000000000e+00 0.000000000000000000e+00 0.000000000000000000e+00 0.000000000000000000e+00 0.000000000000000000e+00
-3.904351309497293698e-01 -7.416359238174076163e-01 5.247374072189106009e-01 -1.123959839806005778e+00 9.230585443926131667e-04 0.000000000000000000e+00 0.000000000000000000e+00 0.000000000000000000e+00 0.000000000000000000e+00 0.000000000000000000e+00
-3.904351309497293698e-01 -7.416359238174076163e-01 5.247374072189106009e-01 -1.123959839806005778e+00 9.230585443926131667e-04 0.000000000000000000e+00 0.000000000000000000e+00 0.000000000000000000e+00 0.000000000000000000e+00 0.000000000000000000e+00
-3.904351309497293698e-01 -7.416359238174076163e-01 5.247374072189106009e-01 -1.123959839806005778e+00 9.230585443926131667e-04 0.000000000000000000e+00 0.000000000000000000e+00 0.000000000000000000e+00 0.000000000000000000e+00 0.000000000000000000e+00
-3.904351309497293698e-01 -7.416359238174076163e-01 5.247374072189106009e-01 -1.123959839806005778e+00 9.230585443926131667e-04 0.000000000000000000e+00 0.000000000000000000e+00 0.000000000000000000e+00 0.000000000000000000e+00 0.000000000000000000e+00
-3.904351309497293698e-01 -7.416359238174076163e-01 5.247374072189106009e-01 -1.123959839806005778e+00 9.230585443926131667e-04 0.000000000000000000e+00 0.000000000000000000e+00 0.000000000000000000e+00 0.000000000000000000e+00 0.000000000000000000e+00
-3.904351309497293698e-01 -7.416359238174076163e-01 5.247374072189106009e-01 -1.123959839806005778e+00 9.230585443926131667e-04 0.000000000000000000e+00 0.000000000000000000e+00 0.000000000000000000e+00 0.000000000000000000e+00 0.000000000000000000e+00
-3.904351309497293698e-01 -7.416359238174076163e-01 5.247374072189106009e-01 -1.123959839806005778e+00 9.230585443926131667e-04 0.000000000000000000e+00 0.000000000000000000e+00 0.000000000000000000e+00 0.000000000000000000e+00 0.000000000000000000e+00
-3.904351309497293698e-01 -7.416359238174076163e-01 5.247374072189106009e-01 -1.123959839806005778e+00 9.230585443926131667e-04 0.000000000000000000e+00 0.000000000000000000e+00 0.000000000000000000e+00 0.000000000000000000e+00 0.000000000000000000e+00
-3.904351309497293698e-01 -7.416359238174076163e-01 5.247374072189106009e-01 -1.123959839806005778e+00 9.230585443926131667e-04 0.000000000000000000e+00 0.000000000000000000e+00 0.000000000000000000e+00 0.000000000000000000e+00 0.000000000000000000e+00
