4.303387475551946617e-02 -9.994047682991390458e-01 1.146838534883193761e+00 -1.552794715977090956e+00 -5.110285401971864216e-04 2.163513942366867671e+00 -7.880706163185551283e-01 1.601353374754979964e+00 1.330753835812412467e+00 2.850233084910010206e-03
1.573313143851010620e-01 -1.033618542589726186e+00 1.233329164428746294e+00 -1.486633289402440550e+00 -3.281529514776045618e-04 2.285948792591631307e+00 -6.842754858117433558e-01 1.729812590911051107e+00 1.323228531493010118e+00 3.657511774391637195e-03
2.771838368379320183e-01 -1.062347620455451391e+00 1.325573107071401635e+00 -1.421151915186666947e+00 -1.017137488129386510e-04 2.397050449056619126e+00 -5.745815573145049981e-01 1.844878852853105489e+00 1.309627484315471158e+00 4.528784053293318651e-03
4.020691998954114554e-01 -1.085398467122730581e+00 1.423077768130411425e+00 -1.356302265724902645e+00 1.676283498593464784e-04 2.497707261149588742e+00 -4.610169333455828022e-01 1.950093221180194902e+00 1.296992989235285165e+00 5.386841973445702370e-03
5.316288437001417400e-01 -1.102669229578624233e+00 1.525714311475289131e+00 -1.291700015276431079e+00 4.727899967662361081e-04 2.591192876094605690e+00 -3.454152491178751894e-01 2.052730866897552353e+00 1.292045008969429976e+00 6.103232938137792378e-03
6.657778702597428877e-01 -1.114121561845217379e+00 1.633916767167929551e+00 -1.226677770270996559e+00 7.869003893740011317e-04 2.682980531192023399e+00 -2.290466453318643625e-01 2.164049113852807515e+00 1.300444900108692403e+00 6.282207852155300039e-03
8.047855758161129858e-01 -1.119728300985317615e+00 1.748873832449906685e+00 -1.160364090429200301e+00 1.000556102653721345e-03 0.000000000000000000e+00 0.000000000000000000e+00 0.000000000000000000e+00 0.000000000000000000e+00 0.000000000000000000e+00
8.047855758161129858e-01 -1.119728300985317615e+00 1.748873832449906685e+00 -1.160364090429200301e+00 1.000556102653721345e-03 0.000000000000000000e+00 0.000000000000000000e+00 0.000000000000000000e+00 0.000000000000000000e+00 0.000000000000000000e+00
8.047855758161129858e-01 -1.119728300985317615e+00 1.748873832449906685e+00 -1.160364090429200301e+00 1.000556102653721345e-03 0.000000000000000000e+00 0.000000000000000000e+00 0.000000000000000000e+00 0.000000000000000000e+00 0.000000000000000000e+00
8.047855758161129858e-01 -1.119728300985317615e+00 1.748873832449906685e+00 -1.160364090429200301e+00 1.000556102653721345e-03 0.000000000000000000e+00 0.000000000000000000e+00 0.000000000000000000e+00 0.000000000000000000e+00 0.000000000000000000e+00
8.047855758161129858e-01 -1.119728300985317615e+00 1.748873832449906685e+00 -1.160364090429200301e+00 1.000556102653721345e-03 0.000000000000000000e+00 0.000000000000000000e+00 0.000000000000000000e+00 0.000000000000000000e+00 0.000000000000000000e+00
8.047855758161129858e-01 -1.119728300985317615e+00 1.748873832449906685e+00 -1.160364090429200301e+00 1.000556102653721345e-03 0.000000000000000000e+00 0.000000000000000000e+00 0.000000000000000000e+00 0.000000000000000000e+00 0.000000000000000000e+00
8.047855758161129858e-01 -1.119728300985317615e+00 1.748873832449906685e+00 -1.160364090429200301e+00 1.000556102653721345e-03 0.000000000000000000e+00 0.000000000000000000e+00 0.000000000000000000e+00 0.000000000000000000e+00 0.000000000000000000e+00
8.047855758161129858e-01 -1.119728300985317615e+00 1.748873832449906685e+00 -1.160364090429200301e+00 1.000556102653721345e-03 0.000000000000000000e+00 0.000000000000000000e+00 0.000000000000000000e+00 0.000000000000000000e+00 0.000000000000000000e+00
8.047855758161129858e-01 -1.119728300985317615e+00 1.748873832449906685e+00 -1.160364090429200301e+00 1.000556102653721345e-03 0.000000000000000000e+00 0.000000000000000000e+00 0.000000000000000000e+00 0.000000000000000000e+00 0.000000000000000000e+00
8.047855758161129858e-01 -1.119728300985317615e+00 1.748873832449906685e+00 -1.160364090429200301e+00 1.000556102653721345e-03 0.000000000000000000e+00 0.000000000000000000e+00 0.000000000000000000e+00 0.000000000000000000e+00 0.000000000000000000e+00
8.047855758161129858e-01 -1.119728300985317615e+00 1.748873832449906685e+00 -1.160364090429200301e+00 1.000556102653721345e-03 0.000000000000000000e+00 0.000000000000000000e+00 0.000000000000000000e+00 0.000000000000000000e+00 0.000000000000000000e+00
8.047855758161129858e-01 -1.119728300985317615e+00 1.748873832449906685e+00 -1.160364090429200301e+00 1.000556102653721345e-03 0.000000000000000000e+00 0.000000000000000000e+00 0.000000000000000000e+00 0.000000000000000000e+00 0.000000000000000000e+00
8.047855758161129858e-01 -1.119728300985317615e+00 1.748873832449906685e+00 -1.160364090429200301e+00 1.000556102653721345e-03 0.000000000000000000e+00 0.000000000000000000e+00 0.000000000000000000e+00 0.000000000000000000e+00 0.000000000000000000e+00
8.047855758161129858e-01 -1.119728300985317615e+00 1.748873832449906685e+00 -1.160364090429200301e+00 1.000556102653721345e-03 0.000000000000000000e+00 0.000000000000000000e+00 0.000000000000000000e+00 0.000000000000000000e+00 0.000000000000000000e+00
8.047855758161129858e-01 -1.119728300985317615e+00 1.748873832449906685e+00 -1.160364090429200301e+00 1.000556102653721345e-03 0.000000000000000000e+00 0.000000000000000000e+00 0.000000000000000000e+00 0.000000000000000000e+00 0.000000000000000000e+00
8.047855758161129858e-01 -1.119728300985317615e+00 1.748873832449906685e+00 -1.160364090429200301e+00 1.000556102653721345e-03 0.000000000000000000e+00 0.000000000000000000e+00 0.000000000000000000e+00 0.000000000000000000e+00 0.000000000000000000e+00
8.047855758161129858e-01 -1.119728300985317615e+00 1.748873832449906685e+00 -1.160364090429200301e+00 1.000556102653721345e-03 0.000000000000000000e+00 0.000000000000000000e+00 0.000000000000000000e+00 0.000000000000000000e+00 0.000000000000000000e+00
8.047855758161129858e-01 -1.119728300985317615e+00 1.748873832449906685e+00 -1.160364090429200301e+00 1.000556102653721345e-03 0.000000000000000000e+00 0.000000000000000000e+00 0.000000000000000000e+00 0.000000000000000000e+00 0.000000000000000000e+00
8.047855758161129858e-01 -1.119728300985317615e+00 1.748873832449906685e+00 -1.160364090429200301e+00 1.000556102653721345e-03 0.000000000000000000e+00 0.000000000000000000e+00 0.000000000000000000e+00 0.000000000000000000e+00 0.000000000000000000e+00
8.047855758161129858e-01 -1.119728300985317615e+00 1.748873832449906685e+00 -1.160364090429200301e+00 1.000556102653721345e-03 0.000000000000000000e+00 0.000000000000000000e+00 0.000000000000000000e+00 0.000000000000000000e+00 0.000000000000000000e+00
8.047855758161129858e-01 -1.119728300985317615e+00 1.748873832449906685e+00 -1.160364090429200301e+00 1.000556102653721345e-03 0.000000000000000000e+00 0.000000000000000000e+00 0.000000000000000000e+00 0.000000000000000000e+00 0.000000000000000000e+00
8.047855758161129858e-01 -1.119728300985317615e+00 1.748873832449906685e+00 -1.160364090429200301e+00 1.000556102653721345e-03 0.000000000000000000e+00 0.000000000000000000e+00 0.000000000000000000e+00 0.000000000000000000e+00 0.000000000000000000e+00
8.047855758161129858e-01 -1.119728300985317615e+00 1.748873832449906685e+00 -1.160364090429200301e+00 1.000556102653721345e-03 0.000000000000000000e+00 0.000000000000000000e+00 0.000000000000000000e+00 0.000000000000000000e+00 0.000000000000000000e+00
8.047855758161129858e-01 -1.119728300985317615e+00 1.748873832449906685e+00 -1.160364090429200301e+00 1.000556102653721345e-03 0.000000000000000000e+00 0.000000000000000000e+00 0.000000000000000000e+00 0.000000000000000000e+00 0.000000000000000000e+00
8.047855758161129858e-01 -1.119728300985317615e+00 1.748873832449906685e+00 -1.160364090429200301e+00 1.000556102653721345e-03 0.000000000000000000e+00 0.000000000000000000e+00 0.000000000000000000e+00 0.000000000000000000e+00 0.000000000000000000e+00
