1.651387318017047967e+00 -8.791593279501633829e-01 1.728062664029524464e+00 -7.479816239659189403e-01 1.019892658406848247e-03 2.956760861101779714e+00 7.343328003257589831e-01 1.570290295388155677e+00 2.060116230430955486e+00 7.517077404661843577e-03
1.793487246440326865e+00 -8.351265340109988999e-01 1.799523407978258938e+00 -6.387188201975111390e-01 1.001378256952665125e-03 0.000000000000000000e+00 0.000000000000000000e+00 0.000000000000000000e+00 0.000000000000000000e+00 0.000000000000000000e+00
1.793487246440326865e+00 -8.351265340109988999e-01 1.799523407978258938e+00 -6.387188201975111390e-01 1.001378256952665125e-03 0.000000000000000000e+00 0.000000000000000000e+00 0.000000000000000000e+00 0.000000000000000000e+00 0.000000000000000000e+00
1.793487246440326865e+00 -8.351265340109988999e-01 1.799523407978258938e+00 -6.387188201975111390e-01 1.001378256952665125e-03 0.000000000000000000e+00 0.000000000000000000e+00 0.000000000000000000e+00 0.000000000000000000e+00 0.000000000000000000e+00
1.793487246440326865e+00 -8.351265340109988999e-01 1.799523407978258938e+00 -6.387188201975111390e-01 1.001378256952665125e-03 0.000000000000000000e+00 0.000000000000000000e+00 0.000000000000000000e+00 0.000000000000000000e+00 0.000000000000000000e+00
1.793487246440326865e+00 -8.351265340109988999e-01 1.799523407978258938e+00 -6.387188201975111390e-01 1.001378256952665125e-03 0.000000000000000000e+00 0.000000000000000000e+00 0.000000000000000000e+00 0.000000000000000000e+00 0.000000000000000000e+00
1.793487246440326865e+00 -8.351265340109988999e-01 1.799523407978258938e+00 -6.387188201975111390e-01 1.001378256952665125e-03 0.000000000000000000e+00 0.000000000000000000e+00 0.000000000000000000e+00 0.000000000000000000e+00 0.000000000000000000e+00
1.793487246440326865e+00 -8.351265340109988999e-01 1.799523407978258938e+00 -6.387188201975111390e-01 1.001378256952665125e-03 0.000000000000000000e+00 0.000000000000000000e+00 0.000000000000000000e+00 0.000000000000000000e+00 0.000000000000000000e+00
1.793487246440326865e+00 -8.351265340109988999e-01 1.799523407978258938e+00 -6.387188201975111390e-01 1.001378256952665125e-03 0.000000000000000000e+00 0.000000000000000000e+00 0.000000000000000000e+00 0.000000000000000000e+00 0.000000000000000000e+00
1.793487246440326865e+00 -8.351265340109988999e-01 1.799523407978258938e+00 -6.387188201975111390e-01 1.001378256952665125e-03 0.000000000000000000e+00 0.000000000000000000e+00 0.000000000000000000e+00 0.000000000000000000e+00 0.000000000000000000e+00
1.793487246440326865e+00 -8.351265340109988999e-01 1.799523407978258938e+00 -6.387188201975111390e-01 1.001378256952665125e-03 0.000000000000000000e+00 0.000000000000000000e+00 0.000000000000000000e+00 0.000000000000000000e+00 0.000000000000000000e+00
1.793487246440326865e+00 -8.351265340109988999e-01 1.799523407978258938e+00 -6.387188201975111390e-01 1.001378256952665125e-03 0.000000000000000000e+00 0.000000000000000000e+00 0.000000000000000000e+00 0.000000000000000000e+00 0.000000000000000000e+00
1.793487246440326865e+00 -8.351265340109988999e-01 1.799523407978258938e+00 -6.387188201975111390e-01 1.001378256952665125e-03 0.000000000000000000e+00 0.000000000000000000e+00 0.000000000000000000e+00 0.000000000000000000e+00 0.000000000000000000e+00
1.793487246440326865e+00 -8.351265340109988999e-01 1.799523407978258938e+00 -6.387188201975111390e-01 1.001378256952665125e-03 0.000000000000000000e+00 0.000000000000000000e+00 0.000000000000000000e+00 0.000000000000000000e+00 0.000000000000000000e+00
1.793487246440326865e+00 -8.351265340109988999e-01 1.799523407978258938e+00 -6.387188201975111390e-01 1.001378256952665125e-03 0.000000000000000000e+00 0.000000000000000000e+00 0.000000000000000000e+00 0.000000000000000000e+00 0.000000000000000000e+00
1.793487246440326865e+00 -8.351265340109988999e-01 1.799523407978258938e+00 -6.387188201975111390e-01 1.001378256952665125e-03 0.000000000000000000e+00 0.000000000000000000e+00 0.000000000000000000e+00 0.000000000000000000e+00 0.000000000000000000e+00
1.793487246440326865e+00 -8.351265340109988999e-01 1.799523407978258938e+00 -6.387188201975111390e-01 1.001378256952665125e-03 0.000000000000000000e+00 0.000000000000000000e+00 0.000000000000000000e+00 0.000000000000000000e+00 0.000000000000000000e+00
1.793487246440326865e+00 -8.351265340109988999e-01 1.799523407978258938e+00 -6.387188201975111390e-01 1.001378256952665125e-03 0.000000000000000000e+00 0.000000000000000000e+00 0.000000000000000000e+00 0.000000000000000000e+00 0.000000000000000000e+00
1.793487246440326865e+00 -8.351265340109988999e-01 1.799523407978258938e+00 -6.387188201975111390e-01 1.001378256952665125e-03 0.000000000000000000e+00 0.000000000000000000e+00 0.000000000000000000e+00 0.000000000000000000e+00 0.000000000000000000e+00
1.793487246440326865e+00 -8.351265340109988999e-01 1.799523407978258938e+00 -6.387188201975111390e-01 1.001378256952665125e-03 0.000000000000000000e+00 0.000000000000000000e+00 0.000000000000000000e+00 0.000000000000000000e+00 0.000000000000000000e+00
1.793487246440326865e+00 -8.351265340109988999e-01 1.799523407978258938e+00 -6.387188201975111390e-01 1.001378256952665125e-03 0.000000000000000000e+00 0.000000000000000000e+00 0.000000000000000000e+00 0.000000000000000000e+00 0.000000000000000000e+00
1.793487246440326865e+00 -8.351265340109988999e-01 1.799523407978258938e+00 -6.387188201975111390e-01 1.001378256952665125e-03 0.000000000000000000e+00 0.000000000000000000e+00 0.000000000000000000e+00 0.000000000000000000e+00 0.000000000000000000e+00
1.793487246440326865e+00 -8.351265340109988999e-01 1.799523407978258938e+00 -6.387188201975111390e-01 1.001378256952665125e-03 0.000000000000000000e+00 0.000000000000000000e+00 0.000000000000000000e+00 0.000000000000000000e+00 0.000000000000000000e+00
1.793487246440326865e+00 -8.351265340109988999e-01 1.799523407978258938e+00 -6.387188201975111390e-01 1.001378256952665125e-03 0.000000000000000000e+00 0.000000000000000000e+00 0.000000000000000000e+00 0.000000000000000000e+00 0.000000000000000000e+00
1.793487246440326865e+00 -8.351265340109988999e-01 1.799523407978258938e+00 -6.387188201975111390e-01 1.001378256952665125e-03 0.000000000000000000e+00 0.000000000000000000e+00 0.000000000000000000e+00 0.000000000000000000e+00 0.000000000000000000e+00
1.793487246440326865e+00 -8.351265340109988999e-01 1.799523407978258938e+00 -6.387188201975111390e-01 1.001378256952665125e-03 0.000000000000000000e+00 0.000000000000000000e+00 0.000000000000000000e+00 0.000000000000000000e+00 0.000000000000000000e+00
1.793487246440326865e+00 -8.351265340109988999e-01 1.799523407978258938e+00 -6.387188201975111390e-01 1.001378256952665125e-03 0.000000000000000000e+00 0.000000000000000000e+00 0.000000000000000000e+00 0.000000000000000000e+00 0.000000000000000000e+00
1.793487246440326865e+00 -8.351265340109988999e-01 1.799523407978258938e+00 -6.387188201975111390e-01 1.001378256952665125e-03 0.000000000000000000e+00 0.000000000000000000e+00 0.000000000000000000e+00 0.000000000000000000e+00 0.000000000000000000e+00
1.793487246440326865e+00 -8.351265340109988999e-01 1.799523407978258938e+00 -6.387188201975111390e-01 1.001378256952665125e-03 0.000000000000000000e+00 0.000000000000000000e+00 0.000000000000000000e+00 0.000000000000000000e+00 0.000000000000000000e+00
1.793487246440326865e+00 -8.351265340109988999e-01 1.799523407978258938e+00 -6.387188201975111390e-01 1.001378256952665125e-03 0.000000000000000000e+00 0.000000000000000000e+00 0.000000000000000000e+00 0.000000000000000000e+00 0.000000000000000000e+00
1.793487246440326865e+00 -8.351265340109988999e-01 1.799523407978258938e+00 -6.387188201975111390e-01 1.001378256952665125e-03 0.000000000000000000e+00 0.000000000000000000e+00 0.000000000000000000e+00 0.000000000000000000e+00 0.000000000000000000e+00
