-1.039206046519392190e+00 -8.564643789556665443e-02 -2.350995872413572108e-01 -1.464455366076463871e+00 -9.896221794743738451e-04 -5.439867978851510300e-01 -4.369590197857941005e-01 -6.476230408404339833e-01 5.600000874612962587e-01 8.931054372145925957e-04
-1.066813861044044964e+00 -1.092526324667057736e-01 -2.618659311102974896e-01 -1.430914591635862765e+00 -9.149992728229119389e-04 -5.521562904930574778e-01 -4.721238914227822159e-01 -5.353268773788052437e-01 6.708154888120203552e-01 1.492458133029238559e-03
-1.094834843652793710e+00 -1.342107489060663239e-01 -2.835595940172206397e-01 -1.393086274933631463e+00 -8.261098586163768921e-04 -5.604196521749760240e-01 -4.991623287872110626e-01 -4.338732581384628362e-01 7.565663340446280305e-01 1.777788284130700286e-03
-1.123263148609111806e+00 -1.601722621462954854e-01 -3.007389593655935278e-01 -1.352034208740090060e+00 -7.357461070237663811e-04 -5.685660991263601360e-01 -5.192302648045833413e-01 -3.435873069674582059e-01 8.210413238708287320e-01 1.807275031852211087e-03
-1.152089893813912802e+00 -1.868468683554092569e-01 -3.139481853498414243e-01 -1.308638832008028885e+00 -6.529174935986206728e-04 -5.765349040960183746e-01 -5.334921241822754290e-01 -2.641845196849577637e-01 8.679075346412252756e-01 1.656572268502913949e-03
-1.181308577897160594e+00 -2.140001340854393308e-01 -3.237006341708516532e-01 -1.263608529131760694e+00 -5.831798556544509063e-04 -5.843736816649538479e-01 -5.430653146006017007e-01 -1.950489764202041343e-01 9.006060575253658218e-01 1.394752758883395982e-03
-1.210918642272056145e+00 -2.414489995447024751e-01 -3.304725801642263150e-01 -1.217494681804502932e+00 -5.293610706673726723e-04 -5.922012874979131203e-01 -5.489773091852627740e-01 -1.354389198674935679e-01 9.222769465451564619e-01 1.076375699741564896e-03
-1.240927472249939933e+00 -2.690552717750063216e-01 -3.347047912238891310e-01 -1.170710589152679670e+00 -4.924558014148373115e-04 -6.001765995576767709e-01 -5.521254446060767096e-01 -8.464422119325673566e-02 9.356818530364632291e-01 7.381053850507069986e-04
-1.271351312232948949e+00 -2.967184215609399156e-01 -3.368081531966244935e-01 -1.123550664908687713e+00 -4.726275750660728181e-04 -6.084767996601814222e-01 -5.532629957186716574e-01 -4.206723945470765280e-02 9.431984848798383725e-01 3.965645269752901938e-04
-1.302215464609201678e+00 -3.243684751831752977e-01 -3.371705096383594835e-01 -1.076208029510119069e+00 -4.710377564104385674e-04 -6.172830475250550286e-01 -5.530010724447074200e-01 -7.247128834699849420e-03 9.468527079713736638e-01 3.179637311268512182e-05
-1.333554017682081261e+00 -3.519594780610781348e-01 -3.361640307484138335e-01 -1.028788978524022513e+00 -4.952024768036142029e-04 -6.267710614575898731e-01 -5.518200575580571865e-01 2.012957779891265397e-02 9.483810197219292304e-01 -4.832944078635118424e-04
-1.365409264891217722e+00 -3.794638578468072510e-01 -3.341527853946856252e-01 -9.813233805612261440e-01 -5.788079149582322017e-04 -6.371049441827272286e-01 -5.500875957145817674e-01 4.022490707456413683e-02 9.493119592559273734e-01 -1.672108763092359325e-03
-1.397830962142372568e+00 -4.068677173814872483e-01 -3.314996986559087810e-01 -9.337717389863346984e-01 -8.605872712597261668e-04 0.000000000000000000e+00 0.000000000000000000e+00 0.000000000000000000e+00 0.000000000000000000e+00 0.000000000000000000e+00
-1.397830962142372568e+00 -4.068677173814872483e-01 -3.314996986559087810e-01 -9.337717389863346984e-01 -8.605872712597261668e-04 0.000000000000000000e+00 0.000000000000000000e+00 0.000000000000000000e+00 0.000000000000000000e+00 0.000000000000000000e+00
-1.397830962142372568e+00 -4.068677173814872483e-01 -3.314996986559087810e-01 -9.337717389863346984e-01 -8.605872712597261668e-04 0.000000000000000000e+00 0.000000000000000000e+00 0.000000000000000000e+00 0.000000000000000000e+00 0.000000000000000000e+00
-1.397830962142372568e+00 -4.068677173814872483e-01 -3.314996986559087810e-01 -9.337717389863346984e-01 -8.605872712597261668e-04 0.000000000000000000e+00 0.000000000000000000e+00 0.000000000000000000e+00 0.000000000000000000e+00 0.000000000000000000e+00
-1.397830962142372568e+00 -4.068677173814872483e-01 -3.314996986559087810e-01 -9.337717389863346984e-01 -8.605872712597261668e-04 0.000000000000000000e+00 0.000000000000000000e+00 0.000000000000000000e+00 0.000000000000000000e+00 0.000000000000000000e+00
-1.397830962142372568e+00 -4.068677173814872483e-01 -3.314996986559087810e-01 -9.337717389863346984e-01 -8.605872712597261668e-04 0.000000000000000000e+00 0.000000000000000000e+00 0.000000000000000000e+00 0.000000000000000000e+00 0.000000000000000000e+00
-1.397830962142372568e+00 -4.068677173814872483e-01 -3.314996986559087810e-01 -9.337717389863346984e-01 -8.605872712597261668e-04 0.000000000000000000e+00 0.000000000000000000e+00 0.000000000000000000e+00 0.000000000000000000e+00 0.000000000000000000e+00
-1.397830962142372568e+00 -4.068677173814872483e-01 -3.314996986559087810e-01 -9.337717389863346984e-01 -8.605872712597261668e-04 0.000000000000000000e+00 0.000000000000000000e+00 0.000000000000000000e+00 0.000000000000000000e+00 0.000000000000000000e+00
-1.397830962142372568e+00 -4.068677173814872483e-01 -3.314996986559087810e-01 -9.337717389863346984e-01 -8.605872712597261668e-04 0.000000000000000000e+00 0.000000000000000000e+00 0.000000000000000000e+00 0.000000000000000000e+00 0.000000000000000000e+00
-1.397830962142372568e+00 -4.068677173814872483e-01 -3.314996986559087810e-01 -9.337717389863346984e-01 -8.605872712597261668e-04 0.000000000000000000e+00 0.000000000000000000e+00 0.000000000000000000e+00 0.000000000000000000e+00 0.000000000000000000e+00
-1.397830962142372568e+00 -4.068677173814872483e-01 -3.314996986559087810e-01 -9.337717389863346984e-01 -8.605872712597261668e-04 0.000000000000000000e+00 0.000000000000000000e+00 0.000000000000000000e+00 0.000000000000000000e+00 0.000000000000000000e+00
-1.397830962142372568e+00 -4.068677173814872483e-01 -3.314996986559087810e-01 -9.337717389863346984e-01 -8.605872712597261668e-04 0.000000000000000000e+00 0.000000000000000000e+00 0.000000000000000000e+00 0.000000000000000000e+00 0.000000000000000000e+00
-1.397830962142372568e+00 -4.068677173814872483e-01 -3.314996986559087810e-01 -9.337717389863346984e-01 -8.605872712597261668e-04 0.000000000000000000e+00 0.000000000000000000e+00 0.000000000000000000e+00 0.000000000000000000e+00 0.000000000000000000e+00
-1.397830962142372568e+00 -4.068677173814872483e-01 -3.314996986559087810e-01 -9.337717389863346984e-01 -8.605872712597261668e-04 0.000000000000000000e+00 0.000000000000000000e+00 0.000000000000000000e+00 0.000000000000000000e+00 0.000000000000000000e+00
-1.397830962142372568e+00 -4.068677173814872483e-01 -3.314996986559087810e-01 -9.337717389863346984e-01 -8.605872712597261668e-04 0.000000000000000000e+00 0.000000000000000000e+00 0.000000000000000000e+00 0.000000000000000000e+00 0.000000000000000000e+00
-1.397830962142372568e+00 -4.068677173814872483e-01 -3.314996986559087810e-01 -9.337717389863346984e-01 -8.605872712597261668e-04 0.000000000000000000e+00 0.000000000000000000e+00 0.000000000000000000e+00 0.000000000000000000e+00 0.000000000000000000e+00
-1.397830962142372568e+00 -4.068677173814872483e-01 -3.314996986559087810e-01 -9.337717389863346984e-01 -8.605872712597261668e-04 0.000000000000000000e+00 0.000000000000000000e+00 0.000000000000000000e+00 0.000000000000000000e+00 0.000000000000000000e+00
-1.397830962142372568e+00 -4.068677173814872483e-01 -3.314996986559087810e-01 -9.337717389863346984e-01 -8.605872712597261668e-04 0.000000000000000000e+00 0.000000000000000000e+00 0.000000000000000000e+00 0.000000000000000000e+00 0.000000000000000000e+00
-1.397830962142372568e+00 -4.068677173814872483e-01 -3.314996986559087810e-01 -9.337717389863346984e-01 -8.605872712597261668e-04 0.000000000000000000e+00 0.000000000000000000e+00 0.000000000000000000e+00 0.000000000000000000e+00 0.000000000000000000e+00
