-8.266914644609916207e-01 -3.285557428192669160e-01 1.249489627219919075e-01 -1.832352149514591577e+00 -8.540344218869813393e-04 -3.109545244779132744e-01 -1.009000132421375318e+00 -1.636777545933660205e+00 -8.756945574989241088e-01 -5.710259351937975805e-03
-8.403833598605857658e-01 -3.847607442017312307e-01 4.555388680886468533e-02 -1.860323288494441174e+00 -1.012178027954138432e-03 -2.738379079918824566e-01 -1.124100027649285627e+00 -1.587901518262544442e+00 -5.594227795969919370e-01 -3.162872121343141430e-03
-8.523731525371062157e-01 -4.466462627192671619e-01 -2.943515447334925372e-02 -1.872718708724246728e+00 -1.052125466437934609e-03 -2.397958535304084426e-01 -1.237710370350718403e+00 -1.499780825644278837e+00 -2.479084045961107985e-01 -7.989487696759248365e-04
-8.628800435903667410e-01 -5.140065900760234507e-01 -9.854032071415803895e-02 -1.870340510912331666e+00 -1.028950254047167031e-03 -2.101378210652113665e-01 -1.347206547135125110e+00 -1.382103324816175816e+00 4.756395623830206310e-02 4.635042478153528732e-04
-8.721318220535430044e-01 -5.864936509464622194e-01 -1.609398952347546041e-01 -1.854400621270743565e+00 -9.347179654335456642e-04 -1.850355692635244631e-01 -1.449741217408774929e+00 -1.247991490411931581e+00 3.187977928317607956e-01 1.884645772272427761e-03
-8.803152236061139169e-01 -6.636381222876250874e-01 -2.164787577180653788e-01 -1.826347073624337236e+00 -7.556813152553138423e-04 -1.636680310514175285e-01 -1.542889426823256471e+00 -1.110777249666215383e+00 5.610709529281282526e-01 3.580733003564637307e-03
-8.875434939146458202e-01 -7.448901189236432074e-01 -2.655532271729560967e-01 -1.787708835984111344e+00 -5.190464160341292429e-04 -1.445654061706386495e-01 -1.625039932720362179e+00 -9.814893890978146906e-01 7.727647528045183956e-01 4.732697984423691120e-03
-8.938393864170328662e-01 -8.296636863341355639e-01 -3.089300880770499136e-01 -1.739985385636049653e+00 -2.586255206756384126e-04 -1.259178500477416973e-01 -1.695471348209847129e+00 -8.675372180818760048e-01 9.544690069612354888e-01 5.208417907169815737e-03
-8.991253202050557558e-01 -9.173742369077966252e-01 -3.475545112885882193e-01 -1.684586487447003789e+00 -3.052262216531986382e-06 -1.057186757604587357e-01 -1.754211011473221227e+00 -7.724884642307660032e-01 1.107977963780917285e+00 5.111465169182128308e-03
-9.032140410030494726e-01 -1.007463871204540062e+00 -3.823832479983395594e-01 -1.622813985353522614e+00 2.276446034380115999e-04 -8.177441595987333667e-02 -1.801792685934867411e+00 -6.965747341950271343e-01 1.235450041869623927e+00 4.613937313090872051e-03
-9.057987645737171079e-01 -1.099417071546379132e+00 -4.142549128055422192e-01 -1.555860022542663312e+00 4.214474229960848061e-04 -5.169447141335372503e-02 -1.839064006836779175e+00 -6.374332961440528633e-01 1.339079256217187153e+00 3.876056391161464450e-03
-9.064605449288113403e-01 -1.192783419699697145e+00 -4.438074617590054283e-01 -1.484749067120684440e+00 5.737219197262267284e-04 -1.323560710188537159e-02 -1.867326963066361145e+00 -5.910509790692644039e-01 1.422219108439578106e+00 3.045489934602838011e-03
-9.047223511245975347e-01 -1.287178432665033068e+00 -4.714776057871825077e-01 -1.410326771069283502e+00 6.832667438728959796e-04 3.476387608427624482e-02 -1.887900259306717787e+00 -5.534028805635410331e-01 1.488445921028020313e+00 2.190896482933385025e-03
-9.002071460580772788e-01 -1.382279250056228426e+00 -4.976248464436389130e-01 -1.333243167123721484e+00 7.495291331802167185e-04 9.030410133040606135e-02 -1.902016347823907827e+00 -5.229448131291284385e-01 1.541672078911240806e+00 1.325247786146413692e-03
-8.929394115823018341e-01 -1.477818148804193488e+00 -5.228398229512735140e-01 -1.253943015140007722e+00 7.763951887139121551e-04 1.453546895155093666e-01 -1.910777974959300574e+00 -5.042995301526915775e-01 1.586003039674273474e+00 5.373211106739085152e-04
-8.836962826603370624e-01 -1.573567678689516747e+00 -5.484028704256888043e-01 -1.172727243794969842e+00 7.994198672203984635e-04 1.848625784392946836e-01 -1.914990597706465403e+00 -5.112609494883053607e-01 1.624315426900756920e+00 4.604935701297270902e-04
-8.741034419316642268e-01 -1.669311222549015872e+00 -5.766295110998229667e-01 -1.089934430923370945e+00 1.002627632351799688e-03 0.000000000000000000e+00 0.000000000000000000e+00 0.000000000000000000e+00 0.000000000000000000e+00 0.000000000000000000e+00
-8.741034419316642268e-01 -1.669311222549015872e+00 -5.766295110998229667e-01 -1.089934430923370945e+00 1.002627632351799688e-03 0.000000000000000000e+00 0.000000000000000000e+00 0.000000000000000000e+00 0.000000000000000000e+00 0.000000000000000000e+00
-8.741034419316642268e-01 -1.669311222549015872e+00 -5.766295110998229667e-01 -1.089934430923370945e+00 1.002627632351799688e-03 0.000000000000000000e+00 0.000000000000000000e+00 0.000000000000000000e+00 0.000000000000000000e+00 0.000000000000000000e+00
-8.741034419316642268e-01 -1.669311222549015872e+00 -5.766295110998229667e-01 -1.089934430923370945e+00 1.002627632351799688e-03 0.000000000000000000e+00 0.000000000000000000e+00 0.000000000000000000e+00 0.000000000000000000e+00 0.000000000000000000e+00
-8.741034419316642268e-01 -1.669311222549015872e+00 -5.766295110998229667e-01 -1.089934430923370945e+00 1.002627632351799688e-03 0.000000000000000000e+00 0.000000000000000000e+00 0.000000000000000000e+00 0.000000000000000000e+00 0.000000000000000000e+00
-8.741034419316642268e-01 -1.669311222549015872e+00 -5.766295110998229667e-01 -1.089934430923370945e+00 1.002627632351799688e-03 0.000000000000000000e+00 0.000000000000000000e+00 0.000000000000000000e+00 0.000000000000000000e+00 0.000000000000000000e+00
-8.741034419316642268e-01 -1.669311222549015872e+00 -5.766295110998229667e-01 -1.089934430923370945e+00 1.002627632351799688e-03 0.000000000000000000e+00 0.000000000000000000e+00 0.000000000000000000e+00 0.000000000000000000e+00 0.000000000000000000e+00
-8.741034419316642268e-01 -1.669311222549015872e+00 -5.766295110998229667e-01 -1.089934430923370945e+00 1.002627632351799688e-03 0.000000000000000000e+00 0.000000000000000000e+00 0.000000000000000000e+00 0.000000000000000000e+00 0.000000000000000000e+00
-8.741034419316642268e-01 -1.669311222549015872e+00 -5.766295110998229667e-01 -1.089934430923370945e+00 1.002627632351799688e-03 0.000000000000000000e+00 0.000000000000000000e+00 0.000000000000000000e+00 0.000000000000000000e+00 0.000000000000000000e+00
-8.741034419316642268e-01 -1.669311222549015872e+00 -5.766295110998229667e-01 -1.089934430923370945e+00 1.002627632351799688e-03 0.000000000000000000e+00 0.000000000000000000e+00 0.000000000000000000e+00 0.000000000000000000e+00 0.000000000000000000e+00
-8.741034419316642268e-01 -1.669311222549015872e+00 -5.766295110998229667e-01 -1.089934430923370945e+00 1.002627632351799688e-03 0.000000000000000000e+00 0.000000000000000000e+00 0.000000000000000000e+00 0.000000000000000000e+00 0.000000000000000000e+00
-8.741034419316642268e-01 -1.669311222549015872e+00 -5.766295110998229667e-01 -1.089934430923370945e+00 1.002627632351799688e-03 0.000000000000000000e+00 0.000000000000000000e+00 0.000000000000000000e+00 0.000000000000000000e+00 0.000000000000000000e+00
-8.741034419316642268e-01 -1.669311222549015872e+00 -5.766295110998229667e-01 -1.089934430923370945e+00 1.002627632351799688e-03 0.000000000000000000e+00 0.000000000000000000e+00 0.000000000000000000e+00 0.000000000000000000e+00 0.000000000000000000e+00
-8.741034419316642268e-01 -1.669311222549015872e+00 -5.766295110998229667e-01 -1.089934430923370945e+00 1.002627632351799688e-03 0.000000000000000000e+00 0.000000000000000000e+00 0.000000000000000000e+00 0.000000000000000000e+00 0.000000000000000000e+00
-8.741034419316642268e-01 -1.669311222549015872e+00 -5.766295110998229667e-01 -1.089934430923370945e+00 1.002627632351799688e-03 0.000000000000000000e+00 0.000000000000000000e+00 0.000000000000000000e+00 0.000000000000000000e+00 0.000000000000000000e+00
