-5.835557653211350670e-01 -4.019454672889841707e-01 2.309680662192137302e-01 -1.468643266221809407e+00 -4.541105583809697992e-05 -3.641275098518957365e-01 1.665973171902093430e-01 -9.764837901752565497e-01 -4.592677709089595939e-01 -1.684780769849463780e-03
-6.000232688739193243e-01 -3.959672165292933976e-01 1.879734842720293952e-01 -1.483583302763637812e+00 -7.420118449704495066e-05 -3.293500710556849231e-01 1.195650151938152383e-01 -8.598916389436866980e-01 -2.988007308365666637e-01 -5.758025731789594148e-04
-6.150222778926570655e-01 -3.921057679464026724e-01 1.506132428484106556e-01 -1.491608628784501622e+00 -5.269943132815119277e-05 -2.999801803747543794e-01 7.722897165781503204e-02 -7.472048284723749045e-01 -1.605065204172765325e-01 4.300350633778750493e-04
-6.287996107428309722e-01 -3.900964636423631671e-01 1.185897151740514383e-01 -1.493872214955452193e+00 1.020102226935249237e-05 -2.755466570034780793e-01 4.018608608078955147e-02 -6.404705534871844019e-01 -4.527172341901257446e-02 1.258009071950073540e-03
-6.415739988255950710e-01 -3.896635518900787853e-01 9.152003689081393556e-02 -1.491498089738781951e+00 1.037895830509833806e-04 -2.554877616552830855e-01 8.658235045687738551e-03 -5.413935656647499428e-01 4.748250433340266141e-02 1.871771215632617603e-03
-6.535340264196862758e-01 -3.905372474041177711e-01 6.896512999727838489e-02 -1.485525395163761031e+00 2.173124311544895207e-04 -2.392005518818238197e-01 -1.747391028078008890e-02 -4.510981378707110689e-01 1.194538915004174917e-01 2.270456962070122476e-03
-6.648374398672436403e-01 -3.924703019544740767e-01 5.046233132645704805e-02 -1.476858101994947825e+00 3.422018326947856137e-04 -2.260682689511481769e-01 -3.866109100712561419e-02 -3.700559734164267089e-01 1.733458633762626211e-01 2.497788030805921100e-03
-6.756143288141120973e-01 -3.952456766558564705e-01 3.554759936334767750e-02 -1.466249566427114681e+00 4.724773310768376131e-04 -2.155377789373701947e-01 -5.550749402764753454e-02 -2.982946392621874110e-01 2.121707113566645986e-01 2.605509967641039554e-03
-6.859726891495558920e-01 -3.986758309955155122e-01 2.376310819633116467e-02 -1.454313548405739454e+00 6.037985686775794274e-04 -2.071672067088760338e-01 -6.860308679318080638e-02 -2.356898233403302845e-01 2.387203604275052737e-01 2.626424752014836720e-03
-6.960025035771985058e-01 -4.026020555729940553e-01 1.466529728027320123e-02 -1.441534527126167919e+00 7.328980579673770486e-04 -2.005962885528531359e-01 -7.852449154957102939e-02 -1.819562183211592687e-01 2.555804255914287393e-01 2.581989785795952858e-03
-7.057795432502148580e-01 -4.068931804660829155e-01 7.827031691035142222e-03 -1.428277388879705789e+00 8.553916255730185676e-04 -1.955407934603268505e-01 -8.582249786177666151e-02 -1.367653117847611732e-01 2.651427649292419364e-01 2.449871352112831680e-03
-7.153684033539852161e-01 -4.114433449450732860e-01 2.838512502304222154e-03 -1.414799296521868088e+00 9.586761426253922851e-04 -1.917772020754064388e-01 -9.100328957980785560e-02 -9.977038377461838747e-02 2.695618471567521324e-01 2.065690341047474350e-03
-7.248248343546084271e-01 -4.161694876557290312e-01 -6.915941779701883022e-04 -1.401262704008840565e+00 9.941599610830322703e-04 -1.891286200124632499e-01 -9.452285421311468205e-02 -7.060213360548819872e-02 2.707318502605517430e-01 7.096763691528007890e-04
-7.341975095478926461e-01 -4.210081693711337225e-01 -3.136030632433074814e-03 -1.387749656937589116e+00 1.001615811769145581e-03 -1.874535038656848229e-01 -9.677363430809338141e-02 -4.888872908925773197e-02 2.702609414250282671e-01 1.491170137222642533e-04
-7.435294186939984673e-01 -4.259127054446136262e-01 -4.848316391448823093e-03 -1.374275297512204563e+00 9.969762518669022296e-04 -1.866381829221157307e-01 -9.809072146959857408e-02 -3.424571518031496037e-02 2.694871885076904339e-01 -9.279119804486490397e-05
-7.528588885805931330e-01 -4.308501137604876519e-01 -6.162889352761692641e-03 -1.360801073642415870e+00 9.652437025712159004e-04 0.000000000000000000e+00 0.000000000000000000e+00 0.000000000000000000e+00 0.000000000000000000e+00 0.000000000000000000e+00
-7.528588885805931330e-01 -4.308501137604876519e-01 -6.162889352761692641e-03 -1.360801073642415870e+00 9.652437025712159004e-04 0.000000000000000000e+00 0.000000000000000000e+00 0.000000000000000000e+00 0.000000000000000000e+00 0.000000000000000000e+00
-7.528588885805931330e-01 -4.308501137604876519e-01 -6.162889352761692641e-03 -1.360801073642415870e+00 9.652437025712159004e-04 0.000000000000000000e+00 0.000000000000000000e+00 0.000000000000000000e+00 0.000000000000000000e+00 0.000000000000000000e+00
-7.528588885805931330e-01 -4.308501137604876519e-01 -6.162889352761692641e-03 -1.360801073642415870e+00 9.652437025712159004e-04 0.000000000000000000e+00 0.000000000000000000e+00 0.000000000000000000e+00 0.000000000000000000e+00 0.000000000000000000e+00
-7.528588885805931330e-01 -4.308501137604876519e-01 -6.162889352761692641e-03 -1.360801073642415870e+00 9.652437025712159004e-04 0.000000000000000000e+00 0.000000000000000000e+00 0.000000000000000000e+00 0.000000000000000000e+00 0.000000000000000000e+00
-7.528588885805931330e-01 -4.308501137604876519e-01 -6.162889352761692641e-03 -1.360801073642415870e+00 9.652437025712159004e-04 0.000000000000000000e+00 0.000000000000000000e+00 0.000000000000000000e+00 0.000000000000000000e+00 0.000000000000000000e+00
-7.528588885805931330e-01 -4.308501137604876519e-01 -6.162889352761692641e-03 -1.360801073642415870e+00 9.652437025712159004e-04 0.000000000000000000e+00 0.000000000000000000e+00 0.000000000000000000e+00 0.000000000000000000e+00 0.000000000000000000e+00
-7.528588885805931330e-01 -4.308501137604876519e-01 -6.162889352761692641e-03 -1.360801073642415870e+00 9.652437025712159004e-04 0.000000000000000000e+00 0.000000000000000000e+00 0.000000000000000000e+00 0.000000000000000000e+00 0.000000000000000000e+00
-7.528588885805931330e-01 -4.308501137604876519e-01 -6.162889352761692641e-03 -1.360801073642415870e+00 9.652437025712159004e-04 0.000000000000000000e+00 0.000000000000000000e+00 0.000000000000000000e+00 0.000000000000000000e+00 0.000000000000000000e+00
-7.528588885805931330e-01 -4.308501137604876519e-01 -6.162889352761692641e-03 -1.360801073642415870e+00 9.652437025712159004e-04 0.000000000000000000e+00 0.000000000000000000e+00 0.000000000000000000e+00 0.000000000000000000e+00 0.000000000000000000e+00
-7.528588885805931330e-01 -4.308501137604876519e-01 -6.162889352761692641e-03 -1.360801073642415870e+00 9.652437025712159004e-04 0.000000000000000000e+00 0.000000000000000000e+00 0.000000000000000000e+00 0.000000000000000000e+00 0.000000000000000000e+00
-7.528588885805931330e-01 -4.308501137604876519e-01 -6.162889352761692641e-03 -1.360801073642415870e+00 9.652437025712159004e-04 0.000000000000000000e+00 0.000000000000000000e+00 0.000000000000000000e+00 0.000000000000000000e+00 0.000000000000000000e+00
-7.528588885805931330e-01 -4.308501137604876519e-01 -6.162889352761692641e-03 -1.360801073642415870e+00 9.652437025712159004e-04 0.000000000000000000e+00 0.000000000000000000e+00 0.000000000000000000e+00 0.000000000000000000e+00 0.000000000000000000e+00
-7.528588885805931330e-01 -4.308501137604876519e-01 -6.162889352761692641e-03 -1.360801073642415870e+00 9.652437025712159004e-04 0.000000000000000000e+00 0.000000000000000000e+00 0.000000000000000000e+00 0.000000000000000000e+00 0.000000000000000000e+00
-7.528588885805931330e-01 -4.308501137604876519e-01 -6.162889352761692641e-03 -1.360801073642415870e+00 9.652437025712159004e-04 0.000000000000000000e+00 0.000000000000000000e+00 0.000000000000000000e+00 0.000000000000000000e+00 0.000000000000000000e+00
-7.528588885805931330e-01 -4.308501137604876519e-01 -6.162889352761692641e-03 -1.360801073642415870e+00 9.652437025712159004e-04 0.000000000000000000e+00 0.000000000000000000e+00 0.000000000000000000e+00 0.000000000000000000e+00 0.000000000000000000e+00
