2.005183966490289849e-01 -6.782227724558527182e-01 9.930060020090503148e-01 -1.584594397272468314e+00 -1.020437252183412297e-03 1.931199862583637294e+00 -8.633961865059079921e-01 1.109470884756589504e+00 1.537758443507991180e+00 -1.257722884254047226e-04
3.028185973441164247e-01 -7.167759690742186995e-01 1.052587281619807191e+00 -1.503878626118202000e+00 -1.025930771873055473e-03 2.046004013901748131e+00 -7.710639323673204037e-01 1.191625592215135976e+00 1.614315423085325385e+00 -1.098703937928636505e-04
4.103045024021670373e-01 -7.499804280291293423e-01 1.115371908825628422e+00 -1.420084827502609004e+00 -1.028876068719498374e-03 2.149718101161012473e+00 -6.640891790982117460e-01 1.255692544116426168e+00 1.675875972311859696e+00 -5.890593692885950775e-05
5.222047044341699973e-01 -7.772155095705439720e-01 1.180170263122110486e+00 -1.333777957695570837e+00 -1.022469297592258804e-03 2.238004040640059422e+00 -5.447016308282933705e-01 1.295967085929642604e+00 1.726137396140762670e+00 1.281354225447930246e-04
6.375467655415570922e-01 -7.980017645423130856e-01 1.245518940533387520e+00 -1.245319805628825049e+00 -9.853348371022840110e-04 2.306841222147741455e+00 -4.157250994353811624e-01 1.306973548225540238e+00 1.769163041334915532e+00 7.426892097994957460e-04
7.552091794186953644e-01 -8.120336558930585369e-01 1.309744861302402974e+00 -1.154869493575578110e+00 -8.818963404647443566e-04 2.353248277542764555e+00 -2.806378270149094689e-01 1.284518415380308198e+00 1.809006241064937903e+00 2.068769932750792219e-03
8.740057146803106303e-01 -8.192088884490490441e-01 1.371079606697385378e+00 -1.062409276624215471e+00 -7.093063766276685479e-04 2.375930705232305762e+00 -1.435046511198105335e-01 1.226694907899646747e+00 1.849204339027253230e+00 3.451799276741515307e-03
9.927875776499559546e-01 -8.196464782358241496e-01 1.427805553182168730e+00 -9.677979253665992543e-01 -4.772757910483823836e-04 2.375637259392906930e+00 -8.751795735502193585e-03 1.134518929695666589e+00 1.892227025152323439e+00 4.640611711585721985e-03
1.110542131636075291e+00 -8.136877885500354290e-01 1.478404473981723921e+00 -8.708409389813643875e-01 -2.025799162866687045e-04 2.355091079722386294e+00 1.191737937157738569e-01 1.011978415991103164e+00 1.939139727704697336e+00 5.493917495234273800e-03
1.226467902761929407e+00 -8.018792746647480651e-01 1.521682581022332226e+00 -7.713599170562148721e-01 9.284533844993548635e-05 2.318515422517082758e+00 2.361702777057463898e-01 8.655621408121668692e-01 1.989620438502989641e+00 5.908505094732084684e-03
1.340012600660843045e+00 -7.849396171686461310e-01 1.556856427229319273e+00 -6.692437239448366659e-01 3.829872470431405535e-04 2.270893957978273203e+00 3.387931499220393494e-01 7.034769241397391681e-01 2.042323862227563680e+00 5.802838171864101342e-03
1.450871462694921288e+00 -7.637156838634675537e-01 1.583598694267717599e+00 -5.644737337777583353e-01 6.396467393866379697e-04 2.217177240681563077e+00 4.244786661035707676e-01 5.348453407679680804e-01 2.095399803341567502e+00 5.133189846869948107e-03
1.558951798677691958e+00 -7.391301267333153513e-01 1.602048417158245863e+00 -4.571258197904229936e-01 8.402587309149656819e-04 2.161606719655415176e+00 4.917111426030449928e-01 3.689944578105638362e-01 2.146958279746706388e+00 4.012239830566554678e-03
1.664312764643705700e+00 -7.121202389020557799e-01 1.612776672942793477e+00 -3.473576195184486792e-01 1.002313639446105343e-03 0.000000000000000000e+00 0.000000000000000000e+00 0.000000000000000000e+00 0.000000000000000000e+00 0.000000000000000000e+00
1.664312764643705700e+00 -7.121202389020557799e-01 1.612776672942793477e+00 -3.473576195184486792e-01 1.002313639446105343e-03 0.000000000000000000e+00 0.000000000000000000e+00 0.000000000000000000e+00 0.000000000000000000e+00 0.000000000000000000e+00
1.664312764643705700e+00 -7.121202389020557799e-01 1.612776672942793477e+00 -3.473576195184486792e-01 1.002313639446105343e-03 0.000000000000000000e+00 0.000000000000000000e+00 0.000000000000000000e+00 0.000000000000000000e+00 0.000000000000000000e+00
1.664312764643705700e+00 -7.121202389020557799e-01 1.612776672942793477e+00 -3.473576195184486792e-01 1.002313639446105343e-03 0.000000000000000000e+00 0.000000000000000000e+00 0.000000000000000000e+00 0.000000000000000000e+00 0.000000000000000000e+00
1.664312764643705700e+00 -7.121202389020557799e-01 1.612776672942793477e+00 -3.473576195184486792e-01 1.002313639446105343e-03 0.000000000000000000e+00 0.000000000000000000e+00 0.000000000000000000e+00 0.000000000000000000e+00 0.000000000000000000e+00
1.664312764643705700e+00 -7.121202389020557799e-01 1.612776672942793477e+00 -3.473576195184486792e-01 1.002313639446105343e-03 0.000000000000000000e+00 0.000000000000000000e+00 0.000000000000000000e+00 0.000000000000000000e+00 0.000000000000000000e+00
1.664312764643705700e+00 -7.121202389020557799e-01 1.612776672942793477e+00 -3.473576195184486792e-01 1.002313639446105343e-03 0.000000000000000000e+00 0.000000000000000000e+00 0.000000000000000000e+00 0.000000000000000000e+00 0.000000000000000000e+00
1.664312764643705700e+00 -7.121202389020557799e-01 1.612776672942793477e+00 -3.473576195184486792e-01 1.002313639446105343e-03 0.000000000000000000e+00 0.000000000000000000e+00 0.000000000000000000e+00 0.000000000000000000e+00 0.000000000000000000e+00
1.664312764643705700e+00 -7.121202389020557799e-01 1.612776672942793477e+00 -3.473576195184486792e-01 1.002313639446105343e-03 0.000000000000000000e+00 0.000000000000000000e+00 0.000000000000000000e+00 0.000000000000000000e+00 0.000000000000000000e+00
1.664312764643705700e+00 -7.121202389020557799e-01 1.612776672942793477e+00 -3.473576195184486792e-01 1.002313639446105343e-03 0.000000000000000000e+00 0.000000000000000000e+00 0.000000000000000000e+00 0.000000000000000000e+00 0.000000000000000000e+00
1.664312764643705700e+00 -7.121202389020557799e-01 1.612776672942793477e+00 -3.473576195184486792e-01 1.002313639446105343e-03 0.000000000000000000e+00 0.000000000000000000e+00 0.000000000000000000e+00 0.000000000000000000e+00 0.000000000000000000e+00
1.664312764643705700e+00 -7.121202389020557799e-01 1.612776672942793477e+00 -3.473576195184486792e-01 1.002313639446105343e-03 0.000000000000000000e+00 0.000000000000000000e+00 0.000000000000000000e+00 0.000000000000000000e+00 0.000000000000000000e+00
1.664312764643705700e+00 -7.121202389020557799e-01 1.612776672942793477e+00 -3.473576195184486792e-01 1.002313639446105343e-03 0.000000000000000000e+00 0.000000000000000000e+00 0.000000000000000000e+00 0.000000000000000000e+00 0.000000000000000000e+00
1.664312764643705700e+00 -7.121202389020557799e-01 1.612776672942793477e+00 -3.473576195184486792e-01 1.002313639446105343e-03 0.000000000000000000e+00 0.000000000000000000e+00 0.000000000000000000e+00 0.000000000000000000e+00 0.000000000000000000e+00
1.664312764643705700e+00 -7.121202389020557799e-01 1.612776672942793477e+00 -3.473576195184486792e-01 1.002313639446105343e-03 0.000000000000000000e+00 0.000000000000000000e+00 0.000000000000000000e+00 0.000000000000000000e+00 0.000000000000000000e+00
1.664312764643705700e+00 -7.121202389020557799e-01 1.612776672942793477e+00 -3.473576195184486792e-01 1.002313639446105343e-03 0.000000000000000000e+00 0.000000000000000000e+00 0.000000000000000000e+00 0.000000000000000000e+00 0.000000000000000000e+00
1.664312764643705700e+00 -7.121202389020557799e-01 1.612776672942793477e+00 -3.473576195184486792e-01 1.002313639446105343e-03 0.000000000000000000e+00 0.000000000000000000e+00 0.000000000000000000e+00 0.000000000000000000e+00 0.000000000000000000e+00
1.664312764643705700e+00 -7.121202389020557799e-01 1.612776672942793477e+00 -3.473576195184486792e-01 1.002313639446105343e-03 0.000000000000000000e+00 0.000000000000000000e+00 0.000000000000000000e+00 0.000000000000000000e+00 0.000000000000000000e+00
