-2.357046524305347057e-01 -6.147605814442840266e-01 7.752387006548833170e-01 -1.210772417912511445e+00 -8.967786493541685111e-04 1.572474005319631218e-01 -1.045525609920541915e-01 5.104922752297702537e-01 -5.007970509154726635e-01 -3.224531347010977777e-03
-2.255688972269171422e-01 -6.210374710813483246e-01 8.037395492253965879e-01 -1.235884493647033455e+00 -9.858899758161954185e-04 2.027151040723513264e-01 -1.255377927412854033e-01 5.700169714102650831e-01 -5.022415146904388727e-01 -1.782226529240536414e-03
-2.131412049456773983e-01 -6.282095040074336945e-01 8.342463663865911094e-01 -1.259364365523717666e+00 -1.013500437282629238e-03 2.485538456247949890e-01 -1.434406585217068153e-01 6.101363432238908757e-01 -4.695974375336822715e-01 -5.522092293286774787e-04
-1.984839212131520036e-01 -6.360891222181155324e-01 8.659413312709067778e-01 -1.279974425832564489e+00 -1.008941507013219347e-03 2.931456746505078925e-01 -1.575923642136369263e-01 6.338992976863137008e-01 -4.122012061769381175e-01 9.117860538819663133e-05
-1.817390042623600876e-01 -6.444651656334868806e-01 8.981225322602406358e-01 -1.296923983435961159e+00 -9.800009000421885334e-04 3.348983390158382090e-01 -1.675208683074270732e-01 6.436240197866776036e-01 -3.389911520679319001e-01 5.788121394206161658e-04
-1.631159955527887728e-01 -6.531175719343282893e-01 9.301809996732497421e-01 -1.309815651482850507e+00 -9.248592285341118713e-04 3.724601741914263520e-01 -1.730481260168292845e-01 6.411693482601824590e-01 -2.578333609377861380e-01 1.102833430161534326e-03
-1.428703122615913590e-01 -6.618341024511302795e-01 9.615960632634982241e-01 -1.318565177779843944e+00 -8.505028299411164245e-04 4.049136658239484987e-01 -1.743306103360400816e-01 6.283012718049698631e-01 -1.749905259398698842e-01 1.487127971859909586e-03
-1.212721217041346500e-01 -6.704266750399761055e-01 9.919463439848036357e-01 -1.323291823687982482e+00 -7.640589818620659038e-04 4.319638111491339583e-01 -1.718514517769161865e-01 6.070056144261072317e-01 -9.453291816277299697e-02 1.728876961581010414e-03
-9.858228828107719333e-02 -6.787394486688018702e-01 1.020917846560837283e+00 -1.324236370433295562e+00 -6.709075149716358559e-04 4.537966684611490220e-01 -1.662554725765149899e-01 5.794300515206709523e-01 -1.889093490626127247e-02 1.863029337808600958e-03
-7.504058546728184509e-02 -6.866492619449621193e-01 1.048293126655422958e+00 -1.321706299146291785e+00 -5.740413493673384056e-04 4.708340562759069647e-01 -1.581962655232056203e-01 5.475056018917145995e-01 5.060142574007731042e-02 1.937323312085949874e-03
-5.085912754192111612e-02 -6.940638037882814748e-01 1.073936544406077775e+00 -1.316035073939180178e+00 -4.743308088472756906e-04 4.836291585072146071e-01 -1.482908368663865550e-01 5.128683550130970215e-01 1.134245041422311528e-01 1.994210810401254082e-03
-2.622162274447489838e-02 -7.009182453557176729e-01 1.097779567887010810e+00 -1.307566099019345840e+00 -3.717369341241172028e-04 4.927500959489243271e-01 -1.370888313487238497e-01 4.768604696186617975e-01 1.693794983966881995e-01 2.051877494463169756e-03
-1.282453513317880628e-03 -7.071723082358282175e-01 1.119810814533017007e+00 -1.296638996501395580e+00 -2.660708333288074132e-04 4.987833846231403134e-01 -1.250812576022113931e-01 4.406249329201217813e-01 2.185420503590063401e-01 2.113322015906196442e-03
2.383371928592217456e-02 -7.128072309142818863e-01 1.140067753677611151e+00 -1.283577441095175686e+00 -1.572501477958198539e-04 5.023234559848011038e-01 -1.126984535690743333e-01 4.051387828918827094e-01 2.612311081243988142e-01 2.176413710659750537e-03
4.903085313508898785e-02 -7.178224616642292499e-01 1.158628433001684499e+00 -1.268681412750107595e+00 -4.539414699387442191e-05 5.039426769833362796e-01 -1.003046149989483132e-01 3.712135864814657404e-01 2.979205669013595958e-01 2.237120016038908477e-03
7.423987226997411093e-02 -7.222324803771006385e-01 1.175604684907388675e+00 -1.252222117891520936e+00 6.915458022814300720e-05 5.041803826977023784e-01 -8.820037425742713322e-02 3.395250381140837437e-01 3.291858971717347981e-01 2.290974544440348148e-03
9.941617852138322220e-02 -7.260637283947796172e-01 1.191135272330557271e+00 -1.234439227059515476e+00 1.858573067594399995e-04 5.035261250281821699e-01 -7.662496035357950486e-02 3.106117484633711956e-01 3.556578166401105356e-01 2.334054530625940226e-03
1.245365962521670505e-01 -7.293517575813077691e-01 1.205378925833152870e+00 -1.215539699408242580e+00 3.040334939967254645e-04 5.024083546156765667e-01 -6.576058373056237194e-02 2.848730700519117032e-01 3.779905530254586976e-01 2.363523744745709299e-03
1.495962439016957080e-01 -7.321387132307989321e-01 1.218508700116044619e+00 -1.195698558965422986e+00 4.228579919913592346e-04 5.011929529905729819e-01 -5.573911298982290458e-02 2.625954856578348595e-01 3.968228088563910960e-01 2.376489959892675186e-03
1.746053490743805225e-01 -7.344710810346259944e-01 1.230706828480057968e+00 -1.175060658141337866e+00 5.413151839911960889e-04 5.001821034536961808e-01 -4.664735607654102445e-02 2.439625672802648304e-01 4.127580164817030717e-01 2.369143839996736001e-03
1.995859132460106322e-01 -7.363975294728767329e-01 1.242159478858564370e+00 -1.153743054221985309e+00 6.581905331613413686e-04 4.996112834326022489e-01 -3.852896876501485379e-02 2.290530075701293078e-01 4.263520783870528019e-01 2.337506983402906028e-03
2.245685631318651287e-01 -7.379669315925955209e-01 1.253051961801556979e+00 -1.131837649897953879e+00 7.718408926244631511e-04 4.996529977170898751e-01 -3.138804239437469057e-02 2.178496588598505257e-01 4.381080864806288777e-01 2.273007189262434783e-03
2.495892367467156814e-01 -7.392265751801421203e-01 1.263563678131523149e+00 -1.109415048173834517e+00 8.788386180708936775e-04 5.004134722970108307e-01 -2.519287175093222475e-02 2.102343265993229793e-01 4.484520344823892946e-01 2.139954508928609660e-03
2.746860231934822316e-01 -7.402205217877168009e-01 1.273863057316148462e+00 -1.086528491347759529e+00 9.686209251084958909e-04 5.019357289353312268e-01 -1.987893215149257736e-02 2.059875836925053605e-01 4.577311365215016026e-01 1.795646140752045136e-03
2.998960600579276270e-01 -7.409880807938605818e-01 1.284102588458071459e+00 -1.063218370310970107e+00 1.001893870538907031e-03 5.042007372889075745e-01 -1.535118012287515002e-02 2.047906228384616667e-01 4.662024207357899352e-01 6.654589086082240978e-04
3.252518054437504857e-01 -7.415619763803202869e-01 1.294411603329008509e+00 -1.039517020007705517e+00 1.002969298294625802e-03 5.071149077164569530e-01 -1.147791172919368843e-02 2.061802974187408322e-01 4.740270060652934103e-01 2.150855511437758591e-05
3.507769154097084008e-01 -7.419665574176200762e-01 1.304887808617479328e+00 -1.015453899601120202e+00 9.296697563707647868e-04 0.000000000000000000e+00 0.000000000000000000e+00 0.000000000000000000e+00 0.000000000000000000e+00 0.000000000000000000e+00
3.507769154097084008e-01 -7.419665574176200762e-01 1.304887808617479328e+00 -1.015453899601120202e+00 9.296697563707647868e-04 0.000000000000000000e+00 0.000000000000000000e+00 0.000000000000000000e+00 0.000000000000000000e+00 0.000000000000000000e+00
3.507769154097084008e-01 -7.419665574176200762e-01 1.304887808617479328e+00 -1.015453899601120202e+00 9.296697563707647868e-04 0.000000000000000000e+00 0.000000000000000000e+00 0.000000000000000000e+00 0.000000000000000000e+00 0.000000000000000000e+00
3.507769154097084008e-01 -7.419665574176200762e-01 1.304887808617479328e+00 -1.015453899601120202e+00 9.296697563707647868e-04 0.000000000000000000e+00 0.000000000000000000e+00 0.000000000000000000e+00 0.000000000000000000e+00 0.000000000000000000e+00
3.507769154097084008e-01 -7.419665574176200762e-01 1.304887808617479328e+00 -1.015453899601120202e+00 9.296697563707647868e-04 0.000000000000000000e+00 0.000000000000000000e+00 0.000000000000000000e+00 0.000000000000000000e+00 0.000000000000000000e+00
