-5.863113351296401765e-01 -3.259296780156755169e-01 4.721417159495234217e-01 -1.218471217645328508e+00 -7.040147489339766966e-05 -1.362900578847336952e-01 -9.324767759182676086e-01 1.232479594265064871e-01 -1.198134592114216967e-01 -1.609060087984894374e-03
-5.921146707492709327e-01 -3.747714342137903887e-01 4.803946139401206183e-01 -1.217652711376880692e+00 -1.240146616905458705e-04 -1.160667123926159144e-01 -9.768351239622972138e-01 1.650579598119443214e-01 1.637012536895690595e-02 -1.072263735942964287e-03
-5.968264997249339565e-01 -4.256540410355768578e-01 4.909295121971904430e-01 -1.210130667029030826e+00 -1.514438211174241834e-04 -9.423657951326055993e-02 -1.017652136435729382e+00 2.106979651413966592e-01 1.504408869569982543e-01 -5.485831885375663667e-04
-6.003816696437316303e-01 -4.783920857148974415e-01 5.039302213214502668e-01 -1.196174515446640330e+00 -1.545230982565054144e-04 -7.110339837595266999e-02 -1.054760893586411896e+00 2.600141824851959216e-01 2.791230316478107154e-01 -6.158554278162445663e-05
-6.027281969077105117e-01 -5.327949186102362011e-01 5.195733918002335416e-01 -1.176208823362591804e+00 -1.358222706029922047e-04 -4.693054527957857269e-02 -1.088056657906775637e+00 3.128634095756644418e-01 3.993138416809721147e-01 3.740165530702639217e-04
-6.038248405948889452e-01 -5.886696340859285392e-01 5.380330769713108641e-01 -1.150801633305066352e+00 -9.830146932846651813e-05 -2.193287374356790720e-02 -1.117494309513846984e+00 3.691937034215468927e-01 5.081438011505107211e-01 7.504160254905136232e-04
-6.036382457563664872e-01 -6.458239452609281228e-01 5.594871377195506090e-01 -1.120648626747692278e+00 -4.504895948757556593e-05 3.731896770450254114e-03 -1.143086223499991894e+00 4.290812149647956208e-01 6.030601311474808046e-01 1.065050196817818881e-03
-6.021397403840523799e-01 -7.040688727069789321e-01 5.841241791094725633e-01 -1.086553851838751417e+00 2.038967070663194082e-05 2.997010744628165330e-02 -1.164898548921016852e+00 4.927408277984381968e-01 6.818954981788187819e-01 1.308772603884150081e-03
-5.993016180841930218e-01 -7.632213076170173416e-01 6.121502178427282725e-01 -1.049407490581393709e+00 9.150462400806189394e-05 5.676244599718735517e-02 -1.183048698200769300e+00 5.605207746651141854e-01 7.429272251471554789e-01 1.422299066028598954e-03
-5.950933174550324667e-01 -8.231057756145152560e-01 6.437939140936386195e-01 -1.010164765410514809e+00 1.479096195428798851e-04 8.416601258321133872e-02 -1.197689359949959176e+00 6.328739250182061626e-01 7.848545034175774537e-01 1.128099910696359932e-03
-5.894769086329553209e-01 -8.835559105306526329e-01 6.793092449363916652e-01 -9.698234107496959133e-01 1.119424738909250024e-04 1.123281764415423184e-01 -1.209002698322747094e+00 7.103066168550613568e-01 8.068270932163771336e-01 -7.193429130390976544e-04
-5.824020409506284190e-01 -9.444155272917322819e-01 7.189743871849882950e-01 -9.294004581392907305e-01 -3.249324234141851139e-04 0.000000000000000000e+00 0.000000000000000000e+00 0.000000000000000000e+00 0.000000000000000000e+00 0.000000000000000000e+00
-5.824020409506284190e-01 -9.444155272917322819e-01 7.189743871849882950e-01 -9.294004581392907305e-01 -3.249324234141851139e-04 0.000000000000000000e+00 0.000000000000000000e+00 0.000000000000000000e+00 0.000000000000000000e+00 0.000000000000000000e+00
-5.824020409506284190e-01 -9.444155272917322819e-01 7.189743871849882950e-01 -9.294004581392907305e-01 -3.249324234141851139e-04 0.000000000000000000e+00 0.000000000000000000e+00 0.000000000000000000e+00 0.000000000000000000e+00 0.000000000000000000e+00
-5.824020409506284190e-01 -9.444155272917322819e-01 7.189743871849882950e-01 -9.294004581392907305e-01 -3.249324234141851139e-04 0.000000000000000000e+00 0.000000000000000000e+00 0.000000000000000000e+00 0.000000000000000000e+00 0.000000000000000000e+00
-5.824020409506284190e-01 -9.444155272917322819e-01 7.189743871849882950e-01 -9.294004581392907305e-01 -3.249324234141851139e-04 0.000000000000000000e+00 0.000000000000000000e+00 0.000000000000000000e+00 0.000000000000000000e+00 0.000000000000000000e+00
-5.824020409506284190e-01 -9.444155272917322819e-01 7.189743871849882950e-01 -9.294004581392907305e-01 -3.249324234141851139e-04 0.000000000000000000e+00 0.000000000000000000e+00 0.000000000000000000e+00 0.000000000000000000e+00 0.000000000000000000e+00
-5.824020409506284190e-01 -9.444155272917322819e-01 7.189743871849882950e-01 -9.294004581392907305e-01 -3.249324234141851139e-04 0.000000000000000000e+00 0.000000000000000000e+00 0.000000000000000000e+00 0.000000000000000000e+00 0.000000000000000000e+00
-5.824020409506284190e-01 -9.444155272917322819e-01 7.189743871849882950e-01 -9.294004581392907305e-01 -3.249324234141851139e-04 0.000000000000000000e+00 0.000000000000000000e+00 0.000000000000000000e+00 0.000000000000000000e+00 0.000000000000000000e+00
-5.824020409506284190e-01 -9.444155272917322819e-01 7.189743871849882950e-01 -9.294004581392907305e-01 -3.249324234141851139e-04 0.000000000000000000e+00 0.000000000000000000e+00 0.000000000000000000e+00 0.000000000000000000e+00 0.000000000000000000e+00
-5.824020409506284190e-01 -9.444155272917322819e-01 7.189743871849882950e-01 -9.294004581392907305e-01 -3.249324234141851139e-04 0.000000000000000000e+00 0.000000000000000000e+00 0.000000000000000000e+00 0.000000000000000000e+00 0.000000000000000000e+00
-5.824020409506284190e-01 -9.444155272917322819e-01 7.189743871849882950e-01 -9.294004581392907305e-01 -3.249324234141851139e-04 0.000000000000000000e+00 0.000000000000000000e+00 0.000000000000000000e+00 0.000000000000000000e+00 0.000000000000000000e+00
-5.824020409506284190e-01 -9.444155272917322819e-01 7.189743871849882950e-01 -9.294004581392907305e-01 -3.249324234141851139e-04 0.000000000000000000e+00 0.000000000000000000e+00 0.000000000000000000e+00 0.000000000000000000e+00 0.000000000000000000e+00
-5.824020409506284190e-01 -9.444155272917322819e-01 7.189743871849882950e-01 -9.294004581392907305e-01 -3.249324234141851139e-04 0.000000000000000000e+00 0.000000000000000000e+00 0.000000000000000000e+00 0.000000000000000000e+00 0.000000000000000000e+00
-5.824020409506284190e-01 -9.444155272917322819e-01 7.189743871849882950e-01 -9.294004581392907305e-01 -3.249324234141851139e-04 0.000000000000000000e+00 0.000000000000000000e+00 0.000000000000000000e+00 0.000000000000000000e+00 0.000000000000000000e+00
-5.824020409506284190e-01 -9.444155272917322819e-01 7.189743871849882950e-01 -9.294004581392907305e-01 -3.249324234141851139e-04 0.000000000000000000e+00 0.000000000000000000e+00 0.000000000000000000e+00 0.000000000000000000e+00 0.000000000000000000e+00
-5.824020409506284190e-01 -9.444155272917322819e-01 7.189743871849882950e-01 -9.294004581392907305e-01 -3.249324234141851139e-04 0.000000000000000000e+00 0.000000000000000000e+00 0.000000000000000000e+00 0.000000000000000000e+00 0.000000000000000000e+00
-5.824020409506284190e-01 -9.444155272917322819e-01 7.189743871849882950e-01 -9.294004581392907305e-01 -3.249324234141851139e-04 0.000000000000000000e+00 0.000000000000000000e+00 0.000000000000000000e+00 0.000000000000000000e+00 0.000000000000000000e+00
-5.824020409506284190e-01 -9.444155272917322819e-01 7.189743871849882950e-01 -9.294004581392907305e-01 -3.249324234141851139e-04 0.000000000000000000e+00 0.000000000000000000e+00 0.000000000000000000e+00 0.000000000000000000e+00 0.000000000000000000e+00
-5.824020409506284190e-01 -9.444155272917322819e-01 7.189743871849882950e-01 -9.294004581392907305e-01 -3.249324234141851139e-04 0.000000000000000000e+00 0.000000000000000000e+00 0.000000000000000000e+00 0.000000000000000000e+00 0.000000000000000000e+00
-5.824020409506284190e-01 -9.444155272917322819e-01 7.189743871849882950e-01 -9.294004581392907305e-01 -3.249324234141851139e-04 0.000000000000000000e+00 0.000000000000000000e+00 0.000000000000000000e+00 0.000000000000000000e+00 0.000000000000000000e+00
