-1.458149310499121942e-01 -8.779416506168920276e-02 7.418271891955353636e-01 -1.390746881299128823e+00 -6.085868327057217356e-05 2.266527707437428762e-01 -2.175299022738116927e-01 3.274730375972403212e-02 -9.811337420128329878e-02 -5.895983392170636066e-04
-1.316535924945044789e-01 -1.012057206239874857e-01 7.443856207227332877e-01 -1.395284295084312065e+00 -1.003310927230327012e-04 2.832267711081543626e-01 -2.682311112459656588e-01 5.116863054395862781e-02 -9.074827570366411633e-02 -7.894481890492106337e-04
-1.146551274426120537e-01 -1.170638690240501933e-01 7.481051435215985146e-01 -1.398800703804937484e+00 -1.489564600611234762e-04 3.399693010378485591e-01 -3.171629680012539865e-01 7.439045597730431503e-02 -7.032817441250860391e-02 -9.725073467618157181e-04
-9.479928039119990546e-02 -1.352692454969181834e-01 7.532308307225963340e-01 -1.400615345589663052e+00 -2.049192202215878401e-04 3.971169410282429646e-01 -3.641075294573598020e-01 1.025137440199555688e-01 -3.629283569451347696e-02 -1.119255203209287061e-03
-7.205530574089524798e-02 -1.557063064239164185e-01 7.599985587499451523e-01 -1.400032057613610714e+00 -2.658122691998133016e-04 4.548794930060929831e-01 -4.087412185399644793e-01 1.353545605469771151e-01 1.166575952104670355e-02 -1.217860979564509231e-03
-4.638505200217497154e-02 -1.782379138786815143e-01 7.686211342679051262e-01 -1.396360618821547828e+00 -3.289841830393408387e-04 5.134050747744054455e-01 -4.506321490953017483e-01 1.724515103591995613e-01 7.342877584125676038e-02 -1.263438276790550740e-03
-1.774754211269390439e-02 -2.027003396329400131e-01 7.792765518985609319e-01 -1.388945687457729283e+00 -3.919213720518748131e-04 5.727501977896213292e-01 -4.892485150851701992e-01 2.131083526131168915e-01 1.482986272763726354e-01 -1.258743780250679272e-03
1.389665678127514556e-02 -2.289002314656422010e-01 7.921001658393960199e-01 -1.377194475317520705e+00 -4.524845577065836734e-04 6.328839778793809989e-01 -5.239978366540437582e-01 2.564722788167011491e-01 2.350242428041735276e-01 -1.211263713094176773e-03
4.858062975421707785e-02 -2.566128828317838506e-01 8.071789148944032988e-01 -1.360604385791134741e+00 -5.090900425715465683e-04 6.936794594588385765e-01 -5.542530273228335469e-01 3.015749811001445790e-01 3.318017905277180213e-01 -1.132109697299257247e-03
8.632695583158672692e-02 -2.855825393083690211e-01 8.245481825564875411e-01 -1.338784013591988176e+00 -5.605474652863440656e-04 7.549265215473928148e-01 -5.793931295317034103e-01 3.473853532416846246e-01 4.364074439829315200e-01 -1.029148454295949729e-03
1.271438090341906468e-01 -3.155245067993943664e-01 8.441901936410468599e-01 -1.311467935629341941e+00 -6.058695599054399195e-04 8.163370640520786203e-01 -5.988393498205066834e-01 3.928402216911873746e-01 5.463215592529248044e-01 -9.064418923819164264e-04
1.710219516298955855e-01 -3.461293213889154452e-01 8.660350821427410528e-01 -1.278522250334035659e+00 -6.439191420505332953e-04 8.775628519140987738e-01 -6.120962917904216871e-01 4.368977700338841919e-01 6.589137059061239698e-01 -7.609916429018666502e-04
2.179320274405345814e-01 -3.770682824790715371e-01 8.899632703412321266e-01 -1.239943293098593635e+00 -6.730887433365680432e-04 9.382015162127796959e-01 -6.187792218031221703e-01 4.785637639698205326e-01 7.715791447088389265e-01 -5.833920257206939809e-04
2.678228133812766698e-01 -4.080006126708223269e-01 9.158074122721777677e-01 -1.195845922538346873e+00 -6.910731355951436764e-04 9.978157188148423229e-01 -6.186466038350154628e-01 5.168828386189131541e-01 8.819474112049351389e-01 -3.596878451715120138e-04
3.206195730563884960e-01 -4.385813401183593641e-01 9.433525948414526185e-01 -1.146446164014477409e+00 -6.946639527739389411e-04 1.055935193502236746e+00 -6.116145489507400779e-01 5.509036513854973505e-01 9.879951704773907162e-01 -7.181634357590567291e-05
3.762228685494220515e-01 -4.684700777681687356e-01 9.723364626148461864e-01 -1.092039925976881376e+00 -6.796907317121669238e-04 1.112065909860671331e+00 -5.977747529961879858e-01 5.796773554678713580e-01 1.088124760751920217e+00 2.994644212354399121e-04
4.345076580523733467e-01 -4.973405052335502230e-01 1.002450737523856494e+00 -1.032982156520207084e+00 -6.413224322317728852e-04 1.165695790059025905e+00 -5.774085493076293041e-01 6.022854981802044927e-01 1.181155389133484501e+00 7.673659896078799045e-04
4.953229570158821371e-01 -5.248906210711054010e-01 1.033343164085833044e+00 -9.696661995438421444e-01 -5.744212033517704079e-04 1.216305979270176030e+00 -5.510023167511035602e-01 6.178485312395310958e-01 1.266319139527298798e+00 1.338024577600049978e-03
5.584928808303646353e-01 -5.508541678090357330e-01 1.064623022841681532e+00 -9.025040357645899292e-01 -4.739263597274254213e-04 1.263398476289649963e+00 -5.192709347586076385e-01 6.255971751169707717e-01 1.343243275585043861e+00 2.009896872486900167e-03
6.238199825515178265e-01 -5.750132792191421371e-01 1.095875429620359442e+00 -8.319093684384224474e-01 -3.352927705703313940e-04 1.306542034423063825e+00 -4.831822282021277504e-01 6.250481355735570954e-01 1.411893346523348525e+00 2.772671783141880328e-03
6.910917108772566264e-01 -5.972120159071488965e-01 1.126689347814896935e+00 -7.582853302400144324e-01 -1.552136827182794992e-04 1.345434566514775554e+00 -4.439747337601354649e-01 6.162783638907519679e-01 1.472480763968160966e+00 3.601581757041037463e-03
7.600905054653563919e-01 -6.173694119829475913e-01 1.156704427136483027e+00 -6.820190174965269359e-01 6.697097590615158939e-05 1.379975891761994422e+00 -4.031479215159742280e-01 6.003015864317213790e-01 1.525326254869750819e+00 4.443693172488620904e-03
8.306092153012791801e-01 -6.354897663742077318e-01 1.185679975601786174e+00 -6.034778298469217761e-01 3.266249792420038590e-04 1.410374196718456430e+00 -3.624070878252029781e-01 5.795109693060622735e-01 1.570823752992102529e+00 5.193080066717045175e-03
9.024718319871383176e-01 -6.516659165664728803e-01 1.213583111026022676e+00 -5.230046782000971062e-01 6.070990924255538056e-04 1.437252333717181862e+00 -3.235230038453021928e-01 5.580627084847284980e-01 1.609463032936493176e+00 5.609482263670999801e-03
9.755580511079111616e-01 -6.660701661885982672e-01 1.240684088426280640e+00 -4.409089243870445984e-01 8.568346933874313506e-04 1.461724382415456658e+00 -2.880849924425084030e-01 5.420195480051590575e-01 1.641915076261049933e+00 4.994712019237550898e-03
1.049828265805629712e+00 -6.789295382111649735e-01 1.267648540807112534e+00 -3.574610607419224650e-01 1.045461230258007673e-03 1.485404293954373012e+00 -2.571874404513331824e-01 5.392890476166386504e-01 1.668957272902442002e+00 3.772530737411524272e-03
1.125348984053175627e+00 -6.904870431263316899e-01 1.295639000739133184e+00 -2.729051765508659355e-01 1.028940491761278940e-03 0.000000000000000000e+00 0.000000000000000000e+00 0.000000000000000000e+00 0.000000000000000000e+00 0.000000000000000000e+00
1.125348984053175627e+00 -6.904870431263316899e-01 1.295639000739133184e+00 -2.729051765508659355e-01 1.028940491761278940e-03 0.000000000000000000e+00 0.000000000000000000e+00 0.000000000000000000e+00 0.000000000000000000e+00 0.000000000000000000e+00
1.125348984053175627e+00 -6.904870431263316899e-01 1.295639000739133184e+00 -2.729051765508659355e-01 1.028940491761278940e-03 0.000000000000000000e+00 0.000000000000000000e+00 0.000000000000000000e+00 0.000000000000000000e+00 0.000000000000000000e+00
1.125348984053175627e+00 -6.904870431263316899e-01 1.295639000739133184e+00 -2.729051765508659355e-01 1.028940491761278940e-03 0.000000000000000000e+00 0.000000000000000000e+00 0.000000000000000000e+00 0.000000000000000000e+00 0.000000000000000000e+00
1.125348984053175627e+00 -6.904870431263316899e-01 1.295639000739133184e+00 -2.729051765508659355e-01 1.028940491761278940e-03 0.000000000000000000e+00 0.000000000000000000e+00 0.000000000000000000e+00 0.000000000000000000e+00 0.000000000000000000e+00
