-9.691824755709420591e-01 2.196126012472892838e-02 -5.230353976218492518e-01 -1.943097527618756981e+00 -1.043847602943506628e-03 -1.311122976836958554e+00 -4.838911601778773108e-01 -8.443129706842965598e-01 4.643225158528073160e-01 1.899085193883638049e-04
-1.036644231256827586e+00 -3.750031628239471754e-03 -5.609422154458192367e-01 -1.911555480415689123e+00 -1.034017947912661698e-03 -1.349235113717710988e+00 -5.142258350593680305e-01 -7.581363564793995868e-01 6.308409440613583774e-01 1.965931006168966839e-04
-1.105891893489856281e+00 -3.056529227002572138e-02 -5.945791618931721700e-01 -1.872648920791709415e+00 -1.024706363601009555e-03 -1.384953244660575455e+00 -5.363052128357249648e-01 -6.727389289470595557e-01 7.781311924795951684e-01 1.862316862330433713e-04
-1.176810886296940861e+00 -5.808853185214103709e-02 -6.241742559013601088e-01 -1.827271814771297187e+00 -1.013442434604977689e-03 -1.418379856141691819e+00 -5.504647916423062171e-01 -5.919018801637578875e-01 9.075421204082452231e-01 2.252785799206382376e-04
-1.249298022521213580e+00 -8.595358156949145512e-02 -6.500610403384980973e-01 -1.776215521095195315e+00 -9.890573300651273568e-04 -1.449742724485455048e+00 -5.573009943470083050e-01 -5.177356887427594367e-01 1.021125873522036986e+00 4.877020907970072965e-04
-1.323266138981523232e+00 -1.138288253212998286e-01 -6.726121817102571621e-01 -1.720168393608916713e+00 -9.278215118566220890e-04 -1.479362329206193927e+00 -5.575048750361674132e-01 -4.510228274351815725e-01 1.120942549725573167e+00 1.224716364170105789e-03
-1.398645370382085140e+00 -1.414147471236572584e-01 -6.921936786321274404e-01 -1.659744544415013845e+00 -8.465711790350567006e-04 -1.507584628011239491e+00 -5.517184360471486526e-01 -3.916299384374051784e-01 1.208476983878056465e+00 1.625006656431308202e-03
-1.475381004938774110e+00 -1.684372978152384737e-01 -7.091356167895040974e-01 -1.595528837755810780e+00 -7.560788253611467041e-04 -1.534712691133779394e+00 -5.404510138316244161e-01 -3.388387631475326955e-01 1.284314133184060180e+00 1.809847073478200365e-03
-1.553430464397306920e+00 -1.946450241291707295e-01 -7.237122052673661265e-01 -1.528100896539823061e+00 -6.653122531540139623e-04 -1.560989189170656211e+00 -5.241545262786451165e-01 -2.915317695572406387e-01 1.348558824319753269e+00 1.815331444142655268e-03
-1.632761727333412960e+00 -2.198140723050193701e-01 -7.361271131490367825e-01 -1.458017080051617009e+00 -5.808835579736791165e-04 -1.586625258722121457e+00 -5.033809635169727015e-01 -2.482981576334120366e-01 1.401676329764122153e+00 1.688573903606696049e-03
-1.713350563645972047e+00 -2.437509557449755171e-01 -7.465064566189786310e-01 -1.385800433975020063e+00 -5.072831150164363451e-04 -1.611776726251181291e+00 -4.787376687991226065e-01 -2.075868693988376090e-01 1.444332921531939595e+00 1.472008859144854995e-03
-1.795176882564686993e+00 -2.662941165814860511e-01 -7.548969316216487258e-01 -1.311934888733336857e+00 -4.474820560440101675e-04 -1.636526378374297153e+00 -4.508632167302104587e-01 -1.678095000534015890e-01 1.477310904833665672e+00 1.196021179448523769e-03
-1.878220524807717950e+00 -2.873150701942278062e-01 -7.612668314829676985e-01 -1.236861014418206395e+00 -4.045123544076395668e-04 -1.660872844860618258e+00 -4.204190722548348802e-01 -1.273979972263800942e-01 1.501477486302609021e+00 8.593940327274120130e-04
-1.962456819547458764e+00 -3.067196981937055922e-01 -7.655080415618846779e-01 -1.160971581860697821e+00 -3.871806668347766225e-04 -1.684725894794818490e+00 -3.880925599895562739e-01 -8.482420157834061336e-02 1.517788651150173473e+00 3.466337514572586688e-04
-2.047852213399203425e+00 -3.244500598900874055e-01 -7.674372888660518921e-01 -1.084606041695440837e+00 -4.328555304386793104e-04 -1.707907877034891886e+00 -3.546072339276367114e-01 -3.858494608334506193e-02 1.527310803305137465e+00 -9.134972720780535401e-04
-2.134360275142166419e+00 -3.404869349968033254e-01 -7.667947681476373623e-01 -1.008043862152246950e+00 -6.994837373402460270e-04 0.000000000000000000e+00 0.000000000000000000e+00 0.000000000000000000e+00 0.000000000000000000e+00 0.000000000000000000e+00
-2.134360275142166419e+00 -3.404869349968033254e-01 -7.667947681476373623e-01 -1.008043862152246950e+00 -6.994837373402460270e-04 0.000000000000000000e+00 0.000000000000000000e+00 0.000000000000000000e+00 0.000000000000000000e+00 0.000000000000000000e+00
-2.134360275142166419e+00 -3.404869349968033254e-01 -7.667947681476373623e-01 -1.008043862152246950e+00 -6.994837373402460270e-04 0.000000000000000000e+00 0.000000000000000000e+00 0.000000000000000000e+00 0.000000000000000000e+00 0.000000000000000000e+00
-2.134360275142166419e+00 -3.404869349968033254e-01 -7.667947681476373623e-01 -1.008043862152246950e+00 -6.994837373402460270e-04 0.000000000000000000e+00 0.000000000000000000e+00 0.000000000000000000e+00 0.000000000000000000e+00 0.000000000000000000e+00
-2.134360275142166419e+00 -3.404869349968033254e-01 -7.667947681476373623e-01 -1.008043862152246950e+00 -6.994837373402460270e-04 0.000000000000000000e+00 0.000000000000000000e+00 0.000000000000000000e+00 0.000000000000000000e+00 0.000000000000000000e+00
-2.134360275142166419e+00 -3.404869349968033254e-01 -7.667947681476373623e-01 -1.008043862152246950e+00 -6.994837373402460270e-04 0.000000000000000000e+00 0.000000000000000000e+00 0.000000000000000000e+00 0.000000000000000000e+00 0.000000000000000000e+00
-2.134360275142166419e+00 -3.404869349968033254e-01 -7.667947681476373623e-01 -1.008043862152246950e+00 -6.994837373402460270e-04 0.000000000000000000e+00 0.000000000000000000e+00 0.000000000000000000e+00 0.000000000000000000e+00 0.000000000000000000e+00
-2.134360275142166419e+00 -3.404869349968033254e-01 -7.667947681476373623e-01 -1.008043862152246950e+00 -6.994837373402460270e-04 0.000000000000000000e+00 0.000000000000000000e+00 0.000000000000000000e+00 0.000000000000000000e+00 0.000000000000000000e+00
-2.134360275142166419e+00 -3.404869349968033254e-01 -7.667947681476373623e-01 -1.008043862152246950e+00 -6.994837373402460270e-04 0.000000000000000000e+00 0.000000000000000000e+00 0.000000000000000000e+00 0.000000000000000000e+00 0.000000000000000000e+00
-2.134360275142166419e+00 -3.404869349968033254e-01 -7.667947681476373623e-01 -1.008043862152246950e+00 -6.994837373402460270e-04 0.000000000000000000e+00 0.000000000000000000e+00 0.000000000000000000e+00 0.000000000000000000e+00 0.000000000000000000e+00
-2.134360275142166419e+00 -3.404869349968033254e-01 -7.667947681476373623e-01 -1.008043862152246950e+00 -6.994837373402460270e-04 0.000000000000000000e+00 0.000000000000000000e+00 0.000000000000000000e+00 0.000000000000000000e+00 0.000000000000000000e+00
-2.134360275142166419e+00 -3.404869349968033254e-01 -7.667947681476373623e-01 -1.008043862152246950e+00 -6.994837373402460270e-04 0.000000000000000000e+00 0.000000000000000000e+00 0.000000000000000000e+00 0.000000000000000000e+00 0.000000000000000000e+00
-2.134360275142166419e+00 -3.404869349968033254e-01 -7.667947681476373623e-01 -1.008043862152246950e+00 -6.994837373402460270e-04 0.000000000000000000e+00 0.000000000000000000e+00 0.000000000000000000e+00 0.000000000000000000e+00 0.000000000000000000e+00
-2.134360275142166419e+00 -3.404869349968033254e-01 -7.667947681476373623e-01 -1.008043862152246950e+00 -6.994837373402460270e-04 0.000000000000000000e+00 0.000000000000000000e+00 0.000000000000000000e+00 0.000000000000000000e+00 0.000000000000000000e+00
-2.134360275142166419e+00 -3.404869349968033254e-01 -7.667947681476373623e-01 -1.008043862152246950e+00 -6.994837373402460270e-04 0.000000000000000000e+00 0.000000000000000000e+00 0.000000000000000000e+00 0.000000000000000000e+00 0.000000000000000000e+00
-2.134360275142166419e+00 -3.404869349968033254e-01 -7.667947681476373623e-01 -1.008043862152246950e+00 -6.994837373402460270e-04 0.000000000000000000e+00 0.000000000000000000e+00 0.000000000000000000e+00 0.000000000000000000e+00 0.000000000000000000e+00
