-8.384196537575605568e-01 -2.724124350831249597e-01 9.495510082463924917e-01 -6.543561316696949737e-01 1.061645995240265801e-03 -9.807538383788385605e-01 4.684081979780600480e-01 -3.136788644390420711e+00 -2.082444482757924042e+00 9.114007232622176220e-04
-8.822218853446766040e-01 -2.467214146287796395e-01 8.081522451405851459e-01 -7.662640580063416751e-01 1.090207405016743823e-03 -8.760446317423216112e-01 5.138204090869064045e-01 -2.827975262116146027e+00 -2.238158526732934916e+00 5.712281955295617393e-04
-9.209421610899191091e-01 -2.214767457265156558e-01 6.825905443534439065e-01 -8.816726118014938107e-01 1.089013267022901407e-03 -7.744055149048492126e-01 5.048933780452794506e-01 -2.511234015742824344e+00 -2.308171075903043157e+00 -2.388275987684929536e-05
-9.553556096117493679e-01 -1.986635781818960611e-01 5.711020557989743285e-01 -9.960670967365734541e-01 1.039522409858113783e-03 -6.882689704366047323e-01 4.562633508923917836e-01 -2.229769771089390673e+00 -2.287889698701593755e+00 -9.898171432957503062e-04
-9.863388305225410102e-01 -1.794723771360837716e-01 4.711087565192609850e-01 -1.105429449941560005e+00 8.901212397228485708e-04 -6.196644182158338454e-01 3.838240209162454564e-01 -1.999865985594266204e+00 -2.187247064099730132e+00 -2.988023402705305108e-03
-1.014613606409631386e+00 -1.645013509739497726e-01 3.802036256307584350e-01 -1.206568864282063780e+00 6.201211869998569590e-04 -5.654955177418081735e-01 2.994205232426797592e-01 -1.818102617770050555e+00 -2.022788286810076830e+00 -5.400001054459830502e-03
-1.040700271691275214e+00 -1.539849805431765806e-01 2.966052177338014406e-01 -1.297167886567331507e+00 2.726877377163726087e-04 -5.217333056328772312e-01 2.103274086154638400e-01 -1.671968157939140331e+00 -1.811980445705354326e+00 -6.948668985669685487e-03
-1.064963772768711570e+00 -1.479528480185240136e-01 2.192383207463299843e-01 -1.375715822312832959e+00 -9.772144502227542726e-05 -4.852700215487264490e-01 1.206426504930511595e-01 -1.547337939749429125e+00 -1.570958714910030807e+00 -7.408183654772960286e-03
-1.087676302564646980e+00 -1.463180206523819471e-01 1.476242764459665402e-01 -1.441412716902763069e+00 -4.415517054547606762e-04 -4.542505959187072007e-01 3.269654732284153764e-02 -1.432280886007268883e+00 -1.313937891798601321e+00 -6.876605208649704329e-03
-1.109066629465995657e+00 -1.489157093487639416e-01 8.168937994582609052e-02 -1.494075540782057843e+00 -7.204840453736608514e-04 -4.278065380269723827e-01 -5.195377392763986246e-02 -1.318697930002808993e+00 -1.053256477585893691e+00 -5.578646798378003070e-03
-1.129347911113295577e+00 -1.555167457388740015e-01 2.155759806158902281e-02 -1.534039182762441111e+00 -9.109019969121927556e-04 -4.056256329459974608e-01 -1.320207278022012820e-01 -1.202635637684741354e+00 -7.992728396076673736e-01 -3.808359030770637650e-03
-1.148727154676024931e+00 -1.658316051611193331e-01 -3.263447828851775978e-02 -1.562050628156068210e+00 -1.006972064949199306e-03 -3.875848712545862940e-01 -2.062971884449063820e-01 -1.083841527002135763e+00 -5.602289078725439797e-01 -1.921401360740131875e-03
-1.167403025298973773e+00 -1.795155712472468745e-01 -8.087277290425404219e-02 -1.579157444958009027e+00 -1.028633107344571100e-03 -3.735174124589749622e-01 -2.736793217225507724e-01 -9.647658923147254262e-01 -3.421363360388168795e-01 -4.332208479074341548e-04
-1.185559384385194370e+00 -1.961794700094710575e-01 -1.233385422231473016e-01 -1.586598407796579346e+00 -1.016359188746347427e-03 -3.631271817244128286e-01 -3.332779752444835486e-01 -8.493153863778649670e-01 -1.488192567714068659e-01 2.454783719644735825e-04
-1.203360006250402403e+00 -2.154058969108005595e-01 -1.604225219489003873e-01 -1.585704807961595408e+00 -9.645673313600434040e-04 -3.560124373041618773e-01 -3.845285380265899278e-01 -7.416795945150618241e-01 1.787199669968053684e-02 1.035837147726080022e-03
-1.220946966157423264e+00 -2.367674745834213723e-01 -1.926978724811267973e-01 -1.577818877573559542e+00 -8.288476543568630344e-04 -3.517391981404152101e-01 -4.272315534524160352e-01 -6.455070106445278677e-01 1.577186077607154180e-01 2.714393540063606957e-03
-1.238442304305202857e+00 -2.598448579780138212e-01 -2.208697865784278735e-01 -1.564227323062927111e+00 -6.639786569365107964e-04 -3.499067629555929759e-01 -4.615476678918483677e-01 -5.634382819460216352e-01 2.718310902126483408e-01 3.297379948407044327e-03
-1.255951862949256315e+00 -2.842429201264680128e-01 -2.457200696915905480e-01 -1.546107331971817489e+00 -4.949755535928539955e-04 -3.501911728810709890e-01 -4.879612429690841080e-01 -4.970056622632533783e-01 3.623998218221908818e-01 3.380062066873136453e-03
-1.273570521066263561e+00 -3.096000796739288297e-01 -2.680616721906384781e-01 -1.524499649812256719e+00 -3.333535103423923606e-04 -3.523731623401429869e-01 -5.071431909492167822e-01 -4.468320499809583235e-01 4.321536431912133547e-01 3.232440865009232264e-03
-1.291387519584651589e+00 -3.355900109558115352e-01 -2.887105012407188975e-01 -1.500308285974278233e+00 -1.762181846045027039e-04 -3.563399703677624375e-01 -5.197986256376543324e-01 -4.129765810016084449e-01 4.838272767595683255e-01 3.142706514757792700e-03
-1.309490412496461920e+00 -3.619214378348956096e-01 -3.084670118548104023e-01 -1.474305323362440356e+00 1.906487957456498962e-05 -3.620578582362048992e-01 -5.266285375816811554e-01 -3.951302122818300955e-01 5.200592522367587511e-01 3.905661283581353654e-03
-1.327967350550878667e+00 -3.883363552910712446e-01 -3.281065314419149281e-01 -1.447138629568978097e+00 4.440164164516462110e-04 0.000000000000000000e+00 0.000000000000000000e+00 0.000000000000000000e+00 0.000000000000000000e+00 0.000000000000000000e+00
-1.327967350550878667e+00 -3.883363552910712446e-01 -3.281065314419149281e-01 -1.447138629568978097e+00 4.440164164516462110e-04 0.000000000000000000e+00 0.000000000000000000e+00 0.000000000000000000e+00 0.000000000000000000e+00 0.000000000000000000e+00
-1.327967350550878667e+00 -3.883363552910712446e-01 -3.281065314419149281e-01 -1.447138629568978097e+00 4.440164164516462110e-04 0.000000000000000000e+00 0.000000000000000000e+00 0.000000000000000000e+00 0.000000000000000000e+00 0.000000000000000000e+00
-1.327967350550878667e+00 -3.883363552910712446e-01 -3.281065314419149281e-01 -1.447138629568978097e+00 4.440164164516462110e-04 0.000000000000000000e+00 0.000000000000000000e+00 0.000000000000000000e+00 0.000000000000000000e+00 0.000000000000000000e+00
-1.327967350550878667e+00 -3.883363552910712446e-01 -3.281065314419149281e-01 -1.447138629568978097e+00 4.440164164516462110e-04 0.000000000000000000e+00 0.000000000000000000e+00 0.000000000000000000e+00 0.000000000000000000e+00 0.000000000000000000e+00
-1.327967350550878667e+00 -3.883363552910712446e-01 -3.281065314419149281e-01 -1.447138629568978097e+00 4.440164164516462110e-04 0.000000000000000000e+00 0.000000000000000000e+00 0.000000000000000000e+00 0.000000000000000000e+00 0.000000000000000000e+00
-1.327967350550878667e+00 -3.883363552910712446e-01 -3.281065314419149281e-01 -1.447138629568978097e+00 4.440164164516462110e-04 0.000000000000000000e+00 0.000000000000000000e+00 0.000000000000000000e+00 0.000000000000000000e+00 0.000000000000000000e+00
-1.327967350550878667e+00 -3.883363552910712446e-01 -3.281065314419149281e-01 -1.447138629568978097e+00 4.440164164516462110e-04 0.000000000000000000e+00 0.000000000000000000e+00 0.000000000000000000e+00 0.000000000000000000e+00 0.000000000000000000e+00
-1.327967350550878667e+00 -3.883363552910712446e-01 -3.281065314419149281e-01 -1.447138629568978097e+00 4.440164164516462110e-04 0.000000000000000000e+00 0.000000000000000000e+00 0.000000000000000000e+00 0.000000000000000000e+00 0.000000000000000000e+00
-1.327967350550878667e+00 -3.883363552910712446e-01 -3.281065314419149281e-01 -1.447138629568978097e+00 4.440164164516462110e-04 0.000000000000000000e+00 0.000000000000000000e+00 0.000000000000000000e+00 0.000000000000000000e+00 0.000000000000000000e+00
