-5.589428934150565409e-01 -3.039156614574702320e-01 4.080525281223154610e-01 -1.142015929216541492e+00 2.344503710106083912e-04 -1.267024036309893631e-01 -1.000766278775401252e+00 3.256234172382982961e-01 -4.159382008309242540e-02 -1.100771557463022529e-03
-5.643218747770517574e-01 -3.563705176137244024e-01 4.268583001569493107e-01 -1.138234979427973803e+00 1.988490428581193088e-04 -1.075796272399039133e-01 -1.049097123125083408e+00 3.761154406926772720e-01 7.561899577135218486e-02 -7.120265630497818639e-04
-5.686168461743996705e-01 -4.110581558497718446e-01 4.483194887786090543e-01 -1.128671073959485849e+00 1.831596448322450404e-04 -8.589942794695727690e-02 -1.093752764720948401e+00 4.292237724331944837e-01 1.912781093697600299e-01 -3.137879605174851523e-04
-5.717075200924151002e-01 -4.677825449559384619e-01 4.725881998126108541e-01 -1.113548975482884451e+00 1.872630581398102261e-04 -6.181347836030888498e-02 -1.134487782123332122e+00 4.853742206800363279e-01 3.024419695320262891e-01 8.206826615130360675e-05
-5.734797504203582585e-01 -5.263382220729199146e-01 4.998432940828992921e-01 -1.093243123716151066e+00 2.107543388984644216e-04 -3.544460655886211287e-02 -1.171113542339628610e+00 5.451018854057682050e-01 4.061170353346690853e-01 4.698256151730840721e-04
-5.738226579493176382e-01 -5.865137461402301078e-01 5.302979745402732759e-01 -1.068274110875657490e+00 2.532450669776402092e-04 -6.858150579187965307e-03 -1.203510481346202976e+00 6.090936091474804526e-01 4.993802568098705819e-01 8.498145615835160779e-04
-5.726246219378540170e-01 -6.480948844466836167e-01 5.642086477591707894e-01 -1.039302074777614493e+00 3.143325587329621985e-04 2.396072022927261611e-02 -1.231622766129069957e+00 6.782134643779491601e-01 5.794407219608612714e-01 1.221749835106439135e-03
-5.697683746196955390e-01 -7.108670609807226093e-01 6.018835196342706695e-01 -1.007118795960489699e+00 3.924807249036597868e-04 5.712494636316843566e-02 -1.255443530680780517e+00 7.534974375019987125e-01 6.436655763424943277e-01 1.562963323413951982e-03
-5.651248292199764212e-01 -7.746174758771749991e-01 6.436889871171753708e-01 -9.726358456826164067e-01 4.806948298062478468e-04 9.287090799438299515e-02 -1.275008297929047130e+00 8.361093496580942475e-01 6.896590055574667311e-01 1.764282098051761201e-03
-5.585454511078479234e-01 -8.391370986595567683e-01 6.900535591294626458e-01 -9.368695577943413344e-01 5.490226411906809836e-04 1.315875622425692337e-01 -1.290392455647634717e+00 9.272914402457453908e-01 7.153257577655011135e-01 1.366556227688663170e-03
-5.498523598444845506e-01 -9.042230133172581841e-01 7.414701566716540571e-01 -9.009230715140446044e-01 4.743128755140749294e-04 1.738618252672667619e-01 -1.301718293154028538e+00 1.028331950843828002e+00 7.189297256059347108e-01 -1.494195313532120217e-03
-5.388258741187329504e-01 -9.696812008091845181e-01 7.984939866461757685e-01 -8.659643833437149496e-01 -2.399324581718857317e-04 0.000000000000000000e+00 0.000000000000000000e+00 0.000000000000000000e+00 0.000000000000000000e+00 0.000000000000000000e+00
-5.388258741187329504e-01 -9.696812008091845181e-01 7.984939866461757685e-01 -8.659643833437149496e-01 -2.399324581718857317e-04 0.000000000000000000e+00 0.000000000000000000e+00 0.000000000000000000e+00 0.000000000000000000e+00 0.000000000000000000e+00
-5.388258741187329504e-01 -9.696812008091845181e-01 7.984939866461757685e-01 -8.659643833437149496e-01 -2.399324581718857317e-04 0.000000000000000000e+00 0.000000000000000000e+00 0.000000000000000000e+00 0.000000000000000000e+00 0.000000000000000000e+00
-5.388258741187329504e-01 -9.696812008091845181e-01 7.984939866461757685e-01 -8.659643833437149496e-01 -2.399324581718857317e-04 0.000000000000000000e+00 0.000000000000000000e+00 0.000000000000000000e+00 0.000000000000000000e+00 0.000000000000000000e+00
-5.388258741187329504e-01 -9.696812008091845181e-01 7.984939866461757685e-01 -8.659643833437149496e-01 -2.399324581718857317e-04 0.000000000000000000e+00 0.000000000000000000e+00 0.000000000000000000e+00 0.000000000000000000e+00 0.000000000000000000e+00
-5.388258741187329504e-01 -9.696812008091845181e-01 7.984939866461757685e-01 -8.659643833437149496e-01 -2.399324581718857317e-04 0.000000000000000000e+00 0.000000000000000000e+00 0.000000000000000000e+00 0.000000000000000000e+00 0.000000000000000000e+00
-5.388258741187329504e-01 -9.696812008091845181e-01 7.984939866461757685e-01 -8.659643833437149496e-01 -2.399324581718857317e-04 0.000000000000000000e+00 0.000000000000000000e+00 0.000000000000000000e+00 0.000000000000000000e+00 0.000000000000000000e+00
-5.388258741187329504e-01 -9.696812008091845181e-01 7.984939866461757685e-01 -8.659643833437149496e-01 -2.399324581718857317e-04 0.000000000000000000e+00 0.000000000000000000e+00 0.000000000000000000e+00 0.000000000000000000e+00 0.000000000000000000e+00
-5.388258741187329504e-01 -9.696812008091845181e-01 7.984939866461757685e-01 -8.659643833437149496e-01 -2.399324581718857317e-04 0.000000000000000000e+00 0.000000000000000000e+00 0.000000000000000000e+00 0.000000000000000000e+00 0.000000000000000000e+00
-5.388258741187329504e-01 -9.696812008091845181e-01 7.984939866461757685e-01 -8.659643833437149496e-01 -2.399324581718857317e-04 0.000000000000000000e+00 0.000000000000000000e+00 0.000000000000000000e+00 0.000000000000000000e+00 0.000000000000000000e+00
-5.388258741187329504e-01 -9.696812008091845181e-01 7.984939866461757685e-01 -8.659643833437149496e-01 -2.399324581718857317e-04 0.000000000000000000e+00 0.000000000000000000e+00 0.000000000000000000e+00 0.000000000000000000e+00 0.000000000000000000e+00
-5.388258741187329504e-01 -9.696812008091845181e-01 7.984939866461757685e-01 -8.659643833437149496e-01 -2.399324581718857317e-04 0.000000000000000000e+00 0.000000000000000000e+00 0.000000000000000000e+00 0.000000000000000000e+00 0.000000000000000000e+00
-5.388258741187329504e-01 -9.696812008091845181e-01 7.984939866461757685e-01 -8.659643833437149496e-01 -2.399324581718857317e-04 0.000000000000000000e+00 0.000000000000000000e+00 0.000000000000000000e+00 0.000000000000000000e+00 0.000000000000000000e+00
-5.388258741187329504e-01 -9.696812008091845181e-01 7.984939866461757685e-01 -8.659643833437149496e-01 -2.399324581718857317e-04 0.000000000000000000e+00 0.000000000000000000e+00 0.000000000000000000e+00 0.000000000000000000e+00 0.000000000000000000e+00
-5.388258741187329504e-01 -9.696812008091845181e-01 7.984939866461757685e-01 -8.659643833437149496e-01 -2.399324581718857317e-04 0.000000000000000000e+00 0.000000000000000000e+00 0.000000000000000000e+00 0.000000000000000000e+00 0.000000000000000000e+00
-5.388258741187329504e-01 -9.696812008091845181e-01 7.984939866461757685e-01 -8.659643833437149496e-01 -2.399324581718857317e-04 0.000000000000000000e+00 0.000000000000000000e+00 0.000000000000000000e+00 0.000000000000000000e+00 0.000000000000000000e+00
-5.388258741187329504e-01 -9.696812008091845181e-01 7.984939866461757685e-01 -8.659643833437149496e-01 -2.399324581718857317e-04 0.000000000000000000e+00 0.000000000000000000e+00 0.000000000000000000e+00 0.000000000000000000e+00 0.000000000000000000e+00
-5.388258741187329504e-01 -9.696812008091845181e-01 7.984939866461757685e-01 -8.659643833437149496e-01 -2.399324581718857317e-04 0.000000000000000000e+00 0.000000000000000000e+00 0.000000000000000000e+00 0.000000000000000000e+00 0.000000000000000000e+00
-5.388258741187329504e-01 -9.696812008091845181e-01 7.984939866461757685e-01 -8.659643833437149496e-01 -2.399324581718857317e-04 0.000000000000000000e+00 0.000000000000000000e+00 0.000000000000000000e+00 0.000000000000000000e+00 0.000000000000000000e+00
-5.388258741187329504e-01 -9.696812008091845181e-01 7.984939866461757685e-01 -8.659643833437149496e-01 -2.399324581718857317e-04 0.000000000000000000e+00 0.000000000000000000e+00 0.000000000000000000e+00 0.000000000000000000e+00 0.000000000000000000e+00
