-3.495337361464758152e-01 -5.013352662935429693e-01 1.141632821922608620e+00 -9.289868697569199085e-01 0.000000000000000000e+00 -5.414052483855230982e-04 -4.567232935863781065e-04 7.696952605391793514e-04 -7.840481680771388753e-04 0.000000000000000000e+00
-3.511208827353877737e-01 -5.017582347363460649e-01 1.135353576839954970e+00 -9.338083155621635933e-01 1.887767529033820921e-04 -3.174293177823896833e-02 -8.459368856061896813e-03 -1.255849016530749540e-01 -9.642891610487301646e-02 3.775535058067640976e-03
-3.538615258052016377e-01 -5.028428444646694251e-01 1.124124732541710969e+00 -9.427166835670203193e-01 3.948050942114407036e-04 -5.481286139627711274e-02 -2.169219456646787059e-02 -2.245768859648780424e-01 -1.781673600971352689e-01 4.120566826161172445e-03
-3.573973717768516578e-01 -5.047952426243043078e-01 1.109147730963853773e+00 -9.551007489458239741e-01 5.765586049677104939e-04 -7.071691943300063843e-02 -3.904796319269730753e-02 -2.995400315571447036e-01 -2.476813075760736504e-01 3.635070215125396024e-03
-3.614177150113095371e-01 -5.077784607364530522e-01 1.091458535401028884e+00 -9.704061426187394757e-01 7.255248184775299610e-04 -8.040686468915762830e-02 -5.966436224297450713e-02 -3.537839112564994948e-01 -3.061078734583108085e-01 2.979324270196389776e-03
-3.656534027476080473e-01 -5.119219041039193563e-01 1.071943291366348250e+00 -9.881126428607082124e-01 8.413370204210997598e-04 -8.471375472597053591e-02 -8.286886734932577547e-02 -3.903048806936109116e-01 -3.541300048393747901e-01 2.316244038871396408e-03
-3.698666222004008408e-01 -5.173288211550101101e-01 1.051362622569680383e+00 -1.007710168911952531e+00 9.253280140554011584e-04 -8.426438905585638406e-02 -1.081383410218142577e-01 -4.116133759333586162e-01 -3.919505210248860894e-01 1.679819872686028406e-03
-3.738396371848647926e-01 -5.240819224506191309e-01 1.030378594443565277e+00 -1.028677785992954563e+00 9.788191865996408170e-04 -7.946029968927866005e-02 -1.350620259121813604e-01 -4.196805625223020697e-01 -4.193523416200403142e-01 1.069823450884792521e-03
-3.773669780944962082e-01 -5.322460095905258148e-01 1.009574507951197964e+00 -1.050474254535642693e+00 1.003678565938029765e-03 -7.054681819262857700e-02 -1.632817427981344549e-01 -4.160817298473467596e-01 -4.359293708537616552e-01 4.971875867677804772e-04
-3.802512402457950413e-01 -5.418681636476078145e-01 9.894664342189866124e-01 -1.072538581386999201e+00 1.005679183599255148e-03 -5.768524302597658610e-02 -1.924430811416407983e-01 -4.021614746442274679e-01 -4.412865370271285559e-01 4.001235322450804243e-05
-3.823003874967694782e-01 -5.529771518102296612e-01 9.705116869770108456e-01 -1.094294732416193350e+00 9.851389197289860990e-04 -4.098294501948900048e-02 -2.221797632524377675e-01 -3.790949448395153354e-01 -4.351230205838810816e-01 -4.108052774053801148e-04
-3.833277970108071586e-01 -5.655824413551040486e-01 9.531145173811198523e-01 -1.115165575733203740e+00 9.212321054209554041e-04 -2.054819028075332427e-02 -2.521057908974866923e-01 -3.479433919178199774e-01 -4.174168663402067492e-01 -1.278136286160613680e-03
-3.831541693634842871e-01 -5.796731164649459034e-01 9.376292331314581840e-01 -1.134591555741624846e+00 8.332573831022726781e-04 3.472552946457700684e-03 -2.818135021968374287e-01 -3.097056849932335876e-01 -3.885196001684237954e-01 -1.759494446373653870e-03
-3.816105031302164385e-01 -5.952170836703181145e-01 9.243601437963082645e-01 -1.152048705490123837e+00 7.299154559509521585e-04 3.087332466535706518e-02 -3.108793441074432784e-01 -2.653817867029988897e-01 -3.491429949699791369e-01 -2.066838543026410825e-03
-3.785403930664308914e-01 -6.121612886441279988e-01 9.135608634626014579e-01 -1.167060150636678451e+00 6.179353996105729427e-04 6.140220127571070774e-02 -3.388840994761971315e-01 -2.159856066741354663e-01 -3.002289029310905022e-01 -2.239601126807584750e-03
-3.738018164596330628e-01 -6.304332736108799740e-01 9.054364235580045772e-01 -1.179205906542924787e+00 5.037969225835460573e-04 9.477153213595637671e-02 -3.654396993350396694e-01 -1.624887980919375308e-01 -2.429151181249263602e-01 -2.282769540540537274e-03
-3.672689057384442290e-01 -6.499435466955575391e-01 9.001471038532011804e-01 -1.188133284477574270e+00 3.935044077589879030e-04 1.306582144237768972e-01 -3.902054616935503595e-01 -1.057863940960669102e-01 -1.785475586929884950e-01 -2.205850296491162869e-03
-3.588341944798507654e-01 -6.705880093942572229e-01 8.978106918760310196e-01 -1.193567067889265365e+00 2.922189715971595654e-04 1.686942251718691055e-01 -4.128892539739931755e-01 -4.672823954340217523e-02 -1.086756682338215901e-01 -2.025708723236566318e-03
-3.484103615236827656e-01 -6.922506171656482854e-01 8.985044590655286711e-01 -1.195316342159468137e+00 2.041491178607314960e-04 2.084766591233598587e-01 -4.332521554278210285e-01 1.387534378995306655e-02 -3.498548540405385654e-02 -1.761397074728561279e-03
-3.359323537042919749e-01 -7.148058089972314511e-01 9.022666389669149467e-01 -1.193282048022782815e+00 1.323524203417941367e-04 2.495601563878161455e-01 -4.511038366316628689e-01 7.524359802772623285e-02 4.068588273370497832e-02 -1.435933950378747185e-03
-3.213586137295788014e-01 -7.381211379153703733e-01 9.090988272653438562e-01 -1.187460575233720173e+00 7.883634270539459582e-05 2.914747994942636367e-01 -4.663065783627777794e-01 1.366437659685785788e-01 1.164294557812538544e-01 -1.070321552727990927e-03
-3.046702876147567851e-01 -7.620606129253801875e-01 9.189716411074817515e-01 -1.177941293403172329e+00 4.478396435847407231e-05 3.337665222964406597e-01 -4.787895002001956724e-01 1.974562768427589599e-01 1.903856366109555331e-01 -6.810475669384104432e-04
-2.858693430431697435e-01 -7.864881498869364940e-01 9.318328296548725742e-01 -1.164902216837782944e+00 3.078020308367468709e-05 3.760188914317411646e-01 -4.885507392311250197e-01 2.572237709478154000e-01 2.607815313077887498e-01 -2.800752254959877857e-04
-2.649746654295599968e-01 -8.112713998480360900e-01 9.476194459283237004e-01 -1.148602693902398997e+00 3.685204459086220403e-05 4.178935522721953233e-01 -4.956649992219925305e-01 3.157323254690227454e-01 3.259904587076789539e-01 1.214368301437503388e-04
-2.420171634586399390e-01 -8.362853711366831089e-01 9.662722567874437729e-01 -1.129376813169856941e+00 6.172191531733170890e-05 4.591500394184011569e-01 -5.002794257729408223e-01 3.730562171824012285e-01 3.845176146508415549e-01 4.973974145293898804e-04
-2.170332717211304052e-01 -8.614155829648808549e-01 9.877469809198217154e-01 -1.107615821697424785e+00 1.031013707091171317e-04 4.996778347501904527e-01 -5.026042365639552534e-01 4.294944826475595723e-01 4.352198294486445684e-01 8.275891078357083472e-04
-1.900587381276558352e-01 -8.865602330177787538e-01 1.012021549672632803e+00 -1.083747711232468269e+00 1.578429517701222936e-04 5.394906718694915115e-01 -5.028930010579586440e-01 4.854913750562217523e-01 4.773622092991323118e-01 1.094831621220103456e-03
-1.611209227684345935e-01 -9.116319901700935535e-01 1.039103220635120728e+00 -1.058212100556002566e+00 2.214914460865269677e-04 5.787563071844248341e-01 -5.014351430462962167e-01 5.416334192497578304e-01 5.107122135293123977e-01 1.272969886328093264e-03
-1.302283282701453826e-01 -9.365599810006787207e-01 1.069043804567550771e+00 -1.031440398505088396e+00 2.818493852820573749e-04 6.178518899657842178e-01 -4.985598166117030106e-01 5.988116786486017418e-01 5.354340410182836241e-01 1.207158783910607927e-03
-9.735898260309464036e-02 -9.612911916385241673e-01 1.101961391110422683e+00 -1.003848197577644097e+00 2.913399500785736991e-04 6.573869133410149557e-01 -4.946242127569099312e-01 6.583517308574369231e-01 5.518440185488844296e-01 1.898112959303269176e-04
