-4.791832808925490794e-01 1.631978298039712671e-01 1.875898747532162014e-01 -1.944982360011785927e+00 -9.187769542191917809e-04 -1.099614366811728916e-01 4.896423095394179803e-02 -5.259858992972352709e-01 -4.473522709242696571e-01 -2.500522811051489672e-03
-4.839963379312058334e-01 1.640703589191474243e-01 1.631798078404606001e-01 -1.961014379503984273e+00 -9.946055106191812375e-04 -9.626114077313507877e-02 1.745058230352291434e-02 -4.882013382551116942e-01 -3.206403898439648126e-01 -1.516571127999790216e-03
-4.881917528111918148e-01 1.634352168710000441e-01 1.410035107305238067e-01 -1.971103727022898822e+00 -1.016235656609044578e-03 -8.390829759971966950e-02 -1.270284096294773887e-02 -4.435259421987360895e-01 -2.017869503782896978e-01 -4.326029197972655095e-04
-4.918550378633318454e-01 1.614202448845123705e-01 1.212465732887632874e-01 -1.975872448719181884e+00 -1.013548912502027681e-03 -7.326570104280057116e-02 -4.029943972975340294e-02 -3.951387488352101629e-01 -9.537443392565912725e-02 5.373488214033918025e-05
-4.950790042400116664e-01 1.581997015874787305e-01 1.039355699769484165e-01 -1.976099355692997328e+00 -9.908635905855329822e-04 -6.447932753359693347e-02 -6.441086594067280124e-02 -3.462200662362973635e-01 -4.538139476307531672e-03 4.537064383298930622e-04
-4.979542460362487155e-01 1.539741511662664764e-01 8.896323121394354716e-02 -1.972632521990083543e+00 -9.313631545243068093e-04 -5.750483592474138483e-02 -8.451100842424505433e-02 -2.994467752600973864e-01 6.933667405827537156e-02 1.190008721224522590e-03
-5.005607302535828307e-01 1.489428835275115048e-01 7.613543491059367174e-02 -1.966282709081794033e+00 -8.535677927824441387e-04 -5.212968434668167894e-02 -1.006253527750995413e-01 -2.565559260669973973e-01 1.269962581657913536e-01 1.555907234837252545e-03
-5.029637696759112764e-01 1.432834575500440966e-01 6.521859023033685365e-02 -1.957750936944887110e+00 -7.669095306851897746e-04 -4.806078844656856003e-02 -1.131885195493484014e-01 -2.183368936051364728e-01 1.706354427381392147e-01 1.733165241945087932e-03
-5.052159660784159012e-01 1.371503550441973973e-01 5.596103440826988296e-02 -1.947628769976543772e+00 -6.768302965849133223e-04 -4.504392805009296841e-02 -1.226620501169337352e-01 -1.851511164413393029e-01 2.024433393668669812e-01 1.801584682005529913e-03
-5.073590829659809787e-01 1.306742726897721085e-01 4.810578705700699342e-02 -1.936399292446237430e+00 -5.875782462055324741e-04 -4.286233775130197932e-02 -1.295216470885058591e-01 -1.571049470252578462e-01 2.245895506061270364e-01 1.785041007587616965e-03
-5.094258182587567685e-01 1.239616773664111021e-01 4.140350897252573215e-02 -1.924442236775369741e+00 -5.018303875842537384e-04 -4.133470585551565768e-02 -1.342519064672200724e-01 -1.340455616896251423e-01 2.391411134173554998e-01 1.714957172425574930e-03
-5.114412957568288398e-01 1.170950056917566401e-01 3.561983445799089820e-02 -1.912039553764831812e+00 -4.208105998747414377e-04 -4.030954996144185676e-02 -1.373334334930893241e-01 -1.156734902906966372e-01 2.480536602107573929e-01 1.620395754190245580e-03
-5.134245460098146863e-01 1.101345776425124851e-01 3.053837381096054238e-02 -1.899386243593240708e+00 -3.439889035052516673e-04 -3.966500505971692903e-02 -1.392085609848830174e-01 -1.016292129406071165e-01 2.530662034318199027e-01 1.536433927389794975e-03
-5.153896688038540619e-01 1.031208547713981655e-01 2.596182951888299090e-02 -1.886601222991995508e+00 -2.659938915848624841e-04 -3.930245588078729035e-02 -1.402744574222864193e-01 -9.153088584155100182e-02 2.557004120249055656e-01 1.559900238407783447e-03
-5.173468699921708325e-01 9.607755545884731629e-02 2.171083429877610632e-02 -1.873740208367681737e+00 -1.640673026424220007e-04 -3.914402376633505098e-02 -1.408659862510169836e-01 -8.501990440213766376e-02 2.572202924862770357e-01 2.038531778848809341e-03
-5.193033216084106396e-01 8.901500109072989220e-02 1.762258695277905615e-02 -1.860809247318835569e+00 5.387162855881899343e-05 0.000000000000000000e+00 0.000000000000000000e+00 0.000000000000000000e+00 0.000000000000000000e+00 0.000000000000000000e+00
-5.193033216084106396e-01 8.901500109072989220e-02 1.762258695277905615e-02 -1.860809247318835569e+00 5.387162855881899343e-05 0.000000000000000000e+00 0.000000000000000000e+00 0.000000000000000000e+00 0.000000000000000000e+00 0.000000000000000000e+00
-5.193033216084106396e-01 8.901500109072989220e-02 1.762258695277905615e-02 -1.860809247318835569e+00 5.387162855881899343e-05 0.000000000000000000e+00 0.000000000000000000e+00 0.000000000000000000e+00 0.000000000000000000e+00 0.000000000000000000e+00
-5.193033216084106396e-01 8.901500109072989220e-02 1.762258695277905615e-02 -1.860809247318835569e+00 5.387162855881899343e-05 0.000000000000000000e+00 0.000000000000000000e+00 0.000000000000000000e+00 0.000000000000000000e+00 0.000000000000000000e+00
-5.193033216084106396e-01 8.901500109072989220e-02 1.762258695277905615e-02 -1.860809247318835569e+00 5.387162855881899343e-05 0.000000000000000000e+00 0.000000000000000000e+00 0.000000000000000000e+00 0.000000000000000000e+00 0.000000000000000000e+00
-5.193033216084106396e-01 8.901500109072989220e-02 1.762258695277905615e-02 -1.860809247318835569e+00 5.387162855881899343e-05 0.000000000000000000e+00 0.000000000000000000e+00 0.000000000000000000e+00 0.000000000000000000e+00 0.000000000000000000e+00
-5.193033216084106396e-01 8.901500109072989220e-02 1.762258695277905615e-02 -1.860809247318835569e+00 5.387162855881899343e-05 0.000000000000000000e+00 0.000000000000000000e+00 0.000000000000000000e+00 0.000000000000000000e+00 0.000000000000000000e+00
-5.193033216084106396e-01 8.901500109072989220e-02 1.762258695277905615e-02 -1.860809247318835569e+00 5.387162855881899343e-05 0.000000000000000000e+00 0.000000000000000000e+00 0.000000000000000000e+00 0.000000000000000000e+00 0.000000000000000000e+00
-5.193033216084106396e-01 8.901500109072989220e-02 1.762258695277905615e-02 -1.860809247318835569e+00 5.387162855881899343e-05 0.000000000000000000e+00 0.000000000000000000e+00 0.000000000000000000e+00 0.000000000000000000e+00 0.000000000000000000e+00
-5.193033216084106396e-01 8.901500109072989220e-02 1.762258695277905615e-02 -1.860809247318835569e+00 5.387162855881899343e-05 0.000000000000000000e+00 0.000000000000000000e+00 0.000000000000000000e+00 0.000000000000000000e+00 0.000000000000000000e+00
-5.193033216084106396e-01 8.901500109072989220e-02 1.762258695277905615e-02 -1.860809247318835569e+00 5.387162855881899343e-05 0.000000000000000000e+00 0.000000000000000000e+00 0.000000000000000000e+00 0.000000000000000000e+00 0.000000000000000000e+00
-5.193033216084106396e-01 8.901500109072989220e-02 1.762258695277905615e-02 -1.860809247318835569e+00 5.387162855881899343e-05 0.000000000000000000e+00 0.000000000000000000e+00 0.000000000000000000e+00 0.000000000000000000e+00 0.000000000000000000e+00
-5.193033216084106396e-01 8.901500109072989220e-02 1.762258695277905615e-02 -1.860809247318835569e+00 5.387162855881899343e-05 0.000000000000000000e+00 0.000000000000000000e+00 0.000000000000000000e+00 0.000000000000000000e+00 0.000000000000000000e+00
-5.193033216084106396e-01 8.901500109072989220e-02 1.762258695277905615e-02 -1.860809247318835569e+00 5.387162855881899343e-05 0.000000000000000000e+00 0.000000000000000000e+00 0.000000000000000000e+00 0.000000000000000000e+00 0.000000000000000000e+00
-5.193033216084106396e-01 8.901500109072989220e-02 1.762258695277905615e-02 -1.860809247318835569e+00 5.387162855881899343e-05 0.000000000000000000e+00 0.000000000000000000e+00 0.000000000000000000e+00 0.000000000000000000e+00 0.000000000000000000e+00
-5.193033216084106396e-01 8.901500109072989220e-02 1.762258695277905615e-02 -1.860809247318835569e+00 5.387162855881899343e-05 0.000000000000000000e+00 0.000000000000000000e+00 0.000000000000000000e+00 0.000000000000000000e+00 0.000000000000000000e+00
