-2.047852213399203425e+00 -3.244500598900874055e-01 -7.674372888660518921e-01 -1.084606041695440837e+00 -4.328555304386793104e-04 -1.707907877034891886e+00 -3.546072339276367114e-01 -3.858494608334506193e-02 1.527310803305137465e+00 -9.134972720780535401e-04
-2.134360275142166419e+00 -3.404869349968033254e-01 -7.667947681476373623e-01 -1.008043862152246950e+00 -6.994837373402460270e-04 0.000000000000000000e+00 0.000000000000000000e+00 0.000000000000000000e+00 0.000000000000000000e+00 0.000000000000000000e+00
-2.134360275142166419e+00 -3.404869349968033254e-01 -7.667947681476373623e-01 -1.008043862152246950e+00 -6.994837373402460270e-04 0.000000000000000000e+00 0.000000000000000000e+00 0.000000000000000000e+00 0.000000000000000000e+00 0.000000000000000000e+00
-2.134360275142166419e+00 -3.404869349968033254e-01 -7.667947681476373623e-01 -1.008043862152246950e+00 -6.994837373402460270e-04 0.000000000000000000e+00 0.000000000000000000e+00 0.000000000000000000e+00 0.000000000000000000e+00 0.000000000000000000e+00
-2.134360275142166419e+00 -3.404869349968033254e-01 -7.667947681476373623e-01 -1.008043862152246950e+00 -6.994837373402460270e-04 0.000000000000000000e+00 0.000000000000000000e+00 0.000000000000000000e+00 0.000000000000000000e+00 0.000000000000000000e+00
-2.134360275142166419e+00 -3.404869349968033254e-01 -7.667947681476373623e-01 -1.008043862152246950e+00 -6.994837373402460270e-04 0.000000000000000000e+00 0.000000000000000000e+00 0.000000000000000000e+00 0.000000000000000000e+00 0.000000000000000000e+00
-2.134360275142166419e+00 -3.404869349968033254e-01 -7.667947681476373623e-01 -1.008043862152246950e+00 -6.994837373402460270e-04 0.000000000000000000e+00 0.000000000000000000e+00 0.000000000000000000e+00 0.000000000000000000e+00 0.000000000000000000e+00
-2.134360275142166419e+00 -3.404869349968033254e-01 -7.667947681476373623e-01 -1.008043862152246950e+00 -6.994837373402460270e-04 0.000000000000000000e+00 0.000000000000000000e+00 0.000000000000000000e+00 0.000000000000000000e+00 0.000000000000000000e+00
-2.134360275142166419e+00 -3.404869349968033254e-01 -7.667947681476373623e-01 -1.008043862152246950e+00 -6.994837373402460270e-04 0.000000000000000000e+00 0.000000000000000000e+00 0.000000000000000000e+00 0.000000000000000000e+00 0.000000000000000000e+00
-2.134360275142166419e+00 -3.404869349968033254e-01 -7.667947681476373623e-01 -1.008043862152246950e+00 -6.994837373402460270e-04 0.000000000000000000e+00 0.000000000000000000e+00 0.000000000000000000e+00 0.000000000000000000e+00 0.000000000000000000e+00
-2.134360275142166419e+00 -3.404869349968033254e-01 -7.667947681476373623e-01 -1.008043862152246950e+00 -6.994837373402460270e-04 0.000000000000000000e+00 0.000000000000000000e+00 0.000000000000000000e+00 0.000000000000000000e+00 0.000000000000000000e+00
-2.134360275142166419e+00 -3.404869349968033254e-01 -7.667947681476373623e-01 -1.008043862152246950e+00 -6.994837373402460270e-04 0.000000000000000000e+00 0.000000000000000000e+00 0.000000000000000000e+00 0.000000000000000000e+00 0.000000000000000000e+00
-2.134360275142166419e+00 -3.404869349968033254e-01 -7.667947681476373623e-01 -1.008043862152246950e+00 -6.994837373402460270e-04 0.000000000000000000e+00 0.000000000000000000e+00 0.000000000000000000e+00 0.000000000000000000e+00 0.000000000000000000e+00
-2.134360275142166419e+00 -3.404869349968033254e-01 -7.667947681476373623e-01 -1.008043862152246950e+00 -6.994837373402460270e-04 0.000000000000000000e+00 0.000000000000000000e+00 0.000000000000000000e+00 0.000000000000000000e+00 0.000000000000000000e+00
-2.134360275142166419e+00 -3.404869349968033254e-01 -7.667947681476373623e-01 -1.008043862152246950e+00 -6.994837373402460270e-04 0.000000000000000000e+00 0.000000000000000000e+00 0.000000000000000000e+00 0.000000000000000000e+00 0.000000000000000000e+00
-2.134360275142166419e+00 -3.404869349968033254e-01 -7.667947681476373623e-01 -1.008043862152246950e+00 -6.994837373402460270e-04 0.000000000000000000e+00 0.000000000000000000e+00 0.000000000000000000e+00 0.000000000000000000e+00 0.000000000000000000e+00
-2.134360275142166419e+00 -3.404869349968033254e-01 -7.667947681476373623e-01 -1.008043862152246950e+00 -6.994837373402460270e-04 0.000000000000000000e+00 0.000000000000000000e+00 0.000000000000000000e+00 0.000000000000000000e+00 0.000000000000000000e+00
-2.134360275142166419e+00 -3.404869349968033254e-01 -7.667947681476373623e-01 -1.008043862152246950e+00 -6.994837373402460270e-04 0.000000000000000000e+00 0.000000000000000000e+00 0.000000000000000000e+00 0.000000000000000000e+00 0.000000000000000000e+00
-2.134360275142166419e+00 -3.404869349968033254e-01 -7.667947681476373623e-01 -1.008043862152246950e+00 -6.994837373402460270e-04 0.000000000000000000e+00 0.000000000000000000e+00 0.000000000000000000e+00 0.000000000000000000e+00 0.000000000000000000e+00
-2.134360275142166419e+00 -3.404869349968033254e-01 -7.667947681476373623e-01 -1.008043862152246950e+00 -6.994837373402460270e-04 0.000000000000000000e+00 0.000000000000000000e+00 0.000000000000000000e+00 0.000000000000000000e+00 0.000000000000000000e+00
-2.134360275142166419e+00 -3.404869349968033254e-01 -7.667947681476373623e-01 -1.008043862152246950e+00 -6.994837373402460270e-04 0.000000000000000000e+00 0.000000000000000000e+00 0.000000000000000000e+00 0.000000000000000000e+00 0.000000000000000000e+00
-2.134360275142166419e+00 -3.404869349968033254e-01 -7.667947681476373623e-01 -1.008043862152246950e+00 -6.994837373402460270e-04 0.000000000000000000e+00 0.000000000000000000e+00 0.000000000000000000e+00 0.000000000000000000e+00 0.000000000000000000e+00
-2.134360275142166419e+00 -3.404869349968033254e-01 -7.667947681476373623e-01 -1.008043862152246950e+00 -6.994837373402460270e-04 0.000000000000000000e+00 0.000000000000000000e+00 0.000000000000000000e+00 0.000000000000000000e+00 0.000000000000000000e+00
-2.134360275142166419e+00 -3.404869349968033254e-01 -7.667947681476373623e-01 -1.008043862152246950e+00 -6.994837373402460270e-04 0.000000000000000000e+00 0.000000000000000000e+00 0.000000000000000000e+00 0.000000000000000000e+00 0.000000000000000000e+00
-2.134360275142166419e+00 -3.404869349968033254e-01 -7.667947681476373623e-01 -1.008043862152246950e+00 -6.994837373402460270e-04 0.000000000000000000e+00 0.000000000000000000e+00 0.000000000000000000e+00 0.000000000000000000e+00 0.000000000000000000e+00
-2.134360275142166419e+00 -3.404869349968033254e-01 -7.667947681476373623e-01 -1.008043862152246950e+00 -6.994837373402460270e-04 0.000000000000000000e+00 0.000000000000000000e+00 0.000000000000000000e+00 0.000000000000000000e+00 0.000000000000000000e+00
-2.134360275142166419e+00 -3.404869349968033254e-01 -7.667947681476373623e-01 -1.008043862152246950e+00 -6.994837373402460270e-04 0.000000000000000000e+00 0.000000000000000000e+00 0.000000000000000000e+00 0.000000000000000000e+00 0.000000000000000000e+00
-2.134360275142166419e+00 -3.404869349968033254e-01 -7.667947681476373623e-01 -1.008043862152246950e+00 -6.994837373402460270e-04 0.000000000000000000e+00 0.000000000000000000e+00 0.000000000000000000e+00 0.000000000000000000e+00 0.000000000000000000e+00
-2.134360275142166419e+00 -3.404869349968033254e-01 -7.667947681476373623e-01 -1.008043862152246950e+00 -6.994837373402460270e-04 0.000000000000000000e+00 0.000000000000000000e+00 0.000000000000000000e+00 0.000000000000000000e+00 0.000000000000000000e+00
-2.134360275142166419e+00 -3.404869349968033254e-01 -7.667947681476373623e-01 -1.008043862152246950e+00 -6.994837373402460270e-04 0.000000000000000000e+00 0.000000000000000000e+00 0.000000000000000000e+00 0.000000000000000000e+00 0.000000000000000000e+00
-2.134360275142166419e+00 -3.404869349968033254e-01 -7.667947681476373623e-01 -1.008043862152246950e+00 -6.994837373402460270e-04 0.000000000000000000e+00 0.000000000000000000e+00 0.000000000000000000e+00 0.000000000000000000e+00 0.000000000000000000e+00
