5.899993491268832324e-01 -3.899878567576215982e-01 7.682467520050575982e-02
5.899993491268832324e-01 -3.899878567576215982e-01 7.682467520050575982e-02
5.899993491268832324e-01 -3.899878567576215982e-01 7.682467520050575982e-02
5.899993491268832324e-01 -3.899878567576215982e-01 7.682467520050575982e-02
5.899993491268832324e-01 -3.899878567576215982e-01 7.682467520050575982e-02
5.899993491268832324e-01 -3.899878567576215982e-01 7.682467520050575982e-02
5.899993491268832324e-01 -3.899878567576215982e-01 7.682467520050575982e-02
5.899993491268832324e-01 -3.899878567576215982e-01 7.682467520050575982e-02
5.899993491268832324e-01 -3.899878567576215982e-01 7.682467520050575982e-02
5.899993491268832324e-01 -3.899878567576215982e-01 7.682467520050575982e-02
5.899993491268832324e-01 -3.899878567576215982e-01 7.682467520050575982e-02
5.899993491268832324e-01 -3.899878567576215982e-01 7.682467520050575982e-02
5.899993491268832324e-01 -3.899878567576215982e-01 7.682467520050575982e-02
5.899993491268832324e-01 -3.899878567576215982e-01 7.682467520050575982e-02
5.899993491268832324e-01 -3.899878567576215982e-01 7.682467520050575982e-02
5.899993491268832324e-01 -3.899878567576215982e-01 7.682467520050575982e-02
5.899993491268832324e-01 -3.899878567576215982e-01 7.682467520050575982e-02
5.899993491268832324e-01 -3.899878567576215982e-01 7.682467520050575982e-02
5.899993491268832324e-01 -3.899878567576215982e-01 7.682467520050575982e-02
5.899993491268832324e-01 -3.899878567576215982e-01 7.682467520050575982e-02
5.899993491268832324e-01 -3.899878567576215982e-01 7.682467520050575982e-02
5.899993491268832324e-01 -3.899878567576215982e-01 7.682467520050575982e-02
5.899993491268832324e-01 -3.899878567576215982e-01 7.682467520050575982e-02
5.899993491268832324e-01 -3.899878567576215982e-01 7.682467520050575982e-02
5.899993491268832324e-01 -3.899878567576215982e-01 7.682467520050575982e-02
5.899993491268832324e-01 -3.899878567576215982e-01 7.682467520050575982e-02
5.899993491268832324e-01 -3.899878567576215982e-01 7.682467520050575982e-02
5.899993491268832324e-01 -3.899878567576215982e-01 7.682467520050575982e-02
5.899993491268832324e-01 -3.899878567576215982e-01 7.682467520050575982e-02
5.899993491268832324e-01 -3.899878567576215982e-01 7.682467520050575982e-02
