4.258820187783949329e-01 -7.141245532702735765e-01 1.016940994376703600e+00 -7.634605919508316019e-01 -2.351943778651829756e-04 1.733648962627767354e+00 -4.064229394286831831e-01 1.206069280613029759e+00 1.247837576673895832e+00 3.628282310873474567e-03
5.163926509080505323e-01 -7.312928712458741654e-01 1.079218273808793427e+00 -6.955581469943984407e-01 1.939544812634875917e-05 1.810212642593110655e+00 -3.433663595120125533e-01 1.245545588641798318e+00 1.358048899128663001e+00 5.091796519830634263e-03
6.101777172934916837e-01 -7.450267581823999397e-01 1.143050530488784799e+00 -6.229522371158562333e-01 3.515670673786350643e-04 1.875701327708822364e+00 -2.746777387305147644e-01 1.276645133599829451e+00 1.452118197570844593e+00 6.643432385045725669e-03
7.067048975362619778e-01 -7.552071188061257878e-01 1.208434507498655108e+00 -5.464268671168911462e-01 7.456223875261932480e-04 1.930543604855406326e+00 -2.036072124745164635e-01 1.307679540197405510e+00 1.530507399979301741e+00 7.881106402951164325e-03
8.055537423016578824e-01 -7.618742917386351898e-01 1.276064236608856373e+00 -4.667403999109982493e-01 1.104571280545810913e-03 1.976976895307917870e+00 -1.333434586501875962e-01 1.352594582204027507e+00 1.593729344117857938e+00 7.178977860392351563e-03
9.065196507158442829e-01 -7.651799490335257081e-01 1.347664197314591528e+00 -3.846419659883165698e-01 9.983992346583631279e-04 0.000000000000000000e+00 0.000000000000000000e+00 0.000000000000000000e+00 0.000000000000000000e+00 0.000000000000000000e+00
9.065196507158442829e-01 -7.651799490335257081e-01 1.347664197314591528e+00 -3.846419659883165698e-01 9.983992346583631279e-04 0.000000000000000000e+00 0.000000000000000000e+00 0.000000000000000000e+00 0.000000000000000000e+00 0.000000000000000000e+00
9.065196507158442829e-01 -7.651799490335257081e-01 1.347664197314591528e+00 -3.846419659883165698e-01 9.983992346583631279e-04 0.000000000000000000e+00 0.000000000000000000e+00 0.000000000000000000e+00 0.000000000000000000e+00 0.000000000000000000e+00
9.065196507158442829e-01 -7.651799490335257081e-01 1.347664197314591528e+00 -3.846419659883165698e-01 9.983992346583631279e-04 0.000000000000000000e+00 0.000000000000000000e+00 0.000000000000000000e+00 0.000000000000000000e+00 0.000000000000000000e+00
9.065196507158442829e-01 -7.651799490335257081e-01 1.347664197314591528e+00 -3.846419659883165698e-01 9.983992346583631279e-04 0.000000000000000000e+00 0.000000000000000000e+00 0.000000000000000000e+00 0.000000000000000000e+00 0.000000000000000000e+00
9.065196507158442829e-01 -7.651799490335257081e-01 1.347664197314591528e+00 -3.846419659883165698e-01 9.983992346583631279e-04 0.000000000000000000e+00 0.000000000000000000e+00 0.000000000000000000e+00 0.000000000000000000e+00 0.000000000000000000e+00
9.065196507158442829e-01 -7.651799490335257081e-01 1.347664197314591528e+00 -3.846419659883165698e-01 9.983992346583631279e-04 0.000000000000000000e+00 0.000000000000000000e+00 0.000000000000000000e+00 0.000000000000000000e+00 0.000000000000000000e+00
9.065196507158442829e-01 -7.651799490335257081e-01 1.347664197314591528e+00 -3.846419659883165698e-01 9.983992346583631279e-04 0.000000000000000000e+00 0.000000000000000000e+00 0.000000000000000000e+00 0.000000000000000000e+00 0.000000000000000000e+00
9.065196507158442829e-01 -7.651799490335257081e-01 1.347664197314591528e+00 -3.846419659883165698e-01 9.983992346583631279e-04 0.000000000000000000e+00 0.000000000000000000e+00 0.000000000000000000e+00 0.000000000000000000e+00 0.000000000000000000e+00
9.065196507158442829e-01 -7.651799490335257081e-01 1.347664197314591528e+00 -3.846419659883165698e-01 9.983992346583631279e-04 0.000000000000000000e+00 0.000000000000000000e+00 0.000000000000000000e+00 0.000000000000000000e+00 0.000000000000000000e+00
9.065196507158442829e-01 -7.651799490335257081e-01 1.347664197314591528e+00 -3.846419659883165698e-01 9.983992346583631279e-04 0.000000000000000000e+00 0.000000000000000000e+00 0.000000000000000000e+00 0.000000000000000000e+00 0.000000000000000000e+00
9.065196507158442829e-01 -7.651799490335257081e-01 1.347664197314591528e+00 -3.846419659883165698e-01 9.983992346583631279e-04 0.000000000000000000e+00 0.000000000000000000e+00 0.000000000000000000e+00 0.000000000000000000e+00 0.000000000000000000e+00
9.065196507158442829e-01 -7.651799490335257081e-01 1.347664197314591528e+00 -3.846419659883165698e-01 9.983992346583631279e-04 0.000000000000000000e+00 0.000000000000000000e+00 0.000000000000000000e+00 0.000000000000000000e+00 0.000000000000000000e+00
9.065196507158442829e-01 -7.651799490335257081e-01 1.347664197314591528e+00 -3.846419659883165698e-01 9.983992346583631279e-04 0.000000000000000000e+00 0.000000000000000000e+00 0.000000000000000000e+00 0.000000000000000000e+00 0.000000000000000000e+00
9.065196507158442829e-01 -7.651799490335257081e-01 1.347664197314591528e+00 -3.846419659883165698e-01 9.983992346583631279e-04 0.000000000000000000e+00 0.000000000000000000e+00 0.000000000000000000e+00 0.000000000000000000e+00 0.000000000000000000e+00
9.065196507158442829e-01 -7.651799490335257081e-01 1.347664197314591528e+00 -3.846419659883165698e-01 9.983992346583631279e-04 0.000000000000000000e+00 0.000000000000000000e+00 0.000000000000000000e+00 0.000000000000000000e+00 0.000000000000000000e+00
9.065196507158442829e-01 -7.651799490335257081e-01 1.347664197314591528e+00 -3.846419659883165698e-01 9.983992346583631279e-04 0.000000000000000000e+00 0.000000000000000000e+00 0.000000000000000000e+00 0.000000000000000000e+00 0.000000000000000000e+00
9.065196507158442829e-01 -7.651799490335257081e-01 1.347664197314591528e+00 -3.846419659883165698e-01 9.983992346583631279e-04 0.000000000000000000e+00 0.000000000000000000e+00 0.000000000000000000e+00 0.000000000000000000e+00 0.000000000000000000e+00
9.065196507158442829e-01 -7.651799490335257081e-01 1.347664197314591528e+00 -3.846419659883165698e-01 9.983992346583631279e-04 0.000000000000000000e+00 0.000000000000000000e+00 0.000000000000000000e+00 0.000000000000000000e+00 0.000000000000000000e+00
9.065196507158442829e-01 -7.651799490335257081e-01 1.347664197314591528e+00 -3.846419659883165698e-01 9.983992346583631279e-04 0.000000000000000000e+00 0.000000000000000000e+00 0.000000000000000000e+00 0.000000000000000000e+00 0.000000000000000000e+00
9.065196507158442829e-01 -7.651799490335257081e-01 1.347664197314591528e+00 -3.846419659883165698e-01 9.983992346583631279e-04 0.000000000000000000e+00 0.000000000000000000e+00 0.000000000000000000e+00 0.000000000000000000e+00 0.000000000000000000e+00
9.065196507158442829e-01 -7.651799490335257081e-01 1.347664197314591528e+00 -3.846419659883165698e-01 9.983992346583631279e-04 0.000000000000000000e+00 0.000000000000000000e+00 0.000000000000000000e+00 0.000000000000000000e+00 0.000000000000000000e+00
9.065196507158442829e-01 -7.651799490335257081e-01 1.347664197314591528e+00 -3.846419659883165698e-01 9.983992346583631279e-04 0.000000000000000000e+00 0.000000000000000000e+00 0.000000000000000000e+00 0.000000000000000000e+00 0.000000000000000000e+00
9.065196507158442829e-01 -7.651799490335257081e-01 1.347664197314591528e+00 -3.846419659883165698e-01 9.983992346583631279e-04 0.000000000000000000e+00 0.000000000000000000e+00 0.000000000000000000e+00 0.000000000000000000e+00 0.000000000000000000e+00
9.065196507158442829e-01 -7.651799490335257081e-01 1.347664197314591528e+00 -3.846419659883165698e-01 9.983992346583631279e-04 0.000000000000000000e+00 0.000000000000000000e+00 0.000000000000000000e+00 0.000000000000000000e+00 0.000000000000000000e+00
9.065196507158442829e-01 -7.651799490335257081e-01 1.347664197314591528e+00 -3.846419659883165698e-01 9.983992346583631279e-04 0.000000000000000000e+00 0.000000000000000000e+00 0.000000000000000000e+00 0.000000000000000000e+00 0.000000000000000000e+00
