9.803743289462059085e-01 -6.721070030907208004e-01 1.351906372470161655e+00 -5.710012261695671665e-01 4.384737637175492586e-04 1.669230367591151509e+00 -1.281058363606651374e-01 4.538672368586831318e-01 1.765303618007548758e+00 5.331917455338936948e-03
1.064193596147722021e+00 -6.764628132489092227e-01 1.372268150531753550e+00 -4.815043382318295873e-01 7.084129397054703993e-04 1.676385344030320912e+00 -8.711620316376876560e-02 4.072355612318375728e-01 1.789937758754750918e+00 5.398783519758421079e-03
1.148380602531820394e+00 -6.791560477282699848e-01 1.390935628846120320e+00 -3.908169841939680422e-01 1.000852868368981748e-03 0.000000000000000000e+00 0.000000000000000000e+00 0.000000000000000000e+00 0.000000000000000000e+00 0.000000000000000000e+00
1.148380602531820394e+00 -6.791560477282699848e-01 1.390935628846120320e+00 -3.908169841939680422e-01 1.000852868368981748e-03 0.000000000000000000e+00 0.000000000000000000e+00 0.000000000000000000e+00 0.000000000000000000e+00 0.000000000000000000e+00
1.148380602531820394e+00 -6.791560477282699848e-01 1.390935628846120320e+00 -3.908169841939680422e-01 1.000852868368981748e-03 0.000000000000000000e+00 0.000000000000000000e+00 0.000000000000000000e+00 0.000000000000000000e+00 0.000000000000000000e+00
1.148380602531820394e+00 -6.791560477282699848e-01 1.390935628846120320e+00 -3.908169841939680422e-01 1.000852868368981748e-03 0.000000000000000000e+00 0.000000000000000000e+00 0.000000000000000000e+00 0.000000000000000000e+00 0.000000000000000000e+00
1.148380602531820394e+00 -6.791560477282699848e-01 1.390935628846120320e+00 -3.908169841939680422e-01 1.000852868368981748e-03 0.000000000000000000e+00 0.000000000000000000e+00 0.000000000000000000e+00 0.000000000000000000e+00 0.000000000000000000e+00
1.148380602531820394e+00 -6.791560477282699848e-01 1.390935628846120320e+00 -3.908169841939680422e-01 1.000852868368981748e-03 0.000000000000000000e+00 0.000000000000000000e+00 0.000000000000000000e+00 0.000000000000000000e+00 0.000000000000000000e+00
1.148380602531820394e+00 -6.791560477282699848e-01 1.390935628846120320e+00 -3.908169841939680422e-01 1.000852868368981748e-03 0.000000000000000000e+00 0.000000000000000000e+00 0.000000000000000000e+00 0.000000000000000000e+00 0.000000000000000000e+00
1.148380602531820394e+00 -6.791560477282699848e-01 1.390935628846120320e+00 -3.908169841939680422e-01 1.000852868368981748e-03 0.000000000000000000e+00 0.000000000000000000e+00 0.000000000000000000e+00 0.000000000000000000e+00 0.000000000000000000e+00
1.148380602531820394e+00 -6.791560477282699848e-01 1.390935628846120320e+00 -3.908169841939680422e-01 1.000852868368981748e-03 0.000000000000000000e+00 0.000000000000000000e+00 0.000000000000000000e+00 0.000000000000000000e+00 0.000000000000000000e+00
1.148380602531820394e+00 -6.791560477282699848e-01 1.390935628846120320e+00 -3.908169841939680422e-01 1.000852868368981748e-03 0.000000000000000000e+00 0.000000000000000000e+00 0.000000000000000000e+00 0.000000000000000000e+00 0.000000000000000000e+00
1.148380602531820394e+00 -6.791560477282699848e-01 1.390935628846120320e+00 -3.908169841939680422e-01 1.000852868368981748e-03 0.000000000000000000e+00 0.000000000000000000e+00 0.000000000000000000e+00 0.000000000000000000e+00 0.000000000000000000e+00
1.148380602531820394e+00 -6.791560477282699848e-01 1.390935628846120320e+00 -3.908169841939680422e-01 1.000852868368981748e-03 0.000000000000000000e+00 0.000000000000000000e+00 0.000000000000000000e+00 0.000000000000000000e+00 0.000000000000000000e+00
1.148380602531820394e+00 -6.791560477282699848e-01 1.390935628846120320e+00 -3.908169841939680422e-01 1.000852868368981748e-03 0.000000000000000000e+00 0.000000000000000000e+00 0.000000000000000000e+00 0.000000000000000000e+00 0.000000000000000000e+00
1.148380602531820394e+00 -6.791560477282699848e-01 1.390935628846120320e+00 -3.908169841939680422e-01 1.000852868368981748e-03 0.000000000000000000e+00 0.000000000000000000e+00 0.000000000000000000e+00 0.000000000000000000e+00 0.000000000000000000e+00
1.148380602531820394e+00 -6.791560477282699848e-01 1.390935628846120320e+00 -3.908169841939680422e-01 1.000852868368981748e-03 0.000000000000000000e+00 0.000000000000000000e+00 0.000000000000000000e+00 0.000000000000000000e+00 0.000000000000000000e+00
1.148380602531820394e+00 -6.791560477282699848e-01 1.390935628846120320e+00 -3.908169841939680422e-01 1.000852868368981748e-03 0.000000000000000000e+00 0.000000000000000000e+00 0.000000000000000000e+00 0.000000000000000000e+00 0.000000000000000000e+00
1.148380602531820394e+00 -6.791560477282699848e-01 1.390935628846120320e+00 -3.908169841939680422e-01 1.000852868368981748e-03 0.000000000000000000e+00 0.000000000000000000e+00 0.000000000000000000e+00 0.000000000000000000e+00 0.000000000000000000e+00
1.148380602531820394e+00 -6.791560477282699848e-01 1.390935628846120320e+00 -3.908169841939680422e-01 1.000852868368981748e-03 0.000000000000000000e+00 0.000000000000000000e+00 0.000000000000000000e+00 0.000000000000000000e+00 0.000000000000000000e+00
1.148380602531820394e+00 -6.791560477282699848e-01 1.390935628846120320e+00 -3.908169841939680422e-01 1.000852868368981748e-03 0.000000000000000000e+00 0.000000000000000000e+00 0.000000000000000000e+00 0.000000000000000000e+00 0.000000000000000000e+00
1.148380602531820394e+00 -6.791560477282699848e-01 1.390935628846120320e+00 -3.908169841939680422e-01 1.000852868368981748e-03 0.000000000000000000e+00 0.000000000000000000e+00 0.000000000000000000e+00 0.000000000000000000e+00 0.000000000000000000e+00
1.148380602531820394e+00 -6.791560477282699848e-01 1.390935628846120320e+00 -3.908169841939680422e-01 1.000852868368981748e-03 0.000000000000000000e+00 0.000000000000000000e+00 0.000000000000000000e+00 0.000000000000000000e+00 0.000000000000000000e+00
1.148380602531820394e+00 -6.791560477282699848e-01 1.390935628846120320e+00 -3.908169841939680422e-01 1.000852868368981748e-03 0.000000000000000000e+00 0.000000000000000000e+00 0.000000000000000000e+00 0.000000000000000000e+00 0.000000000000000000e+00
1.148380602531820394e+00 -6.791560477282699848e-01 1.390935628846120320e+00 -3.908169841939680422e-01 1.000852868368981748e-03 0.000000000000000000e+00 0.000000000000000000e+00 0.000000000000000000e+00 0.000000000000000000e+00 0.000000000000000000e+00
1.148380602531820394e+00 -6.791560477282699848e-01 1.390935628846120320e+00 -3.908169841939680422e-01 1.000852868368981748e-03 0.000000000000000000e+00 0.000000000000000000e+00 0.000000000000000000e+00 0.000000000000000000e+00 0.000000000000000000e+00
1.148380602531820394e+00 -6.791560477282699848e-01 1.390935628846120320e+00 -3.908169841939680422e-01 1.000852868368981748e-03 0.000000000000000000e+00 0.000000000000000000e+00 0.000000000000000000e+00 0.000000000000000000e+00 0.000000000000000000e+00
1.148380602531820394e+00 -6.791560477282699848e-01 1.390935628846120320e+00 -3.908169841939680422e-01 1.000852868368981748e-03 0.000000000000000000e+00 0.000000000000000000e+00 0.000000000000000000e+00 0.000000000000000000e+00 0.000000000000000000e+00
1.148380602531820394e+00 -6.791560477282699848e-01 1.390935628846120320e+00 -3.908169841939680422e-01 1.000852868368981748e-03 0.000000000000000000e+00 0.000000000000000000e+00 0.000000000000000000e+00 0.000000000000000000e+00 0.000000000000000000e+00
1.148380602531820394e+00 -6.791560477282699848e-01 1.390935628846120320e+00 -3.908169841939680422e-01 1.000852868368981748e-03 0.000000000000000000e+00 0.000000000000000000e+00 0.000000000000000000e+00 0.000000000000000000e+00 0.000000000000000000e+00
1.148380602531820394e+00 -6.791560477282699848e-01 1.390935628846120320e+00 -3.908169841939680422e-01 1.000852868368981748e-03 0.000000000000000000e+00 0.000000000000000000e+00 0.000000000000000000e+00 0.000000000000000000e+00 0.000000000000000000e+00
