-1.046919942414309412e+00 -6.844533919846982339e-01 4.285834339108784974e-02 -1.346305667811045659e+00 -1.976564489038438316e-04 -3.494642526343985645e-01 -9.893551179342949808e-01 -1.803049856544246543e-01 1.047367086945441894e+00 1.700675616844067595e-03
-1.065077041172852290e+00 -7.339781910991667324e-01 3.453097790432996944e-02 -1.292294242745749555e+00 -1.292443745209814591e-04 -3.631419751708579446e-01 -9.904959822893687482e-01 -1.665473097351575782e-01 1.080228501305920963e+00 1.368241487657247558e-03
-1.084134627372679294e+00 -7.835067591728251957e-01 2.644602355759245044e-02 -1.236986547969881611e+00 -7.883849660770350664e-05 -3.811517239965392378e-01 -9.905713614731693761e-01 -1.616990869347503523e-01 1.106153895517357100e+00 1.008117558265558995e-03
-1.104354223094680787e+00 -8.330035342512006613e-01 1.811346737095710993e-02 -1.180640348192933953e+00 -4.637283324928688657e-05 -4.043919144400300314e-01 -9.899355015675098679e-01 -1.666511237327068240e-01 1.126923995538954504e+00 6.493132671683323745e-04
-1.126057303690164213e+00 -8.824427649652276662e-01 8.969032952410711107e-03 -1.123435502537902142e+00 -2.486146103411025299e-05 0.000000000000000000e+00 0.000000000000000000e+00 0.000000000000000000e+00 0.000000000000000000e+00 0.000000000000000000e+00
-1.126057303690164213e+00 -8.824427649652276662e-01 8.969032952410711107e-03 -1.123435502537902142e+00 -2.486146103411025299e-05 0.000000000000000000e+00 0.000000000000000000e+00 0.000000000000000000e+00 0.000000000000000000e+00 0.000000000000000000e+00
-1.126057303690164213e+00 -8.824427649652276662e-01 8.969032952410711107e-03 -1.123435502537902142e+00 -2.486146103411025299e-05 0.000000000000000000e+00 0.000000000000000000e+00 0.000000000000000000e+00 0.000000000000000000e+00 0.000000000000000000e+00
-1.126057303690164213e+00 -8.824427649652276662e-01 8.969032952410711107e-03 -1.123435502537902142e+00 -2.486146103411025299e-05 0.000000000000000000e+00 0.000000000000000000e+00 0.000000000000000000e+00 0.000000000000000000e+00 0.000000000000000000e+00
-1.126057303690164213e+00 -8.824427649652276662e-01 8.969032952410711107e-03 -1.123435502537902142e+00 -2.486146103411025299e-05 0.000000000000000000e+00 0.000000000000000000e+00 0.000000000000000000e+00 0.000000000000000000e+00 0.000000000000000000e+00
-1.126057303690164213e+00 -8.824427649652276662e-01 8.969032952410711107e-03 -1.123435502537902142e+00 -2.486146103411025299e-05 0.000000000000000000e+00 0.000000000000000000e+00 0.000000000000000000e+00 0.000000000000000000e+00 0.000000000000000000e+00
-1.126057303690164213e+00 -8.824427649652276662e-01 8.969032952410711107e-03 -1.123435502537902142e+00 -2.486146103411025299e-05 0.000000000000000000e+00 0.000000000000000000e+00 0.000000000000000000e+00 0.000000000000000000e+00 0.000000000000000000e+00
-1.126057303690164213e+00 -8.824427649652276662e-01 8.969032952410711107e-03 -1.123435502537902142e+00 -2.486146103411025299e-05 0.000000000000000000e+00 0.000000000000000000e+00 0.000000000000000000e+00 0.000000000000000000e+00 0.000000000000000000e+00
-1.126057303690164213e+00 -8.824427649652276662e-01 8.969032952410711107e-03 -1.123435502537902142e+00 -2.486146103411025299e-05 0.000000000000000000e+00 0.000000000000000000e+00 0.000000000000000000e+00 0.000000000000000000e+00 0.000000000000000000e+00
-1.126057303690164213e+00 -8.824427649652276662e-01 8.969032952410711107e-03 -1.123435502537902142e+00 -2.486146103411025299e-05 0.000000000000000000e+00 0.000000000000000000e+00 0.000000000000000000e+00 0.000000000000000000e+00 0.000000000000000000e+00
-1.126057303690164213e+00 -8.824427649652276662e-01 8.969032952410711107e-03 -1.123435502537902142e+00 -2.486146103411025299e-05 0.000000000000000000e+00 0.000000000000000000e+00 0.000000000000000000e+00 0.000000000000000000e+00 0.000000000000000000e+00
-1.126057303690164213e+00 -8.824427649652276662e-01 8.969032952410711107e-03 -1.123435502537902142e+00 -2.486146103411025299e-05 0.000000000000000000e+00 0.000000000000000000e+00 0.000000000000000000e+00 0.000000000000000000e+00 0.000000000000000000e+00
-1.126057303690164213e+00 -8.824427649652276662e-01 8.969032952410711107e-03 -1.123435502537902142e+00 -2.486146103411025299e-05 0.000000000000000000e+00 0.000000000000000000e+00 0.000000000000000000e+00 0.000000000000000000e+00 0.000000000000000000e+00
-1.126057303690164213e+00 -8.824427649652276662e-01 8.969032952410711107e-03 -1.123435502537902142e+00 -2.486146103411025299e-05 0.000000000000000000e+00 0.000000000000000000e+00 0.000000000000000000e+00 0.000000000000000000e+00 0.000000000000000000e+00
-1.126057303690164213e+00 -8.824427649652276662e-01 8.969032952410711107e-03 -1.123435502537902142e+00 -2.486146103411025299e-05 0.000000000000000000e+00 0.000000000000000000e+00 0.000000000000000000e+00 0.000000000000000000e+00 0.000000000000000000e+00
-1.126057303690164213e+00 -8.824427649652276662e-01 8.969032952410711107e-03 -1.123435502537902142e+00 -2.486146103411025299e-05 0.000000000000000000e+00 0.000000000000000000e+00 0.000000000000000000e+00 0.000000000000000000e+00 0.000000000000000000e+00
-1.126057303690164213e+00 -8.824427649652276662e-01 8.969032952410711107e-03 -1.123435502537902142e+00 -2.486146103411025299e-05 0.000000000000000000e+00 0.000000000000000000e+00 0.000000000000000000e+00 0.000000000000000000e+00 0.000000000000000000e+00
-1.126057303690164213e+00 -8.824427649652276662e-01 8.969032952410711107e-03 -1.123435502537902142e+00 -2.486146103411025299e-05 0.000000000000000000e+00 0.000000000000000000e+00 0.000000000000000000e+00 0.000000000000000000e+00 0.000000000000000000e+00
-1.126057303690164213e+00 -8.824427649652276662e-01 8.969032952410711107e-03 -1.123435502537902142e+00 -2.486146103411025299e-05 0.000000000000000000e+00 0.000000000000000000e+00 0.000000000000000000e+00 0.000000000000000000e+00 0.000000000000000000e+00
-1.126057303690164213e+00 -8.824427649652276662e-01 8.969032952410711107e-03 -1.123435502537902142e+00 -2.486146103411025299e-05 0.000000000000000000e+00 0.000000000000000000e+00 0.000000000000000000e+00 0.000000000000000000e+00 0.000000000000000000e+00
-1.126057303690164213e+00 -8.824427649652276662e-01 8.969032952410711107e-03 -1.123435502537902142e+00 -2.486146103411025299e-05 0.000000000000000000e+00 0.000000000000000000e+00 0.000000000000000000e+00 0.000000000000000000e+00 0.000000000000000000e+00
-1.126057303690164213e+00 -8.824427649652276662e-01 8.969032952410711107e-03 -1.123435502537902142e+00 -2.486146103411025299e-05 0.000000000000000000e+00 0.000000000000000000e+00 0.000000000000000000e+00 0.000000000000000000e+00 0.000000000000000000e+00
-1.126057303690164213e+00 -8.824427649652276662e-01 8.969032952410711107e-03 -1.123435502537902142e+00 -2.486146103411025299e-05 0.000000000000000000e+00 0.000000000000000000e+00 0.000000000000000000e+00 0.000000000000000000e+00 0.000000000000000000e+00
-1.126057303690164213e+00 -8.824427649652276662e-01 8.969032952410711107e-03 -1.123435502537902142e+00 -2.486146103411025299e-05 0.000000000000000000e+00 0.000000000000000000e+00 0.000000000000000000e+00 0.000000000000000000e+00 0.000000000000000000e+00
-1.126057303690164213e+00 -8.824427649652276662e-01 8.969032952410711107e-03 -1.123435502537902142e+00 -2.486146103411025299e-05 0.000000000000000000e+00 0.000000000000000000e+00 0.000000000000000000e+00 0.000000000000000000e+00 0.000000000000000000e+00
-1.126057303690164213e+00 -8.824427649652276662e-01 8.969032952410711107e-03 -1.123435502537902142e+00 -2.486146103411025299e-05 0.000000000000000000e+00 0.000000000000000000e+00 0.000000000000000000e+00 0.000000000000000000e+00 0.000000000000000000e+00
-1.126057303690164213e+00 -8.824427649652276662e-01 8.969032952410711107e-03 -1.123435502537902142e+00 -2.486146103411025299e-05 0.000000000000000000e+00 0.000000000000000000e+00 0.000000000000000000e+00 0.000000000000000000e+00 0.000000000000000000e+00
