2.482279664889882609e-01 -5.735528858965711629e-01 6.749353859574508396e-01 -1.511089215881908254e+00 -1.016491440174650861e-03 1.430819039321872932e+00 -9.751703721894865451e-01 5.295617306048727713e-01 4.651629339333652746e-01 2.915799577467279350e-05
3.285331721352859335e-01 -6.221032134219978138e-01 7.107596896250124585e-01 -1.477401509743456742e+00 -1.014337989176553306e-03 1.606104112925953009e+00 -9.710065505085327953e-01 7.164860733512319335e-01 6.737541227690299062e-01 4.306901996195323007e-05
4.180927629043532656e-01 -6.693449321211913938e-01 7.561845353409777371e-01 -1.433725068637802691e+00 -1.013533329464083458e-03 1.791191815381345753e+00 -9.448343739838724886e-01 9.084969143193045715e-01 8.735288221130796948e-01 1.609319424939526213e-05
5.172399272415553195e-01 -7.140777035584857657e-01 8.111287708252493678e-01 -1.380715290199931777e+00 -1.015040948082429010e-03 1.982943286744041078e+00 -8.946554287458869936e-01 1.098884709685431726e+00 1.060195568757416718e+00 -3.015237236691239875e-05
6.260501121944158642e-01 -7.550347556555307982e-01 8.751059460165040438e-01 -1.319179384463863514e+00 -1.019101441504629202e-03 2.176203699057210450e+00 -8.191410419409000943e-01 1.279543503825094408e+00 1.230718114721364387e+00 -8.120986844400171706e-05
7.442309554798119953e-01 -7.909271428353975564e-01 9.471365985011948041e-01 -1.250000749169708270e+00 -1.024279842385784510e-03 2.363616865707922177e+00 -7.178477435973357190e-01 1.440613049693816095e+00 1.383572705883105991e+00 -1.035680176231056066e-04
8.710254278649836035e-01 -8.205035842667136592e-01 1.025661067654811909e+00 -1.174041623031048420e+00 -1.023313571689439582e-03 2.535889447703431276e+00 -5.915288286263213902e-01 1.570489383072342759e+00 1.519182522773198096e+00 1.932541392689876081e-05
1.005160216967892817e+00 -8.426306123185660635e-01 1.108496876957078214e+00 -1.092033458865286022e+00 -9.924716599277760322e-04 2.682695782058183376e+00 -4.425405610370476417e-01 1.656716186045327666e+00 1.640163283315246856e+00 6.168382352332731598e-04
1.144873595388309351e+00 -8.563930059201529943e-01 1.192894695316109921e+00 -1.004479794946740556e+00 -8.838977033832136777e-04 2.794267568408329350e+00 -2.752478720317385608e-01 1.687956367180633244e+00 1.751073278370911090e+00 2.171479130891246223e-03
1.288046544447891462e+00 -8.612033687991409447e-01 1.275736891658970418e+00 -9.116093053280425185e-01 -6.838854909564085188e-04 2.863458981191642216e+00 -9.620725757975862047e-02 1.656843926857208604e+00 1.857409792373960533e+00 4.000244248536103178e-03
1.432429431963968103e+00 -8.568953650853284865e-01 1.353872675264497616e+00 -8.134101747718296416e-01 -3.963957121150013139e-04 2.887657750321531935e+00 8.616007427624872150e-02 1.562715672110544851e+00 1.963982611124256650e+00 5.749795576828142796e-03
1.575916371773935953e+00 -8.437712554068921289e-01 1.424527225794909757e+00 -7.097472356701886032e-01 -3.903704494363530609e-05 2.869738796199357900e+00 2.624821935687265961e-01 1.413091010608242160e+00 2.073258782032820324e+00 7.147173343427319289e-03
1.716794331550223429e+00 -8.225858210839245288e-01 1.485692649928071152e+00 -6.005167950340042360e-01 3.587420904488803752e-04 2.817559195525747739e+00 4.237086864593530011e-01 1.223308482663227892e+00 2.184608812723686899e+00 7.955582707850312324e-03
1.853906309064816016e+00 -7.944678797205373399e-01 1.536447880414474554e+00 -4.857799116329477029e-01 7.510925720185701766e-04 2.742239550291852623e+00 5.623588272677430000e-01 1.015104609728067153e+00 2.294737668021130439e+00 7.847009631393796897e-03
1.986698585955472662e+00 -7.607818776301553676e-01 1.577190300579696558e+00 -3.658340166053738463e-01 1.048926121180221828e-03 2.655845537813131152e+00 6.737200418076397801e-01 8.148484033044383068e-01 2.398917900551476912e+00 5.956670983233032166e-03
2.115164962275642324e+00 -7.229394576062788680e-01 1.609764975455095337e+00 -2.412263003786693505e-01 1.002256422397233273e-03 0.000000000000000000e+00 0.000000000000000000e+00 0.000000000000000000e+00 0.000000000000000000e+00 0.000000000000000000e+00
2.115164962275642324e+00 -7.229394576062788680e-01 1.609764975455095337e+00 -2.412263003786693505e-01 1.002256422397233273e-03 0.000000000000000000e+00 0.000000000000000000e+00 0.000000000000000000e+00 0.000000000000000000e+00 0.000000000000000000e+00
2.115164962275642324e+00 -7.229394576062788680e-01 1.609764975455095337e+00 -2.412263003786693505e-01 1.002256422397233273e-03 0.000000000000000000e+00 0.000000000000000000e+00 0.000000000000000000e+00 0.000000000000000000e+00 0.000000000000000000e+00
2.115164962275642324e+00 -7.229394576062788680e-01 1.609764975455095337e+00 -2.412263003786693505e-01 1.002256422397233273e-03 0.000000000000000000e+00 0.000000000000000000e+00 0.000000000000000000e+00 0.000000000000000000e+00 0.000000000000000000e+00
2.115164962275642324e+00 -7.229394576062788680e-01 1.609764975455095337e+00 -2.412263003786693505e-01 1.002256422397233273e-03 0.000000000000000000e+00 0.000000000000000000e+00 0.000000000000000000e+00 0.000000000000000000e+00 0.000000000000000000e+00
2.115164962275642324e+00 -7.229394576062788680e-01 1.609764975455095337e+00 -2.412263003786693505e-01 1.002256422397233273e-03 0.000000000000000000e+00 0.000000000000000000e+00 0.000000000000000000e+00 0.000000000000000000e+00 0.000000000000000000e+00
2.115164962275642324e+00 -7.229394576062788680e-01 1.609764975455095337e+00 -2.412263003786693505e-01 1.002256422397233273e-03 0.000000000000000000e+00 0.000000000000000000e+00 0.000000000000000000e+00 0.000000000000000000e+00 0.000000000000000000e+00
2.115164962275642324e+00 -7.229394576062788680e-01 1.609764975455095337e+00 -2.412263003786693505e-01 1.002256422397233273e-03 0.000000000000000000e+00 0.000000000000000000e+00 0.000000000000000000e+00 0.000000000000000000e+00 0.000000000000000000e+00
2.115164962275642324e+00 -7.229394576062788680e-01 1.609764975455095337e+00 -2.412263003786693505e-01 1.002256422397233273e-03 0.000000000000000000e+00 0.000000000000000000e+00 0.000000000000000000e+00 0.000000000000000000e+00 0.000000000000000000e+00
2.115164962275642324e+00 -7.229394576062788680e-01 1.609764975455095337e+00 -2.412263003786693505e-01 1.002256422397233273e-03 0.000000000000000000e+00 0.000000000000000000e+00 0.000000000000000000e+00 0.000000000000000000e+00 0.000000000000000000e+00
2.115164962275642324e+00 -7.229394576062788680e-01 1.609764975455095337e+00 -2.412263003786693505e-01 1.002256422397233273e-03 0.000000000000000000e+00 0.000000000000000000e+00 0.000000000000000000e+00 0.000000000000000000e+00 0.000000000000000000e+00
2.115164962275642324e+00 -7.229394576062788680e-01 1.609764975455095337e+00 -2.412263003786693505e-01 1.002256422397233273e-03 0.000000000000000000e+00 0.000000000000000000e+00 0.000000000000000000e+00 0.000000000000000000e+00 0.000000000000000000e+00
2.115164962275642324e+00 -7.229394576062788680e-01 1.609764975455095337e+00 -2.412263003786693505e-01 1.002256422397233273e-03 0.000000000000000000e+00 0.000000000000000000e+00 0.000000000000000000e+00 0.000000000000000000e+00 0.000000000000000000e+00
2.115164962275642324e+00 -7.229394576062788680e-01 1.609764975455095337e+00 -2.412263003786693505e-01 1.002256422397233273e-03 0.000000000000000000e+00 0.000000000000000000e+00 0.000000000000000000e+00 0.000000000000000000e+00 0.000000000000000000e+00
2.115164962275642324e+00 -7.229394576062788680e-01 1.609764975455095337e+00 -2.412263003786693505e-01 1.002256422397233273e-03 0.000000000000000000e+00 0.000000000000000000e+00 0.000000000000000000e+00 0.000000000000000000e+00 0.000000000000000000e+00
2.115164962275642324e+00 -7.229394576062788680e-01 1.609764975455095337e+00 -2.412263003786693505e-01 1.002256422397233273e-03 0.000000000000000000e+00 0.000000000000000000e+00 0.000000000000000000e+00 0.000000000000000000e+00 0.000000000000000000e+00
