-3.986559937017097877e-01 -6.160752787571567302e-01 5.061630352992393389e-01 -1.247718397686577774e+00 -3.225274574544031037e-04 7.486973017638030858e-02 -3.408740614718135387e-01 -6.075907833657007151e-02 3.613446115635594591e-01 1.815019810819478959e-04
-3.941917473910059866e-01 -6.334938491412900330e-01 5.049414472743307680e-01 -1.228280682606309293e+00 -3.086930300850635302e-04 8.928492621407652097e-02 -3.483714076826653905e-01 -2.443176049817064738e-02 3.887543016053712774e-01 2.766885473867911451e-04
-3.890760813189865219e-01 -6.511965605398666312e-01 5.053570144256570584e-01 -1.207750684741328184e+00 -2.914337952156221515e-04 1.023133214403889046e-01 -3.540542279715328533e-01 8.311343026526057942e-03 4.105999572996224534e-01 3.451846973888277915e-04
-3.833722550101162363e-01 -6.691097019436205162e-01 5.072414101528527342e-01 -1.186361485166865126e+00 -2.717084065066648719e-04 1.140765261774061984e-01 -3.582628280750777550e-01 3.768791454391418050e-02 4.277839914892623829e-01 3.945077741791453200e-04
-3.771372457730908789e-01 -6.871759858272636912e-01 5.104401830432507836e-01 -1.164302817049833072e+00 -2.502697702212324546e-04 1.247001847405070640e-01 -3.613256776728628328e-01 6.397545780796111414e-02 4.411733623406424720e-01 4.287727257086481844e-04
-3.704218541356134042e-01 -7.053533468758343972e-01 5.148141942128127146e-01 -1.141724533525932950e+00 -2.278094353597830146e-04 1.343078327495491886e-01 -3.635472209714135094e-01 8.748022339123828761e-02 4.515656704780011133e-01 4.492066972289885827e-04
-3.632709406782068107e-01 -7.236133027980669041e-01 5.202401444263059505e-01 -1.118741145217873711e+00 -2.051858098310017995e-04 1.430182691481319268e-01 -3.651991184446494176e-01 1.085190042698637586e-01 4.596677661611830445e-01 4.524725105756245182e-04
-3.557236289095495607e-01 -7.419392455878911496e-01 5.266098906510372490e-01 -1.095435236730382345e+00 -1.837425763782192718e-04 1.509462353731454987e-01 -3.665188557964857430e-01 1.273949244946263881e-01 4.661181697498286147e-01 4.288646690556502297e-04
-3.478139185922490828e-01 -7.603242890881368732e-01 5.338285567507166096e-01 -1.071862189293186329e+00 -1.666709566534174279e-04 1.581942063460093362e-01 -3.677008700049147483e-01 1.443733219935864065e-01 4.714609487439217483e-01 3.414323944960367149e-04
-3.395713436868533219e-01 -7.787691328942223379e-01 5.418121104222367590e-01 -1.048054457246748283e+00 -1.644178275095657617e-04 1.648514981079154118e-01 -3.688968761217095160e-01 1.596710734304029322e-01 4.761546409287628068e-01 4.506258287703348740e-05
-3.310214350886511725e-01 -7.972800246244498013e-01 5.504847178440284150e-01 -1.024024419160434851e+00 -2.160387393524051394e-04 0.000000000000000000e+00 0.000000000000000000e+00 0.000000000000000000e+00 0.000000000000000000e+00 0.000000000000000000e+00
-3.310214350886511725e-01 -7.972800246244498013e-01 5.504847178440284150e-01 -1.024024419160434851e+00 -2.160387393524051394e-04 0.000000000000000000e+00 0.000000000000000000e+00 0.000000000000000000e+00 0.000000000000000000e+00 0.000000000000000000e+00
-3.310214350886511725e-01 -7.972800246244498013e-01 5.504847178440284150e-01 -1.024024419160434851e+00 -2.160387393524051394e-04 0.000000000000000000e+00 0.000000000000000000e+00 0.000000000000000000e+00 0.000000000000000000e+00 0.000000000000000000e+00
-3.310214350886511725e-01 -7.972800246244498013e-01 5.504847178440284150e-01 -1.024024419160434851e+00 -2.160387393524051394e-04 0.000000000000000000e+00 0.000000000000000000e+00 0.000000000000000000e+00 0.000000000000000000e+00 0.000000000000000000e+00
-3.310214350886511725e-01 -7.972800246244498013e-01 5.504847178440284150e-01 -1.024024419160434851e+00 -2.160387393524051394e-04 0.000000000000000000e+00 0.000000000000000000e+00 0.000000000000000000e+00 0.000000000000000000e+00 0.000000000000000000e+00
-3.310214350886511725e-01 -7.972800246244498013e-01 5.504847178440284150e-01 -1.024024419160434851e+00 -2.160387393524051394e-04 0.000000000000000000e+00 0.000000000000000000e+00 0.000000000000000000e+00 0.000000000000000000e+00 0.000000000000000000e+00
-3.310214350886511725e-01 -7.972800246244498013e-01 5.504847178440284150e-01 -1.024024419160434851e+00 -2.160387393524051394e-04 0.000000000000000000e+00 0.000000000000000000e+00 0.000000000000000000e+00 0.000000000000000000e+00 0.000000000000000000e+00
-3.310214350886511725e-01 -7.972800246244498013e-01 5.504847178440284150e-01 -1.024024419160434851e+00 -2.160387393524051394e-04 0.000000000000000000e+00 0.000000000000000000e+00 0.000000000000000000e+00 0.000000000000000000e+00 0.000000000000000000e+00
-3.310214350886511725e-01 -7.972800246244498013e-01 5.504847178440284150e-01 -1.024024419160434851e+00 -2.160387393524051394e-04 0.000000000000000000e+00 0.000000000000000000e+00 0.000000000000000000e+00 0.000000000000000000e+00 0.000000000000000000e+00
-3.310214350886511725e-01 -7.972800246244498013e-01 5.504847178440284150e-01 -1.024024419160434851e+00 -2.160387393524051394e-04 0.000000000000000000e+00 0.000000000000000000e+00 0.000000000000000000e+00 0.000000000000000000e+00 0.000000000000000000e+00
-3.310214350886511725e-01 -7.972800246244498013e-01 5.504847178440284150e-01 -1.024024419160434851e+00 -2.160387393524051394e-04 0.000000000000000000e+00 0.000000000000000000e+00 0.000000000000000000e+00 0.000000000000000000e+00 0.000000000000000000e+00
-3.310214350886511725e-01 -7.972800246244498013e-01 5.504847178440284150e-01 -1.024024419160434851e+00 -2.160387393524051394e-04 0.000000000000000000e+00 0.000000000000000000e+00 0.000000000000000000e+00 0.000000000000000000e+00 0.000000000000000000e+00
-3.310214350886511725e-01 -7.972800246244498013e-01 5.504847178440284150e-01 -1.024024419160434851e+00 -2.160387393524051394e-04 0.000000000000000000e+00 0.000000000000000000e+00 0.000000000000000000e+00 0.000000000000000000e+00 0.000000000000000000e+00
-3.310214350886511725e-01 -7.972800246244498013e-01 5.504847178440284150e-01 -1.024024419160434851e+00 -2.160387393524051394e-04 0.000000000000000000e+00 0.000000000000000000e+00 0.000000000000000000e+00 0.000000000000000000e+00 0.000000000000000000e+00
-3.310214350886511725e-01 -7.972800246244498013e-01 5.504847178440284150e-01 -1.024024419160434851e+00 -2.160387393524051394e-04 0.000000000000000000e+00 0.000000000000000000e+00 0.000000000000000000e+00 0.000000000000000000e+00 0.000000000000000000e+00
-3.310214350886511725e-01 -7.972800246244498013e-01 5.504847178440284150e-01 -1.024024419160434851e+00 -2.160387393524051394e-04 0.000000000000000000e+00 0.000000000000000000e+00 0.000000000000000000e+00 0.000000000000000000e+00 0.000000000000000000e+00
-3.310214350886511725e-01 -7.972800246244498013e-01 5.504847178440284150e-01 -1.024024419160434851e+00 -2.160387393524051394e-04 0.000000000000000000e+00 0.000000000000000000e+00 0.000000000000000000e+00 0.000000000000000000e+00 0.000000000000000000e+00
-3.310214350886511725e-01 -7.972800246244498013e-01 5.504847178440284150e-01 -1.024024419160434851e+00 -2.160387393524051394e-04 0.000000000000000000e+00 0.000000000000000000e+00 0.000000000000000000e+00 0.000000000000000000e+00 0.000000000000000000e+00
-3.310214350886511725e-01 -7.972800246244498013e-01 5.504847178440284150e-01 -1.024024419160434851e+00 -2.160387393524051394e-04 0.000000000000000000e+00 0.000000000000000000e+00 0.000000000000000000e+00 0.000000000000000000e+00 0.000000000000000000e+00
-3.310214350886511725e-01 -7.972800246244498013e-01 5.504847178440284150e-01 -1.024024419160434851e+00 -2.160387393524051394e-04 0.000000000000000000e+00 0.000000000000000000e+00 0.000000000000000000e+00 0.000000000000000000e+00 0.000000000000000000e+00
-3.310214350886511725e-01 -7.972800246244498013e-01 5.504847178440284150e-01 -1.024024419160434851e+00 -2.160387393524051394e-04 0.000000000000000000e+00 0.000000000000000000e+00 0.000000000000000000e+00 0.000000000000000000e+00 0.000000000000000000e+00
