-6.110240456239511841e-01 -1.228595518742054832e-01 8.601050668491434514e-01 -1.055200090484292863e+00 7.266927255591688721e-04 -4.403590991246836284e-02 -4.535604832682929022e-01 -5.371436026140837816e-01 -1.866796464971954839e+00 -4.972845173204802974e-03
-6.093238747478868511e-01 -1.498761017744618118e-01 8.346569397884111563e-01 -1.140501544067380912e+00 3.843815536167392486e-04 3.400341752128627215e-02 -5.403309980051266281e-01 -5.089625412146459027e-01 -1.706029071661759211e+00 -6.846223438848591386e-03
-6.032529712507398445e-01 -1.810552423686560275e-01 8.108044648882206662e-01 -1.214970258133860836e+00 8.830235677040581665e-06 1.214180699429410482e-01 -6.235828118838845358e-01 -4.770494980038095245e-01 -1.489374281329596261e+00 -7.511026358793973338e-03
-5.924426110336630247e-01 -2.161249222192825614e-01 7.890604999028937305e-01 -1.276524457177620420e+00 -3.467524469200221251e-04 2.162072043415364797e-01 -7.013935970125306785e-01 -4.348792997065396571e-01 -1.231083980875191441e+00 -7.111653651941254352e-03
-5.766185481585903716e-01 -2.547391606641371542e-01 7.701797724528931521e-01 -1.323789770618128525e+00 -6.430408416185219404e-04 3.164812575014532836e-01 -7.722847688970919666e-01 -3.776145490000107352e-01 -9.453062688101643296e-01 -5.925767893969995440e-03
-5.555872022760074413e-01 -2.964899330683917755e-01 7.550259681126347822e-01 -1.356055974371948691e+00 -8.563758718363823162e-04 4.206269176516594932e-01 -8.350154480850924266e-01 -3.030760868051679546e-01 -6.453240750764047684e-01 -4.266700604357206647e-03
-5.292168943063871867e-01 -3.409123155041740016e-01 7.444340744832441681e-01 -1.373203751011763174e+00 -9.789820632631271446e-04 5.274061593924040947e-01 -8.884476487156449664e-01 -2.118378725878127811e-01 -3.429555327962907629e-01 -2.452123828534897437e-03
-4.974183029558914559e-01 -3.874873471053613683e-01 7.390985256409831061e-01 -1.375612065127535422e+00 -1.021190684811756942e-03 6.359718270099142812e-01 -9.315006320237476656e-01 -1.067109768452217944e-01 -4.816628231544389793e-02 -8.441724309725942219e-04
-4.601265440896604719e-01 -4.356472573859953568e-01 7.395066056831489654e-01 -1.364051739796974472e+00 -1.026405340788633189e-03 7.458351773246190142e-01 -9.631982056126801028e-01 8.161600843316657583e-03 2.312065066112169998e-01 -1.042931195375253715e-04
-4.172878459985182031e-01 -4.847849769452868829e-01 7.459199255578647936e-01 -1.339577709993302612e+00 -1.022222639789185754e-03 8.567739618228448206e-01 -9.827543911858303005e-01 1.282663974943166751e-01 4.894805960734370798e-01 8.365401998894846677e-05
-3.688521399446195725e-01 -5.342678010725281368e-01 7.583927366840838014e-01 -1.303425937555045877e+00 -1.017896874842192951e-03 9.687141210779723899e-01 -9.896564825448260772e-01 2.494562225243801001e-01 7.230354487651367013e-01 8.651529893985616688e-05
-3.147736949346316426e-01 -5.834524960198108623e-01 7.768067225378971763e-01 -1.256926460888821984e+00 -1.015356792489710601e-03 1.081568900199758820e+00 -9.836938989456545102e-01 3.682797170762677208e-01 9.299895333244789786e-01 5.080164704964866020e-05
-2.550212396426903561e-01 -6.316989100975056726e-01 8.009014519201436144e-01 -1.201439392337770862e+00 -1.012819078970738675e-03 1.195049105838825954e+00 -9.649282815538970937e-01 4.818945876449293175e-01 1.109741371021022216e+00 5.075427037943777437e-05
-1.895953228296575199e-01 -6.783825534976303251e-01 8.302918610602459948e-01 -1.138308632251654018e+00 -1.001590594965148665e-03 1.308518336260656278e+00 -9.336728680024939386e-01 5.878081828020473854e-01 1.262615201722338876e+00 2.245696801117991106e-04
-1.185502091410331471e-01 -7.229072173522431699e-01 8.644721535722708072e-01 -1.068829929417606239e+00 -9.597195633083114999e-04 1.420902273772487234e+00 -8.904932770922562302e-01 6.836058502404972481e-01 1.389574056680954461e+00 8.374206331367437320e-04
-4.201560345688473697e-02 -7.647200418824056101e-01 9.028112344948049373e-01 -9.942222370343125615e-01 -8.745494121134461977e-04 1.530692113682968092e+00 -8.362564906032479151e-01 7.667816184506823785e-01 1.492153847665872446e+00 1.703403023897305611e-03
3.978778326087117900e-02 -8.033316507691674602e-01 9.445515677667372101e-01 -9.155936905673851545e-01 -7.370279200671177788e-04 1.636067734355118208e+00 -7.722321777352380012e-01 8.348066654386445684e-01 1.572570929338549250e+00 2.750429840926567511e-03
1.265435119840947475e-01 -8.383425064663544424e-01 9.888313620887948519e-01 -8.339122365297242379e-01 -5.394814846487189100e-04 1.735114574464471371e+00 -7.002171139437389780e-01 8.855958864411530573e-01 1.633629080753218998e+00 3.950928708367976508e-03
2.178538783297496173e-01 -8.694757361779585914e-01 1.034755070900649221e+00 -7.499800929919703263e-01 -2.765203537455895042e-04 1.826207326913097395e+00 -6.226645942320835347e-01 9.184741762370863816e-01 1.678642870755078675e+00 5.259222618062587250e-03
3.132797910248932283e-01 -8.966120920709678144e-01 1.081535372473216849e+00 -6.644191410361839356e-01 5.254430109810203503e-05 1.908518253902871997e+00 -5.427271178601837942e-01 9.356060314513531262e-01 1.711219039115728480e+00 6.581293096873831218e-03
4.124109050055075887e-01 -9.198181528449572708e-01 1.128725155987557294e+00 -5.776718906742041026e-01 4.366340619024549306e-04 1.982622279612286542e+00 -4.641212154797891287e-01 9.437956702868074421e-01 1.734945007239596659e+00 7.681795216087057045e-03
5.149663041150805975e-01 -9.393540928969230652e-01 1.176542756596147044e+00 -4.900195171743513822e-01 8.244371929899225668e-04 2.051107982191459733e+00 -3.907188010393147781e-01 9.563520121717927758e-01 1.753047469997054630e+00 7.756062621749351856e-03
6.209221316676671876e-01 -9.556449390937618027e-01 1.226276951785362668e+00 -4.016143129016000457e-01 1.003128189850673643e-03 0.000000000000000000e+00 0.000000000000000000e+00 0.000000000000000000e+00 0.000000000000000000e+00 0.000000000000000000e+00
6.209221316676671876e-01 -9.556449390937618027e-01 1.226276951785362668e+00 -4.016143129016000457e-01 1.003128189850673643e-03 0.000000000000000000e+00 0.000000000000000000e+00 0.000000000000000000e+00 0.000000000000000000e+00 0.000000000000000000e+00
6.209221316676671876e-01 -9.556449390937618027e-01 1.226276951785362668e+00 -4.016143129016000457e-01 1.003128189850673643e-03 0.000000000000000000e+00 0.000000000000000000e+00 0.000000000000000000e+00 0.000000000000000000e+00 0.000000000000000000e+00
6.209221316676671876e-01 -9.556449390937618027e-01 1.226276951785362668e+00 -4.016143129016000457e-01 1.003128189850673643e-03 0.000000000000000000e+00 0.000000000000000000e+00 0.000000000000000000e+00 0.000000000000000000e+00 0.000000000000000000e+00
6.209221316676671876e-01 -9.556449390937618027e-01 1.226276951785362668e+00 -4.016143129016000457e-01 1.003128189850673643e-03 0.000000000000000000e+00 0.000000000000000000e+00 0.000000000000000000e+00 0.000000000000000000e+00 0.000000000000000000e+00
6.209221316676671876e-01 -9.556449390937618027e-01 1.226276951785362668e+00 -4.016143129016000457e-01 1.003128189850673643e-03 0.000000000000000000e+00 0.000000000000000000e+00 0.000000000000000000e+00 0.000000000000000000e+00 0.000000000000000000e+00
6.209221316676671876e-01 -9.556449390937618027e-01 1.226276951785362668e+00 -4.016143129016000457e-01 1.003128189850673643e-03 0.000000000000000000e+00 0.000000000000000000e+00 0.000000000000000000e+00 0.000000000000000000e+00 0.000000000000000000e+00
6.209221316676671876e-01 -9.556449390937618027e-01 1.226276951785362668e+00 -4.016143129016000457e-01 1.003128189850673643e-03 0.000000000000000000e+00 0.000000000000000000e+00 0.000000000000000000e+00 0.000000000000000000e+00 0.000000000000000000e+00
6.209221316676671876e-01 -9.556449390937618027e-01 1.226276951785362668e+00 -4.016143129016000457e-01 1.003128189850673643e-03 0.000000000000000000e+00 0.000000000000000000e+00 0.000000000000000000e+00 0.000000000000000000e+00 0.000000000000000000e+00
