-4.862552143348342626e-01 2.327330236823293153e-01 4.233713358495270196e-01 -7.587111190758277779e-01 3.192976892732002185e-04 -3.044239542086722428e-01 1.012687301039867302e-02 -5.722947370776768766e-02 -9.681472520714544672e-01 4.345655410993491327e-03
-5.081671954369487709e-01 2.321822586127937071e-01 4.196233856400664042e-01 -8.256414862447316594e-01 5.883046719229843716e-04 -4.382396220422896116e-01 -1.101530139071222811e-02 -7.495900418921179476e-02 -1.338607343378076520e+00 5.380139652995682628e-03
-5.362378582014045714e-01 2.296725162002731246e-01 4.149563600002326713e-01 -9.072649884073515913e-01 8.347028432372648361e-04 -5.614132552891167860e-01 -5.019484825041146958e-02 -9.334051279667512913e-02 -1.632470043252399083e+00 4.927963426285608857e-03
-5.699469485900985344e-01 2.243681237375828863e-01 4.088607764085598895e-01 -9.997637772108655119e-01 9.992527613996333991e-04 -6.741818077738787052e-01 -1.060878492538050166e-01 -1.219116718334560395e-01 -1.849975776070279299e+00 3.290998363247370391e-03
-6.087491250900510797e-01 2.155549052214391359e-01 4.003753827074397198e-01 -1.099376126353461602e+00 1.057023196880454031e-03 -7.760435299990515734e-01 -1.762643703228750081e-01 -1.697078740224033377e-01 -1.992246982851923365e+00 1.155408709616410467e-03
-6.520567616295582791e-01 2.026774730571166416e-01 3.882317925759515287e-01 -1.202449214201450234e+00 1.066428608942914013e-03 -8.661527307901432104e-01 -2.575486432864498854e-01 -2.428718026297638777e-01 -2.061461756959771296e+00 1.881082412491979008e-04
-6.992468766033828054e-01 1.853590367418577189e-01 3.710534046769029537e-01 -1.305489655318113007e+00 1.039610570978005384e-03 -9.438022994764903029e-01 -3.463687263051783427e-01 -3.435677579809711668e-01 -2.060808822333253687e+00 -5.363607592981721288e-04
-7.496861127134228919e-01 1.634043556158595312e-01 3.475630003244000732e-01 -1.405207912622408850e+00 9.375829736410875226e-04 -1.008784722200800843e+00 -4.390936225199639775e-01 -4.698080870500577211e-01 -1.994365146085917084e+00 -2.040551946738357238e-03
-8.027641439370016840e-01 1.367853011422781873e-01 3.167796548023436021e-01 -1.498559860969114421e+00 7.156841993993939832e-04 -1.061560624471575176e+00 -5.323810894716268782e-01 -6.156669104411293114e-01 -1.867038966934112310e+00 -4.437975484833869486e-03
-8.579272320815770625e-01 1.056105569857081899e-01 2.781899399606203582e-01 -1.582789848796990251e+00 3.937332008077659294e-04 -1.103261762891508013e+00 -6.234948831313998907e-01 -7.717942968344650989e-01 -1.684599756557517036e+00 -6.439019971832561293e-03
-9.147088053754285353e-01 7.008380671582928323e-02 2.318771161370865030e-01 -1.655481317363268756e+00 1.523160562623372336e-05 -1.135631465877030344e+00 -7.105350053975778568e-01 -9.262564764706768816e-01 -1.453829371325571440e+00 -7.570031903630643037e-03
-9.727571594796469157e-01 3.046058769793482529e-02 1.785802210238598142e-01 -1.714620477453803860e+00 -3.661809233310654894e-04 -1.160967082084367163e+00 -7.924643803578891310e-01 -1.065937902264533665e+00 -1.182783201810700291e+00 -7.628250579145984256e-03
-1.031860037268652164e+00 -1.298292993389309896e-02 1.196508908324143555e-01 -1.758673275806189595e+00 -6.952963002024928341e-04 -1.182057555780103408e+00 -8.688703526365584295e-01 -1.178586603828909007e+00 -8.810559670477164929e-01 -6.582307537428547760e-03
-1.091961791206836452e+00 -5.995840089308201309e-02 5.688847482887258999e-02 -1.786662515579489963e+00 -9.252785224413298624e-04 -1.202035078763683984e+00 -9.395094191837781716e-01 -1.255248320070835311e+00 -5.597847954660062353e-01 -4.599644444776741434e-03
-1.153165914046238694e+00 -1.101496707908344586e-01 -7.727638987665957915e-03 -1.798221597809959160e+00 -1.033515709445988326e-03 -1.224082456788042617e+00 -1.003825397955048659e+00 -1.292322276330770903e+00 -2.311816446093860056e-01 -2.164743740093169264e-03
-1.215718068769070292e+00 -1.631836298264992824e-01 -7.234794933451448029e-02 -1.793598516155860079e+00 -1.060538034808908986e-03 -1.251043094456633531e+00 -1.060679180713296255e+00 -1.292406206936970392e+00 9.246163308198002140e-02 -5.404465072584123397e-04
-1.279972519185366142e+00 -2.186049372433929161e-01 -1.355221063768151102e-01 -1.773592912706553726e+00 -1.055926787843310339e-03 -1.285089008325919213e+00 -1.108426148337872785e+00 -1.263483140846012764e+00 4.001120689861276669e-01 9.222493931197142843e-05
-1.346352747698615682e+00 -2.758679964165483556e-01 -1.963594749700686704e-01 -1.739433052348991149e+00 -1.032177918327597350e-03 -1.327604570264991235e+00 -1.145261183463108567e+00 -1.216747371865071425e+00 6.831972071512522060e-01 4.749773903142591198e-04
-1.415317941687038283e+00 -3.343493065753622706e-01 -2.545568069239715903e-01 -1.692619093832748334e+00 -9.715930643798018160e-04 -1.379303879768450036e+00 -1.169626203176278523e+00 -1.163946639078057954e+00 9.362791703248569686e-01 1.211697078955911114e-03
-1.487342299482169894e+00 -3.933701601496161770e-01 -3.103254276792760669e-01 -1.634776145988948270e+00 -8.501998130857061275e-04 -1.440487155902630878e+00 -1.180417071485077685e+00 -1.115372415106089310e+00 1.156858956876002598e+00 2.427865025881912903e-03
-1.562905696039547099e+00 -4.522200662103872948e-01 -3.642665226417389768e-01 -1.567540774258424197e+00 -6.866554055379338458e-04 -1.511267931147543209e+00 -1.176998121215422577e+00 -1.078821899249257754e+00 1.344707434610482144e+00 3.270888150955445633e-03
-1.642490324161949289e+00 -5.101735163926692795e-01 -4.172401259223052494e-01 -1.492493088267215828e+00 -5.078724287200642564e-04 -1.591692562448044912e+00 -1.159069003645640139e+00 -1.059472065611325675e+00 1.500953719824169141e+00 3.575659536357391789e-03
-1.726577140512232988e+00 -5.664979909483958131e-01 -4.702535777163532882e-01 -1.411131081308164781e+00 -3.416429779689718295e-04 -1.681736327005675324e+00 -1.126489491114530006e+00 -1.060269035880960331e+00 1.627240139181019396e+00 3.324589015021848538e-03
-1.815635003054152596e+00 -6.204677661187176785e-01 -5.243630877105558419e-01 -1.324817467840714968e+00 -2.111025560640899959e-04 -1.781157250838391271e+00 -1.079395503406437085e+00 -1.082190199884049964e+00 1.726272269348993804e+00 2.610808438097636779e-03
-1.910103428730362207e+00 -6.713704518546970146e-01 -5.806059497409001846e-01 -1.234753802401157508e+00 -1.344026173574689570e-04 -1.889368513524191995e+00 -1.018053714719586500e+00 -1.124857240606887743e+00 1.801273308791146999e+00 1.533998774132421103e-03
-2.010367371889144383e+00 -7.185105432590904728e-01 -6.399555413586693886e-01 -1.141964583803448896e+00 -1.257263289525648628e-04 -2.005278863175647519e+00 -9.428018280878691648e-01 -1.186991832355384746e+00 1.855784371954172673e+00 1.735257680980817774e-04
-2.116724106508110381e+00 -7.612140512727872954e-01 -7.032909605789514629e-01 -1.047276340447567122e+00 -1.958651962652278476e-04 -2.127134692379319070e+00 -8.540701602739370069e-01 -1.266708384405642374e+00 1.893764867117636364e+00 -1.402777346253259588e-03
-2.229344047951630881e+00 -7.988369030354290912e-01 -7.713780858215720793e-01 -9.512815263072151861e-01 -3.497402974723537385e-04 -2.252398828870408654e+00 -7.524570352528361372e-01 -1.361742504852413216e+00 1.919896282807037613e+00 -3.077502024142517167e-03
-2.348229227395457031e+00 -8.307777453031726100e-01 -8.448666004848752742e-01 -8.542828136075335532e-01 -5.714134778606245503e-04 0.000000000000000000e+00 0.000000000000000000e+00 0.000000000000000000e+00 0.000000000000000000e+00 0.000000000000000000e+00
-2.348229227395457031e+00 -8.307777453031726100e-01 -8.448666004848752742e-01 -8.542828136075335532e-01 -5.714134778606245503e-04 0.000000000000000000e+00 0.000000000000000000e+00 0.000000000000000000e+00 0.000000000000000000e+00 0.000000000000000000e+00
-2.348229227395457031e+00 -8.307777453031726100e-01 -8.448666004848752742e-01 -8.542828136075335532e-01 -5.714134778606245503e-04 0.000000000000000000e+00 0.000000000000000000e+00 0.000000000000000000e+00 0.000000000000000000e+00 0.000000000000000000e+00
