4.059972317315109214e-01 3.884249444679869212e-01 4.494312665439360172e-02
4.059972317315109214e-01 3.884249444679869212e-01 4.494312665439360172e-02
4.059972317315109214e-01 3.884249444679869212e-01 4.494312665439360172e-02
4.059972317315109214e-01 3.884249444679869212e-01 4.494312665439360172e-02
4.059972317315109214e-01 3.884249444679869212e-01 4.494312665439360172e-02
4.059972317315109214e-01 3.884249444679869212e-01 4.494312665439360172e-02
4.059972317315109214e-01 3.884249444679869212e-01 4.494312665439360172e-02
4.059972317315109214e-01 3.884249444679869212e-01 4.494312665439360172e-02
4.059972317315109214e-01 3.884249444679869212e-01 4.494312665439360172e-02
4.059972317315109214e-01 3.884249444679869212e-01 4.494312665439360172e-02
4.059972317315109214e-01 3.884249444679869212e-01 4.494312665439360172e-02
4.059972317315109214e-01 3.884249444679869212e-01 4.494312665439360172e-02
4.059972317315109214e-01 3.884249444679869212e-01 4.494312665439360172e-02
4.059972317315109214e-01 3.884249444679869212e-01 4.494312665439360172e-02
4.059972317315109214e-01 3.884249444679869212e-01 4.494312665439360172e-02
4.059972317315109214e-01 3.884249444679869212e-01 4.494312665439360172e-02
4.059972317315109214e-01 3.884249444679869212e-01 4.494312665439360172e-02
4.059972317315109214e-01 3.884249444679869212e-01 4.494312665439360172e-02
4.059972317315109214e-01 3.884249444679869212e-01 4.494312665439360172e-02
4.059972317315109214e-01 3.884249444679869212e-01 4.494312665439360172e-02
4.059972317315109214e-01 3.884249444679869212e-01 4.494312665439360172e-02
4.059972317315109214e-01 3.884249444679869212e-01 4.494312665439360172e-02
4.059972317315109214e-01 3.884249444679869212e-01 4.494312665439360172e-02
4.059972317315109214e-01 3.884249444679869212e-01 4.494312665439360172e-02
4.059972317315109214e-01 3.884249444679869212e-01 4.494312665439360172e-02
4.059972317315109214e-01 3.884249444679869212e-01 4.494312665439360172e-02
4.059972317315109214e-01 3.884249444679869212e-01 4.494312665439360172e-02
4.059972317315109214e-01 3.884249444679869212e-01 4.494312665439360172e-02
4.059972317315109214e-01 3.884249444679869212e-01 4.494312665439360172e-02
4.059972317315109214e-01 3.884249444679869212e-01 4.494312665439360172e-02
