-5.432814494676081463e-01 -6.093786168603376741e-02 5.336369446485231816e-01 -1.856728970913596788e+00 3.631980274630239487e-04 -5.896339520704459158e-02 -6.155870459827547103e-01 -3.435418456773594587e-01 -4.548401081957944014e-01 8.203491834437059201e-04
-5.463813493038864877e-01 -9.670277393656538656e-02 5.125077346519029131e-01 -1.879967958863090871e+00 3.759386145091679751e-04 -6.199799672556614155e-02 -7.152982450106322165e-01 -4.225841999324064235e-01 -4.647797589898801096e-01 2.548117409228804189e-04
-5.495963435579926948e-01 -1.373595369950380007e-01 4.871331451856851791e-01 -1.902637417522672125e+00 3.490166466228239233e-04 -6.429988508212436393e-02 -8.131352611694521171e-01 -5.074917893243547917e-01 -4.533891731916241397e-01 -5.384393577268806012e-04
-5.528880043661782429e-01 -1.828238630325171310e-01 4.573717969163688113e-01 -1.923503624574836257e+00 2.710519866866155673e-04 -6.583321616371193286e-02 -9.092865207495823832e-01 -5.952269653863274668e-01 -4.173241410432813048e-01 -1.559293198724166470e-03
-5.562061789744444651e-01 -2.330355274493463025e-01 4.233212639638583297e-01 -1.941136649946648474e+00 1.345414452943598824e-04 -6.636349216532466677e-02 -1.004233288336583430e+00 -6.810106590502098545e-01 -3.526605074362442749e-01 -2.730210827845113049e-03
-5.594823487309280585e-01 -2.879702415606004706e-01 3.853995371151365257e-01 -1.953914318846641018e+00 -5.888374635949552714e-05 -6.552339512967082780e-02 -1.098694282225084029e+00 -7.584345369744361909e-01 -2.555533779998504507e-01 -3.868503833077107865e-03
-5.626313226191187455e-01 -3.476407414523715045e-01 3.443939795684510807e-01 -1.960095425099386945e+00 -2.938253572174826986e-04 -6.297947776381380980e-02 -1.193409997835420455e+00 -8.201111509337090100e-01 -1.236221250549163486e-01 -4.698832217159743321e-03
-5.655611124261481493e-01 -4.120827944675483079e-01 3.014412187706727031e-01 -1.957956870986748088e+00 -5.413208792189593303e-04 -5.859579614058754715e-02 -1.288841060303535624e+00 -8.590552159555673306e-01 4.277108225277614917e-02 -4.949910440029531983e-03
-5.681864863075326566e-01 -4.813256704530919361e-01 2.579196911749166432e-01 -1.945964553871827096e+00 -7.656090140533565631e-04 -5.250747762769028548e-02 -1.384857519710872120e+00 -8.704305519151216419e-01 2.398463422984185300e-01 -4.485762696687945091e-03
-5.704350515424028156e-01 -5.553562580953683714e-01 2.152840215251516920e-01 -1.922923732873227154e+00 -9.318404862537780966e-04 -4.497130469740223679e-02 -1.480611752845528928e+00 -8.527133929952990243e-01 4.608164199719983478e-01 -3.324629444008431536e-03
-5.722432742048614296e-01 -6.340831478426334211e-01 1.748750842339281131e-01 -1.888086195124183631e+00 -1.018013438117732535e-03 -3.616445324917329229e-02 -1.574537794945301661e+00 -8.081787458244712452e-01 6.967507549808703571e-01 -1.723459037279087037e-03
-5.735426432410646314e-01 -7.173109603993007566e-01 1.377537993817083140e-01 -1.841190835403053727e+00 -1.041071188235643836e-03 -2.598738072406437533e-02 -1.664556251133346709e+00 -7.424256970443959824e-01 9.379071944225979562e-01 -4.611550023582283980e-04
-5.742373459107885658e-01 -8.047342207221327426e-01 1.046096067364407772e-01 -1.782430668102277238e+00 -1.035357776675658236e-03 -1.389405339447979774e-02 -1.748465206456639276e+00 -6.628838529053507900e-01 1.175203346015530226e+00 1.142682311997103616e-04
-5.741791341810765781e-01 -8.959508397833495508e-01 7.575762089700213697e-02 -1.712367374908639661e+00 -1.003001528009288962e-03 1.164234594239157983e-03 -1.824332381224335498e+00 -5.770397167887728607e-01 1.401265863872753759e+00 6.471249733273850592e-04
-5.731464208538759042e-01 -9.904881983847617644e-01 5.120437623220037981e-02 -1.631826667559067578e+00 -9.192393877515915492e-04 2.065426654401241596e-02 -1.890747172028244050e+00 -4.910648932960351987e-01 1.610814146991441209e+00 1.675242805153947601e-03
-5.708342965072058517e-01 -1.087833256375571045e+00 3.074878160668420568e-02 -1.541803865040606958e+00 -7.990068942819339871e-04 4.624248693340033550e-02 -1.946901159816185167e+00 -4.091118925103234272e-01 1.800456050369214189e+00 2.404649869393151677e-03
-5.668724717942924540e-01 -1.187461941220422146e+00 1.407207457419324195e-02 -1.443389107298619800e+00 -6.687638687659839100e-04 7.923649425826748138e-02 -1.992573696897020907e+00 -3.335341406498192329e-01 1.968295154839742267e+00 2.604860510319001107e-03
-5.607812828639254787e-01 -1.288908510627896353e+00 9.747505171709448801e-04 -1.337595983864403149e+00 -5.442135360687857040e-04 1.218237786073390755e-01 -2.028931388149485038e+00 -2.619464811404459414e-01 2.115862468684333919e+00 2.491006653943964554e-03
-5.520600130723976040e-01 -1.391789150945103248e+00 -8.605008143166675491e-03 -1.225333784875939802e+00 -4.349777670117397320e-04 1.744253958305574947e-01 -2.057612806344139234e+00 -1.915951732067524005e-01 2.245243979769264264e+00 2.184715381140919007e-03
-5.404151246735141578e-01 -1.495815839526096980e+00 -1.472429331216952055e-02 -1.107403865526386255e+00 -3.482782834383625582e-04 2.328977679776681464e-01 -2.080533771619872851e+00 -1.223857033800569150e-01 2.358598386991073159e+00 1.733989671467543042e-03
-5.261035992678712025e-01 -1.600794696677601214e+00 -1.774785216559356810e-02 -9.845134168539829700e-01 -2.892833459301712693e-04 2.862305081128596052e-01 -2.099577143030083803e+00 -6.047117706848094409e-02 2.457808973448065260e+00 1.179898750163825994e-03
-5.100746609169718448e-01 -1.706604304221791102e+00 -1.859605272576128274e-02 -8.572790328584638520e-01 -2.591879220857933779e-04 3.205787670179862103e-01 -2.116192150883797307e+00 -1.696401120335426504e-02 2.544687679910381028e+00 6.019084768875573952e-04
-4.935819225366170904e-01 -1.813149239324375106e+00 -1.857842231655727760e-02 -7.262391773423182428e-01 -2.549680441247534411e-04 3.298547676070949786e-01 -2.130898702051677862e+00 3.526081840801199851e-04 2.620797110322913070e+00 8.439755922079884409e-05
-4.775571852514239879e-01 -1.920316847643479763e+00 -1.891722623774214768e-02 -5.918904324583621479e-01 -2.752565043254159372e-04 3.204947457038623826e-01 -2.143352166382092250e+00 -6.776078423697370207e-03 2.686974897679121010e+00 -4.057692040132504637e-04
-4.623508862533783903e-01 -2.027965129446076098e+00 -2.047153303300603203e-02 -4.547269026237898970e-01 -3.322620915576311035e-04 0.000000000000000000e+00 0.000000000000000000e+00 0.000000000000000000e+00 0.000000000000000000e+00 0.000000000000000000e+00
-4.623508862533783903e-01 -2.027965129446076098e+00 -2.047153303300603203e-02 -4.547269026237898970e-01 -3.322620915576311035e-04 0.000000000000000000e+00 0.000000000000000000e+00 0.000000000000000000e+00 0.000000000000000000e+00 0.000000000000000000e+00
-4.623508862533783903e-01 -2.027965129446076098e+00 -2.047153303300603203e-02 -4.547269026237898970e-01 -3.322620915576311035e-04 0.000000000000000000e+00 0.000000000000000000e+00 0.000000000000000000e+00 0.000000000000000000e+00 0.000000000000000000e+00
-4.623508862533783903e-01 -2.027965129446076098e+00 -2.047153303300603203e-02 -4.547269026237898970e-01 -3.322620915576311035e-04 0.000000000000000000e+00 0.000000000000000000e+00 0.000000000000000000e+00 0.000000000000000000e+00 0.000000000000000000e+00
-4.623508862533783903e-01 -2.027965129446076098e+00 -2.047153303300603203e-02 -4.547269026237898970e-01 -3.322620915576311035e-04 0.000000000000000000e+00 0.000000000000000000e+00 0.000000000000000000e+00 0.000000000000000000e+00 0.000000000000000000e+00
-4.623508862533783903e-01 -2.027965129446076098e+00 -2.047153303300603203e-02 -4.547269026237898970e-01 -3.322620915576311035e-04 0.000000000000000000e+00 0.000000000000000000e+00 0.000000000000000000e+00 0.000000000000000000e+00 0.000000000000000000e+00
-4.623508862533783903e-01 -2.027965129446076098e+00 -2.047153303300603203e-02 -4.547269026237898970e-01 -3.322620915576311035e-04 0.000000000000000000e+00 0.000000000000000000e+00 0.000000000000000000e+00 0.000000000000000000e+00 0.000000000000000000e+00
