-5.748561750978153223e-02 -6.150686729895560312e-01 1.029178328654688945e+00 -1.443078879473685072e+00 -3.573106639382967083e-04 6.594154555088128644e-01 -3.984612866557344923e-01 5.855097541474457712e-01 4.723147443709860838e-01 1.875935493365924302e-03
-2.349564951972762245e-02 -6.341871346032103007e-01 1.057849830510959377e+00 -1.415949313722471903e+00 -2.589483414881313937e-04 6.797993598010781957e-01 -3.823692322730851134e-01 5.734300371254087425e-01 5.425913150242630545e-01 1.967246449003306509e-03
1.132350856940582406e-02 -6.524164906919569518e-01 1.085866676532280195e+00 -1.385948630731013820e+00 -1.534451310391990691e-04 6.963831617826689024e-01 -3.645871217749333537e-01 5.603369204264175840e-01 6.000136598291597734e-01 2.110064208978646057e-03
4.682267528901182946e-02 -6.697090476815509286e-01 1.113233097407160255e+00 -1.353618338495548024e+00 -3.896850822210876249e-05 7.099833343921201356e-01 -3.458511397918792585e-01 5.473284174976005279e-01 6.466058447093147032e-01 2.289532456341805862e-03
8.289299194213425870e-02 -6.860488914201365862e-01 1.140004681482910343e+00 -1.319405636193425879e+00 8.540898867857471164e-05 7.214063330624483905e-01 -3.267968747717123756e-01 5.354316815150004238e-01 6.842540460424432203e-01 2.487549938013669266e-03
1.194653915974791258e-01 -7.014471876452924581e-01 1.166287789833696520e+00 -1.283672572824142710e+00 2.197903062523695280e-04 7.314479931068973428e-01 -3.079659245031174941e-01 5.256621670157213266e-01 7.146612673856612696e-01 2.687626351475895948e-03
1.565095480106852288e-01 -7.159376290481346272e-01 1.192239735175677273e+00 -1.246706104210507648e+00 3.635691329515189363e-04 7.408831282641222815e-01 -2.898088280568430486e-01 5.190389068396161765e-01 7.393293722727033446e-01 2.875576533982988382e-03
1.940320435607257310e-01 -7.295719255300797679e-01 1.218068336341775248e+00 -1.208728100432219232e+00 5.155175521265821428e-04 7.504499110008097107e-01 -2.726859296389033682e-01 5.165720233219589508e-01 7.595600755657666570e-01 3.038968383501264130e-03
2.320744006661789594e-01 -7.424155548523323489e-01 1.244032708583286073e+00 -1.169905495971666154e+00 6.733210258682759998e-04 7.608471421090646780e-01 -2.568725864450513985e-01 5.192874448302159385e-01 7.764520892110605699e-01 3.156069474833876707e-03
2.707111032675317830e-01 -7.545437510797905478e-01 1.270444830735457442e+00 -1.130359926069889553e+00 8.309743726810086151e-04 7.727340520270569169e-01 -2.425639245491645613e-01 5.282424430434262685e-01 7.909113980355325646e-01 3.153066936254651873e-03
3.100482144314877231e-01 -7.660378081032922504e-01 1.297673423949295080e+00 -1.090176918582349108e+00 9.674677093396511027e-04 7.867422232791189129e-01 -2.298811404700335514e-01 5.445718642767529705e-01 8.036601497508103487e-01 2.729866733172848885e-03
3.502225445126878611e-01 -7.769815010435943137e-01 1.326149733133577424e+00 -1.049414574527640420e+00 1.000700340866061272e-03 0.000000000000000000e+00 0.000000000000000000e+00 0.000000000000000000e+00 0.000000000000000000e+00 0.000000000000000000e+00
3.502225445126878611e-01 -7.769815010435943137e-01 1.326149733133577424e+00 -1.049414574527640420e+00 1.000700340866061272e-03 0.000000000000000000e+00 0.000000000000000000e+00 0.000000000000000000e+00 0.000000000000000000e+00 0.000000000000000000e+00
3.502225445126878611e-01 -7.769815010435943137e-01 1.326149733133577424e+00 -1.049414574527640420e+00 1.000700340866061272e-03 0.000000000000000000e+00 0.000000000000000000e+00 0.000000000000000000e+00 0.000000000000000000e+00 0.000000000000000000e+00
3.502225445126878611e-01 -7.769815010435943137e-01 1.326149733133577424e+00 -1.049414574527640420e+00 1.000700340866061272e-03 0.000000000000000000e+00 0.000000000000000000e+00 0.000000000000000000e+00 0.000000000000000000e+00 0.000000000000000000e+00
3.502225445126878611e-01 -7.769815010435943137e-01 1.326149733133577424e+00 -1.049414574527640420e+00 1.000700340866061272e-03 0.000000000000000000e+00 0.000000000000000000e+00 0.000000000000000000e+00 0.000000000000000000e+00 0.000000000000000000e+00
3.502225445126878611e-01 -7.769815010435943137e-01 1.326149733133577424e+00 -1.049414574527640420e+00 1.000700340866061272e-03 0.000000000000000000e+00 0.000000000000000000e+00 0.000000000000000000e+00 0.000000000000000000e+00 0.000000000000000000e+00
3.502225445126878611e-01 -7.769815010435943137e-01 1.326149733133577424e+00 -1.049414574527640420e+00 1.000700340866061272e-03 0.000000000000000000e+00 0.000000000000000000e+00 0.000000000000000000e+00 0.000000000000000000e+00 0.000000000000000000e+00
3.502225445126878611e-01 -7.769815010435943137e-01 1.326149733133577424e+00 -1.049414574527640420e+00 1.000700340866061272e-03 0.000000000000000000e+00 0.000000000000000000e+00 0.000000000000000000e+00 0.000000000000000000e+00 0.000000000000000000e+00
3.502225445126878611e-01 -7.769815010435943137e-01 1.326149733133577424e+00 -1.049414574527640420e+00 1.000700340866061272e-03 0.000000000000000000e+00 0.000000000000000000e+00 0.000000000000000000e+00 0.000000000000000000e+00 0.000000000000000000e+00
3.502225445126878611e-01 -7.769815010435943137e-01 1.326149733133577424e+00 -1.049414574527640420e+00 1.000700340866061272e-03 0.000000000000000000e+00 0.000000000000000000e+00 0.000000000000000000e+00 0.000000000000000000e+00 0.000000000000000000e+00
3.502225445126878611e-01 -7.769815010435943137e-01 1.326149733133577424e+00 -1.049414574527640420e+00 1.000700340866061272e-03 0.000000000000000000e+00 0.000000000000000000e+00 0.000000000000000000e+00 0.000000000000000000e+00 0.000000000000000000e+00
3.502225445126878611e-01 -7.769815010435943137e-01 1.326149733133577424e+00 -1.049414574527640420e+00 1.000700340866061272e-03 0.000000000000000000e+00 0.000000000000000000e+00 0.000000000000000000e+00 0.000000000000000000e+00 0.000000000000000000e+00
3.502225445126878611e-01 -7.769815010435943137e-01 1.326149733133577424e+00 -1.049414574527640420e+00 1.000700340866061272e-03 0.000000000000000000e+00 0.000000000000000000e+00 0.000000000000000000e+00 0.000000000000000000e+00 0.000000000000000000e+00
3.502225445126878611e-01 -7.769815010435943137e-01 1.326149733133577424e+00 -1.049414574527640420e+00 1.000700340866061272e-03 0.000000000000000000e+00 0.000000000000000000e+00 0.000000000000000000e+00 0.000000000000000000e+00 0.000000000000000000e+00
3.502225445126878611e-01 -7.769815010435943137e-01 1.326149733133577424e+00 -1.049414574527640420e+00 1.000700340866061272e-03 0.000000000000000000e+00 0.000000000000000000e+00 0.000000000000000000e+00 0.000000000000000000e+00 0.000000000000000000e+00
3.502225445126878611e-01 -7.769815010435943137e-01 1.326149733133577424e+00 -1.049414574527640420e+00 1.000700340866061272e-03 0.000000000000000000e+00 0.000000000000000000e+00 0.000000000000000000e+00 0.000000000000000000e+00 0.000000000000000000e+00
3.502225445126878611e-01 -7.769815010435943137e-01 1.326149733133577424e+00 -1.049414574527640420e+00 1.000700340866061272e-03 0.000000000000000000e+00 0.000000000000000000e+00 0.000000000000000000e+00 0.000000000000000000e+00 0.000000000000000000e+00
3.502225445126878611e-01 -7.769815010435943137e-01 1.326149733133577424e+00 -1.049414574527640420e+00 1.000700340866061272e-03 0.000000000000000000e+00 0.000000000000000000e+00 0.000000000000000000e+00 0.000000000000000000e+00 0.000000000000000000e+00
3.502225445126878611e-01 -7.769815010435943137e-01 1.326149733133577424e+00 -1.049414574527640420e+00 1.000700340866061272e-03 0.000000000000000000e+00 0.000000000000000000e+00 0.000000000000000000e+00 0.000000000000000000e+00 0.000000000000000000e+00
3.502225445126878611e-01 -7.769815010435943137e-01 1.326149733133577424e+00 -1.049414574527640420e+00 1.000700340866061272e-03 0.000000000000000000e+00 0.000000000000000000e+00 0.000000000000000000e+00 0.000000000000000000e+00 0.000000000000000000e+00
