1.853906309064816016e+00 -7.944678797205373399e-01 1.536447880414474554e+00 -4.857799116329477029e-01 7.510925720185701766e-04 2.742239550291852623e+00 5.623588272677430000e-01 1.015104609728067153e+00 2.294737668021130439e+00 7.847009631393796897e-03
1.986698585955472662e+00 -7.607818776301553676e-01 1.577190300579696558e+00 -3.658340166053738463e-01 1.048926121180221828e-03 2.655845537813131152e+00 6.737200418076397801e-01 8.148484033044383068e-01 2.398917900551476912e+00 5.956670983233032166e-03
2.115164962275642324e+00 -7.229394576062788680e-01 1.609764975455095337e+00 -2.412263003786693505e-01 1.002256422397233273e-03 0.000000000000000000e+00 0.000000000000000000e+00 0.000000000000000000e+00 0.000000000000000000e+00 0.000000000000000000e+00
2.115164962275642324e+00 -7.229394576062788680e-01 1.609764975455095337e+00 -2.412263003786693505e-01 1.002256422397233273e-03 0.000000000000000000e+00 0.000000000000000000e+00 0.000000000000000000e+00 0.000000000000000000e+00 0.000000000000000000e+00
2.115164962275642324e+00 -7.229394576062788680e-01 1.609764975455095337e+00 -2.412263003786693505e-01 1.002256422397233273e-03 0.000000000000000000e+00 0.000000000000000000e+00 0.000000000000000000e+00 0.000000000000000000e+00 0.000000000000000000e+00
2.115164962275642324e+00 -7.229394576062788680e-01 1.609764975455095337e+00 -2.412263003786693505e-01 1.002256422397233273e-03 0.000000000000000000e+00 0.000000000000000000e+00 0.000000000000000000e+00 0.000000000000000000e+00 0.000000000000000000e+00
2.115164962275642324e+00 -7.229394576062788680e-01 1.609764975455095337e+00 -2.412263003786693505e-01 1.002256422397233273e-03 0.000000000000000000e+00 0.000000000000000000e+00 0.000000000000000000e+00 0.000000000000000000e+00 0.000000000000000000e+00
2.115164962275642324e+00 -7.229394576062788680e-01 1.609764975455095337e+00 -2.412263003786693505e-01 1.002256422397233273e-03 0.000000000000000000e+00 0.000000000000000000e+00 0.000000000000000000e+00 0.000000000000000000e+00 0.000000000000000000e+00
2.115164962275642324e+00 -7.229394576062788680e-01 1.609764975455095337e+00 -2.412263003786693505e-01 1.002256422397233273e-03 0.000000000000000000e+00 0.000000000000000000e+00 0.000000000000000000e+00 0.000000000000000000e+00 0.000000000000000000e+00
2.115164962275642324e+00 -7.229394576062788680e-01 1.609764975455095337e+00 -2.412263003786693505e-01 1.002256422397233273e-03 0.000000000000000000e+00 0.000000000000000000e+00 0.000000000000000000e+00 0.000000000000000000e+00 0.000000000000000000e+00
2.115164962275642324e+00 -7.229394576062788680e-01 1.609764975455095337e+00 -2.412263003786693505e-01 1.002256422397233273e-03 0.000000000000000000e+00 0.000000000000000000e+00 0.000000000000000000e+00 0.000000000000000000e+00 0.000000000000000000e+00
2.115164962275642324e+00 -7.229394576062788680e-01 1.609764975455095337e+00 -2.412263003786693505e-01 1.002256422397233273e-03 0.000000000000000000e+00 0.000000000000000000e+00 0.000000000000000000e+00 0.000000000000000000e+00 0.000000000000000000e+00
2.115164962275642324e+00 -7.229394576062788680e-01 1.609764975455095337e+00 -2.412263003786693505e-01 1.002256422397233273e-03 0.000000000000000000e+00 0.000000000000000000e+00 0.000000000000000000e+00 0.000000000000000000e+00 0.000000000000000000e+00
2.115164962275642324e+00 -7.229394576062788680e-01 1.609764975455095337e+00 -2.412263003786693505e-01 1.002256422397233273e-03 0.000000000000000000e+00 0.000000000000000000e+00 0.000000000000000000e+00 0.000000000000000000e+00 0.000000000000000000e+00
2.115164962275642324e+00 -7.229394576062788680e-01 1.609764975455095337e+00 -2.412263003786693505e-01 1.002256422397233273e-03 0.000000000000000000e+00 0.000000000000000000e+00 0.000000000000000000e+00 0.000000000000000000e+00 0.000000000000000000e+00
2.115164962275642324e+00 -7.229394576062788680e-01 1.609764975455095337e+00 -2.412263003786693505e-01 1.002256422397233273e-03 0.000000000000000000e+00 0.000000000000000000e+00 0.000000000000000000e+00 0.000000000000000000e+00 0.000000000000000000e+00
2.115164962275642324e+00 -7.229394576062788680e-01 1.609764975455095337e+00 -2.412263003786693505e-01 1.002256422397233273e-03 0.000000000000000000e+00 0.000000000000000000e+00 0.000000000000000000e+00 0.000000000000000000e+00 0.000000000000000000e+00
2.115164962275642324e+00 -7.229394576062788680e-01 1.609764975455095337e+00 -2.412263003786693505e-01 1.002256422397233273e-03 0.000000000000000000e+00 0.000000000000000000e+00 0.000000000000000000e+00 0.000000000000000000e+00 0.000000000000000000e+00
2.115164962275642324e+00 -7.229394576062788680e-01 1.609764975455095337e+00 -2.412263003786693505e-01 1.002256422397233273e-03 0.000000000000000000e+00 0.000000000000000000e+00 0.000000000000000000e+00 0.000000000000000000e+00 0.000000000000000000e+00
2.115164962275642324e+00 -7.229394576062788680e-01 1.609764975455095337e+00 -2.412263003786693505e-01 1.002256422397233273e-03 0.000000000000000000e+00 0.000000000000000000e+00 0.000000000000000000e+00 0.000000000000000000e+00 0.000000000000000000e+00
2.115164962275642324e+00 -7.229394576062788680e-01 1.609764975455095337e+00 -2.412263003786693505e-01 1.002256422397233273e-03 0.000000000000000000e+00 0.000000000000000000e+00 0.000000000000000000e+00 0.000000000000000000e+00 0.000000000000000000e+00
2.115164962275642324e+00 -7.229394576062788680e-01 1.609764975455095337e+00 -2.412263003786693505e-01 1.002256422397233273e-03 0.000000000000000000e+00 0.000000000000000000e+00 0.000000000000000000e+00 0.000000000000000000e+00 0.000000000000000000e+00
2.115164962275642324e+00 -7.229394576062788680e-01 1.609764975455095337e+00 -2.412263003786693505e-01 1.002256422397233273e-03 0.000000000000000000e+00 0.000000000000000000e+00 0.000000000000000000e+00 0.000000000000000000e+00 0.000000000000000000e+00
2.115164962275642324e+00 -7.229394576062788680e-01 1.609764975455095337e+00 -2.412263003786693505e-01 1.002256422397233273e-03 0.000000000000000000e+00 0.000000000000000000e+00 0.000000000000000000e+00 0.000000000000000000e+00 0.000000000000000000e+00
2.115164962275642324e+00 -7.229394576062788680e-01 1.609764975455095337e+00 -2.412263003786693505e-01 1.002256422397233273e-03 0.000000000000000000e+00 0.000000000000000000e+00 0.000000000000000000e+00 0.000000000000000000e+00 0.000000000000000000e+00
2.115164962275642324e+00 -7.229394576062788680e-01 1.609764975455095337e+00 -2.412263003786693505e-01 1.002256422397233273e-03 0.000000000000000000e+00 0.000000000000000000e+00 0.000000000000000000e+00 0.000000000000000000e+00 0.000000000000000000e+00
2.115164962275642324e+00 -7.229394576062788680e-01 1.609764975455095337e+00 -2.412263003786693505e-01 1.002256422397233273e-03 0.000000000000000000e+00 0.000000000000000000e+00 0.000000000000000000e+00 0.000000000000000000e+00 0.000000000000000000e+00
2.115164962275642324e+00 -7.229394576062788680e-01 1.609764975455095337e+00 -2.412263003786693505e-01 1.002256422397233273e-03 0.000000000000000000e+00 0.000000000000000000e+00 0.000000000000000000e+00 0.000000000000000000e+00 0.000000000000000000e+00
2.115164962275642324e+00 -7.229394576062788680e-01 1.609764975455095337e+00 -2.412263003786693505e-01 1.002256422397233273e-03 0.000000000000000000e+00 0.000000000000000000e+00 0.000000000000000000e+00 0.000000000000000000e+00 0.000000000000000000e+00
2.115164962275642324e+00 -7.229394576062788680e-01 1.609764975455095337e+00 -2.412263003786693505e-01 1.002256422397233273e-03 0.000000000000000000e+00 0.000000000000000000e+00 0.000000000000000000e+00 0.000000000000000000e+00 0.000000000000000000e+00
2.115164962275642324e+00 -7.229394576062788680e-01 1.609764975455095337e+00 -2.412263003786693505e-01 1.002256422397233273e-03 0.000000000000000000e+00 0.000000000000000000e+00 0.000000000000000000e+00 0.000000000000000000e+00 0.000000000000000000e+00
