-9.100057035410037409e-01 -1.148522785251493428e+00 -3.404013874772163772e-01 -1.484316412648963412e+00 5.005203020139587216e-04 2.849636396919806858e-01 -1.930230189036026056e+00 -5.440221909306346415e-01 1.903038055376301330e+00 4.535782654095439625e-03
-8.894185846364390802e-01 -1.245585496951820748e+00 -3.623478267381081697e-01 -1.386387367064561893e+00 6.822463563550138161e-04 4.117423780912928821e-01 -1.941254234006545509e+00 -4.389287852178359595e-01 1.958580911688030390e+00 3.634521086821101022e-03
-8.612421916687659218e-01 -1.342860527374426516e+00 -3.783563632717895642e-01 -1.286209612844970263e+00 8.159394139697797969e-04 5.635278593534633895e-01 -1.945500608452114921e+00 -3.201707306736281122e-01 2.003555084391832164e+00 2.673861152295319184e-03
-8.248704165211723227e-01 -1.440149191752863711e+00 -3.878144276464234874e-01 -1.183794506476313124e+00 9.003365382095388468e-04 7.274355029518719817e-01 -1.945773287568743237e+00 -1.891612874926783538e-01 2.048302127373142767e+00 1.687942484795181214e-03
-7.810624752161100526e-01 -1.537410989591094568e+00 -3.909397903007271746e-01 -1.078713280911302030e+00 9.379947676794228974e-04 8.761588261012456247e-01 -1.945235956764616692e+00 -6.250725308607393838e-02 2.101624511300223208e+00 7.531645893976817710e-04
-7.322726048008234567e-01 -1.634759013383540349e+00 -3.894191239120267101e-01 -9.703421357133230618e-01 9.377143447492815049e-04 9.757974083057313619e-01 -1.946960475848913852e+00 3.041332777400973519e-02 2.167422903959580260e+00 -5.608458602827525070e-06
-6.819820331617544307e-01 -1.732387613039296559e+00 -3.862518891569593493e-01 -8.582058886499002170e-01 9.115763921450853804e-04 1.005811432781380077e+00 -1.952571993115123972e+00 6.334469510134690950e-02 2.242724941268457339e+00 -5.227590520839232478e-04
-6.333442512335033525e-01 -1.830442875078642340e+00 -3.847817366000488848e-01 -7.421906277473241387e-01 8.677377229767198764e-04 9.727556385650217852e-01 -1.961105240786917170e+00 2.940305113820941563e-02 2.320305218051521567e+00 -8.767733833673094310e-04
-5.882358849669676593e-01 -1.928916033354290960e+00 -3.877860438485174477e-01 -6.225294594997359265e-01 8.107743316349934467e-04 9.021673253307130880e-01 -1.969463165512974179e+00 -6.008614496937078608e-02 2.393223364951763354e+00 -1.139267826834529027e-03
-5.472166767058591619e-01 -2.027617472781304997e+00 -3.972606462701540053e-01 -4.996682813304668125e-01 7.779843473849081762e-04 8.203841652221705028e-01 -1.974028788540283852e+00 -1.894920484327312915e-01 2.457223563385381393e+00 -6.557996850017049767e-04
-5.099922434126628046e-01 -2.126200805798594384e+00 -4.147275046487366446e-01 -3.741436224781332642e-01 1.001554834195419975e-03 0.000000000000000000e+00 0.000000000000000000e+00 0.000000000000000000e+00 0.000000000000000000e+00 0.000000000000000000e+00
-5.099922434126628046e-01 -2.126200805798594384e+00 -4.147275046487366446e-01 -3.741436224781332642e-01 1.001554834195419975e-03 0.000000000000000000e+00 0.000000000000000000e+00 0.000000000000000000e+00 0.000000000000000000e+00 0.000000000000000000e+00
-5.099922434126628046e-01 -2.126200805798594384e+00 -4.147275046487366446e-01 -3.741436224781332642e-01 1.001554834195419975e-03 0.000000000000000000e+00 0.000000000000000000e+00 0.000000000000000000e+00 0.000000000000000000e+00 0.000000000000000000e+00
-5.099922434126628046e-01 -2.126200805798594384e+00 -4.147275046487366446e-01 -3.741436224781332642e-01 1.001554834195419975e-03 0.000000000000000000e+00 0.000000000000000000e+00 0.000000000000000000e+00 0.000000000000000000e+00 0.000000000000000000e+00
-5.099922434126628046e-01 -2.126200805798594384e+00 -4.147275046487366446e-01 -3.741436224781332642e-01 1.001554834195419975e-03 0.000000000000000000e+00 0.000000000000000000e+00 0.000000000000000000e+00 0.000000000000000000e+00 0.000000000000000000e+00
-5.099922434126628046e-01 -2.126200805798594384e+00 -4.147275046487366446e-01 -3.741436224781332642e-01 1.001554834195419975e-03 0.000000000000000000e+00 0.000000000000000000e+00 0.000000000000000000e+00 0.000000000000000000e+00 0.000000000000000000e+00
-5.099922434126628046e-01 -2.126200805798594384e+00 -4.147275046487366446e-01 -3.741436224781332642e-01 1.001554834195419975e-03 0.000000000000000000e+00 0.000000000000000000e+00 0.000000000000000000e+00 0.000000000000000000e+00 0.000000000000000000e+00
-5.099922434126628046e-01 -2.126200805798594384e+00 -4.147275046487366446e-01 -3.741436224781332642e-01 1.001554834195419975e-03 0.000000000000000000e+00 0.000000000000000000e+00 0.000000000000000000e+00 0.000000000000000000e+00 0.000000000000000000e+00
-5.099922434126628046e-01 -2.126200805798594384e+00 -4.147275046487366446e-01 -3.741436224781332642e-01 1.001554834195419975e-03 0.000000000000000000e+00 0.000000000000000000e+00 0.000000000000000000e+00 0.000000000000000000e+00 0.000000000000000000e+00
-5.099922434126628046e-01 -2.126200805798594384e+00 -4.147275046487366446e-01 -3.741436224781332642e-01 1.001554834195419975e-03 0.000000000000000000e+00 0.000000000000000000e+00 0.000000000000000000e+00 0.000000000000000000e+00 0.000000000000000000e+00
-5.099922434126628046e-01 -2.126200805798594384e+00 -4.147275046487366446e-01 -3.741436224781332642e-01 1.001554834195419975e-03 0.000000000000000000e+00 0.000000000000000000e+00 0.000000000000000000e+00 0.000000000000000000e+00 0.000000000000000000e+00
-5.099922434126628046e-01 -2.126200805798594384e+00 -4.147275046487366446e-01 -3.741436224781332642e-01 1.001554834195419975e-03 0.000000000000000000e+00 0.000000000000000000e+00 0.000000000000000000e+00 0.000000000000000000e+00 0.000000000000000000e+00
-5.099922434126628046e-01 -2.126200805798594384e+00 -4.147275046487366446e-01 -3.741436224781332642e-01 1.001554834195419975e-03 0.000000000000000000e+00 0.000000000000000000e+00 0.000000000000000000e+00 0.000000000000000000e+00 0.000000000000000000e+00
-5.099922434126628046e-01 -2.126200805798594384e+00 -4.147275046487366446e-01 -3.741436224781332642e-01 1.001554834195419975e-03 0.000000000000000000e+00 0.000000000000000000e+00 0.000000000000000000e+00 0.000000000000000000e+00 0.000000000000000000e+00
-5.099922434126628046e-01 -2.126200805798594384e+00 -4.147275046487366446e-01 -3.741436224781332642e-01 1.001554834195419975e-03 0.000000000000000000e+00 0.000000000000000000e+00 0.000000000000000000e+00 0.000000000000000000e+00 0.000000000000000000e+00
-5.099922434126628046e-01 -2.126200805798594384e+00 -4.147275046487366446e-01 -3.741436224781332642e-01 1.001554834195419975e-03 0.000000000000000000e+00 0.000000000000000000e+00 0.000000000000000000e+00 0.000000000000000000e+00 0.000000000000000000e+00
-5.099922434126628046e-01 -2.126200805798594384e+00 -4.147275046487366446e-01 -3.741436224781332642e-01 1.001554834195419975e-03 0.000000000000000000e+00 0.000000000000000000e+00 0.000000000000000000e+00 0.000000000000000000e+00 0.000000000000000000e+00
-5.099922434126628046e-01 -2.126200805798594384e+00 -4.147275046487366446e-01 -3.741436224781332642e-01 1.001554834195419975e-03 0.000000000000000000e+00 0.000000000000000000e+00 0.000000000000000000e+00 0.000000000000000000e+00 0.000000000000000000e+00
-5.099922434126628046e-01 -2.126200805798594384e+00 -4.147275046487366446e-01 -3.741436224781332642e-01 1.001554834195419975e-03 0.000000000000000000e+00 0.000000000000000000e+00 0.000000000000000000e+00 0.000000000000000000e+00 0.000000000000000000e+00
-5.099922434126628046e-01 -2.126200805798594384e+00 -4.147275046487366446e-01 -3.741436224781332642e-01 1.001554834195419975e-03 0.000000000000000000e+00 0.000000000000000000e+00 0.000000000000000000e+00 0.000000000000000000e+00 0.000000000000000000e+00
-5.099922434126628046e-01 -2.126200805798594384e+00 -4.147275046487366446e-01 -3.741436224781332642e-01 1.001554834195419975e-03 0.000000000000000000e+00 0.000000000000000000e+00 0.000000000000000000e+00 0.000000000000000000e+00 0.000000000000000000e+00
