-2.761502087688055274e-01 -1.363192176859245874e-01 7.743211060768057097e-01 -1.231624630487208050e+00 4.550446420521348358e-05 -6.419463202919060973e-02 -6.932753145728554056e-02 -1.743247337135608033e-01 -2.603762927229296698e-01 9.100892841042695089e-04
-2.819820822358513057e-01 -1.435927932086052961e-01 7.581710397454933803e-01 -1.255342579742641851e+00 1.136886649943646412e-04 -1.166374693409155533e-01 -1.454715104536140058e-01 -3.230013266262475868e-01 -4.743589851086750797e-01 1.363684015783023099e-03
-2.899216686081599881e-01 -1.549597635083849456e-01 7.356020499527345935e-01 -1.287498312041668980e+00 1.768449145770110780e-04 -1.587917274461733697e-01 -2.273394059955928803e-01 -4.513797958551750700e-01 -6.431146459805427984e-01 1.263124991652928844e-03
-2.995165227459613000e-01 -1.706479386813448129e-01 7.073737989399887516e-01 -1.325865756427210496e+00 2.120341581293985148e-04 -1.918970827560257109e-01 -3.137635034591975125e-01 -5.645650202549166163e-01 -7.673488877108324280e-01 7.037848710477489535e-04
-3.103724086710015762e-01 -1.908281277432714029e-01 6.740531760396233363e-01 -1.368257381065152378e+00 2.027600311453653836e-04 -2.171177185008055233e-01 -4.036037812385314116e-01 -6.664124580073080839e-01 -8.478324927588358761e-01 -1.854825396806628404e-04
-3.221442551466317528e-01 -2.156171936207705864e-01 6.360925661461559466e-01 -1.412525568903166606e+00 1.397929567190305694e-04 -2.354369295126033101e-01 -4.957813175499834468e-01 -7.592121978693482376e-01 -8.853637567602833380e-01 -1.259341488526696503e-03
-3.345258833711409197e-01 -2.450836480561878195e-01 5.939143865452228832e-01 -1.456569744146562595e+00 2.200561901928314227e-05 -2.476325644901830880e-01 -5.893290887083446616e-01 -8.435635920186613790e-01 -8.808835048679191093e-01 -2.355746753994948216e-03
-3.472416054379000583e-01 -2.792562189711819687e-01 5.479953020388917961e-01 -1.498356780724312998e+00 -1.433934602681288546e-04 -2.543144413351829392e-01 -6.834514182998830956e-01 -9.183816901266214083e-01 -8.357407315550098303e-01 -3.307981585748240045e-03
-3.600419215882537105e-01 -3.181337113625178903e-01 4.989361607715562807e-01 -1.535957982774913910e+00 -3.413603136442635265e-04 -2.560063230070726559e-01 -7.775498478267179880e-01 -9.811828253467103078e-01 -7.520240410120169194e-01 -3.959337067522692571e-03
-3.727040080012031242e-01 -3.616935256172123525e-01 4.475033665382887049e-01 -1.567601144034357130e+00 -5.503607319478369311e-04 -2.532417282589880525e-01 -8.711962850938890224e-01 -1.028655884665351739e+00 -6.328632251888650639e-01 -4.180008366071467224e-03
-3.850368714387644720e-01 -4.098949407273119183e-01 3.946301922170755705e-01 -1.591737802538567781e+00 -7.451413227330844517e-04 -2.466572687512273432e-01 -9.640283022019915382e-01 -1.057463486424262689e+00 -4.827331700842129036e-01 -3.895611815704949545e-03
-3.968881427111029536e-01 -4.626754093774678167e-01 3.413715756160731196e-01 -1.607111194957421052e+00 -9.007045390889147855e-04 -2.370254254467690502e-01 -1.055609373003118190e+00 -1.065172332020049684e+00 -3.074678483770652004e-01 -3.111264327116607109e-03
-4.081479438875263432e-01 -5.199414750336158741e-01 2.888216068594243735e-01 -1.612807040664451685e+00 -9.973401722935444375e-04 -2.251960235284677092e-01 -1.145321313122960705e+00 -1.050999375132974922e+00 -1.139169141406124741e-01 -1.932712664092591306e-03
-4.187462439769493172e-01 -5.815576220288459774e-01 2.380131542837171099e-01 -1.608273958404044635e+00 -1.027820013318954916e-03 -2.119660017884598124e-01 -1.232322939904601622e+00 -1.016169051514145050e+00 9.066164520813954630e-02 -6.095968205082086949e-04
-4.286421478759703807e-01 -6.473379719583403080e-01 1.898237113059086378e-01 -1.593305483969307712e+00 -1.029951785343352719e-03 -1.979180779804211032e-01 -1.315606998589887056e+00 -9.637888595561696636e-01 2.993694886947398937e-01 -4.263544048795488237e-05
-4.378057260479089607e-01 -7.170462726328183933e-01 1.449093873061119975e-01 -1.567980244165255277e+00 -1.010417892369833842e-03 -1.832715634387710457e-01 -1.394166013489560818e+00 -8.982864799959328073e-01 5.065047960810468153e-01 3.906778594703777074e-04
-4.461962007119676388e-01 -7.904028417355379865e-01 1.036798587962195067e-01 -1.532586701165946863e+00 -9.380186662454277407e-04 -1.678094932811736162e-01 -1.467131382054391642e+00 -8.245905701978498703e-01 7.078708599861668338e-01 1.447984522488121595e-03
-4.537406589516793654e-01 -8.670942298662318581e-01 6.630865269138208618e-02 -1.487556217835613870e+00 -8.176337953893030421e-04 -1.508891647942342817e-01 -1.533827762613876766e+00 -7.474241220967482446e-01 9.006096666066589762e-01 2.407697417122493105e-03
-4.603143022034695830e-01 -9.467847103045767820e-01 3.276987546163144527e-02 -1.433406316682191095e+00 -6.644441859898318628e-04 -1.314728650358039930e-01 -1.593809608766898700e+00 -6.707755445950127626e-01 1.082998023068454163e+00 3.063792187989422718e-03
-4.657204000044870562e-01 -1.029129125461476058e+00 2.898764664562979154e-03 -1.370697759774993640e+00 -4.956134817438930407e-04 -1.081219560203495744e-01 -1.646888303137987286e+00 -5.974222159413692390e-01 1.254171138143950648e+00 3.376614084918776876e-03
-4.696720688761998885e-01 -1.113784165395359294e+00 -2.353709287707977590e-02 -1.300009896517095864e+00 -3.266985956517165848e-04 -7.903337743425693784e-02 -1.693100798677664276e+00 -5.287171508328550873e-01 1.413757265157954857e+00 3.378297721843529118e-03
-4.717822914121267419e-01 -1.200417010734116552e+00 -4.676749935464444979e-02 -1.221932985481741341e+00 -1.698578399644806844e-04 -4.220445071853686642e-02 -1.732656906775146499e+00 -4.646081295512934362e-01 1.561538220707090474e+00 3.136815113744717901e-03
-4.715794525573652751e-01 -1.288711520494466356e+00 -6.696736417896695381e-02 -1.137073110263961961e+00 -3.333090167571982798e-05 4.056777095229051333e-03 -1.765890195206997193e+00 -4.039972964864499416e-01 1.697197504355586695e+00 2.730538765775217345e-03
-4.685807124471780827e-01 -1.378375058101571904e+00 -8.425282324818150759e-02 -1.046055673162003430e+00 7.836245527105937007e-05 5.997480220374345333e-02 -1.793270752142110958e+00 -3.457091813842911865e-01 1.820348742039172407e+00 2.233867138935583582e-03
-4.624559438146439438e-01 -1.469147899703315829e+00 -9.876726714721141553e-02 -9.495168399873185061e-01 1.636969243593463488e-04 1.224953726506832763e-01 -1.815456832034877843e+00 -2.902888779805980479e-01 1.930776663493698919e+00 1.706689381765739630e-03
-4.532635182426398290e-01 -1.560810246526138645e+00 -1.108801721012289548e-01 -8.480878673255862754e-01 2.239741167985961792e-04 1.838485114400817688e-01 -1.833246936456455423e+00 -2.422580990803507861e-01 2.028579453234645502e+00 1.205543848784996607e-03
-4.416053746565602456e-01 -1.653176529004594997e+00 -1.214084233560819154e-01 -7.423848306981429834e-01 2.657324207143083039e-04 2.331628717215920576e-01 -1.847325649569125483e+00 -2.105650250970593218e-01 2.114060732548865840e+00 8.351660783142424941e-04
-4.284885764537604280e-01 -1.746070870960733323e+00 -1.316531402865833700e-01 -6.330138357005421490e-01 3.098745731434477627e-04 2.623359640559964068e-01 -1.857886839122768086e+00 -2.048943386100288977e-01 2.187419899952017133e+00 8.828430485827897184e-04
-4.149294763113404727e-01 -1.839290560288351140e+00 -1.431892354039821236e-01 -5.205956422217250523e-01 4.376716059438096594e-04 2.711820028483994949e-01 -1.864393786552355881e+00 -2.307219023479752384e-01 2.248363869576341934e+00 2.555940656007237716e-03
-4.016217883809975464e-01 -1.932578104803322372e+00 -1.576318020183146984e-01 -4.057791580573040235e-01 9.991257448569905528e-04 0.000000000000000000e+00 0.000000000000000000e+00 0.000000000000000000e+00 0.000000000000000000e+00 0.000000000000000000e+00
-4.016217883809975464e-01 -1.932578104803322372e+00 -1.576318020183146984e-01 -4.057791580573040235e-01 9.991257448569905528e-04 0.000000000000000000e+00 0.000000000000000000e+00 0.000000000000000000e+00 0.000000000000000000e+00 0.000000000000000000e+00
