-4.821691047997953006e-01 1.620926580454615240e-01 1.801617460842342422e-01 -1.950122178001789441e+00 -9.228791353151305586e-04 -1.057351887534990348e-01 3.566054952414300649e-02 -5.057750929744020407e-01 -3.996916539489655529e-01 -2.413266699718996135e-03
-4.868112248005387332e-01 1.623537115625297289e-01 1.567719092074546794e-01 -1.964004524326774304e+00 -9.949358478044485667e-04 -9.284240001486834815e-02 5.221070341363983486e-03 -4.677967375355913671e-01 -2.776469264996973552e-01 -1.441134249786360164e-03
-4.908755456617696633e-01 1.611663027310073770e-01 1.355826907225889943e-01 -1.972194384105616427e+00 -1.013318651461977494e-03 -8.128641722461908692e-02 -2.374817663044729785e-02 -4.237843696973138674e-01 -1.637971955768404431e-01 -3.676560731505781020e-04
-4.944449040305944343e-01 1.586606963455858832e-01 1.167398993121899209e-01 -1.975314888612769160e+00 -1.002477921991407148e-03 -7.138716737649491995e-02 -5.011212770842987663e-02 -3.768558282079813582e-01 -6.241009014305323732e-02 2.168145894114076625e-04
-4.976080886043227625e-01 1.550101469342726745e-01 1.002372780278606296e-01 -1.974131368037208789e+00 -9.603988513151130247e-04 -6.326369147456700759e-02 -7.301098822626393703e-02 -3.300524256865858819e-01 2.367041151120936882e-02 8.415814135258831239e-04
-5.004509807037935687e-01 1.504105013635284316e-01 8.594434634054488875e-02 -1.969464716258547687e+00 -8.939209030944643159e-04 -5.685784198941631895e-02 -9.199291141488465107e-02 -2.858586337463148719e-01 9.333303557322215893e-02 1.329558964412973308e-03
-5.030484865776932990e-01 1.450522837176435043e-01 7.365463977521614913e-02 -1.962084697403913225e+00 -8.136656576609737311e-04 -5.195011747799437030e-02 -1.071643529176987963e-01 -2.457941313065748479e-01 1.476003770926875847e-01 1.605104908669812780e-03
-5.054615703738056798e-01 1.391035805264522751e-01 6.312888497435063806e-02 -1.952650533484913131e+00 -7.265061368201882353e-04 -4.826167592224749753e-02 -1.189740638238243053e-01 -2.105150960173101382e-01 1.886832783800025948e-01 1.743190416815710133e-03
-5.077392546091611392e-01 1.327095892425771417e-01 5.411324060766199706e-02 -1.941713733677415510e+00 -6.370463676994823519e-04 -4.555368470711001344e-02 -1.278798256775026676e-01 -1.803128873337727922e-01 2.187359961499509287e-01 1.789195382414117885e-03
-5.099204213369687988e-01 1.259923108115028612e-01 4.635103779411584024e-02 -1.929720706803213837e+00 -5.490255570982435903e-04 -4.362333455615215183e-02 -1.343455686214857780e-01 -1.552440562709231364e-01 2.398605374840332982e-01 1.760416212024775882e-03
-5.120354738461206923e-01 1.190504653432504639e-01 3.959442553554205768e-02 -1.917018860004435554e+00 -4.645610788752618445e-04 -4.230105018303810527e-02 -1.388369093650480557e-01 -1.351322451714755957e-01 2.540369359755644263e-01 1.689289564459634484e-03
-5.141077473111484997e-01 1.119600911963300888e-01 3.361064078699535496e-02 -1.903863327456037702e+00 -3.836015077198405782e-04 -4.144546930055711953e-02 -1.418074829384073920e-01 -1.196756949709340545e-01 2.631106509679592143e-01 1.619191423108425542e-03
-5.161549126236326668e-01 1.047767697624510941e-01 2.818444111885287998e-02 -1.890428741310485217e+00 -3.009940514916523168e-04 -4.094330624968320342e-02 -1.436664286775800048e-01 -1.085239933628495135e-01 2.686917229110509231e-01 1.652149124563765011e-03
-5.181900704862266727e-01 9.753810255198579193e-02 2.311896447041629152e-02 -1.876820807498678523e+00 -1.929665978230058431e-04 -4.070315725187963890e-02 -1.447733442093060430e-01 -1.013095329687317553e-01 2.721586762361339340e-01 2.160549073372929150e-03
-5.202227369034131410e-01 9.026707337062660208e-02 1.823452432696552952e-02 -1.863090130153474355e+00 3.731645291494740144e-05 0.000000000000000000e+00 0.000000000000000000e+00 0.000000000000000000e+00 0.000000000000000000e+00 0.000000000000000000e+00
-5.202227369034131410e-01 9.026707337062660208e-02 1.823452432696552952e-02 -1.863090130153474355e+00 3.731645291494740144e-05 0.000000000000000000e+00 0.000000000000000000e+00 0.000000000000000000e+00 0.000000000000000000e+00 0.000000000000000000e+00
-5.202227369034131410e-01 9.026707337062660208e-02 1.823452432696552952e-02 -1.863090130153474355e+00 3.731645291494740144e-05 0.000000000000000000e+00 0.000000000000000000e+00 0.000000000000000000e+00 0.000000000000000000e+00 0.000000000000000000e+00
-5.202227369034131410e-01 9.026707337062660208e-02 1.823452432696552952e-02 -1.863090130153474355e+00 3.731645291494740144e-05 0.000000000000000000e+00 0.000000000000000000e+00 0.000000000000000000e+00 0.000000000000000000e+00 0.000000000000000000e+00
-5.202227369034131410e-01 9.026707337062660208e-02 1.823452432696552952e-02 -1.863090130153474355e+00 3.731645291494740144e-05 0.000000000000000000e+00 0.000000000000000000e+00 0.000000000000000000e+00 0.000000000000000000e+00 0.000000000000000000e+00
-5.202227369034131410e-01 9.026707337062660208e-02 1.823452432696552952e-02 -1.863090130153474355e+00 3.731645291494740144e-05 0.000000000000000000e+00 0.000000000000000000e+00 0.000000000000000000e+00 0.000000000000000000e+00 0.000000000000000000e+00
-5.202227369034131410e-01 9.026707337062660208e-02 1.823452432696552952e-02 -1.863090130153474355e+00 3.731645291494740144e-05 0.000000000000000000e+00 0.000000000000000000e+00 0.000000000000000000e+00 0.000000000000000000e+00 0.000000000000000000e+00
-5.202227369034131410e-01 9.026707337062660208e-02 1.823452432696552952e-02 -1.863090130153474355e+00 3.731645291494740144e-05 0.000000000000000000e+00 0.000000000000000000e+00 0.000000000000000000e+00 0.000000000000000000e+00 0.000000000000000000e+00
-5.202227369034131410e-01 9.026707337062660208e-02 1.823452432696552952e-02 -1.863090130153474355e+00 3.731645291494740144e-05 0.000000000000000000e+00 0.000000000000000000e+00 0.000000000000000000e+00 0.000000000000000000e+00 0.000000000000000000e+00
-5.202227369034131410e-01 9.026707337062660208e-02 1.823452432696552952e-02 -1.863090130153474355e+00 3.731645291494740144e-05 0.000000000000000000e+00 0.000000000000000000e+00 0.000000000000000000e+00 0.000000000000000000e+00 0.000000000000000000e+00
-5.202227369034131410e-01 9.026707337062660208e-02 1.823452432696552952e-02 -1.863090130153474355e+00 3.731645291494740144e-05 0.000000000000000000e+00 0.000000000000000000e+00 0.000000000000000000e+00 0.000000000000000000e+00 0.000000000000000000e+00
-5.202227369034131410e-01 9.026707337062660208e-02 1.823452432696552952e-02 -1.863090130153474355e+00 3.731645291494740144e-05 0.000000000000000000e+00 0.000000000000000000e+00 0.000000000000000000e+00 0.000000000000000000e+00 0.000000000000000000e+00
-5.202227369034131410e-01 9.026707337062660208e-02 1.823452432696552952e-02 -1.863090130153474355e+00 3.731645291494740144e-05 0.000000000000000000e+00 0.000000000000000000e+00 0.000000000000000000e+00 0.000000000000000000e+00 0.000000000000000000e+00
-5.202227369034131410e-01 9.026707337062660208e-02 1.823452432696552952e-02 -1.863090130153474355e+00 3.731645291494740144e-05 0.000000000000000000e+00 0.000000000000000000e+00 0.000000000000000000e+00 0.000000000000000000e+00 0.000000000000000000e+00
-5.202227369034131410e-01 9.026707337062660208e-02 1.823452432696552952e-02 -1.863090130153474355e+00 3.731645291494740144e-05 0.000000000000000000e+00 0.000000000000000000e+00 0.000000000000000000e+00 0.000000000000000000e+00 0.000000000000000000e+00
-5.202227369034131410e-01 9.026707337062660208e-02 1.823452432696552952e-02 -1.863090130153474355e+00 3.731645291494740144e-05 0.000000000000000000e+00 0.000000000000000000e+00 0.000000000000000000e+00 0.000000000000000000e+00 0.000000000000000000e+00
-5.202227369034131410e-01 9.026707337062660208e-02 1.823452432696552952e-02 -1.863090130153474355e+00 3.731645291494740144e-05 0.000000000000000000e+00 0.000000000000000000e+00 0.000000000000000000e+00 0.000000000000000000e+00 0.000000000000000000e+00
