-7.358577494007028097e-01 8.908547428273541624e-02 3.884509289935968168e-02 -1.719720586074701130e+00 1.002469741825896691e-03 -1.067496086236135663e-02 -3.268646225016046403e-01 5.361043157116641110e-03 3.516491297241423064e-01 -1.372063162074976594e-05
-7.363821033288627804e-01 7.268408241732582376e-02 3.926689666510031762e-02 -1.701813473279954136e+00 1.001698504768124953e-03 0.000000000000000000e+00 0.000000000000000000e+00 0.000000000000000000e+00 0.000000000000000000e+00 0.000000000000000000e+00
-7.363821033288627804e-01 7.268408241732582376e-02 3.926689666510031762e-02 -1.701813473279954136e+00 1.001698504768124953e-03 0.000000000000000000e+00 0.000000000000000000e+00 0.000000000000000000e+00 0.000000000000000000e+00 0.000000000000000000e+00
-7.363821033288627804e-01 7.268408241732582376e-02 3.926689666510031762e-02 -1.701813473279954136e+00 1.001698504768124953e-03 0.000000000000000000e+00 0.000000000000000000e+00 0.000000000000000000e+00 0.000000000000000000e+00 0.000000000000000000e+00
-7.363821033288627804e-01 7.268408241732582376e-02 3.926689666510031762e-02 -1.701813473279954136e+00 1.001698504768124953e-03 0.000000000000000000e+00 0.000000000000000000e+00 0.000000000000000000e+00 0.000000000000000000e+00 0.000000000000000000e+00
-7.363821033288627804e-01 7.268408241732582376e-02 3.926689666510031762e-02 -1.701813473279954136e+00 1.001698504768124953e-03 0.000000000000000000e+00 0.000000000000000000e+00 0.000000000000000000e+00 0.000000000000000000e+00 0.000000000000000000e+00
-7.363821033288627804e-01 7.268408241732582376e-02 3.926689666510031762e-02 -1.701813473279954136e+00 1.001698504768124953e-03 0.000000000000000000e+00 0.000000000000000000e+00 0.000000000000000000e+00 0.000000000000000000e+00 0.000000000000000000e+00
-7.363821033288627804e-01 7.268408241732582376e-02 3.926689666510031762e-02 -1.701813473279954136e+00 1.001698504768124953e-03 0.000000000000000000e+00 0.000000000000000000e+00 0.000000000000000000e+00 0.000000000000000000e+00 0.000000000000000000e+00
-7.363821033288627804e-01 7.268408241732582376e-02 3.926689666510031762e-02 -1.701813473279954136e+00 1.001698504768124953e-03 0.000000000000000000e+00 0.000000000000000000e+00 0.000000000000000000e+00 0.000000000000000000e+00 0.000000000000000000e+00
-7.363821033288627804e-01 7.268408241732582376e-02 3.926689666510031762e-02 -1.701813473279954136e+00 1.001698504768124953e-03 0.000000000000000000e+00 0.000000000000000000e+00 0.000000000000000000e+00 0.000000000000000000e+00 0.000000000000000000e+00
-7.363821033288627804e-01 7.268408241732582376e-02 3.926689666510031762e-02 -1.701813473279954136e+00 1.001698504768124953e-03 0.000000000000000000e+00 0.000000000000000000e+00 0.000000000000000000e+00 0.000000000000000000e+00 0.000000000000000000e+00
-7.363821033288627804e-01 7.268408241732582376e-02 3.926689666510031762e-02 -1.701813473279954136e+00 1.001698504768124953e-03 0.000000000000000000e+00 0.000000000000000000e+00 0.000000000000000000e+00 0.000000000000000000e+00 0.000000000000000000e+00
-7.363821033288627804e-01 7.268408241732582376e-02 3.926689666510031762e-02 -1.701813473279954136e+00 1.001698504768124953e-03 0.000000000000000000e+00 0.000000000000000000e+00 0.000000000000000000e+00 0.000000000000000000e+00 0.000000000000000000e+00
-7.363821033288627804e-01 7.268408241732582376e-02 3.926689666510031762e-02 -1.701813473279954136e+00 1.001698504768124953e-03 0.000000000000000000e+00 0.000000000000000000e+00 0.000000000000000000e+00 0.000000000000000000e+00 0.000000000000000000e+00
-7.363821033288627804e-01 7.268408241732582376e-02 3.926689666510031762e-02 -1.701813473279954136e+00 1.001698504768124953e-03 0.000000000000000000e+00 0.000000000000000000e+00 0.000000000000000000e+00 0.000000000000000000e+00 0.000000000000000000e+00
-7.363821033288627804e-01 7.268408241732582376e-02 3.926689666510031762e-02 -1.701813473279954136e+00 1.001698504768124953e-03 0.000000000000000000e+00 0.000000000000000000e+00 0.000000000000000000e+00 0.000000000000000000e+00 0.000000000000000000e+00
-7.363821033288627804e-01 7.268408241732582376e-02 3.926689666510031762e-02 -1.701813473279954136e+00 1.001698504768124953e-03 0.000000000000000000e+00 0.000000000000000000e+00 0.000000000000000000e+00 0.000000000000000000e+00 0.000000000000000000e+00
-7.363821033288627804e-01 7.268408241732582376e-02 3.926689666510031762e-02 -1.701813473279954136e+00 1.001698504768124953e-03 0.000000000000000000e+00 0.000000000000000000e+00 0.000000000000000000e+00 0.000000000000000000e+00 0.000000000000000000e+00
-7.363821033288627804e-01 7.268408241732582376e-02 3.926689666510031762e-02 -1.701813473279954136e+00 1.001698504768124953e-03 0.000000000000000000e+00 0.000000000000000000e+00 0.000000000000000000e+00 0.000000000000000000e+00 0.000000000000000000e+00
-7.363821033288627804e-01 7.268408241732582376e-02 3.926689666510031762e-02 -1.701813473279954136e+00 1.001698504768124953e-03 0.000000000000000000e+00 0.000000000000000000e+00 0.000000000000000000e+00 0.000000000000000000e+00 0.000000000000000000e+00
-7.363821033288627804e-01 7.268408241732582376e-02 3.926689666510031762e-02 -1.701813473279954136e+00 1.001698504768124953e-03 0.000000000000000000e+00 0.000000000000000000e+00 0.000000000000000000e+00 0.000000000000000000e+00 0.000000000000000000e+00
-7.363821033288627804e-01 7.268408241732582376e-02 3.926689666510031762e-02 -1.701813473279954136e+00 1.001698504768124953e-03 0.000000000000000000e+00 0.000000000000000000e+00 0.000000000000000000e+00 0.000000000000000000e+00 0.000000000000000000e+00
-7.363821033288627804e-01 7.268408241732582376e-02 3.926689666510031762e-02 -1.701813473279954136e+00 1.001698504768124953e-03 0.000000000000000000e+00 0.000000000000000000e+00 0.000000000000000000e+00 0.000000000000000000e+00 0.000000000000000000e+00
-7.363821033288627804e-01 7.268408241732582376e-02 3.926689666510031762e-02 -1.701813473279954136e+00 1.001698504768124953e-03 0.000000000000000000e+00 0.000000000000000000e+00 0.000000000000000000e+00 0.000000000000000000e+00 0.000000000000000000e+00
-7.363821033288627804e-01 7.268408241732582376e-02 3.926689666510031762e-02 -1.701813473279954136e+00 1.001698504768124953e-03 0.000000000000000000e+00 0.000000000000000000e+00 0.000000000000000000e+00 0.000000000000000000e+00 0.000000000000000000e+00
-7.363821033288627804e-01 7.268408241732582376e-02 3.926689666510031762e-02 -1.701813473279954136e+00 1.001698504768124953e-03 0.000000000000000000e+00 0.000000000000000000e+00 0.000000000000000000e+00 0.000000000000000000e+00 0.000000000000000000e+00
-7.363821033288627804e-01 7.268408241732582376e-02 3.926689666510031762e-02 -1.701813473279954136e+00 1.001698504768124953e-03 0.000000000000000000e+00 0.000000000000000000e+00 0.000000000000000000e+00 0.000000000000000000e+00 0.000000000000000000e+00
-7.363821033288627804e-01 7.268408241732582376e-02 3.926689666510031762e-02 -1.701813473279954136e+00 1.001698504768124953e-03 0.000000000000000000e+00 0.000000000000000000e+00 0.000000000000000000e+00 0.000000000000000000e+00 0.000000000000000000e+00
-7.363821033288627804e-01 7.268408241732582376e-02 3.926689666510031762e-02 -1.701813473279954136e+00 1.001698504768124953e-03 0.000000000000000000e+00 0.000000000000000000e+00 0.000000000000000000e+00 0.000000000000000000e+00 0.000000000000000000e+00
-7.363821033288627804e-01 7.268408241732582376e-02 3.926689666510031762e-02 -1.701813473279954136e+00 1.001698504768124953e-03 0.000000000000000000e+00 0.000000000000000000e+00 0.000000000000000000e+00 0.000000000000000000e+00 0.000000000000000000e+00
-7.363821033288627804e-01 7.268408241732582376e-02 3.926689666510031762e-02 -1.701813473279954136e+00 1.001698504768124953e-03 0.000000000000000000e+00 0.000000000000000000e+00 0.000000000000000000e+00 0.000000000000000000e+00 0.000000000000000000e+00
