-7.067263863339438013e-01 -7.445535915885316547e-02 3.840780248035871036e-01 -7.233039830801206715e-01 1.014589442809362514e-03 -4.779623088211016335e-01 -2.575941704763209383e-01 -6.623097420503815114e-01 -4.727082629891860011e-01 -2.552469254417276065e-05
-7.324446301018399108e-01 -8.980384095570631553e-02 3.515442126588211869e-01 -7.455215271216275585e-01 1.012460047870631036e-03 -5.143648753579213029e-01 -3.069696359370629457e-01 -6.506762428953186683e-01 -4.443508808301372404e-01 -4.258789877462922872e-05
-7.599241982186124567e-01 -1.076670913202968649e-01 3.197794744617815099e-01 -7.655856148664670346e-01 1.010548954032832770e-03 -5.495913623354520272e-01 -3.572650072918110431e-01 -6.352947639407929836e-01 -4.012817548967904657e-01 -3.822187675596412041e-05
-7.891220808040941836e-01 -1.280501372709734742e-01 2.888993752673615911e-01 -7.828332950973803106e-01 1.008195255708047976e-03 -5.839576517096336516e-01 -4.076609190135322969e-01 -6.176019838883983759e-01 -3.449536046182658522e-01 -4.707396649569521113e-05
-8.200070280670642697e-01 -1.509222582216431796e-01 2.589789372079577268e-01 -7.966775586643395357e-01 1.002186216264132432e-03 -6.176989452594012775e-01 -4.574424190133942192e-01 -5.984087611880769542e-01 -2.768852713391856124e-01 -1.201807888783102015e-04
-8.525574352368198161e-01 -1.762229801416536068e-01 2.300794959371341986e-01 -8.066083895223965516e-01 9.807978452987923829e-04 -6.510081433951104835e-01 -5.060144384002086548e-01 -5.779888254164705641e-01 -1.986166171611414288e-01 -4.277674193068026166e-04
-8.867604706514005120e-01 -2.038674547323371111e-01 2.022664745855362045e-01 -8.121922462465684944e-01 9.205376867341068898e-04 -6.840607082916140280e-01 -5.528894918136700865e-01 -5.562604270319595479e-01 -1.116771344834390500e-01 -1.205203171293709428e-03
-9.226119610061658260e-01 -2.337508662552943151e-01 1.756185109977670689e-01 -8.130710718218034927e-01 8.452117742270665816e-04 -7.170298070953057268e-01 -5.976682304591443007e-01 -5.329592717553826020e-01 -1.757651150469913270e-02 -1.506518250140806165e-03
-9.601171176901288629e-01 -2.657510991126376121e-01 1.502293243812061196e-01 -8.089649150331017502e-01 7.628134507931757808e-04 -7.501031336792600701e-01 -6.400046571468664958e-01 -5.077837323312187623e-01 8.212313577403526632e-02 -1.647966468677817100e-03
-9.992917013670413739e-01 -2.997292821227385273e-01 1.262028205183846064e-01 -7.996791219083859703e-01 6.770045819498608439e-04 -7.834916735382491115e-01 -6.795636602020178607e-01 -4.805300772564303213e-01 1.857158624943162639e-01 -1.716177376866297871e-03
-1.040163369243849445e+00 -3.355286881549210398e-01 1.036439518351183198e-01 -7.851151248770920077e-01 5.896222373131216688e-04 -8.174333575361618642e-01 -7.159881206436500278e-01 -4.511773736653258426e-01 2.912799406258782531e-01 -1.747646892734782634e-03
-1.082772544215476529e+00 -3.729729125340014440e-01 8.264637060934028334e-02 -7.652800713924767795e-01 5.013513972892177234e-04 -8.521834994325424573e-01 -7.488844875816084157e-01 -4.199516245155606731e-01 3.967010696923041757e-01 -1.765416800478079558e-03
-1.127172374318406556e+00 -4.118648996391054973e-01 6.327931940270056788e-02 -7.402896956829828623e-01 4.124374312147203255e-04 -8.879966020586008701e-01 -7.778397421020807334e-01 -3.873410241327944203e-01 4.998075141898780105e-01 -1.778279321489947525e-03
-1.173428117147313765e+00 -4.519872634298017222e-01 4.557776493167414733e-02 -7.103656207359032582e-01 3.226041442209623107e-04 -9.251148565781429634e-01 -8.024472758139241657e-01 -3.540310894205282999e-01 5.984814989415914166e-01 -1.796665739875159427e-03
-1.221615874883673403e+00 -4.931032606700066490e-01 2.953372159040390521e-02 -6.758276464461643318e-01 2.309936204263771868e-04 -9.637551547271935304e-01 -8.223199448040983128e-01 -3.208808668254047869e-01 6.907594857947783051e-01 -1.832210475891702479e-03
-1.271820610480579150e+00 -5.349583354024388671e-01 1.508676314220223913e-02 -6.370799532958120182e-01 1.365477727031517540e-04 -1.004094711938114282e+00 -8.371014946486443620e-01 -2.889391689640333771e-01 7.749538630070469392e-01 -1.888916954464508547e-03
-1.324133870134455160e+00 -5.772817406100358983e-01 2.114026014851003860e-03 -5.945941114353292534e-01 3.766893205537242282e-05 -1.046265193077518640e+00 -8.464681041519415139e-01 -2.594547425470246638e-01 8.497168372096552957e-01 -1.977576812955586516e-03
-1.378651383344604131e+00 -6.197875295903622073e-01 -9.584065877849741802e-03 -5.488893818965377980e-01 -6.853802064172801877e-05 -1.090350264202980091e+00 -8.501157796065266226e-01 -2.339618378540149202e-01 9.140945907758283306e-01 -2.124139053942008561e-03
-1.435470704749945536e+00 -6.621748878150574003e-01 -2.030458340901692554e-02 -5.005090830857577000e-01 -1.880352971710566134e-04 -1.136386428106827440e+00 -8.477471644939027495e-01 -2.144103506233436263e-01 9.676059762156009603e-01 -2.389945530586571731e-03
-1.494689578539784236e+00 -7.041275734989052015e-01 -3.047172578421401129e-02 -4.499933741887020555e-01 -3.355809824484864783e-04 -1.184377475796774437e+00 -8.390537136769565807e-01 -2.033428475039417149e-01 1.010314177941113334e+00 -2.950913705548597298e-03
-1.556405794784585295e+00 -7.453120222993884214e-01 -4.067699557881418460e-02 -3.978499666493097164e-01 -5.553984853922884534e-04 -1.234324324896020286e+00 -8.236889760096646196e-01 -2.041053958920034939e-01 1.042868150787847004e+00 -4.396350058876039718e-03
-1.620719106913715457e+00 -7.853750125383782699e-01 -5.172893737793553270e-02 -3.445212207151328032e-01 -1.001325576106952032e-03 0.000000000000000000e+00 0.000000000000000000e+00 0.000000000000000000e+00 0.000000000000000000e+00 0.000000000000000000e+00
-1.620719106913715457e+00 -7.853750125383782699e-01 -5.172893737793553270e-02 -3.445212207151328032e-01 -1.001325576106952032e-03 0.000000000000000000e+00 0.000000000000000000e+00 0.000000000000000000e+00 0.000000000000000000e+00 0.000000000000000000e+00
-1.620719106913715457e+00 -7.853750125383782699e-01 -5.172893737793553270e-02 -3.445212207151328032e-01 -1.001325576106952032e-03 0.000000000000000000e+00 0.000000000000000000e+00 0.000000000000000000e+00 0.000000000000000000e+00 0.000000000000000000e+00
-1.620719106913715457e+00 -7.853750125383782699e-01 -5.172893737793553270e-02 -3.445212207151328032e-01 -1.001325576106952032e-03 0.000000000000000000e+00 0.000000000000000000e+00 0.000000000000000000e+00 0.000000000000000000e+00 0.000000000000000000e+00
-1.620719106913715457e+00 -7.853750125383782699e-01 -5.172893737793553270e-02 -3.445212207151328032e-01 -1.001325576106952032e-03 0.000000000000000000e+00 0.000000000000000000e+00 0.000000000000000000e+00 0.000000000000000000e+00 0.000000000000000000e+00
-1.620719106913715457e+00 -7.853750125383782699e-01 -5.172893737793553270e-02 -3.445212207151328032e-01 -1.001325576106952032e-03 0.000000000000000000e+00 0.000000000000000000e+00 0.000000000000000000e+00 0.000000000000000000e+00 0.000000000000000000e+00
-1.620719106913715457e+00 -7.853750125383782699e-01 -5.172893737793553270e-02 -3.445212207151328032e-01 -1.001325576106952032e-03 0.000000000000000000e+00 0.000000000000000000e+00 0.000000000000000000e+00 0.000000000000000000e+00 0.000000000000000000e+00
-1.620719106913715457e+00 -7.853750125383782699e-01 -5.172893737793553270e-02 -3.445212207151328032e-01 -1.001325576106952032e-03 0.000000000000000000e+00 0.000000000000000000e+00 0.000000000000000000e+00 0.000000000000000000e+00 0.000000000000000000e+00
-1.620719106913715457e+00 -7.853750125383782699e-01 -5.172893737793553270e-02 -3.445212207151328032e-01 -1.001325576106952032e-03 0.000000000000000000e+00 0.000000000000000000e+00 0.000000000000000000e+00 0.000000000000000000e+00 0.000000000000000000e+00
-1.620719106913715457e+00 -7.853750125383782699e-01 -5.172893737793553270e-02 -3.445212207151328032e-01 -1.001325576106952032e-03 0.000000000000000000e+00 0.000000000000000000e+00 0.000000000000000000e+00 0.000000000000000000e+00 0.000000000000000000e+00
