-3.905779650538811487e-01 -8.872029420585310078e-01 6.092312667861895514e-01 -1.388138515212362423e+00 9.544832899290736443e-05 -1.748522987993310351e-01 -1.245672276920617882e+00 1.675739581107687781e-01 -5.150275650732978328e-01 -2.515439831038311039e-03
-3.989671958336814539e-01 -9.516861602435241485e-01 6.164785510712622596e-01 -1.410483022977093492e+00 -1.971383128972777445e-05 -1.677846155960061314e-01 -1.289664363699862148e+00 1.449456857014539413e-01 -4.468901552946197286e-01 -2.303243205652702724e-03
-4.068378736980405863e-01 -1.018138112946925133e+00 6.228342243884443796e-01 -1.429139036519035066e+00 -1.235454843988092013e-04 -1.574135572871827871e-01 -1.329039054068018588e+00 1.271134663436422063e-01 -3.731202708388337008e-01 -2.076633062181628808e-03
-4.140640482334519978e-01 -1.086288176465770805e+00 6.285112675061219623e-01 -1.444106122466884079e+00 -2.177137884525666032e-04 -1.445234907082278419e-01 -1.363001270376913432e+00 1.135408623535506256e-01 -2.993417189569800296e-01 -1.883366081075147930e-03
-4.205840650417792537e-01 -1.155831028028143193e+00 6.336283251718168863e-01 -1.455648412010767334e+00 -3.079071416116220105e-04 -1.304003361665449501e-01 -1.390857031247449083e+00 1.023411533138990637e-01 -2.308457908776634926e-01 -1.803867063181107929e-03
-4.264425032701799623e-01 -1.226432543673524389e+00 6.381278598336751484e-01 -1.464257551128008927e+00 -4.102587791911335865e-04 -1.171687645680141998e-01 -1.412030312907625262e+00 8.999069323716515911e-02 -1.721827823448298656e-01 -2.047032751590231736e-03
-4.318515628729095446e-01 -1.297737282834682926e+00 6.416820013131593337e-01 -1.470589470318610426e+00 -5.772166309322373070e-04 -1.081811920545919653e-01 -1.426094783223172513e+00 7.108282958968450971e-02 -1.266383838120304639e-01 -3.339157034822074627e-03
-4.372689633190724456e-01 -1.369377767622633302e+00 6.435919454090300862e-01 -1.475368585727047988e+00 -1.002053227878850483e-03 0.000000000000000000e+00 0.000000000000000000e+00 0.000000000000000000e+00 0.000000000000000000e+00 0.000000000000000000e+00
-4.372689633190724456e-01 -1.369377767622633302e+00 6.435919454090300862e-01 -1.475368585727047988e+00 -1.002053227878850483e-03 0.000000000000000000e+00 0.000000000000000000e+00 0.000000000000000000e+00 0.000000000000000000e+00 0.000000000000000000e+00
-4.372689633190724456e-01 -1.369377767622633302e+00 6.435919454090300862e-01 -1.475368585727047988e+00 -1.002053227878850483e-03 0.000000000000000000e+00 0.000000000000000000e+00 0.000000000000000000e+00 0.000000000000000000e+00 0.000000000000000000e+00
-4.372689633190724456e-01 -1.369377767622633302e+00 6.435919454090300862e-01 -1.475368585727047988e+00 -1.002053227878850483e-03 0.000000000000000000e+00 0.000000000000000000e+00 0.000000000000000000e+00 0.000000000000000000e+00 0.000000000000000000e+00
-4.372689633190724456e-01 -1.369377767622633302e+00 6.435919454090300862e-01 -1.475368585727047988e+00 -1.002053227878850483e-03 0.000000000000000000e+00 0.000000000000000000e+00 0.000000000000000000e+00 0.000000000000000000e+00 0.000000000000000000e+00
-4.372689633190724456e-01 -1.369377767622633302e+00 6.435919454090300862e-01 -1.475368585727047988e+00 -1.002053227878850483e-03 0.000000000000000000e+00 0.000000000000000000e+00 0.000000000000000000e+00 0.000000000000000000e+00 0.000000000000000000e+00
-4.372689633190724456e-01 -1.369377767622633302e+00 6.435919454090300862e-01 -1.475368585727047988e+00 -1.002053227878850483e-03 0.000000000000000000e+00 0.000000000000000000e+00 0.000000000000000000e+00 0.000000000000000000e+00 0.000000000000000000e+00
-4.372689633190724456e-01 -1.369377767622633302e+00 6.435919454090300862e-01 -1.475368585727047988e+00 -1.002053227878850483e-03 0.000000000000000000e+00 0.000000000000000000e+00 0.000000000000000000e+00 0.000000000000000000e+00 0.000000000000000000e+00
-4.372689633190724456e-01 -1.369377767622633302e+00 6.435919454090300862e-01 -1.475368585727047988e+00 -1.002053227878850483e-03 0.000000000000000000e+00 0.000000000000000000e+00 0.000000000000000000e+00 0.000000000000000000e+00 0.000000000000000000e+00
-4.372689633190724456e-01 -1.369377767622633302e+00 6.435919454090300862e-01 -1.475368585727047988e+00 -1.002053227878850483e-03 0.000000000000000000e+00 0.000000000000000000e+00 0.000000000000000000e+00 0.000000000000000000e+00 0.000000000000000000e+00
-4.372689633190724456e-01 -1.369377767622633302e+00 6.435919454090300862e-01 -1.475368585727047988e+00 -1.002053227878850483e-03 0.000000000000000000e+00 0.000000000000000000e+00 0.000000000000000000e+00 0.000000000000000000e+00 0.000000000000000000e+00
-4.372689633190724456e-01 -1.369377767622633302e+00 6.435919454090300862e-01 -1.475368585727047988e+00 -1.002053227878850483e-03 0.000000000000000000e+00 0.000000000000000000e+00 0.000000000000000000e+00 0.000000000000000000e+00 0.000000000000000000e+00
-4.372689633190724456e-01 -1.369377767622633302e+00 6.435919454090300862e-01 -1.475368585727047988e+00 -1.002053227878850483e-03 0.000000000000000000e+00 0.000000000000000000e+00 0.000000000000000000e+00 0.000000000000000000e+00 0.000000000000000000e+00
-4.372689633190724456e-01 -1.369377767622633302e+00 6.435919454090300862e-01 -1.475368585727047988e+00 -1.002053227878850483e-03 0.000000000000000000e+00 0.000000000000000000e+00 0.000000000000000000e+00 0.000000000000000000e+00 0.000000000000000000e+00
-4.372689633190724456e-01 -1.369377767622633302e+00 6.435919454090300862e-01 -1.475368585727047988e+00 -1.002053227878850483e-03 0.000000000000000000e+00 0.000000000000000000e+00 0.000000000000000000e+00 0.000000000000000000e+00 0.000000000000000000e+00
-4.372689633190724456e-01 -1.369377767622633302e+00 6.435919454090300862e-01 -1.475368585727047988e+00 -1.002053227878850483e-03 0.000000000000000000e+00 0.000000000000000000e+00 0.000000000000000000e+00 0.000000000000000000e+00 0.000000000000000000e+00
-4.372689633190724456e-01 -1.369377767622633302e+00 6.435919454090300862e-01 -1.475368585727047988e+00 -1.002053227878850483e-03 0.000000000000000000e+00 0.000000000000000000e+00 0.000000000000000000e+00 0.000000000000000000e+00 0.000000000000000000e+00
-4.372689633190724456e-01 -1.369377767622633302e+00 6.435919454090300862e-01 -1.475368585727047988e+00 -1.002053227878850483e-03 0.000000000000000000e+00 0.000000000000000000e+00 0.000000000000000000e+00 0.000000000000000000e+00 0.000000000000000000e+00
-4.372689633190724456e-01 -1.369377767622633302e+00 6.435919454090300862e-01 -1.475368585727047988e+00 -1.002053227878850483e-03 0.000000000000000000e+00 0.000000000000000000e+00 0.000000000000000000e+00 0.000000000000000000e+00 0.000000000000000000e+00
-4.372689633190724456e-01 -1.369377767622633302e+00 6.435919454090300862e-01 -1.475368585727047988e+00 -1.002053227878850483e-03 0.000000000000000000e+00 0.000000000000000000e+00 0.000000000000000000e+00 0.000000000000000000e+00 0.000000000000000000e+00
-4.372689633190724456e-01 -1.369377767622633302e+00 6.435919454090300862e-01 -1.475368585727047988e+00 -1.002053227878850483e-03 0.000000000000000000e+00 0.000000000000000000e+00 0.000000000000000000e+00 0.000000000000000000e+00 0.000000000000000000e+00
-4.372689633190724456e-01 -1.369377767622633302e+00 6.435919454090300862e-01 -1.475368585727047988e+00 -1.002053227878850483e-03 0.000000000000000000e+00 0.000000000000000000e+00 0.000000000000000000e+00 0.000000000000000000e+00 0.000000000000000000e+00
-4.372689633190724456e-01 -1.369377767622633302e+00 6.435919454090300862e-01 -1.475368585727047988e+00 -1.002053227878850483e-03 0.000000000000000000e+00 0.000000000000000000e+00 0.000000000000000000e+00 0.000000000000000000e+00 0.000000000000000000e+00
-4.372689633190724456e-01 -1.369377767622633302e+00 6.435919454090300862e-01 -1.475368585727047988e+00 -1.002053227878850483e-03 0.000000000000000000e+00 0.000000000000000000e+00 0.000000000000000000e+00 0.000000000000000000e+00 0.000000000000000000e+00
