-7.464046527600318726e-01 -1.483255784267366317e-01 5.437343249504694720e-01 -1.861363966940890569e+00 0.000000000000000000e+00 -1.911317045925023383e-03 -9.442391720540587547e-04 9.248184228126342908e-04 -1.766030966528435008e-03 0.000000000000000000e+00
-7.508045119951718416e-01 -1.524392847892170055e-01 5.314801286717182327e-01 -1.873984513676127728e+00 -2.522371178082019865e-04 -8.799718470279858928e-02 -8.227412724960721235e-02 -2.450839255750250634e-01 -2.524109347047422403e-01 -5.044742356164039730e-03
-7.583295738337105796e-01 -1.610058671346107362e-01 5.094374216716820447e-01 -1.894185280468442700e+00 -5.240386012012206423e-04 -1.505012367707739274e-01 -1.713316469078746129e-01 -4.408541400007245370e-01 -4.040153358462998945e-01 -5.436029667860372248e-03
-7.679404750628843201e-01 -1.742570633530970969e-01 4.796449586813343879e-01 -1.917375200662094548e+00 -7.608475594532975329e-04 -1.922180245834738122e-01 -2.650239243697269931e-01 -5.958492598069531354e-01 -4.637984038730358916e-01 -4.736179165041537811e-03
-7.787660135139186091e-01 -1.923027145925826908e-01 4.439686306719586306e-01 -1.939556362322045313e+00 -9.355709808758032580e-04 -2.165107690206864999e-01 -3.609130247897117671e-01 -7.135265601875147023e-01 -4.436232331990140887e-01 -3.494468428450115370e-03
-7.901191667152187570e-01 -2.151518573171799509e-01 4.042489740328264469e-01 -1.957481770400940180e+00 -1.028531630675964207e-03 -2.270630640260038469e-01 -4.569828544919452007e-01 -7.943931327826434519e-01 -3.585081615778964448e-01 -1.859212996003219631e-03
-8.015005866688877934e-01 -2.427239945467282722e-01 3.623166395532637085e-01 -1.968740318143999302e+00 -1.061210489498929386e-03 -2.276283990733798668e-01 -5.514427445909662051e-01 -8.386466895912551012e-01 -2.251709548611834366e-01 -6.535771764593016186e-04
-8.125890693800306153e-01 -2.748502062808985125e-01 3.199068883396341545e-01 -1.971774238996534034e+00 -1.069812610053830215e-03 -2.217696542228562717e-01 -6.425242346834050267e-01 -8.481950242725906364e-01 -6.067841705069637603e-02 -1.720424110980187625e-04
-8.232178022339196044e-01 -3.112694671614927300e-01 2.785301911836819411e-01 -1.965830985955946630e+00 -1.068252899769720973e-03 -2.125746570777799771e-01 -7.283852176118844612e-01 -8.275339431190441575e-01 1.188650608117493845e-01 3.119420568218310430e-05
-8.333395118181760042e-01 -3.516282488603764134e-01 2.393552241559521732e-01 -1.950855141400453130e+00 -1.060811816389186767e-03 -2.024341916851279954e-01 -8.071756339776732236e-01 -7.834993405545952472e-01 2.995168911098695652e-01 1.488216676106834686e-04
-8.429872838959329151e-01 -3.954901582145194938e-01 2.031464992696004057e-01 -1.927336486975686380e+00 -1.050024966850445071e-03 -1.929554415551392732e-01 -8.772381870828616091e-01 -7.241744977270353489e-01 4.703730884953329916e-01 2.157369907748318155e-04
-8.522380450066019408e-01 -4.423572498267353548e-01 1.702736864026675734e-01 -1.896139729757116310e+00 -1.038082813415771221e-03 -1.850152222133806257e-01 -9.373418322443175521e-01 -6.574562573386567577e-01 6.239351443714017398e-01 2.388430686934788600e-04
-8.611846062662522616e-01 -4.916984442380870068e-01 1.407751410208169796e-01 -1.858343573405653704e+00 -1.026854913974413518e-03 -1.789312251930062214e-01 -9.868238882270331525e-01 -5.899709076370119876e-01 7.559231270292515736e-01 2.245579888271555854e-04
-8.699167645759162681e-01 -5.429806859409697095e-01 1.144506871808721737e-01 -1.815101481825707630e+00 -1.017708227002691798e-03 -1.746431661932797974e-01 -1.025644834057652943e+00 -5.264890767988961162e-01 8.648418315989212513e-01 1.829337394344340167e-04
-8.785095755883082225e-01 -5.956977497741612337e-01 9.095920457888068134e-02 -1.767532807869868217e+00 -1.010380492247868293e-03 -1.718562202478387813e-01 -1.054341276663830262e+00 -4.698296520398297926e-01 9.513734791167893778e-01 1.465546950964719648e-04
-8.870190738305626654e-01 -6.493903722713830762e-01 6.989409629114354261e-02 -1.716654485249536899e+00 -1.001711312635111990e-03 -1.701899648450897196e-01 -1.073852449944436627e+00 -4.213021657547428855e-01 1.017566452406626576e+00 1.733835922551276885e-04
-8.954818999861495765e-01 -7.036577588674938211e-01 5.083653796793777269e-02 -1.663348221600322807e+00 -9.810447539176792974e-04 -1.692565231117383606e-01 -1.085347731922215342e+00 -3.811511664641153430e-01 1.066125272984282280e+00 4.133311743486544547e-04
-9.039164381276285631e-01 -7.581617925461872076e-01 3.338971868861070197e-02 -1.608354189935283340e+00 -9.280833783512364198e-04 -1.686907628295807315e-01 -1.090080673573868175e+00 -3.489363855865413866e-01 1.099880633300787114e+00 1.059227511328857986e-03
-9.123244138605886011e-01 -8.126275971561784939e-01 1.719726881697209928e-02 -1.552273235376656624e+00 -8.672370420949452371e-04 -1.681595146592015644e-01 -1.089316092199825725e+00 -3.238489974327720122e-01 1.121619091172533000e+00 1.216926725125822570e-03
-9.206923190110531952e-01 -8.668412347941182317e-01 1.951899953502866936e-03 -1.495575588164539838e+00 -8.056222712716260177e-04 -1.673581030092926303e-01 -1.084272752758795644e+00 -3.049073772693846052e-01 1.133952944242335059e+00 1.232295416466385471e-03
-9.289941001495499728e-01 -9.206450209585734790e-01 -1.260547252376920807e-02 -1.438613900280092395e+00 -7.452281464269124934e-04 -1.660356227699354426e-01 -1.076075723289106056e+00 -2.911474495454414724e-01 1.139233757688951076e+00 1.207882496894270271e-03
-9.371946445115075797e-01 -9.739318730508937927e-01 -2.669091810813434967e-02 -1.381637358577651131e+00 -6.863394503976481082e-04 -1.640108872391528583e-01 -1.065737041846406497e+00 -2.817089116873027765e-01 1.139530834048826602e+00 1.177773920585287269e-03
-9.452550451377108587e-01 -1.026639004709300584e+00 -4.048661845308991480e-02 -1.324806563018488870e+00 -6.287071570555989369e-04 -1.612080125240661355e-01 -1.054142633168136056e+00 -2.759140068991113304e-01 1.136615911183246785e+00 1.152645866840983427e-03
-9.531392954947174312e-01 -1.078741573537802312e+00 -5.415144306697667470e-02 -1.268208008544313037e+00 -5.720730137833156172e-04 -1.576850071401321163e-01 -1.042051376570035437e+00 -2.732964922777351702e-01 1.131971089483516879e+00 1.132682865445666827e-03
-9.608227417811608939e-01 -1.130246707460447864e+00 -6.783341709237111772e-02 -1.211866150201913239e+00 -5.165241539604385583e-04 -1.536689257288699761e-01 -1.030102678452908815e+00 -2.736394805078887771e-01 1.126837166847993954e+00 1.110977196457541396e-03
-9.683043375979570877e-01 -1.181188015544492709e+00 -8.168769817080509532e-02 -1.155752295267719276e+00 -4.625648317831903915e-04 -1.496319163359228210e-01 -1.018826161680895792e+00 -2.770856215686795521e-01 1.122277098683877483e+00 1.079186443544963769e-03
-9.756219985547651685e-01 -1.231620366204149830e+00 -9.589889564791891086e-02 -1.099791923668933524e+00 -4.109920030570613837e-04 -1.463532191361608115e-01 -1.008647013193144426e+00 -2.842239495422762552e-01 1.119207431975713263e+00 1.031456574522579940e-03
-9.828720280989307057e-01 -1.281614740803095120e+00 -1.107108528276315451e-01 -1.043870670215145680e+00 -3.618141752357985439e-04 -1.450005908833116863e-01 -9.998874919789071392e-01 -2.962391435942526852e-01 1.118425069075755784e+00 9.835565564252565784e-04
-9.902336940980670521e-01 -1.331252921232121800e+00 -1.264682388607355767e-01 -9.878384431769153817e-01 -3.085907393791013724e-04 -1.472333199827260963e-01 -9.927636085805331412e-01 -3.151477206620807991e-01 1.120644540764605956e+00 1.064468717133943212e-03
-9.980008693698368960e-01 -1.380621303483829276e+00 -1.436767306407587264e-01 -9.315128990118393126e-01 -2.137378183100158624e-04 -1.553435054353975997e-01 -9.873676450341491995e-01 -3.441698356004627146e-01 1.126510883301520938e+00 1.897058421381710202e-03
