-8.274602192563436098e-01 -3.556602595237747799e-01 1.118917320892037909e-01 -2.030922035813037319e+00 -3.769332700175416148e-04 -2.236597707634621068e-01 -1.173172686982711044e+00 -3.447218927184111936e-01 7.414466190984858596e-01 3.989000169828090317e-03
-8.389089017745020582e-01 -4.150768441597239566e-01 9.675848546853248189e-02 -1.988899370483150353e+00 -1.719481546788431670e-04 -2.289736503631699116e-01 -1.188331692718983756e+00 -3.026649324134262353e-01 8.404533065977404238e-01 4.099702306773968415e-03
-8.507786430274214551e-01 -4.749223500135308362e-01 8.324901473917051264e-02 -1.943032171038170164e+00 3.147243053639185630e-05 -2.373948250583878539e-01 -1.196910117076137148e+00 -2.701894145872392183e-01 9.173439888996025582e-01 4.068411704304700574e-03
-8.632134597272681509e-01 -5.349321808817797397e-01 7.090842106169725767e-02 -1.894233204700158879e+00 2.301726997491883937e-04 -2.486963339969336939e-01 -1.200196617364978735e+00 -2.468118735494650995e-01 9.759793267602253630e-01 3.974005384255930098e-03
-8.763530722654047089e-01 -5.949050228659883421e-01 5.931938808675263353e-02 -1.843228034458297637e+00 4.233509645240137896e-04 -2.627922507627319937e-01 -1.199456839684172049e+00 -2.317806594988924551e-01 1.020103404837225503e+00 3.863565295496508133e-03
-8.903405708075994296e-01 -6.546978125630158463e-01 4.809931651796453544e-02 -1.790570707411571094e+00 6.104926223228926765e-04 -2.797499708438946908e-01 -1.195855793940549194e+00 -2.244014313757619061e-01 1.053146540934530639e+00 3.742833155977577739e-03
-9.053306293341792932e-01 -7.142190595709204670e-01 3.688867141563353241e-02 -1.736661846546145416e+00 7.879732647153401149e-04 -2.998011705315971054e-01 -1.190424940158093081e+00 -2.242129020466200051e-01 1.078177217308511349e+00 3.549612847848947900e-03
-9.214986317280068340e-01 -7.734214858487935551e-01 2.533459387478538549e-02 -1.681766617626146765e+00 9.386310051551867081e-04 -3.233600478765508712e-01 -1.184048525557461540e+00 -2.310815508169628552e-01 1.097904578399972353e+00 3.013154808796930997e-03
-9.390519561113883640e-01 -8.322937738830757937e-01 1.306953851961941901e-02 -1.626033740158230101e+00 9.908660671870558011e-04 -3.510664876676315438e-01 -1.177445760685645215e+00 -2.453011071033193158e-01 1.114657549358333277e+00 1.044701240637381425e-03
-9.582448308262551118e-01 -8.908514106657468012e-01 -3.165659534711713630e-04 -1.569515160448280211e+00 1.004008489419856882e-03 -3.838574942973341786e-01 -1.171152735653418819e+00 -2.677220894618117519e-01 1.130371594199000018e+00 2.628484446560224938e-04
-9.793979655435918197e-01 -9.491272711640935666e-01 -1.531106814837786267e-02 -1.512184003338184812e+00 1.007868131873755494e-03 -4.230626943467336032e-01 -1.165517209966936196e+00 -2.998900438981337846e-01 1.146623142201907086e+00 7.719284907797428676e-05
-1.002924463100363317e+00 -1.007161893799941144e+00 -3.252310411625238679e-02 -1.453950368952247496e+00 1.000426012746080673e-03 0.000000000000000000e+00 0.000000000000000000e+00 0.000000000000000000e+00 0.000000000000000000e+00 0.000000000000000000e+00
-1.002924463100363317e+00 -1.007161893799941144e+00 -3.252310411625238679e-02 -1.453950368952247496e+00 1.000426012746080673e-03 0.000000000000000000e+00 0.000000000000000000e+00 0.000000000000000000e+00 0.000000000000000000e+00 0.000000000000000000e+00
-1.002924463100363317e+00 -1.007161893799941144e+00 -3.252310411625238679e-02 -1.453950368952247496e+00 1.000426012746080673e-03 0.000000000000000000e+00 0.000000000000000000e+00 0.000000000000000000e+00 0.000000000000000000e+00 0.000000000000000000e+00
-1.002924463100363317e+00 -1.007161893799941144e+00 -3.252310411625238679e-02 -1.453950368952247496e+00 1.000426012746080673e-03 0.000000000000000000e+00 0.000000000000000000e+00 0.000000000000000000e+00 0.000000000000000000e+00 0.000000000000000000e+00
-1.002924463100363317e+00 -1.007161893799941144e+00 -3.252310411625238679e-02 -1.453950368952247496e+00 1.000426012746080673e-03 0.000000000000000000e+00 0.000000000000000000e+00 0.000000000000000000e+00 0.000000000000000000e+00 0.000000000000000000e+00
-1.002924463100363317e+00 -1.007161893799941144e+00 -3.252310411625238679e-02 -1.453950368952247496e+00 1.000426012746080673e-03 0.000000000000000000e+00 0.000000000000000000e+00 0.000000000000000000e+00 0.000000000000000000e+00 0.000000000000000000e+00
-1.002924463100363317e+00 -1.007161893799941144e+00 -3.252310411625238679e-02 -1.453950368952247496e+00 1.000426012746080673e-03 0.000000000000000000e+00 0.000000000000000000e+00 0.000000000000000000e+00 0.000000000000000000e+00 0.000000000000000000e+00
-1.002924463100363317e+00 -1.007161893799941144e+00 -3.252310411625238679e-02 -1.453950368952247496e+00 1.000426012746080673e-03 0.000000000000000000e+00 0.000000000000000000e+00 0.000000000000000000e+00 0.000000000000000000e+00 0.000000000000000000e+00
-1.002924463100363317e+00 -1.007161893799941144e+00 -3.252310411625238679e-02 -1.453950368952247496e+00 1.000426012746080673e-03 0.000000000000000000e+00 0.000000000000000000e+00 0.000000000000000000e+00 0.000000000000000000e+00 0.000000000000000000e+00
-1.002924463100363317e+00 -1.007161893799941144e+00 -3.252310411625238679e-02 -1.453950368952247496e+00 1.000426012746080673e-03 0.000000000000000000e+00 0.000000000000000000e+00 0.000000000000000000e+00 0.000000000000000000e+00 0.000000000000000000e+00
-1.002924463100363317e+00 -1.007161893799941144e+00 -3.252310411625238679e-02 -1.453950368952247496e+00 1.000426012746080673e-03 0.000000000000000000e+00 0.000000000000000000e+00 0.000000000000000000e+00 0.000000000000000000e+00 0.000000000000000000e+00
-1.002924463100363317e+00 -1.007161893799941144e+00 -3.252310411625238679e-02 -1.453950368952247496e+00 1.000426012746080673e-03 0.000000000000000000e+00 0.000000000000000000e+00 0.000000000000000000e+00 0.000000000000000000e+00 0.000000000000000000e+00
-1.002924463100363317e+00 -1.007161893799941144e+00 -3.252310411625238679e-02 -1.453950368952247496e+00 1.000426012746080673e-03 0.000000000000000000e+00 0.000000000000000000e+00 0.000000000000000000e+00 0.000000000000000000e+00 0.000000000000000000e+00
-1.002924463100363317e+00 -1.007161893799941144e+00 -3.252310411625238679e-02 -1.453950368952247496e+00 1.000426012746080673e-03 0.000000000000000000e+00 0.000000000000000000e+00 0.000000000000000000e+00 0.000000000000000000e+00 0.000000000000000000e+00
-1.002924463100363317e+00 -1.007161893799941144e+00 -3.252310411625238679e-02 -1.453950368952247496e+00 1.000426012746080673e-03 0.000000000000000000e+00 0.000000000000000000e+00 0.000000000000000000e+00 0.000000000000000000e+00 0.000000000000000000e+00
-1.002924463100363317e+00 -1.007161893799941144e+00 -3.252310411625238679e-02 -1.453950368952247496e+00 1.000426012746080673e-03 0.000000000000000000e+00 0.000000000000000000e+00 0.000000000000000000e+00 0.000000000000000000e+00 0.000000000000000000e+00
-1.002924463100363317e+00 -1.007161893799941144e+00 -3.252310411625238679e-02 -1.453950368952247496e+00 1.000426012746080673e-03 0.000000000000000000e+00 0.000000000000000000e+00 0.000000000000000000e+00 0.000000000000000000e+00 0.000000000000000000e+00
-1.002924463100363317e+00 -1.007161893799941144e+00 -3.252310411625238679e-02 -1.453950368952247496e+00 1.000426012746080673e-03 0.000000000000000000e+00 0.000000000000000000e+00 0.000000000000000000e+00 0.000000000000000000e+00 0.000000000000000000e+00
-1.002924463100363317e+00 -1.007161893799941144e+00 -3.252310411625238679e-02 -1.453950368952247496e+00 1.000426012746080673e-03 0.000000000000000000e+00 0.000000000000000000e+00 0.000000000000000000e+00 0.000000000000000000e+00 0.000000000000000000e+00
-1.002924463100363317e+00 -1.007161893799941144e+00 -3.252310411625238679e-02 -1.453950368952247496e+00 1.000426012746080673e-03 0.000000000000000000e+00 0.000000000000000000e+00 0.000000000000000000e+00 0.000000000000000000e+00 0.000000000000000000e+00
