-5.265942513182151341e-01 2.094726615286698068e-01 3.958967584900042191e-01 -1.333025722816276071e+00 0.000000000000000000e+00 -3.783081063008287594e-04 2.731790522285134737e-04 1.583599004049526977e-04 -5.133301811055368102e-04 0.000000000000000000e+00
-5.337212178194690182e-01 2.147597780584280802e-01 3.836572548474767030e-01 -1.365893257703712838e+00 2.120121435023597913e-04 -1.425393300250766271e-01 1.057423305951655790e-01 -2.447900728505498225e-01 -6.573506977487344471e-01 4.240242870047194849e-03
-5.467315115713350382e-01 2.234254678852549969e-01 3.611837010814999971e-01 -1.423485537966687309e+00 4.799828664579059660e-04 -2.602058750373212881e-01 1.733137965365382227e-01 -4.494710753195337860e-01 -1.151845605259487426e+00 5.359414459110922735e-03
-5.644230065266843122e-01 2.336347849658826914e-01 3.300526088413907599e-01 -1.497793457618480595e+00 6.681569027546079833e-04 -3.538298991069855348e-01 2.041863416125540565e-01 -6.226218448021842988e-01 -1.486158393035865055e+00 3.763480725934040781e-03
-5.856916039086397241e-01 2.437602783876498536e-01 2.913573168125466739e-01 -1.581281213732714130e+00 6.954581769483712470e-04 -4.253719476391090715e-01 2.025098684353430767e-01 -7.739058405768813875e-01 -1.669755122284669380e+00 5.460254838752644051e-04
-6.095643940742060396e-01 2.524652329216454105e-01 2.458519200234556834e-01 -1.667173541207219944e+00 5.389765032206221117e-04 -4.774558033113267541e-01 1.740990906799115001e-01 -9.101079357818195881e-01 -1.717846549490114505e+00 -3.129633474554981837e-03
-6.352130640607456247e-01 2.587232245596678970e-01 1.942360375358092028e-01 -1.749671205501759808e+00 2.245854883965716308e-04 -5.129733997307918125e-01 1.251598327604492578e-01 -1.032317649752929389e+00 -1.649953285890797927e+00 -6.287820296481009402e-03
-6.619638487492550682e-01 2.617883118027894418e-01 1.374577940132257758e-01 -1.824080288668876504e+00 -1.857802185389625070e-04 -5.350156937701890936e-01 6.130174486243082643e-02 -1.135564870451668096e+00 -1.488181663342333705e+00 -8.207314138710682105e-03
-6.893111287869057024e-01 2.611435653092404885e-01 7.692093897644364242e-02 -1.886868581569784542e+00 -6.066064439711170170e-04 -5.469456007530123509e-01 -1.289492987097876076e-02 -1.210737100735642446e+00 -1.255765858018160541e+00 -8.416524508643089333e-03
-7.169302159642859662e-01 2.564575038864837508e-01 1.451690018787220315e-02 -1.935671940411904934e+00 -9.383271498508967499e-04 -5.523817435476047200e-01 -9.372122845513526646e-02 -1.248080775771428730e+00 -9.760671768424058481e-01 -6.634414117595593789e-03
-7.446757752720729595e-01 2.475663983613095309e-01 -4.754120927498077520e-02 -1.969261290188423219e+00 -1.059255072537024396e-03 -5.549111861557405323e-01 -1.778221105034843708e-01 -1.241162189257059456e+00 -6.717869955303661378e-01 -2.418558453722551189e-03
-7.725524555240658175e-01 2.344766418591359702e-01 -1.070285309466745549e-01 -1.987450589516440047e+00 -1.087703906693377040e-03 -5.575336050398574939e-01 -2.617951300434712136e-01 -1.189746433433875650e+00 -3.637859865603386700e-01 -5.689766831270517879e-04
-8.006586208526402793e-01 2.173695249152118314e-01 -1.620482851311274841e-01 -1.990942343186902441e+00 -1.084862571311696108e-03 -5.621233065714896782e-01 -3.421423388784829989e-01 -1.100395083689058584e+00 -6.983507340924716145e-02 5.682670763361885764e-05
-8.291204021455205186e-01 1.965872217852022152e-01 -2.112804109825117405e-01 -1.981108729136832558e+00 -1.070937162161564229e-03 -5.692356258576056760e-01 -4.156460626001923231e-01 -9.846425170276849048e-01 1.966722810013984413e-01 2.785081830026397455e-04
-8.580389837106586759e-01 1.725970969085551809e-01 -2.540725281414582537e-01 -1.959747967342977626e+00 -1.054011202055361472e-03 -5.783716313027638112e-01 -4.798024975329406860e-01 -8.558423431789298208e-01 4.272152358770983094e-01 3.385192021240536757e-04
-8.874647885451029117e-01 1.459386227901822708e-01 -2.903654447731477406e-01 -1.928847867917753867e+00 -1.036635128025821225e-03 -5.885160966888837164e-01 -5.331694823674582029e-01 -7.258583326337902930e-01 6.180019885044734096e-01 3.475214805908040188e-04
-9.173965251771001306e-01 1.171719486629589774e-01 -3.205346981973501985e-01 -1.890396243541280441e+00 -1.013655424609913444e-03 -5.986347326399446001e-01 -5.753334825444659240e-01 -6.033850684840490475e-01 7.690324875294691775e-01 4.595940683181568140e-04
-9.477948759617262908e-01 8.683633742045840376e-02 -3.452159361447825203e-01 -1.846244739055027839e+00 -9.626383444078268374e-04 -6.079670156925229829e-01 -6.067122248500116388e-01 -4.936247589486469356e-01 8.830300897250539238e-01 1.020341604041731260e-03
-9.786008423645069509e-01 5.542105270750350560e-02 -3.651497149648248453e-01 -1.798028572185117913e+00 -8.378918130869611545e-04 -6.161193280556143126e-01 -6.283056942590978800e-01 -3.986755764008469427e-01 9.643233373981969780e-01 2.494930626417313224e-03
-1.009751573509062084e+00 2.334969427914040940e-02 -3.810755315233905205e-01 -1.747132012754258445e+00 -6.936436275727622842e-04 -6.230146228911007666e-01 -6.414271685672618961e-01 -3.185163311713129497e-01 1.017931188617188454e+00 2.884963710283978706e-03
-1.041191277341877441e+00 -9.026464878953949222e-03 -3.936707965454649405e-01 -1.694681372660936658e+00 -5.511444740148038019e-04 -6.287940766563068218e-01 -6.475231831618871725e-01 -2.519053004414888997e-01 1.049012801866436195e+00 2.849983071159170080e-03
-1.072877542451762478e+00 -4.142846972293763586e-02 -4.035256946264402234e-01 -1.641555809708580282e+00 -4.199992632385858246e-04 -6.337253021976992917e-01 -6.480400968796736771e-01 -1.970979616195056849e-01 1.062511259047128842e+00 2.622904215524359331e-03
-1.104784400482700768e+00 -7.364640789190535219e-02 -4.111395323870295493e-01 -1.588404929108383712e+00 -3.042136566828497089e-04 -6.381371606187645762e-01 -6.443587633793540492e-01 -1.522767552117869627e-01 1.063017612003930079e+00 2.315712131114722096e-03
-1.136903024283536290e+00 -1.055319707545112479e-01 -4.169314766056934074e-01 -1.535677537958669792e+00 -2.050833657980152521e-04 -6.423724760167088821e-01 -6.377112572521178580e-01 -1.158388843732769402e-01 1.054547822994279738e+00 1.982605817696689136e-03
-1.169241259050331161e+00 -1.369901110584519910e-01 -4.212556392564174024e-01 -1.483650592718522176e+00 -1.225328290756498063e-04 -6.467646953358983097e-01 -6.291628060788149179e-01 -8.648325301447978841e-02 1.040538904802952302e+00 1.651010734447309024e-03
-1.201822833771599264e+00 -1.679714628368898510e-01 -4.244151904842502487e-01 -1.432453681842503102e+00 -5.566434967587878893e-05 -6.516314944253623898e-01 -6.196270355687570897e-01 -6.319102455665653872e-02 1.023938217520381500e+00 1.337369587995420077e-03
-1.234686390393219479e+00 -1.984652123991997308e-01 -4.266759675750067538e-01 -1.382089446823228318e+00 -3.158552259654699994e-06 -6.572711324324046478e-01 -6.098749912461973732e-01 -4.521554181512973947e-02 1.007284700385496778e+00 1.050115948324481779e-03
-1.267884338436599201e+00 -2.284913620659598243e-01 -4.282779630288373052e-01 -1.332456038490910988e+00 3.620983176059694664e-05 -6.639589608675942056e-01 -6.005229933352015381e-01 -3.203990907661078552e-02 9.926681666463462728e-01 7.873676804050328513e-04
-1.301481660808737173e+00 -2.580930517806521718e-01 -4.294433633634008318e-01 -1.283369963048693663e+00 6.248286033009509057e-05 -6.719464474427614409e-01 -5.920337942938466158e-01 -2.330800669127083488e-02 9.817215088443466131e-01 5.254605713899628515e-04
-1.335554809774809781e+00 -2.873302787978842532e-01 -4.303828325905145191e-01 -1.234582856735580325e+00 7.134262124551771179e-05 -6.814629793214519449e-01 -5.847445403446418499e-01 -1.878938454227327415e-02 9.757421262622673064e-01 1.771952183084523702e-04
-1.370190832433451300e+00 -3.162753833499901135e-01 -4.312995125670501806e-01 -1.185791772904952968e+00 4.187926037932955786e-05 -6.927204531728312631e-01 -5.789020910421174282e-01 -1.833359953071339241e-02 9.758216766125481501e-01 -5.892672173237631329e-04
