-6.716239201192973907e-01 -4.639447044636811623e-02 5.616147689712994717e-01 -9.355950324029081999e-01 1.014437582665743106e-03 -4.247390455854853086e-01 -1.135251587097955428e-01 -5.182275439520359628e-01 -1.635742089003228816e+00 -6.227723450803382800e-04
-6.937580978369934925e-01 -5.489596361688486165e-02 5.356199588942019973e-01 -1.017544145554158286e+00 9.078044228387249824e-04 -4.426835543539218154e-01 -1.700298634103349082e-01 -5.198962015419484883e-01 -1.638982263025002606e+00 -2.132663196540361163e-03
-7.164453601811985317e-01 -6.640931796080105920e-02 5.093318997282322291e-01 -1.097241483468842871e+00 7.173743523243687964e-04 -4.537452468841001174e-01 -2.302670868783238400e-01 -5.257611833193956974e-01 -1.593946758293692145e+00 -3.808601410287123720e-03
-7.393714855077915260e-01 -8.102336605563836835e-02 4.825630441738707477e-01 -1.172551687504581608e+00 4.605449434768935221e-04 -4.585225065318593307e-01 -2.922809618967461276e-01 -5.353771110872297401e-01 -1.506204080714774074e+00 -5.136588176949505487e-03
-7.622547948561794184e-01 -9.874913338540221297e-02 4.552481378065073025e-01 -1.241640123324021516e+00 1.612948075878120309e-04 -4.576661869677585703e-01 -3.545153465952767813e-01 -5.462981273472691246e-01 -1.381768716388800167e+00 -5.985002717781628956e-03
-7.848511014151290377e-01 -1.195394139064731714e-01 4.274908541990901090e-01 -1.302982618110648527e+00 -1.551157033355809599e-04 -4.519261311789915525e-01 -4.158056104214190585e-01 -5.551456721483434276e-01 -1.226849895732542217e+00 -6.328210218467858299e-03
-8.069583310287244959e-01 -1.433059624348707595e-01 3.995684822306336259e-01 -1.355367553101272327e+00 -4.634651692495014397e-04 -4.421445922719102750e-01 -4.753309705679514829e-01 -5.584474393691291061e-01 -1.047698699812474654e+00 -6.166989318278409161e-03
-8.284203821907174525e-01 -1.699323237997548142e-01 3.719054407454558397e-01 -1.397898855582466293e+00 -7.378486252857972480e-04 -4.292410232398590209e-01 -5.325272272976810939e-01 -5.532608297035558342e-01 -8.506260496238795543e-01 -5.487669120725914215e-03
-8.491306797498483494e-01 -1.992795988155854625e-01 3.450218286795280753e-01 -1.430008507425862607e+00 -9.447896078692377166e-04 -4.142059511826176044e-01 -5.869455003166130780e-01 -5.376722413185555105e-01 -6.421930368679243939e-01 -4.138819651668809371e-03
-8.690360833643635541e-01 -2.311836157713576534e-01 3.194656836859986471e-01 -1.451486521628666093e+00 -1.013240303714652490e-03 -3.981080722903040936e-01 -6.380803391154440396e-01 -5.111228998705888982e-01 -4.295602840560692748e-01 -1.369013916908296772e-03
-8.881414629020745188e-01 -2.654433529214745291e-01 2.957378463185682538e-01 -1.462531034180322820e+00 -1.025166298199927956e-03 -3.821075907542194616e-01 -6.851947430023372920e-01 -4.745567473486076437e-01 -2.208902510331358648e-01 -2.385198897055108413e-04
-9.065006574313516641e-01 -3.018232251558791157e-01 2.742339692055411060e-01 -1.463703873155475899e+00 -1.022375927078865345e-03 -3.671838905855438484e-01 -7.275974446880921764e-01 -4.300775422605425113e-01 -2.345677950306099269e-02 5.580742242125010877e-05
-9.241984385476754715e-01 -3.400699602893479945e-01 2.552174131316421457e-01 -1.455805274106911185e+00 -1.017182347650007245e-03 -3.539556223264761492e-01 -7.649347026693776863e-01 -3.803311214779795946e-01 1.579719809712963330e-01 1.038715885771605157e-04
-9.413375022473198239e-01 -3.799266454062585341e-01 2.388164841726172494e-01 -1.439771818585932062e+00 -1.012148686548794418e-03 -3.427812739928861596e-01 -7.971337023382106812e-01 -3.280185791804978157e-01 3.206691104195837916e-01 1.006732220242562289e-04
-9.580299944606996965e-01 -4.211442548085981286e-01 2.250389646560862211e-01 -1.416596811339263295e+00 -1.007712712859129165e-03 -3.338498442675983391e-01 -8.243521880467920004e-01 -2.755503903306205093e-01 4.635001449333732149e-01 8.871947379330506062e-05
-9.743928558794173744e-01 -4.634905597110409170e-01 2.137956903834915268e-01 -1.387271496902317214e+00 -1.004002898108416995e-03 -3.272572283743538923e-01 -8.469260980488556578e-01 -2.248654854518940538e-01 5.865062887389209667e-01 7.419629501424300749e-05
-9.905461706229137242e-01 -5.067562677859125397e-01 2.049259604520319855e-01 -1.352744603407296520e+00 -1.001015482700704342e-03 -3.230662948699260517e-01 -8.653141614974317886e-01 -1.773945986291906585e-01 6.905378699004118825e-01 5.974830815425428851e-05
-1.006613759800974561e+00 -5.507584080366630941e-01 1.982197377281840756e-01 -1.313897044870677266e+00 -9.981805565893301681e-04 -3.213517835612186291e-01 -8.800428050150099768e-01 -1.341244544769580327e-01 7.769511707323832894e-01 5.669852222748502930e-05
-1.022725430469761498e+00 -5.953411927732915609e-01 1.934338651844561552e-01 -1.271528366011253075e+00 -9.926987392374106260e-04 -3.222334133757374652e-01 -8.916556947325692262e-01 -9.571745087455812984e-02 8.473735771884853829e-01 1.096363470383929283e-04
-1.039020505915654091e+00 -6.403747460214805898e-01 1.903012619393878724e-01 -1.226351637870716216e+00 -9.757484449724167924e-04 -3.259015089178536329e-01 -9.006710649637797994e-01 -6.265206490136582262e-02 9.035345628107358529e-01 3.390058852998763467e-04
-1.055652478683453133e+00 -6.857521535567400184e-01 1.885330847356147532e-01 -1.178993875391337598e+00 -9.331138734194940193e-04 -3.326394553559824940e-01 -9.075481507051885721e-01 -3.536354407546227208e-02 9.471552495875730227e-01 8.526914310584563297e-04
-1.072794838993585964e+00 -7.313852825469165930e-01 1.878142439993165380e-01 -1.129999510866600110e+00 -9.009916722948002003e-04 -3.428472062026580724e-01 -9.126625798035313819e-01 -1.437681472596410992e-02 9.798872904947514284e-01 6.424440224938759471e-04
-1.090648172182931974e+00 -7.771997058583481888e-01 1.877925236364803852e-01 -1.079834921126110014e+00 -9.033905761467386168e-04 -3.570666637869220339e-01 -9.162884662286319148e-01 -4.344072567232532683e-04 1.003291794809803683e+00 -4.797807703876898026e-05
-1.109448976464025183e+00 -8.231290502371005902e-01 1.880613555638381562e-01 -1.028892419773942857e+00 -1.000035136433186393e-03 0.000000000000000000e+00 0.000000000000000000e+00 0.000000000000000000e+00 0.000000000000000000e+00 0.000000000000000000e+00
-1.109448976464025183e+00 -8.231290502371005902e-01 1.880613555638381562e-01 -1.028892419773942857e+00 -1.000035136433186393e-03 0.000000000000000000e+00 0.000000000000000000e+00 0.000000000000000000e+00 0.000000000000000000e+00 0.000000000000000000e+00
-1.109448976464025183e+00 -8.231290502371005902e-01 1.880613555638381562e-01 -1.028892419773942857e+00 -1.000035136433186393e-03 0.000000000000000000e+00 0.000000000000000000e+00 0.000000000000000000e+00 0.000000000000000000e+00 0.000000000000000000e+00
-1.109448976464025183e+00 -8.231290502371005902e-01 1.880613555638381562e-01 -1.028892419773942857e+00 -1.000035136433186393e-03 0.000000000000000000e+00 0.000000000000000000e+00 0.000000000000000000e+00 0.000000000000000000e+00 0.000000000000000000e+00
-1.109448976464025183e+00 -8.231290502371005902e-01 1.880613555638381562e-01 -1.028892419773942857e+00 -1.000035136433186393e-03 0.000000000000000000e+00 0.000000000000000000e+00 0.000000000000000000e+00 0.000000000000000000e+00 0.000000000000000000e+00
-1.109448976464025183e+00 -8.231290502371005902e-01 1.880613555638381562e-01 -1.028892419773942857e+00 -1.000035136433186393e-03 0.000000000000000000e+00 0.000000000000000000e+00 0.000000000000000000e+00 0.000000000000000000e+00 0.000000000000000000e+00
-1.109448976464025183e+00 -8.231290502371005902e-01 1.880613555638381562e-01 -1.028892419773942857e+00 -1.000035136433186393e-03 0.000000000000000000e+00 0.000000000000000000e+00 0.000000000000000000e+00 0.000000000000000000e+00 0.000000000000000000e+00
-1.109448976464025183e+00 -8.231290502371005902e-01 1.880613555638381562e-01 -1.028892419773942857e+00 -1.000035136433186393e-03 0.000000000000000000e+00 0.000000000000000000e+00 0.000000000000000000e+00 0.000000000000000000e+00 0.000000000000000000e+00
