-1.335554809774809781e+00 -2.873302787978842532e-01 -4.303828325905145191e-01 -1.234582856735580325e+00 7.134262124551771179e-05 -6.814629793214519449e-01 -5.847445403446418499e-01 -1.878938454227327415e-02 9.757421262622673064e-01 1.771952183084523702e-04
-1.370190832433451300e+00 -3.162753833499901135e-01 -4.312995125670501806e-01 -1.185791772904952968e+00 4.187926037932955786e-05 0.000000000000000000e+00 0.000000000000000000e+00 0.000000000000000000e+00 0.000000000000000000e+00 0.000000000000000000e+00
-1.370190832433451300e+00 -3.162753833499901135e-01 -4.312995125670501806e-01 -1.185791772904952968e+00 4.187926037932955786e-05 0.000000000000000000e+00 0.000000000000000000e+00 0.000000000000000000e+00 0.000000000000000000e+00 0.000000000000000000e+00
-1.370190832433451300e+00 -3.162753833499901135e-01 -4.312995125670501806e-01 -1.185791772904952968e+00 4.187926037932955786e-05 0.000000000000000000e+00 0.000000000000000000e+00 0.000000000000000000e+00 0.000000000000000000e+00 0.000000000000000000e+00
-1.370190832433451300e+00 -3.162753833499901135e-01 -4.312995125670501806e-01 -1.185791772904952968e+00 4.187926037932955786e-05 0.000000000000000000e+00 0.000000000000000000e+00 0.000000000000000000e+00 0.000000000000000000e+00 0.000000000000000000e+00
-1.370190832433451300e+00 -3.162753833499901135e-01 -4.312995125670501806e-01 -1.185791772904952968e+00 4.187926037932955786e-05 0.000000000000000000e+00 0.000000000000000000e+00 0.000000000000000000e+00 0.000000000000000000e+00 0.000000000000000000e+00
-1.370190832433451300e+00 -3.162753833499901135e-01 -4.312995125670501806e-01 -1.185791772904952968e+00 4.187926037932955786e-05 0.000000000000000000e+00 0.000000000000000000e+00 0.000000000000000000e+00 0.000000000000000000e+00 0.000000000000000000e+00
-1.370190832433451300e+00 -3.162753833499901135e-01 -4.312995125670501806e-01 -1.185791772904952968e+00 4.187926037932955786e-05 0.000000000000000000e+00 0.000000000000000000e+00 0.000000000000000000e+00 0.000000000000000000e+00 0.000000000000000000e+00
-1.370190832433451300e+00 -3.162753833499901135e-01 -4.312995125670501806e-01 -1.185791772904952968e+00 4.187926037932955786e-05 0.000000000000000000e+00 0.000000000000000000e+00 0.000000000000000000e+00 0.000000000000000000e+00 0.000000000000000000e+00
-1.370190832433451300e+00 -3.162753833499901135e-01 -4.312995125670501806e-01 -1.185791772904952968e+00 4.187926037932955786e-05 0.000000000000000000e+00 0.000000000000000000e+00 0.000000000000000000e+00 0.000000000000000000e+00 0.000000000000000000e+00
-1.370190832433451300e+00 -3.162753833499901135e-01 -4.312995125670501806e-01 -1.185791772904952968e+00 4.187926037932955786e-05 0.000000000000000000e+00 0.000000000000000000e+00 0.000000000000000000e+00 0.000000000000000000e+00 0.000000000000000000e+00
-1.370190832433451300e+00 -3.162753833499901135e-01 -4.312995125670501806e-01 -1.185791772904952968e+00 4.187926037932955786e-05 0.000000000000000000e+00 0.000000000000000000e+00 0.000000000000000000e+00 0.000000000000000000e+00 0.000000000000000000e+00
-1.370190832433451300e+00 -3.162753833499901135e-01 -4.312995125670501806e-01 -1.185791772904952968e+00 4.187926037932955786e-05 0.000000000000000000e+00 0.000000000000000000e+00 0.000000000000000000e+00 0.000000000000000000e+00 0.000000000000000000e+00
-1.370190832433451300e+00 -3.162753833499901135e-01 -4.312995125670501806e-01 -1.185791772904952968e+00 4.187926037932955786e-05 0.000000000000000000e+00 0.000000000000000000e+00 0.000000000000000000e+00 0.000000000000000000e+00 0.000000000000000000e+00
-1.370190832433451300e+00 -3.162753833499901135e-01 -4.312995125670501806e-01 -1.185791772904952968e+00 4.187926037932955786e-05 0.000000000000000000e+00 0.000000000000000000e+00 0.000000000000000000e+00 0.000000000000000000e+00 0.000000000000000000e+00
-1.370190832433451300e+00 -3.162753833499901135e-01 -4.312995125670501806e-01 -1.185791772904952968e+00 4.187926037932955786e-05 0.000000000000000000e+00 0.000000000000000000e+00 0.000000000000000000e+00 0.000000000000000000e+00 0.000000000000000000e+00
-1.370190832433451300e+00 -3.162753833499901135e-01 -4.312995125670501806e-01 -1.185791772904952968e+00 4.187926037932955786e-05 0.000000000000000000e+00 0.000000000000000000e+00 0.000000000000000000e+00 0.000000000000000000e+00 0.000000000000000000e+00
-1.370190832433451300e+00 -3.162753833499901135e-01 -4.312995125670501806e-01 -1.185791772904952968e+00 4.187926037932955786e-05 0.000000000000000000e+00 0.000000000000000000e+00 0.000000000000000000e+00 0.000000000000000000e+00 0.000000000000000000e+00
-1.370190832433451300e+00 -3.162753833499901135e-01 -4.312995125670501806e-01 -1.185791772904952968e+00 4.187926037932955786e-05 0.000000000000000000e+00 0.000000000000000000e+00 0.000000000000000000e+00 0.000000000000000000e+00 0.000000000000000000e+00
-1.370190832433451300e+00 -3.162753833499901135e-01 -4.312995125670501806e-01 -1.185791772904952968e+00 4.187926037932955786e-05 0.000000000000000000e+00 0.000000000000000000e+00 0.000000000000000000e+00 0.000000000000000000e+00 0.000000000000000000e+00
-1.370190832433451300e+00 -3.162753833499901135e-01 -4.312995125670501806e-01 -1.185791772904952968e+00 4.187926037932955786e-05 0.000000000000000000e+00 0.000000000000000000e+00 0.000000000000000000e+00 0.000000000000000000e+00 0.000000000000000000e+00
-1.370190832433451300e+00 -3.162753833499901135e-01 -4.312995125670501806e-01 -1.185791772904952968e+00 4.187926037932955786e-05 0.000000000000000000e+00 0.000000000000000000e+00 0.000000000000000000e+00 0.000000000000000000e+00 0.000000000000000000e+00
-1.370190832433451300e+00 -3.162753833499901135e-01 -4.312995125670501806e-01 -1.185791772904952968e+00 4.187926037932955786e-05 0.000000000000000000e+00 0.000000000000000000e+00 0.000000000000000000e+00 0.000000000000000000e+00 0.000000000000000000e+00
-1.370190832433451300e+00 -3.162753833499901135e-01 -4.312995125670501806e-01 -1.185791772904952968e+00 4.187926037932955786e-05 0.000000000000000000e+00 0.000000000000000000e+00 0.000000000000000000e+00 0.000000000000000000e+00 0.000000000000000000e+00
-1.370190832433451300e+00 -3.162753833499901135e-01 -4.312995125670501806e-01 -1.185791772904952968e+00 4.187926037932955786e-05 0.000000000000000000e+00 0.000000000000000000e+00 0.000000000000000000e+00 0.000000000000000000e+00 0.000000000000000000e+00
-1.370190832433451300e+00 -3.162753833499901135e-01 -4.312995125670501806e-01 -1.185791772904952968e+00 4.187926037932955786e-05 0.000000000000000000e+00 0.000000000000000000e+00 0.000000000000000000e+00 0.000000000000000000e+00 0.000000000000000000e+00
-1.370190832433451300e+00 -3.162753833499901135e-01 -4.312995125670501806e-01 -1.185791772904952968e+00 4.187926037932955786e-05 0.000000000000000000e+00 0.000000000000000000e+00 0.000000000000000000e+00 0.000000000000000000e+00 0.000000000000000000e+00
-1.370190832433451300e+00 -3.162753833499901135e-01 -4.312995125670501806e-01 -1.185791772904952968e+00 4.187926037932955786e-05 0.000000000000000000e+00 0.000000000000000000e+00 0.000000000000000000e+00 0.000000000000000000e+00 0.000000000000000000e+00
-1.370190832433451300e+00 -3.162753833499901135e-01 -4.312995125670501806e-01 -1.185791772904952968e+00 4.187926037932955786e-05 0.000000000000000000e+00 0.000000000000000000e+00 0.000000000000000000e+00 0.000000000000000000e+00 0.000000000000000000e+00
-1.370190832433451300e+00 -3.162753833499901135e-01 -4.312995125670501806e-01 -1.185791772904952968e+00 4.187926037932955786e-05 0.000000000000000000e+00 0.000000000000000000e+00 0.000000000000000000e+00 0.000000000000000000e+00 0.000000000000000000e+00
-1.370190832433451300e+00 -3.162753833499901135e-01 -4.312995125670501806e-01 -1.185791772904952968e+00 4.187926037932955786e-05 0.000000000000000000e+00 0.000000000000000000e+00 0.000000000000000000e+00 0.000000000000000000e+00 0.000000000000000000e+00
