1.421153150129358167e+00 -9.516739146252399806e-01 1.610909404973323689e+00 -9.241091404040764345e-01 4.972185161100095563e-04 3.051441145949318035e+00 5.349000047945413616e-01 1.664974077393613028e+00 1.790530868373313211e+00 8.502951071928114418e-03
1.567935291812689869e+00 -9.162446439307916357e-01 1.684461052684762095e+00 -8.282038656097140406e-01 8.987354459446004811e-04 2.935642833666634033e+00 7.085854138889656761e-01 1.471032954228765677e+00 1.918105495887247658e+00 8.030338596691818931e-03
1.708180769301375745e+00 -8.732694656030678404e-01 1.748111893675121431e+00 -7.258545244284416720e-01 1.095342829808567146e-03 2.804909549773718425e+00 8.595035665544757952e-01 1.273016819807186506e+00 2.046986823625447371e+00 3.932147677279334598e-03
1.841762675210445677e+00 -8.239932138606013146e-01 1.802541596064390239e+00 -6.173838595579068667e-01 1.001785879162950385e-03 0.000000000000000000e+00 0.000000000000000000e+00 0.000000000000000000e+00 0.000000000000000000e+00 0.000000000000000000e+00
1.841762675210445677e+00 -8.239932138606013146e-01 1.802541596064390239e+00 -6.173838595579068667e-01 1.001785879162950385e-03 0.000000000000000000e+00 0.000000000000000000e+00 0.000000000000000000e+00 0.000000000000000000e+00 0.000000000000000000e+00
1.841762675210445677e+00 -8.239932138606013146e-01 1.802541596064390239e+00 -6.173838595579068667e-01 1.001785879162950385e-03 0.000000000000000000e+00 0.000000000000000000e+00 0.000000000000000000e+00 0.000000000000000000e+00 0.000000000000000000e+00
1.841762675210445677e+00 -8.239932138606013146e-01 1.802541596064390239e+00 -6.173838595579068667e-01 1.001785879162950385e-03 0.000000000000000000e+00 0.000000000000000000e+00 0.000000000000000000e+00 0.000000000000000000e+00 0.000000000000000000e+00
1.841762675210445677e+00 -8.239932138606013146e-01 1.802541596064390239e+00 -6.173838595579068667e-01 1.001785879162950385e-03 0.000000000000000000e+00 0.000000000000000000e+00 0.000000000000000000e+00 0.000000000000000000e+00 0.000000000000000000e+00
1.841762675210445677e+00 -8.239932138606013146e-01 1.802541596064390239e+00 -6.173838595579068667e-01 1.001785879162950385e-03 0.000000000000000000e+00 0.000000000000000000e+00 0.000000000000000000e+00 0.000000000000000000e+00 0.000000000000000000e+00
1.841762675210445677e+00 -8.239932138606013146e-01 1.802541596064390239e+00 -6.173838595579068667e-01 1.001785879162950385e-03 0.000000000000000000e+00 0.000000000000000000e+00 0.000000000000000000e+00 0.000000000000000000e+00 0.000000000000000000e+00
1.841762675210445677e+00 -8.239932138606013146e-01 1.802541596064390239e+00 -6.173838595579068667e-01 1.001785879162950385e-03 0.000000000000000000e+00 0.000000000000000000e+00 0.000000000000000000e+00 0.000000000000000000e+00 0.000000000000000000e+00
1.841762675210445677e+00 -8.239932138606013146e-01 1.802541596064390239e+00 -6.173838595579068667e-01 1.001785879162950385e-03 0.000000000000000000e+00 0.000000000000000000e+00 0.000000000000000000e+00 0.000000000000000000e+00 0.000000000000000000e+00
1.841762675210445677e+00 -8.239932138606013146e-01 1.802541596064390239e+00 -6.173838595579068667e-01 1.001785879162950385e-03 0.000000000000000000e+00 0.000000000000000000e+00 0.000000000000000000e+00 0.000000000000000000e+00 0.000000000000000000e+00
1.841762675210445677e+00 -8.239932138606013146e-01 1.802541596064390239e+00 -6.173838595579068667e-01 1.001785879162950385e-03 0.000000000000000000e+00 0.000000000000000000e+00 0.000000000000000000e+00 0.000000000000000000e+00 0.000000000000000000e+00
1.841762675210445677e+00 -8.239932138606013146e-01 1.802541596064390239e+00 -6.173838595579068667e-01 1.001785879162950385e-03 0.000000000000000000e+00 0.000000000000000000e+00 0.000000000000000000e+00 0.000000000000000000e+00 0.000000000000000000e+00
1.841762675210445677e+00 -8.239932138606013146e-01 1.802541596064390239e+00 -6.173838595579068667e-01 1.001785879162950385e-03 0.000000000000000000e+00 0.000000000000000000e+00 0.000000000000000000e+00 0.000000000000000000e+00 0.000000000000000000e+00
1.841762675210445677e+00 -8.239932138606013146e-01 1.802541596064390239e+00 -6.173838595579068667e-01 1.001785879162950385e-03 0.000000000000000000e+00 0.000000000000000000e+00 0.000000000000000000e+00 0.000000000000000000e+00 0.000000000000000000e+00
1.841762675210445677e+00 -8.239932138606013146e-01 1.802541596064390239e+00 -6.173838595579068667e-01 1.001785879162950385e-03 0.000000000000000000e+00 0.000000000000000000e+00 0.000000000000000000e+00 0.000000000000000000e+00 0.000000000000000000e+00
1.841762675210445677e+00 -8.239932138606013146e-01 1.802541596064390239e+00 -6.173838595579068667e-01 1.001785879162950385e-03 0.000000000000000000e+00 0.000000000000000000e+00 0.000000000000000000e+00 0.000000000000000000e+00 0.000000000000000000e+00
1.841762675210445677e+00 -8.239932138606013146e-01 1.802541596064390239e+00 -6.173838595579068667e-01 1.001785879162950385e-03 0.000000000000000000e+00 0.000000000000000000e+00 0.000000000000000000e+00 0.000000000000000000e+00 0.000000000000000000e+00
1.841762675210445677e+00 -8.239932138606013146e-01 1.802541596064390239e+00 -6.173838595579068667e-01 1.001785879162950385e-03 0.000000000000000000e+00 0.000000000000000000e+00 0.000000000000000000e+00 0.000000000000000000e+00 0.000000000000000000e+00
1.841762675210445677e+00 -8.239932138606013146e-01 1.802541596064390239e+00 -6.173838595579068667e-01 1.001785879162950385e-03 0.000000000000000000e+00 0.000000000000000000e+00 0.000000000000000000e+00 0.000000000000000000e+00 0.000000000000000000e+00
1.841762675210445677e+00 -8.239932138606013146e-01 1.802541596064390239e+00 -6.173838595579068667e-01 1.001785879162950385e-03 0.000000000000000000e+00 0.000000000000000000e+00 0.000000000000000000e+00 0.000000000000000000e+00 0.000000000000000000e+00
1.841762675210445677e+00 -8.239932138606013146e-01 1.802541596064390239e+00 -6.173838595579068667e-01 1.001785879162950385e-03 0.000000000000000000e+00 0.000000000000000000e+00 0.000000000000000000e+00 0.000000000000000000e+00 0.000000000000000000e+00
1.841762675210445677e+00 -8.239932138606013146e-01 1.802541596064390239e+00 -6.173838595579068667e-01 1.001785879162950385e-03 0.000000000000000000e+00 0.000000000000000000e+00 0.000000000000000000e+00 0.000000000000000000e+00 0.000000000000000000e+00
1.841762675210445677e+00 -8.239932138606013146e-01 1.802541596064390239e+00 -6.173838595579068667e-01 1.001785879162950385e-03 0.000000000000000000e+00 0.000000000000000000e+00 0.000000000000000000e+00 0.000000000000000000e+00 0.000000000000000000e+00
1.841762675210445677e+00 -8.239932138606013146e-01 1.802541596064390239e+00 -6.173838595579068667e-01 1.001785879162950385e-03 0.000000000000000000e+00 0.000000000000000000e+00 0.000000000000000000e+00 0.000000000000000000e+00 0.000000000000000000e+00
1.841762675210445677e+00 -8.239932138606013146e-01 1.802541596064390239e+00 -6.173838595579068667e-01 1.001785879162950385e-03 0.000000000000000000e+00 0.000000000000000000e+00 0.000000000000000000e+00 0.000000000000000000e+00 0.000000000000000000e+00
1.841762675210445677e+00 -8.239932138606013146e-01 1.802541596064390239e+00 -6.173838595579068667e-01 1.001785879162950385e-03 0.000000000000000000e+00 0.000000000000000000e+00 0.000000000000000000e+00 0.000000000000000000e+00 0.000000000000000000e+00
1.841762675210445677e+00 -8.239932138606013146e-01 1.802541596064390239e+00 -6.173838595579068667e-01 1.001785879162950385e-03 0.000000000000000000e+00 0.000000000000000000e+00 0.000000000000000000e+00 0.000000000000000000e+00 0.000000000000000000e+00
1.841762675210445677e+00 -8.239932138606013146e-01 1.802541596064390239e+00 -6.173838595579068667e-01 1.001785879162950385e-03 0.000000000000000000e+00 0.000000000000000000e+00 0.000000000000000000e+00 0.000000000000000000e+00 0.000000000000000000e+00
