3.343082587180525311e-01 -5.424529579603921681e-01 1.110401177805414807e+00 -1.238305747894948405e+00 -9.939904715069358600e-04 1.493409718766299576e+00 -5.888932045139246840e-01 7.002456927507602069e-01 1.517519996961850248e+00 1.347817275682475615e-04
4.108767165956104805e-01 -5.691119644477655726e-01 1.145426752353807309e+00 -1.160357835619006295e+00 -9.448025499878886851e-04 1.531369157551158988e+00 -5.331801297474687562e-01 7.005114909678488155e-01 1.558958245518844432e+00 9.837584303809437155e-04
4.891113070481988290e-01 -5.928051977750686818e-01 1.180004654185314195e+00 -1.080589121253540785e+00 -8.516636704872859254e-04 1.564691809051767635e+00 -4.738646665460621854e-01 6.915580366301394832e-01 1.595374287309307970e+00 1.862777590012054760e-03
5.687687825446700041e-01 -6.134218311800035961e-01 1.213633647253484771e+00 -9.991840871834725135e-01 -7.152176442035648209e-04 1.593149509929422836e+00 -4.123326680986992288e-01 6.725798613634114131e-01 1.628100681401364769e+00 2.728920525674422958e-03
6.496026966586908591e-01 -6.309276848644105318e-01 1.245801295081398363e+00 -9.162728822109577065e-01 -5.382964660248720778e-04 1.616678282280417323e+00 -3.501170736881380474e-01 6.433529565582702947e-01 1.658224099450296363e+00 3.538423563573853993e-03
7.313752177586980707e-01 -6.453716721727125183e-01 1.276026246298245237e+00 -8.319446530871384970e-01 -3.261403074551861387e-04 1.635450422000143789e+00 -2.888797461660403409e-01 6.044990243369368077e-01 1.686564582476383745e+00 4.243123171393718349e-03
8.138711401320442018e-01 -6.568893457567546168e-01 1.303912159188076458e+00 -7.462606709396835125e-01 -8.627812888955179870e-05 1.649918447466923510e+00 -2.303534716808412763e-01 5.577182577966240951e-01 1.713679642949100135e+00 4.797243571312686042e-03
8.969128105666482886e-01 -6.657017112726875130e-01 1.329213010627227520e+00 -6.592664070699445489e-01 1.718778909506024058e-04 1.660833408692081736e+00 -1.762473103186577017e-01 5.060170287830202396e-01 1.739885277394780383e+00 5.163120396803083656e-03
9.803743289462059085e-01 -6.721070030907208004e-01 1.351906372470161655e+00 -5.710012261695671665e-01 4.384737637175492586e-04 1.669230367591151509e+00 -1.281058363606651374e-01 4.538672368586831318e-01 1.765303618007548758e+00 5.331917455338936948e-03
1.064193596147722021e+00 -6.764628132489092227e-01 1.372268150531753550e+00 -4.815043382318295873e-01 7.084129397054703993e-04 1.676385344030320912e+00 -8.711620316376876560e-02 4.072355612318375728e-01 1.789937758754750918e+00 5.398783519758421079e-03
1.148380602531820394e+00 -6.791560477282699848e-01 1.390935628846120320e+00 -3.908169841939680422e-01 1.000852868368981748e-03 0.000000000000000000e+00 0.000000000000000000e+00 0.000000000000000000e+00 0.000000000000000000e+00 0.000000000000000000e+00
1.148380602531820394e+00 -6.791560477282699848e-01 1.390935628846120320e+00 -3.908169841939680422e-01 1.000852868368981748e-03 0.000000000000000000e+00 0.000000000000000000e+00 0.000000000000000000e+00 0.000000000000000000e+00 0.000000000000000000e+00
1.148380602531820394e+00 -6.791560477282699848e-01 1.390935628846120320e+00 -3.908169841939680422e-01 1.000852868368981748e-03 0.000000000000000000e+00 0.000000000000000000e+00 0.000000000000000000e+00 0.000000000000000000e+00 0.000000000000000000e+00
1.148380602531820394e+00 -6.791560477282699848e-01 1.390935628846120320e+00 -3.908169841939680422e-01 1.000852868368981748e-03 0.000000000000000000e+00 0.000000000000000000e+00 0.000000000000000000e+00 0.000000000000000000e+00 0.000000000000000000e+00
1.148380602531820394e+00 -6.791560477282699848e-01 1.390935628846120320e+00 -3.908169841939680422e-01 1.000852868368981748e-03 0.000000000000000000e+00 0.000000000000000000e+00 0.000000000000000000e+00 0.000000000000000000e+00 0.000000000000000000e+00
1.148380602531820394e+00 -6.791560477282699848e-01 1.390935628846120320e+00 -3.908169841939680422e-01 1.000852868368981748e-03 0.000000000000000000e+00 0.000000000000000000e+00 0.000000000000000000e+00 0.000000000000000000e+00 0.000000000000000000e+00
1.148380602531820394e+00 -6.791560477282699848e-01 1.390935628846120320e+00 -3.908169841939680422e-01 1.000852868368981748e-03 0.000000000000000000e+00 0.000000000000000000e+00 0.000000000000000000e+00 0.000000000000000000e+00 0.000000000000000000e+00
1.148380602531820394e+00 -6.791560477282699848e-01 1.390935628846120320e+00 -3.908169841939680422e-01 1.000852868368981748e-03 0.000000000000000000e+00 0.000000000000000000e+00 0.000000000000000000e+00 0.000000000000000000e+00 0.000000000000000000e+00
1.148380602531820394e+00 -6.791560477282699848e-01 1.390935628846120320e+00 -3.908169841939680422e-01 1.000852868368981748e-03 0.000000000000000000e+00 0.000000000000000000e+00 0.000000000000000000e+00 0.000000000000000000e+00 0.000000000000000000e+00
1.148380602531820394e+00 -6.791560477282699848e-01 1.390935628846120320e+00 -3.908169841939680422e-01 1.000852868368981748e-03 0.000000000000000000e+00 0.000000000000000000e+00 0.000000000000000000e+00 0.000000000000000000e+00 0.000000000000000000e+00
1.148380602531820394e+00 -6.791560477282699848e-01 1.390935628846120320e+00 -3.908169841939680422e-01 1.000852868368981748e-03 0.000000000000000000e+00 0.000000000000000000e+00 0.000000000000000000e+00 0.000000000000000000e+00 0.000000000000000000e+00
1.148380602531820394e+00 -6.791560477282699848e-01 1.390935628846120320e+00 -3.908169841939680422e-01 1.000852868368981748e-03 0.000000000000000000e+00 0.000000000000000000e+00 0.000000000000000000e+00 0.000000000000000000e+00 0.000000000000000000e+00
1.148380602531820394e+00 -6.791560477282699848e-01 1.390935628846120320e+00 -3.908169841939680422e-01 1.000852868368981748e-03 0.000000000000000000e+00 0.000000000000000000e+00 0.000000000000000000e+00 0.000000000000000000e+00 0.000000000000000000e+00
1.148380602531820394e+00 -6.791560477282699848e-01 1.390935628846120320e+00 -3.908169841939680422e-01 1.000852868368981748e-03 0.000000000000000000e+00 0.000000000000000000e+00 0.000000000000000000e+00 0.000000000000000000e+00 0.000000000000000000e+00
1.148380602531820394e+00 -6.791560477282699848e-01 1.390935628846120320e+00 -3.908169841939680422e-01 1.000852868368981748e-03 0.000000000000000000e+00 0.000000000000000000e+00 0.000000000000000000e+00 0.000000000000000000e+00 0.000000000000000000e+00
1.148380602531820394e+00 -6.791560477282699848e-01 1.390935628846120320e+00 -3.908169841939680422e-01 1.000852868368981748e-03 0.000000000000000000e+00 0.000000000000000000e+00 0.000000000000000000e+00 0.000000000000000000e+00 0.000000000000000000e+00
1.148380602531820394e+00 -6.791560477282699848e-01 1.390935628846120320e+00 -3.908169841939680422e-01 1.000852868368981748e-03 0.000000000000000000e+00 0.000000000000000000e+00 0.000000000000000000e+00 0.000000000000000000e+00 0.000000000000000000e+00
1.148380602531820394e+00 -6.791560477282699848e-01 1.390935628846120320e+00 -3.908169841939680422e-01 1.000852868368981748e-03 0.000000000000000000e+00 0.000000000000000000e+00 0.000000000000000000e+00 0.000000000000000000e+00 0.000000000000000000e+00
1.148380602531820394e+00 -6.791560477282699848e-01 1.390935628846120320e+00 -3.908169841939680422e-01 1.000852868368981748e-03 0.000000000000000000e+00 0.000000000000000000e+00 0.000000000000000000e+00 0.000000000000000000e+00 0.000000000000000000e+00
1.148380602531820394e+00 -6.791560477282699848e-01 1.390935628846120320e+00 -3.908169841939680422e-01 1.000852868368981748e-03 0.000000000000000000e+00 0.000000000000000000e+00 0.000000000000000000e+00 0.000000000000000000e+00 0.000000000000000000e+00
1.148380602531820394e+00 -6.791560477282699848e-01 1.390935628846120320e+00 -3.908169841939680422e-01 1.000852868368981748e-03 0.000000000000000000e+00 0.000000000000000000e+00 0.000000000000000000e+00 0.000000000000000000e+00 0.000000000000000000e+00
