-7.128345102678940171e-01 -2.007259253634305629e-01 6.891235085860526466e-01 -1.577117226503960801e+00 -1.526388638639767964e-04 -1.699651010429282239e-01 -2.312837550431643407e-01 -5.435323619467844480e-01 -6.318595208807114005e-01 -1.152473774442027213e-03
-7.227810423852232269e-01 -2.165141694827830698e-01 6.545908859642082245e-01 -1.613060587333501550e+00 -2.379027083435135783e-04 -1.989306423465843632e-01 -3.157648823870500276e-01 -6.906524524368876650e-01 -7.188672165908163159e-01 -1.705276889590735855e-03
-7.336132587819214068e-01 -2.366094754409875656e-01 6.133165408353049575e-01 -1.650453865868192205e+00 -3.592421717884236154e-04 -2.166443279339634875e-01 -4.019061191640899144e-01 -8.254869025780652292e-01 -7.478655706938109882e-01 -2.426789268898200090e-03
-7.448335427194152647e-01 -2.610565996741630590e-01 5.659777312142895145e-01 -1.686558087444656184e+00 -5.133836774899503850e-04 -2.244056787498778516e-01 -4.889424846635094801e-01 -9.467761924203079715e-01 -7.220844315292809235e-01 -3.082830114030535827e-03
-7.560099170594095641e-01 -2.898742650093880657e-01 5.134122321870890904e-01 -1.718866402944964955e+00 -6.856148482026838426e-04 -2.235274867998865433e-01 -5.763533067045002456e-01 -1.051309980544009592e+00 -6.461663100061734166e-01 -3.444623414254667851e-03
-7.667809015665417727e-01 -3.230633055462748260e-01 4.566700561626620969e-01 -1.745191014241939342e+00 -8.515766554535171388e-04 -2.154196901426441990e-01 -6.637808107377353162e-01 -1.134843520488539870e+00 -5.264922259394865245e-01 -3.319236145016665925e-03
-7.768625007102143432e-01 -3.606070852703491258e-01 3.970065895767220798e-01 -1.763756334618064692e+00 -9.793135971158167460e-04 -2.016319828734515207e-01 -7.508755944814853311e-01 -1.193269331718800119e+00 -3.713064075225066540e-01 -2.554738833245989976e-03
-7.860528639111322713e-01 -4.024625407897040597e-01 3.358131868307505097e-01 -1.773278669462151846e+00 -1.027526868424074582e-03 -1.838072640183577577e-01 -8.371091103870981209e-01 -1.223868054919430737e+00 -1.904466968817409289e-01 -9.642654261651560730e-04
-7.942293968921534386e-01 -4.485445789992003052e-01 2.744990136085754262e-01 -1.773008750823197532e+00 -1.041830606619437941e-03 -1.635306596204227081e-01 -9.216407641899243552e-01 -1.226283464443502114e+00 5.398372779087806661e-03 -2.860747639072671808e-04
-8.013348046983153061e-01 -4.987103796584495541e-01 2.143572722489048288e-01 -1.762721462120080629e+00 -1.044601132556862225e-03 -1.421081561232377111e-01 -1.003316013184984756e+00 -1.202834827193411726e+00 2.057457740623367115e-01 -5.541051874848474659e-05
-8.073536123602459424e-01 -5.527501082586846470e-01 1.564513597526621669e-01 -1.742653572867261413e+00 -1.042529217688868172e-03 -1.203761532386134619e-01 -1.080794572004700749e+00 -1.158118249924853238e+00 4.013577850563849747e-01 4.143829735988102734e-05
-8.122839338319282065e-01 -6.103877356178033509e-01 1.015469429950977970e-01 -1.713403687076116899e+00 -1.037657683491698775e-03 -9.860642943364429647e-02 -1.152752547182373855e+00 -1.098088335151287342e+00 5.849977158228910623e-01 9.743068394338689109e-05
-8.161099416326681455e-01 -6.712915407174765425e-01 5.009910448402390970e-02 -1.675817451266734981e+00 -1.031144868055117701e-03 -7.652015601479827955e-02 -1.218076101993462723e+00 -1.028956770221477690e+00 7.517247161876391415e-01 1.302563087316219810e-04
-8.187783606154258598e-01 -7.350915028659021910e-01 2.287316993972769719e-03 -1.630876437120596378e+00 -1.022723967247727347e-03 -5.336837965515522919e-02 -1.275999242968512082e+00 -9.562357498010227719e-01 8.988202829227732726e-01 1.684180161478057074e-04
-8.201792269835500582e-01 -8.014003885100972058e-01 -4.191617183210803038e-02 -1.579601727630176589e+00 -1.005184382534206680e-03 -2.801732736248354477e-02 -1.326177712883901183e+00 -8.840697765216158910e-01 1.025494189808394019e+00 3.507916942704112718e-04
-8.201303520838162386e-01 -8.698340567594876616e-01 -8.266394032887117160e-02 -1.522980096842787789e+00 -9.504854163001601880e-04 9.774979946773273976e-04 -1.368673364987808672e+00 -8.149553699352629632e-01 1.132432615747776872e+00 1.093979324680930060e-03
-8.183652912644776567e-01 -9.400275571606468983e-01 -1.201534975037528707e-01 -1.461915577933529109e+00 -8.031328898239963000e-04 3.530121638677117396e-02 -1.403870008023185179e+00 -7.497911434976338718e-01 1.221290378185174941e+00 2.947050529523278194e-03
-8.145259025964114441e-01 -1.011646238733645342e+00 -1.545588411143431484e-01 -1.397202116102848279e+00 -6.285720273037104927e-04 7.678777336132350251e-02 -1.432373631459969765e+00 -6.881068722118058867e-01 1.294269236613615037e+00 3.491217250405716579e-03
-8.081633112506347860e-01 -1.084391780237560221e+00 -1.859786607877288445e-01 -1.329511540679032544e+00 -4.504943580821660376e-04 1.272518269155336057e-01 -1.454910830078298245e+00 -6.283963934677135876e-01 1.353811508476314041e+00 3.561553384430888886e-03
-7.987553491154537610e-01 -1.158005934363480316e+00 -2.144039972168072516e-01 -1.259385551610548992e+00 -2.805063036630641772e-04 1.881592427036202775e-01 -1.472283082518401676e+00 -5.685067285815679217e-01 1.402519781369671037e+00 3.399761088382036774e-03
-7.857554670052033785e-01 -1.232272119948503608e+00 -2.397171465369042354e-01 -1.187232143213372115e+00 -1.255682465065519342e-04 2.599976422050080394e-01 -1.485323711700463845e+00 -5.062629864019400072e-01 1.443068167943538205e+00 3.098761143130243992e-03
-7.686899501722265216e-01 -1.307017332880908933e+00 -2.617374408792757512e-01 -1.113322193532926052e+00 1.003210281223332421e-05 3.413103366595366395e-01 -1.494904258648104722e+00 -4.404058868474300392e-01 1.478198993608921263e+00 2.712006986375704518e-03
-7.473154196855871234e-01 -1.382114472426769769e+00 -2.803377128903424276e-01 -1.037791606463632110e+00 1.241916804460719691e-04 4.274906097327887400e-01 -1.501942790917218495e+00 -3.720054402213338607e-01 1.510611741385877504e+00 2.283191552676772790e-03
-7.218135418537532377e-01 -1.457485369794622621e+00 -2.956331802544852616e-01 -9.606523766693292332e-01 2.171279391405517398e-04 5.100375566366782687e-01 -1.507417947357056143e+00 -3.059093472828566806e-01 1.542784595886057319e+00 1.858725173889595305e-03
-6.929417033122633462e-01 -1.533098483647556964e+00 -3.081962015208674632e-01 -8.818272883921305372e-01 2.926090473471918037e-04 5.774367708297974966e-01 -1.512262277058684656e+00 -2.512604253276438104e-01 1.576501765543974143e+00 1.509622164132800627e-03
-6.620190774967185110e-01 -1.608951537417860012e+00 -3.191919617028408096e-01 -8.012186002045045274e-01 3.652424962429084163e-04 6.184525163108971491e-01 -1.517061075406062498e+00 -2.199152036394667886e-01 1.612173763752521305e+00 1.452668977914331819e-03
-6.306847292332993238e-01 -1.685036121354775762e+00 -3.303359481048269708e-01 -7.187899786592415463e-01 4.957754312999123995e-04 6.266869652683836334e-01 -1.521691678738316345e+00 -2.228797280397227243e-01 1.648572430905260289e+00 2.610658701140078797e-03
-6.005281465818098630e-01 -1.761294759777368490e+00 -3.437033593955017285e-01 -6.346181457803803383e-01 9.444255735653068334e-04 0.000000000000000000e+00 0.000000000000000000e+00 0.000000000000000000e+00 0.000000000000000000e+00 0.000000000000000000e+00
-6.005281465818098630e-01 -1.761294759777368490e+00 -3.437033593955017285e-01 -6.346181457803803383e-01 9.444255735653068334e-04 0.000000000000000000e+00 0.000000000000000000e+00 0.000000000000000000e+00 0.000000000000000000e+00 0.000000000000000000e+00
-6.005281465818098630e-01 -1.761294759777368490e+00 -3.437033593955017285e-01 -6.346181457803803383e-01 9.444255735653068334e-04 0.000000000000000000e+00 0.000000000000000000e+00 0.000000000000000000e+00 0.000000000000000000e+00 0.000000000000000000e+00
-6.005281465818098630e-01 -1.761294759777368490e+00 -3.437033593955017285e-01 -6.346181457803803383e-01 9.444255735653068334e-04 0.000000000000000000e+00 0.000000000000000000e+00 0.000000000000000000e+00 0.000000000000000000e+00 0.000000000000000000e+00
