5.570862205222477659e-01 -5.971268567182103082e-01 1.345479965967576463e+00 -7.955459272599008091e-01 5.076607876501121807e-05 1.600597602649582729e+00 -3.710816120198534573e-01 7.604516944501632514e-01 1.727259864562213698e+00 5.748437552041105007e-03
6.385177993600932300e-01 -6.130560244108107515e-01 1.383577758404016311e+00 -7.068594257505264045e-01 3.816917882572671596e-04 1.628631576756909283e+00 -3.185833538520089214e-01 7.619558487287961812e-01 1.773730030187488316e+00 6.618514189845118613e-03
7.213342060204729345e-01 -6.265504334333403813e-01 1.422288976180186459e+00 -6.162133470349733244e-01 7.328217276956641799e-04 1.656328133207594311e+00 -2.698881804505922077e-01 7.742243555234049612e-01 1.812921574311062045e+00 7.022598788767938673e-03
8.056295464397379424e-01 -6.378541746136313639e-01 1.462670440246531367e+00 -5.239572858941002886e-01 1.000818302810461274e-03 0.000000000000000000e+00 0.000000000000000000e+00 0.000000000000000000e+00 0.000000000000000000e+00 0.000000000000000000e+00
8.056295464397379424e-01 -6.378541746136313639e-01 1.462670440246531367e+00 -5.239572858941002886e-01 1.000818302810461274e-03 0.000000000000000000e+00 0.000000000000000000e+00 0.000000000000000000e+00 0.000000000000000000e+00 0.000000000000000000e+00
8.056295464397379424e-01 -6.378541746136313639e-01 1.462670440246531367e+00 -5.239572858941002886e-01 1.000818302810461274e-03 0.000000000000000000e+00 0.000000000000000000e+00 0.000000000000000000e+00 0.000000000000000000e+00 0.000000000000000000e+00
8.056295464397379424e-01 -6.378541746136313639e-01 1.462670440246531367e+00 -5.239572858941002886e-01 1.000818302810461274e-03 0.000000000000000000e+00 0.000000000000000000e+00 0.000000000000000000e+00 0.000000000000000000e+00 0.000000000000000000e+00
8.056295464397379424e-01 -6.378541746136313639e-01 1.462670440246531367e+00 -5.239572858941002886e-01 1.000818302810461274e-03 0.000000000000000000e+00 0.000000000000000000e+00 0.000000000000000000e+00 0.000000000000000000e+00 0.000000000000000000e+00
8.056295464397379424e-01 -6.378541746136313639e-01 1.462670440246531367e+00 -5.239572858941002886e-01 1.000818302810461274e-03 0.000000000000000000e+00 0.000000000000000000e+00 0.000000000000000000e+00 0.000000000000000000e+00 0.000000000000000000e+00
8.056295464397379424e-01 -6.378541746136313639e-01 1.462670440246531367e+00 -5.239572858941002886e-01 1.000818302810461274e-03 0.000000000000000000e+00 0.000000000000000000e+00 0.000000000000000000e+00 0.000000000000000000e+00 0.000000000000000000e+00
8.056295464397379424e-01 -6.378541746136313639e-01 1.462670440246531367e+00 -5.239572858941002886e-01 1.000818302810461274e-03 0.000000000000000000e+00 0.000000000000000000e+00 0.000000000000000000e+00 0.000000000000000000e+00 0.000000000000000000e+00
8.056295464397379424e-01 -6.378541746136313639e-01 1.462670440246531367e+00 -5.239572858941002886e-01 1.000818302810461274e-03 0.000000000000000000e+00 0.000000000000000000e+00 0.000000000000000000e+00 0.000000000000000000e+00 0.000000000000000000e+00
8.056295464397379424e-01 -6.378541746136313639e-01 1.462670440246531367e+00 -5.239572858941002886e-01 1.000818302810461274e-03 0.000000000000000000e+00 0.000000000000000000e+00 0.000000000000000000e+00 0.000000000000000000e+00 0.000000000000000000e+00
8.056295464397379424e-01 -6.378541746136313639e-01 1.462670440246531367e+00 -5.239572858941002886e-01 1.000818302810461274e-03 0.000000000000000000e+00 0.000000000000000000e+00 0.000000000000000000e+00 0.000000000000000000e+00 0.000000000000000000e+00
8.056295464397379424e-01 -6.378541746136313639e-01 1.462670440246531367e+00 -5.239572858941002886e-01 1.000818302810461274e-03 0.000000000000000000e+00 0.000000000000000000e+00 0.000000000000000000e+00 0.000000000000000000e+00 0.000000000000000000e+00
8.056295464397379424e-01 -6.378541746136313639e-01 1.462670440246531367e+00 -5.239572858941002886e-01 1.000818302810461274e-03 0.000000000000000000e+00 0.000000000000000000e+00 0.000000000000000000e+00 0.000000000000000000e+00 0.000000000000000000e+00
8.056295464397379424e-01 -6.378541746136313639e-01 1.462670440246531367e+00 -5.239572858941002886e-01 1.000818302810461274e-03 0.000000000000000000e+00 0.000000000000000000e+00 0.000000000000000000e+00 0.000000000000000000e+00 0.000000000000000000e+00
8.056295464397379424e-01 -6.378541746136313639e-01 1.462670440246531367e+00 -5.239572858941002886e-01 1.000818302810461274e-03 0.000000000000000000e+00 0.000000000000000000e+00 0.000000000000000000e+00 0.000000000000000000e+00 0.000000000000000000e+00
8.056295464397379424e-01 -6.378541746136313639e-01 1.462670440246531367e+00 -5.239572858941002886e-01 1.000818302810461274e-03 0.000000000000000000e+00 0.000000000000000000e+00 0.000000000000000000e+00 0.000000000000000000e+00 0.000000000000000000e+00
8.056295464397379424e-01 -6.378541746136313639e-01 1.462670440246531367e+00 -5.239572858941002886e-01 1.000818302810461274e-03 0.000000000000000000e+00 0.000000000000000000e+00 0.000000000000000000e+00 0.000000000000000000e+00 0.000000000000000000e+00
8.056295464397379424e-01 -6.378541746136313639e-01 1.462670440246531367e+00 -5.239572858941002886e-01 1.000818302810461274e-03 0.000000000000000000e+00 0.000000000000000000e+00 0.000000000000000000e+00 0.000000000000000000e+00 0.000000000000000000e+00
8.056295464397379424e-01 -6.378541746136313639e-01 1.462670440246531367e+00 -5.239572858941002886e-01 1.000818302810461274e-03 0.000000000000000000e+00 0.000000000000000000e+00 0.000000000000000000e+00 0.000000000000000000e+00 0.000000000000000000e+00
8.056295464397379424e-01 -6.378541746136313639e-01 1.462670440246531367e+00 -5.239572858941002886e-01 1.000818302810461274e-03 0.000000000000000000e+00 0.000000000000000000e+00 0.000000000000000000e+00 0.000000000000000000e+00 0.000000000000000000e+00
8.056295464397379424e-01 -6.378541746136313639e-01 1.462670440246531367e+00 -5.239572858941002886e-01 1.000818302810461274e-03 0.000000000000000000e+00 0.000000000000000000e+00 0.000000000000000000e+00 0.000000000000000000e+00 0.000000000000000000e+00
8.056295464397379424e-01 -6.378541746136313639e-01 1.462670440246531367e+00 -5.239572858941002886e-01 1.000818302810461274e-03 0.000000000000000000e+00 0.000000000000000000e+00 0.000000000000000000e+00 0.000000000000000000e+00 0.000000000000000000e+00
8.056295464397379424e-01 -6.378541746136313639e-01 1.462670440246531367e+00 -5.239572858941002886e-01 1.000818302810461274e-03 0.000000000000000000e+00 0.000000000000000000e+00 0.000000000000000000e+00 0.000000000000000000e+00 0.000000000000000000e+00
8.056295464397379424e-01 -6.378541746136313639e-01 1.462670440246531367e+00 -5.239572858941002886e-01 1.000818302810461274e-03 0.000000000000000000e+00 0.000000000000000000e+00 0.000000000000000000e+00 0.000000000000000000e+00 0.000000000000000000e+00
8.056295464397379424e-01 -6.378541746136313639e-01 1.462670440246531367e+00 -5.239572858941002886e-01 1.000818302810461274e-03 0.000000000000000000e+00 0.000000000000000000e+00 0.000000000000000000e+00 0.000000000000000000e+00 0.000000000000000000e+00
8.056295464397379424e-01 -6.378541746136313639e-01 1.462670440246531367e+00 -5.239572858941002886e-01 1.000818302810461274e-03 0.000000000000000000e+00 0.000000000000000000e+00 0.000000000000000000e+00 0.000000000000000000e+00 0.000000000000000000e+00
8.056295464397379424e-01 -6.378541746136313639e-01 1.462670440246531367e+00 -5.239572858941002886e-01 1.000818302810461274e-03 0.000000000000000000e+00 0.000000000000000000e+00 0.000000000000000000e+00 0.000000000000000000e+00 0.000000000000000000e+00
8.056295464397379424e-01 -6.378541746136313639e-01 1.462670440246531367e+00 -5.239572858941002886e-01 1.000818302810461274e-03 0.000000000000000000e+00 0.000000000000000000e+00 0.000000000000000000e+00 0.000000000000000000e+00 0.000000000000000000e+00
