-1.109327571026330395e+00 -8.634259487056058502e-01 1.790428750392067669e-01 -1.066148437621083467e+00 -5.510086827519403456e-04 -5.074029320313818703e-01 -1.185101032634708229e+00 -8.598551052897713820e-01 4.348226032876466585e-01 -2.069123623974270659e-03
-1.134904406725422366e+00 -9.252792004606945619e-01 1.385010915390997854e-01 -1.034014033933066123e+00 -6.206662851443258723e-04 -5.115367139818375319e-01 -1.237065035101774901e+00 -8.108356700021396302e-01 6.426880737603475335e-01 -1.393152047847710752e-03
-1.160931295004977271e+00 -9.893544190983758480e-01 9.984348536345741265e-02 -9.924508172259247640e-01 -6.681882828788749534e-04 -5.205377655910986556e-01 -1.281504372753625720e+00 -7.731521235128476777e-01 8.312643341428280763e-01 -9.504399546909817311e-04
-1.187711016969788647e+00 -1.055254081089467721e+00 6.228153890629027634e-02 -9.425623062411728759e-01 -7.075488154680588653e-04 -5.355944392962287415e-01 -1.317993239821839024e+00 -7.512389291433426708e-01 9.977702196950382074e-01 -7.872106517836792135e-04
-1.215620696609988727e+00 -1.122564213235778485e+00 2.477525529717236608e-02 -8.855381408045885916e-01 -7.544835907878874896e-04 -5.581935928040036021e-01 -1.346202642926214166e+00 -7.501256721823581497e-01 1.140483308731686574e+00 -9.386955063965716183e-04
-1.245135832998476078e+00 -1.190856285650760071e+00 -1.402276013403529198e-02 -8.226073150092869657e-01 -8.260083532948373245e-04 -5.903027277697452391e-01 -1.365841448299631722e+00 -7.759603086241529946e-01 1.258616515906032962e+00 -1.430495250138997133e-03
-1.276877854532534107e+00 -1.259679833935116733e+00 -5.588888091569192001e-02 -7.550123150089282920e-01 -9.307312698776521983e-04 -6.348404306811593623e-01 -1.376470965687133230e+00 -8.373224156331325885e-01 1.351900000007172364e+00 -2.094458331656297041e-03
-1.311699108434689842e+00 -1.328546615362755645e+00 -1.032479010791755858e-01 -6.840017423716976408e-01 -1.024959089557757460e-03 -6.964250780431132659e-01 -1.377335628552778468e+00 -9.471804032696731213e-01 1.420211452744612135e+00 -1.884556393602104590e-03
-1.350827848979814894e+00 -1.396903885959527081e+00 -1.595481006779078115e-01 -6.108458199297318592e-01 -8.228345100057993548e-04 0.000000000000000000e+00 0.000000000000000000e+00 0.000000000000000000e+00 0.000000000000000000e+00 0.000000000000000000e+00
-1.350827848979814894e+00 -1.396903885959527081e+00 -1.595481006779078115e-01 -6.108458199297318592e-01 -8.228345100057993548e-04 0.000000000000000000e+00 0.000000000000000000e+00 0.000000000000000000e+00 0.000000000000000000e+00 0.000000000000000000e+00
-1.350827848979814894e+00 -1.396903885959527081e+00 -1.595481006779078115e-01 -6.108458199297318592e-01 -8.228345100057993548e-04 0.000000000000000000e+00 0.000000000000000000e+00 0.000000000000000000e+00 0.000000000000000000e+00 0.000000000000000000e+00
-1.350827848979814894e+00 -1.396903885959527081e+00 -1.595481006779078115e-01 -6.108458199297318592e-01 -8.228345100057993548e-04 0.000000000000000000e+00 0.000000000000000000e+00 0.000000000000000000e+00 0.000000000000000000e+00 0.000000000000000000e+00
-1.350827848979814894e+00 -1.396903885959527081e+00 -1.595481006779078115e-01 -6.108458199297318592e-01 -8.228345100057993548e-04 0.000000000000000000e+00 0.000000000000000000e+00 0.000000000000000000e+00 0.000000000000000000e+00 0.000000000000000000e+00
-1.350827848979814894e+00 -1.396903885959527081e+00 -1.595481006779078115e-01 -6.108458199297318592e-01 -8.228345100057993548e-04 0.000000000000000000e+00 0.000000000000000000e+00 0.000000000000000000e+00 0.000000000000000000e+00 0.000000000000000000e+00
-1.350827848979814894e+00 -1.396903885959527081e+00 -1.595481006779078115e-01 -6.108458199297318592e-01 -8.228345100057993548e-04 0.000000000000000000e+00 0.000000000000000000e+00 0.000000000000000000e+00 0.000000000000000000e+00 0.000000000000000000e+00
-1.350827848979814894e+00 -1.396903885959527081e+00 -1.595481006779078115e-01 -6.108458199297318592e-01 -8.228345100057993548e-04 0.000000000000000000e+00 0.000000000000000000e+00 0.000000000000000000e+00 0.000000000000000000e+00 0.000000000000000000e+00
-1.350827848979814894e+00 -1.396903885959527081e+00 -1.595481006779078115e-01 -6.108458199297318592e-01 -8.228345100057993548e-04 0.000000000000000000e+00 0.000000000000000000e+00 0.000000000000000000e+00 0.000000000000000000e+00 0.000000000000000000e+00
-1.350827848979814894e+00 -1.396903885959527081e+00 -1.595481006779078115e-01 -6.108458199297318592e-01 -8.228345100057993548e-04 0.000000000000000000e+00 0.000000000000000000e+00 0.000000000000000000e+00 0.000000000000000000e+00 0.000000000000000000e+00
-1.350827848979814894e+00 -1.396903885959527081e+00 -1.595481006779078115e-01 -6.108458199297318592e-01 -8.228345100057993548e-04 0.000000000000000000e+00 0.000000000000000000e+00 0.000000000000000000e+00 0.000000000000000000e+00 0.000000000000000000e+00
-1.350827848979814894e+00 -1.396903885959527081e+00 -1.595481006779078115e-01 -6.108458199297318592e-01 -8.228345100057993548e-04 0.000000000000000000e+00 0.000000000000000000e+00 0.000000000000000000e+00 0.000000000000000000e+00 0.000000000000000000e+00
-1.350827848979814894e+00 -1.396903885959527081e+00 -1.595481006779078115e-01 -6.108458199297318592e-01 -8.228345100057993548e-04 0.000000000000000000e+00 0.000000000000000000e+00 0.000000000000000000e+00 0.000000000000000000e+00 0.000000000000000000e+00
-1.350827848979814894e+00 -1.396903885959527081e+00 -1.595481006779078115e-01 -6.108458199297318592e-01 -8.228345100057993548e-04 0.000000000000000000e+00 0.000000000000000000e+00 0.000000000000000000e+00 0.000000000000000000e+00 0.000000000000000000e+00
-1.350827848979814894e+00 -1.396903885959527081e+00 -1.595481006779078115e-01 -6.108458199297318592e-01 -8.228345100057993548e-04 0.000000000000000000e+00 0.000000000000000000e+00 0.000000000000000000e+00 0.000000000000000000e+00 0.000000000000000000e+00
-1.350827848979814894e+00 -1.396903885959527081e+00 -1.595481006779078115e-01 -6.108458199297318592e-01 -8.228345100057993548e-04 0.000000000000000000e+00 0.000000000000000000e+00 0.000000000000000000e+00 0.000000000000000000e+00 0.000000000000000000e+00
-1.350827848979814894e+00 -1.396903885959527081e+00 -1.595481006779078115e-01 -6.108458199297318592e-01 -8.228345100057993548e-04 0.000000000000000000e+00 0.000000000000000000e+00 0.000000000000000000e+00 0.000000000000000000e+00 0.000000000000000000e+00
-1.350827848979814894e+00 -1.396903885959527081e+00 -1.595481006779078115e-01 -6.108458199297318592e-01 -8.228345100057993548e-04 0.000000000000000000e+00 0.000000000000000000e+00 0.000000000000000000e+00 0.000000000000000000e+00 0.000000000000000000e+00
-1.350827848979814894e+00 -1.396903885959527081e+00 -1.595481006779078115e-01 -6.108458199297318592e-01 -8.228345100057993548e-04 0.000000000000000000e+00 0.000000000000000000e+00 0.000000000000000000e+00 0.000000000000000000e+00 0.000000000000000000e+00
-1.350827848979814894e+00 -1.396903885959527081e+00 -1.595481006779078115e-01 -6.108458199297318592e-01 -8.228345100057993548e-04 0.000000000000000000e+00 0.000000000000000000e+00 0.000000000000000000e+00 0.000000000000000000e+00 0.000000000000000000e+00
-1.350827848979814894e+00 -1.396903885959527081e+00 -1.595481006779078115e-01 -6.108458199297318592e-01 -8.228345100057993548e-04 0.000000000000000000e+00 0.000000000000000000e+00 0.000000000000000000e+00 0.000000000000000000e+00 0.000000000000000000e+00
-1.350827848979814894e+00 -1.396903885959527081e+00 -1.595481006779078115e-01 -6.108458199297318592e-01 -8.228345100057993548e-04 0.000000000000000000e+00 0.000000000000000000e+00 0.000000000000000000e+00 0.000000000000000000e+00 0.000000000000000000e+00
-1.350827848979814894e+00 -1.396903885959527081e+00 -1.595481006779078115e-01 -6.108458199297318592e-01 -8.228345100057993548e-04 0.000000000000000000e+00 0.000000000000000000e+00 0.000000000000000000e+00 0.000000000000000000e+00 0.000000000000000000e+00
