-1.137360009768282110e+00 -1.144136371676382824e+00 -4.002652502893097042e-01 -1.377651665754472177e+00 -1.034750032001520382e-04 2.175960970438767517e-01 -1.324006139399605875e+00 -3.812348831357868506e-01 1.240179831034743385e+00 3.565771994459350936e-03
-1.121955825418972319e+00 -1.210449360399505458e+00 -4.164662798400711186e-01 -1.315876377039828959e+00 7.092637367104120375e-05 3.080836869861964811e-01 -1.326259774462451357e+00 -3.240205910152277879e-01 1.235505774292866121e+00 3.488027537423864840e-03
-1.101402194494984776e+00 -1.276776436495663969e+00 -4.290878566449493059e-01 -1.254198236398259780e+00 2.337441670481621989e-04 4.110726184797501293e-01 -1.326541521923168876e+00 -2.524315360975632472e-01 1.233562812831385136e+00 3.256355867542420120e-03
-1.075296265896610093e+00 -1.343063968571384326e+00 -4.374823386695442240e-01 -1.192310375335387862e+00 3.772421904107005168e-04 5.221185719674931169e-01 -1.325750641514407357e+00 -1.678896404918978347e-01 1.237757221257440365e+00 2.869960467250766249e-03
-1.043635834017317743e+00 -1.409301343115108462e+00 -4.412635713558100692e-01 -1.129761392457808711e+00 4.961438018607073870e-04 6.332086375858474447e-01 -1.324747490874480960e+00 -7.562465372531659846e-02 1.250979657551584578e+00 2.378032229000137405e-03
-1.006950955510492962e+00 -1.475527054737313160e+00 -4.404739840063741640e-01 -1.066001914036163178e+00 5.870369883721865932e-04 7.336975701364962799e-01 -1.324514232444092832e+00 1.579174698871829707e-02 1.275189568432911091e+00 1.817863730229585424e-03
-9.663454289590298618e-01 -1.541824129933506704e+00 -4.357157703859252385e-01 -1.000479945828735229e+00 6.504604853340106678e-04 8.121105310292610069e-01 -1.325941503923871334e+00 9.516427240897802620e-02 1.310439364148558994e+00 1.268469939236480624e-03
-9.233738590305854421e-01 -1.608303452420075441e+00 -4.281426997414570224e-01 -9.327535761136701575e-01 6.952771177075501999e-04 8.594313985688885049e-01 -1.329586449731375408e+00 1.514614128893640443e-01 1.354527394301301646e+00 8.963326474707908591e-04
-8.797203188275739549e-01 -1.675088585534500574e+00 -4.192085398183834077e-01 -8.625395834236843084e-01 7.280167108610352414e-04 8.730708040602307429e-01 -1.335702662288500431e+00 1.786831984614719870e-01 1.404279853799717204e+00 6.547918630697003965e-04
-8.368917917240861204e-01 -1.742276887894387283e+00 -4.104116407248835641e-01 -7.897570327147660496e-01 7.587059156261411310e-04 8.565705420697560246e-01 -1.343766047197733293e+00 1.759379818699968456e-01 1.455651014178365399e+00 6.137840953021176825e-04
-7.959751177587943705e-01 -1.809922916491065070e+00 -4.030179634623712870e-01 -7.144787042402087618e-01 7.900293295963703053e-04 8.183334793058339995e-01 -1.352920571933553751e+00 1.478735452502459302e-01 1.505566569491146645e+00 6.264682794045829456e-04
-7.575834096085811709e-01 -1.878023632235275686e+00 -3.979632678236889598e-01 -6.368967395660746211e-01 8.263114459535333620e-04 7.678341630042628818e-01 -1.362014314884212096e+00 1.010939127736468213e-01 1.551639293482682147e+00 7.256423271432622165e-04
-7.219208380185776486e-01 -1.946528734221390611e+00 -3.958563113798761468e-01 -5.572554667396222294e-01 8.784942459391886739e-04 7.132514318000711118e-01 -1.370102039722297604e+00 4.213912887625601011e-02 1.592825456529048056e+00 1.043655999713106238e-03
-6.889108791363419693e-01 -2.015354433784479760e+00 -3.970706054007648311e-01 -4.758057436147702934e-01 1.000629252187822116e-03 0.000000000000000000e+00 0.000000000000000000e+00 0.000000000000000000e+00 0.000000000000000000e+00 0.000000000000000000e+00
-6.889108791363419693e-01 -2.015354433784479760e+00 -3.970706054007648311e-01 -4.758057436147702934e-01 1.000629252187822116e-03 0.000000000000000000e+00 0.000000000000000000e+00 0.000000000000000000e+00 0.000000000000000000e+00 0.000000000000000000e+00
-6.889108791363419693e-01 -2.015354433784479760e+00 -3.970706054007648311e-01 -4.758057436147702934e-01 1.000629252187822116e-03 0.000000000000000000e+00 0.000000000000000000e+00 0.000000000000000000e+00 0.000000000000000000e+00 0.000000000000000000e+00
-6.889108791363419693e-01 -2.015354433784479760e+00 -3.970706054007648311e-01 -4.758057436147702934e-01 1.000629252187822116e-03 0.000000000000000000e+00 0.000000000000000000e+00 0.000000000000000000e+00 0.000000000000000000e+00 0.000000000000000000e+00
-6.889108791363419693e-01 -2.015354433784479760e+00 -3.970706054007648311e-01 -4.758057436147702934e-01 1.000629252187822116e-03 0.000000000000000000e+00 0.000000000000000000e+00 0.000000000000000000e+00 0.000000000000000000e+00 0.000000000000000000e+00
-6.889108791363419693e-01 -2.015354433784479760e+00 -3.970706054007648311e-01 -4.758057436147702934e-01 1.000629252187822116e-03 0.000000000000000000e+00 0.000000000000000000e+00 0.000000000000000000e+00 0.000000000000000000e+00 0.000000000000000000e+00
-6.889108791363419693e-01 -2.015354433784479760e+00 -3.970706054007648311e-01 -4.758057436147702934e-01 1.000629252187822116e-03 0.000000000000000000e+00 0.000000000000000000e+00 0.000000000000000000e+00 0.000000000000000000e+00 0.000000000000000000e+00
-6.889108791363419693e-01 -2.015354433784479760e+00 -3.970706054007648311e-01 -4.758057436147702934e-01 1.000629252187822116e-03 0.000000000000000000e+00 0.000000000000000000e+00 0.000000000000000000e+00 0.000000000000000000e+00 0.000000000000000000e+00
-6.889108791363419693e-01 -2.015354433784479760e+00 -3.970706054007648311e-01 -4.758057436147702934e-01 1.000629252187822116e-03 0.000000000000000000e+00 0.000000000000000000e+00 0.000000000000000000e+00 0.000000000000000000e+00 0.000000000000000000e+00
-6.889108791363419693e-01 -2.015354433784479760e+00 -3.970706054007648311e-01 -4.758057436147702934e-01 1.000629252187822116e-03 0.000000000000000000e+00 0.000000000000000000e+00 0.000000000000000000e+00 0.000000000000000000e+00 0.000000000000000000e+00
-6.889108791363419693e-01 -2.015354433784479760e+00 -3.970706054007648311e-01 -4.758057436147702934e-01 1.000629252187822116e-03 0.000000000000000000e+00 0.000000000000000000e+00 0.000000000000000000e+00 0.000000000000000000e+00 0.000000000000000000e+00
-6.889108791363419693e-01 -2.015354433784479760e+00 -3.970706054007648311e-01 -4.758057436147702934e-01 1.000629252187822116e-03 0.000000000000000000e+00 0.000000000000000000e+00 0.000000000000000000e+00 0.000000000000000000e+00 0.000000000000000000e+00
-6.889108791363419693e-01 -2.015354433784479760e+00 -3.970706054007648311e-01 -4.758057436147702934e-01 1.000629252187822116e-03 0.000000000000000000e+00 0.000000000000000000e+00 0.000000000000000000e+00 0.000000000000000000e+00 0.000000000000000000e+00
-6.889108791363419693e-01 -2.015354433784479760e+00 -3.970706054007648311e-01 -4.758057436147702934e-01 1.000629252187822116e-03 0.000000000000000000e+00 0.000000000000000000e+00 0.000000000000000000e+00 0.000000000000000000e+00 0.000000000000000000e+00
-6.889108791363419693e-01 -2.015354433784479760e+00 -3.970706054007648311e-01 -4.758057436147702934e-01 1.000629252187822116e-03 0.000000000000000000e+00 0.000000000000000000e+00 0.000000000000000000e+00 0.000000000000000000e+00 0.000000000000000000e+00
-6.889108791363419693e-01 -2.015354433784479760e+00 -3.970706054007648311e-01 -4.758057436147702934e-01 1.000629252187822116e-03 0.000000000000000000e+00 0.000000000000000000e+00 0.000000000000000000e+00 0.000000000000000000e+00 0.000000000000000000e+00
-6.889108791363419693e-01 -2.015354433784479760e+00 -3.970706054007648311e-01 -4.758057436147702934e-01 1.000629252187822116e-03 0.000000000000000000e+00 0.000000000000000000e+00 0.000000000000000000e+00 0.000000000000000000e+00 0.000000000000000000e+00
-6.889108791363419693e-01 -2.015354433784479760e+00 -3.970706054007648311e-01 -4.758057436147702934e-01 1.000629252187822116e-03 0.000000000000000000e+00 0.000000000000000000e+00 0.000000000000000000e+00 0.000000000000000000e+00 0.000000000000000000e+00
