-6.629850571951978466e-01 1.018858088653890187e-01 6.243780258983239184e-01 -2.025304926556100060e+00 -1.023315100103858915e-03 1.157775157773506362e-02 -4.687335542585555070e-01 -3.133243355249012985e-01 -1.377292819823641157e-01 -5.003765247802723732e-05
-6.617016591243122248e-01 7.655381857385551436e-02 6.096708240902641851e-01 -2.028074178493756818e+00 -1.021088717045882813e-03 2.566796141771206935e-02 -5.066398058306702534e-01 -2.941440361611943333e-01 -5.538503875313582903e-02 4.452766115952261339e-05
-6.597764258972118601e-01 4.955757740419089452e-02 5.962342159863753821e-01 -2.026809495642273085e+00 -1.017524563900219173e-03 3.850466454200798805e-02 -5.399248233932923968e-01 -2.687321620777760045e-01 2.529365702967845131e-02 7.128306291327412007e-05
-6.572871838821624513e-01 2.112987101519879160e-02 5.842733964774370348e-01 -2.021735019663903898e+00 -1.013963900075084881e-03 4.978484030098914020e-02 -5.685541277798420445e-01 -2.392163901787672242e-01 1.014895195673843342e-01 7.121327650268770033e-05
-6.543197432451572926e-01 -8.498215896535873254e-03 5.738981954238790983e-01 -2.013180445775879068e+00 -1.010833588903805756e-03 5.934881274010277152e-02 -5.925617382346932693e-01 -2.075040210711587840e-01 1.710914777604988779e-01 6.260622342558130275e-05
-6.509621192408615586e-01 -3.910148792962521436e-02 5.651386646641571865e-01 -2.001548393292468475e+00 -1.008233782693282454e-03 6.715248008591427620e-02 -6.120654406617866972e-01 -1.751906151944372658e-01 2.326410496682146944e-01 5.199612421046605155e-05
-6.472993182083821573e-01 -7.046599292088574773e-02 5.579626299285307400e-01 -1.987279045634328778e+00 -1.006227086541675031e-03 7.325602064958891546e-02 -6.272900998252105564e-01 -1.435206947125294286e-01 2.853869531627917788e-01 4.013392303214675195e-05
-6.434090510894849846e-01 -1.023946518105244008e-01 5.522940582234948659e-01 -1.970816617309657071e+00 -1.004627925013616609e-03 7.780534237794342611e-02 -6.385731777927731168e-01 -1.133714341007173859e-01 3.292485664934324818e-01 3.198323056116845288e-05
-6.393600434955021283e-01 -1.347107434428380657e-01 5.480273762815618399e-01 -1.952588406914537167e+00 -1.003335357986547688e-03 8.098015187965748596e-02 -6.463218326462732977e-01 -8.533363883866026955e-02 3.645642079023995175e-01 2.585134054137740880e-05
-6.352113851942814415e-01 -1.672601952755633503e-01 5.450400526678488289e-01 -1.932990606515215593e+00 -1.002397852293132044e-03 8.297316602441365263e-02 -6.509890366545059148e-01 -5.974647227426106710e-02 3.919560079864323199e-01 1.875011386831160496e-05
-6.310121557752575994e-01 -1.999130677643268517e-01 5.432037816410945075e-01 -1.912377722124128931e+00 -1.001813287755873002e-03 8.398458838047705155e-02 -6.530574497752700269e-01 -3.672542053508600496e-02 4.122576878217325547e-01 1.169129074518281255e-05
-6.268015849562553754e-01 -2.325639832963033726e-01 5.423926488921526623e-01 -1.891056720285994475e+00 -1.001405875769502841e-03 8.421141638004427110e-02 -6.530183106395303083e-01 -1.622265497883747937e-02 4.264200367626881927e-01 8.148239727405187508e-06
-6.226100093627637833e-01 -2.651313634094849547e-01 5.424869580547082570e-01 -1.869286229637117325e+00 -1.001125769964923478e-03 8.383151186983257841e-02 -6.513476022636311979e-01 1.886183251111232112e-03 4.354098129775441639e-01 5.602116091585707336e-06
-6.184596576785997835e-01 -2.975563236849740889e-01 5.433761303877618909e-01 -1.847276896173478677e+00 -1.000977315719905631e-03 8.300703368327888576e-02 -6.484992055097832386e-01 1.778344666107218100e-02 4.401866692727730013e-01 2.969084900355663995e-06
-6.143652147391941432e-01 -3.298013342230192713e-01 5.449611534778847632e-01 -1.825192730330274404e+00 -1.000513720870833262e-03 8.188885878811193175e-02 -6.449002107609040912e-01 3.170046180245678774e-02 4.416833168640848517e-01 9.271896981448140638e-06
-6.103346993881562099e-01 -3.618483701447091638e-01 5.471547170388028070e-01 -1.803154257489510970e+00 -9.977955872883604097e-04 8.061030702075758225e-02 -6.409407184337982955e-01 4.387127121836156135e-02 4.407694568152699666e-01 5.436267164945919307e-05
-6.063699161808943083e-01 -3.936971088723023038e-01 5.498817397968833731e-01 -1.781240807804533199e+00 -9.861833128540086098e-04 7.929566414523843421e-02 -6.369747745518624660e-01 5.454045516161048351e-02 4.382689936995561863e-01 2.322454886870374882e-04
-6.024664864966897682e-01 -4.253632338750036879e-01 5.530803118809721752e-01 -1.759491884143732365e+00 -9.528666360659608821e-04 7.806859368409062305e-02 -6.333225000540280147e-01 6.397144168177648638e-02 4.349784732160184020e-01 6.663335357609547708e-04
-5.986137549410689429e-01 -4.568767252380940835e-01 5.567021648269514511e-01 -1.737908113968680945e+00 -9.141051721702147343e-04 7.705463111241744878e-02 -6.302698272618073583e-01 7.243705891958451826e-02 4.316754035010275659e-01 7.752292779149225210e-04
-5.947944739671501280e-01 -4.882800906470355917e-01 5.607134812285143877e-01 -1.716452353419829935e+00 -8.717274352932509723e-04 7.638561947837689547e-02 -6.280673081788297196e-01 8.022632803125936962e-02 4.291152109770180467e-01 8.475547375392763257e-04
-5.909843366121262376e-01 -5.196265649438148726e-01 5.650958723300480990e-01 -1.695050864963898229e+00 -8.153092081417155157e-04 7.620274710047790501e-02 -6.269294859355846183e-01 8.764782203067419952e-02 4.280297691186359388e-01 1.128364543030709348e-03
-5.871514779247073434e-01 -5.509781338569644804e-01 5.698474793321142151e-01 -1.673595548213128170e+00 -6.964266207515345825e-04 0.000000000000000000e+00 0.000000000000000000e+00 0.000000000000000000e+00 0.000000000000000000e+00 0.000000000000000000e+00
-5.871514779247073434e-01 -5.509781338569644804e-01 5.698474793321142151e-01 -1.673595548213128170e+00 -6.964266207515345825e-04 0.000000000000000000e+00 0.000000000000000000e+00 0.000000000000000000e+00 0.000000000000000000e+00 0.000000000000000000e+00
-5.871514779247073434e-01 -5.509781338569644804e-01 5.698474793321142151e-01 -1.673595548213128170e+00 -6.964266207515345825e-04 0.000000000000000000e+00 0.000000000000000000e+00 0.000000000000000000e+00 0.000000000000000000e+00 0.000000000000000000e+00
-5.871514779247073434e-01 -5.509781338569644804e-01 5.698474793321142151e-01 -1.673595548213128170e+00 -6.964266207515345825e-04 0.000000000000000000e+00 0.000000000000000000e+00 0.000000000000000000e+00 0.000000000000000000e+00 0.000000000000000000e+00
-5.871514779247073434e-01 -5.509781338569644804e-01 5.698474793321142151e-01 -1.673595548213128170e+00 -6.964266207515345825e-04 0.000000000000000000e+00 0.000000000000000000e+00 0.000000000000000000e+00 0.000000000000000000e+00 0.000000000000000000e+00
-5.871514779247073434e-01 -5.509781338569644804e-01 5.698474793321142151e-01 -1.673595548213128170e+00 -6.964266207515345825e-04 0.000000000000000000e+00 0.000000000000000000e+00 0.000000000000000000e+00 0.000000000000000000e+00 0.000000000000000000e+00
-5.871514779247073434e-01 -5.509781338569644804e-01 5.698474793321142151e-01 -1.673595548213128170e+00 -6.964266207515345825e-04 0.000000000000000000e+00 0.000000000000000000e+00 0.000000000000000000e+00 0.000000000000000000e+00 0.000000000000000000e+00
-5.871514779247073434e-01 -5.509781338569644804e-01 5.698474793321142151e-01 -1.673595548213128170e+00 -6.964266207515345825e-04 0.000000000000000000e+00 0.000000000000000000e+00 0.000000000000000000e+00 0.000000000000000000e+00 0.000000000000000000e+00
-5.871514779247073434e-01 -5.509781338569644804e-01 5.698474793321142151e-01 -1.673595548213128170e+00 -6.964266207515345825e-04 0.000000000000000000e+00 0.000000000000000000e+00 0.000000000000000000e+00 0.000000000000000000e+00 0.000000000000000000e+00
-5.871514779247073434e-01 -5.509781338569644804e-01 5.698474793321142151e-01 -1.673595548213128170e+00 -6.964266207515345825e-04 0.000000000000000000e+00 0.000000000000000000e+00 0.000000000000000000e+00 0.000000000000000000e+00 0.000000000000000000e+00
