3.857940221520249069e-01 -4.740453743230096384e-01 6.801231526975065611e-02
3.857940221520249069e-01 -4.740453743230096384e-01 6.801231526975065611e-02
3.857940221520249069e-01 -4.740453743230096384e-01 6.801231526975065611e-02
3.857940221520249069e-01 -4.740453743230096384e-01 6.801231526975065611e-02
3.857940221520249069e-01 -4.740453743230096384e-01 6.801231526975065611e-02
3.857940221520249069e-01 -4.740453743230096384e-01 6.801231526975065611e-02
3.857940221520249069e-01 -4.740453743230096384e-01 6.801231526975065611e-02
3.857940221520249069e-01 -4.740453743230096384e-01 6.801231526975065611e-02
3.857940221520249069e-01 -4.740453743230096384e-01 6.801231526975065611e-02
3.857940221520249069e-01 -4.740453743230096384e-01 6.801231526975065611e-02
3.857940221520249069e-01 -4.740453743230096384e-01 6.801231526975065611e-02
3.857940221520249069e-01 -4.740453743230096384e-01 6.801231526975065611e-02
3.857940221520249069e-01 -4.740453743230096384e-01 6.801231526975065611e-02
3.857940221520249069e-01 -4.740453743230096384e-01 6.801231526975065611e-02
3.857940221520249069e-01 -4.740453743230096384e-01 6.801231526975065611e-02
3.857940221520249069e-01 -4.740453743230096384e-01 6.801231526975065611e-02
3.857940221520249069e-01 -4.740453743230096384e-01 6.801231526975065611e-02
3.857940221520249069e-01 -4.740453743230096384e-01 6.801231526975065611e-02
3.857940221520249069e-01 -4.740453743230096384e-01 6.801231526975065611e-02
3.857940221520249069e-01 -4.740453743230096384e-01 6.801231526975065611e-02
3.857940221520249069e-01 -4.740453743230096384e-01 6.801231526975065611e-02
3.857940221520249069e-01 -4.740453743230096384e-01 6.801231526975065611e-02
3.857940221520249069e-01 -4.740453743230096384e-01 6.801231526975065611e-02
3.857940221520249069e-01 -4.740453743230096384e-01 6.801231526975065611e-02
3.857940221520249069e-01 -4.740453743230096384e-01 6.801231526975065611e-02
3.857940221520249069e-01 -4.740453743230096384e-01 6.801231526975065611e-02
3.857940221520249069e-01 -4.740453743230096384e-01 6.801231526975065611e-02
3.857940221520249069e-01 -4.740453743230096384e-01 6.801231526975065611e-02
3.857940221520249069e-01 -4.740453743230096384e-01 6.801231526975065611e-02
3.857940221520249069e-01 -4.740453743230096384e-01 6.801231526975065611e-02
