﻿Objects
800
,,Global Angle elbow:elbow,,,,,,Global Angle shoulder:shoulder,,,,,,Global Angle wrist:wrist,,,,,,
Frame,Sub Frame,RX,RY,RZ,TX,TY,TZ,RX,RY,RZ,TX,TY,TZ,RX,RY,RZ,TX,TY,TZ
,,rad,rad,rad,mm,mm,mm,rad,rad,rad,mm,mm,mm,rad,rad,rad,mm,mm,mm
22,0,-0.154418,0.186401,2.647642,-69.361900,53.407494,36.406845,0.232130,2.326862,-1.281258,-50.166367,223.441696,270.786255,2.096874,0.532637,0.459912,144.977158,86.770660,-233.954636
23,0,-0.160154,0.188092,2.647794,-68.971992,53.239948,36.644379,0.229776,2.329887,-1.273481,-50.189747,223.489685,270.889923,2.095543,0.532900,0.466096,146.151627,86.481888,-233.076431
24,0,-0.163034,0.189273,2.646003,-68.574913,53.091381,36.903461,0.234622,2.320493,-1.288943,-50.219154,223.539581,270.993073,2.095846,0.535415,0.471277,147.391769,86.205856,-232.195557
25,0,-0.168033,0.191635,2.647578,-68.173340,52.933250,37.152386,0.229938,2.327777,-1.273452,-50.245754,223.584549,271.090393,2.095381,0.538021,0.476877,148.621948,85.907524,-231.273254
26,0,-0.172760,0.190267,2.647000,-67.796471,52.784672,37.383873,0.235562,2.316904,-1.292402,-50.270226,223.630051,271.182648,2.093230,0.537692,0.482916,149.845459,85.619957,-230.332748
27,0,-0.176292,0.191290,2.647078,-67.386032,52.626762,37.623020,0.229197,2.326742,-1.272195,-50.303085,223.684235,271.281128,2.092812,0.537984,0.487075,151.079559,85.343506,-229.352203
28,0,-0.181972,0.192981,2.646059,-66.945084,52.467636,37.875313,0.233911,2.317281,-1.287622,-50.334244,223.739304,271.386536,2.090171,0.541622,0.495121,152.402985,85.023598,-228.380310
29,0,-0.183967,0.193808,2.647727,-66.524094,52.314308,38.121429,0.235315,2.313775,-1.291790,-50.367603,223.797089,271.492493,2.088799,0.539274,0.498404,153.620956,84.766319,-227.344757
30,0,-0.190817,0.194885,2.645704,-66.085167,52.156708,38.379616,0.230105,2.321513,-1.275052,-50.390247,223.856842,271.600769,2.085074,0.541819,0.505410,154.942596,84.463013,-226.296417
31,0,-0.194403,0.193282,2.646400,-65.640770,52.006084,38.620785,0.225315,2.328739,-1.259276,-50.424755,223.912216,271.702698,2.084332,0.540806,0.509032,156.250076,84.222908,-225.231125
32,0,-0.200081,0.194481,2.646222,-65.189293,51.842422,38.869656,0.220465,2.335811,-1.243355,-50.465782,223.970520,271.812561,2.079639,0.542708,0.518189,157.594269,83.907822,-224.176483
33,0,-0.204848,0.196774,2.644577,-64.723206,51.680424,39.127350,0.222830,2.330803,-1.250521,-50.503334,224.025696,271.916077,2.076848,0.544606,0.523862,158.926071,83.626488,-223.076782
34,0,-0.209501,0.197001,2.646796,-64.252113,51.522160,39.406315,0.225918,2.324687,-1.259254,-50.562027,224.078339,272.029236,-0.488930,-1.046769,-0.831237,170.849182,83.815765,-218.740784
35,0,-0.214031,0.197173,2.645858,-63.770958,51.361141,39.649681,0.221806,2.330606,-1.245457,-50.616745,224.133621,272.144623,-0.487722,-1.052591,-0.831915,172.222427,83.610291,-217.522324
36,0,-0.220410,0.197656,2.644826,-63.280823,51.186695,39.893826,0.225758,2.322725,-1.257885,-50.682526,224.192490,272.259796,-0.487402,-1.056454,-0.832152,173.644150,83.391045,-216.347855
37,0,-0.223683,0.197578,2.646229,-62.783524,51.017204,40.161640,0.224605,2.323388,-1.254356,-50.746178,224.251526,272.373962,-0.486764,-1.062386,-0.832905,175.061737,83.161232,-215.130264
38,0,-0.228937,0.199130,2.643874,-62.307041,50.851784,40.422176,0.221585,2.327165,-1.244169,-50.814678,224.307495,272.503632,-0.485681,-1.068154,-0.832770,176.486557,82.951706,-213.868011
39,0,-0.234363,0.199592,2.644869,-61.759399,50.675602,40.672344,0.230934,2.310644,-1.272549,-50.868465,224.371109,272.622437,-0.485819,-1.072576,-0.833704,177.940353,82.729439,-212.625458
40,0,-0.238048,0.198441,2.645701,-61.236370,50.508240,40.935581,0.225649,2.318045,-1.255811,-50.925106,224.433075,272.731049,-0.483825,-1.080345,-0.834211,179.425903,82.533073,-211.323502
41,0,-0.242938,0.199716,2.644450,-60.727280,50.330242,41.191856,0.214232,2.333994,-1.224227,-51.010017,224.470291,272.860962,-0.484541,-1.084798,-0.834538,180.895767,82.310760,-210.052765
42,0,-0.248515,0.200088,2.644276,-60.140518,50.137329,41.462856,0.204121,2.348554,-1.193082,-51.074066,224.536118,272.969727,-0.482632,-1.091636,-0.835148,182.412811,82.123688,-208.724472
43,0,-0.254041,0.200091,2.645392,-59.584274,49.958466,41.741787,0.194291,2.362185,-1.161836,-51.140041,224.597717,273.102112,-0.482994,-1.097032,-0.836158,183.951675,81.919914,-207.400925
44,0,-0.259024,0.200484,2.644879,-59.024410,49.757973,41.992939,0.193358,2.363810,-1.153182,-51.194706,224.674561,273.212921,-0.481430,-1.104484,-0.836125,185.482040,81.723206,-206.052322
45,0,-0.265244,0.200201,2.643115,-58.434456,49.584286,42.276939,0.197229,2.356442,-1.165383,-51.260971,224.740036,273.340118,-0.480438,-1.110108,-0.836755,187.056198,81.533043,-204.683182
46,0,-0.271657,0.201202,2.643579,-57.837704,49.379097,42.542572,0.203306,2.345570,-1.184694,-51.342262,224.798080,273.464020,-0.480301,-1.115103,-0.837599,188.572784,81.357727,-203.334839
47,0,-0.276295,0.201885,2.643687,-57.228874,49.178413,42.809288,0.209800,2.334247,-1.203955,-51.426792,224.869461,273.586884,-0.478496,-1.121291,-0.838037,190.186661,81.166130,-201.926575
48,0,-0.280353,0.199642,2.644111,-56.638073,48.992222,43.075169,0.226427,2.306119,-1.254826,-51.515766,224.937057,273.711304,-0.478399,-1.127984,-0.839077,191.784729,80.984474,-200.530716
49,0,-0.286621,0.200600,2.642914,-56.031574,48.788872,43.349464,0.231198,2.297060,-1.268480,-51.601337,225.003830,273.837463,-0.470552,-1.132795,-0.843323,193.286621,80.582214,-198.905609
50,0,-0.293423,0.200143,2.642040,-55.381222,48.594318,43.633801,0.231893,2.294528,-1.270158,-51.675266,225.066254,273.951538,-0.468959,-1.138153,-0.844852,194.942154,80.429604,-197.505920
51,0,-0.298468,0.201138,2.642047,-54.699253,48.375263,43.893795,0.226473,2.301674,-1.253495,-51.749767,225.133224,274.068390,-0.467258,-1.142801,-0.844998,196.590851,80.271362,-196.058899
52,0,-0.304419,0.200676,2.641877,-54.048996,48.177364,44.169605,0.231976,2.291352,-1.269270,-51.822910,225.202118,274.198547,-0.465731,-1.146595,-0.845863,198.244415,80.124153,-194.629776
53,0,-0.311625,0.199856,2.641405,-53.368477,47.985851,44.456165,0.222939,2.304497,-1.240915,-51.909576,225.272125,274.331451,-0.463707,-1.152496,-0.847353,199.961441,79.992264,-193.169159
54,0,-0.314766,0.200499,2.640959,-52.702194,47.775753,44.726929,0.228482,2.293941,-1.257723,-52.011662,225.331390,274.450226,-0.460509,-1.157863,-0.847659,201.696671,79.871910,-191.693085
55,0,-2.251996,1.952490,-0.473779,-52.079376,47.458920,44.965225,0.228253,2.292764,-1.256937,-52.109001,225.396927,274.569031,-0.458129,-1.163265,-0.847872,203.417969,79.743439,-190.226852
56,0,-2.250908,1.949672,-0.478521,-51.377396,47.248920,45.214672,0.235619,2.279222,-1.278705,-52.208118,225.463425,274.699799,-0.456772,-1.167805,-0.849039,205.163330,79.622086,-188.730453
57,0,-2.248446,1.947348,-0.484949,-50.675922,47.057697,45.518627,0.236380,2.276369,-1.280401,-52.303032,225.535477,274.832825,-0.454020,-1.173179,-0.850015,206.959259,79.509262,-187.223175
58,0,-2.247573,1.944485,-0.487925,-49.944038,46.845806,45.777790,0.225077,2.292939,-1.246099,-52.393299,225.602356,274.966125,-0.451059,-1.177876,-0.850172,208.746765,79.415680,-185.704590
59,0,-2.245263,1.940970,-0.495685,-49.171982,46.638107,46.077206,0.220073,2.298747,-1.231990,-52.482758,225.671051,275.090057,-0.447351,-1.183651,-0.850594,210.530441,79.331512,-184.175171
60,0,-2.243864,1.938944,-0.500393,-48.418446,46.438702,46.362602,0.218563,2.299350,-1.226951,-52.588543,225.733978,275.223419,-0.445138,-1.188777,-0.851022,212.353622,79.259964,-182.613449
61,0,-2.243098,1.935404,-0.506182,-47.647972,46.231373,46.656815,0.225978,2.286013,-1.248589,-52.683388,225.805756,275.349487,-0.441595,-1.193742,-0.851366,214.195190,79.198082,-181.025269
62,0,-2.240680,1.931356,-0.513238,-46.867939,46.033722,46.958496,0.226363,2.283544,-1.249575,-52.795834,225.865158,275.478912,-0.438371,-1.198871,-0.852018,216.036407,79.129463,-179.441116
63,0,-2.238665,1.928800,-0.522744,-46.001369,45.874126,47.299313,0.233148,2.270841,-1.269815,-52.915344,225.931168,275.597321,-0.435176,-1.204102,-0.851949,217.878845,79.071976,-177.844025
64,0,-2.236540,1.925636,-0.528076,-45.192455,45.686504,47.615398,0.244531,2.250486,-1.302954,-53.027122,225.999252,275.729523,-0.432142,-1.209087,-0.851209,219.744705,79.022560,-176.223785
65,0,-2.235350,1.922500,-0.533990,-44.374481,45.485905,47.905777,0.245460,2.247224,-1.304900,-53.140083,226.066055,275.870911,-0.428107,-1.214665,-0.850400,221.648575,78.992767,-174.577362
66,0,-2.233469,1.918815,-0.539244,-43.545795,45.300987,48.211720,0.236512,2.259627,-1.279042,-53.238045,226.137909,275.994263,-0.424618,-1.219531,-0.850541,223.560318,78.972206,-172.924286
67,0,-2.231650,1.917109,-0.543550,-42.684788,45.114758,48.529079,0.237727,2.255467,-1.283154,-53.357655,226.204758,276.121796,-0.421229,-1.225069,-0.850450,225.476059,78.951569,-171.232224
68,0,-2.229666,1.912797,-0.550435,-41.831970,44.925037,48.832172,0.232456,2.261749,-1.268111,-53.487785,226.268448,276.246918,-0.418216,-1.230107,-0.849315,227.402405,78.947823,-169.530762
69,0,-2.228127,1.909189,-0.557148,-40.968178,44.731461,49.145695,0.230595,2.262520,-1.262577,-53.610031,226.337616,276.378021,-0.414495,-1.235999,-0.848556,229.333755,78.959297,-167.805756
70,0,-2.226424,1.905936,-0.562555,-40.096024,44.553371,49.477760,0.243943,2.239203,-1.300621,-53.732338,226.398666,276.506836,-0.410239,-1.241880,-0.847219,231.285553,78.983101,-166.068253
71,0,-2.224343,1.902527,-0.569888,-39.195923,44.371063,49.807827,0.239700,2.243861,-1.288302,-53.862453,226.465912,276.628693,-0.405382,-1.247882,-0.845947,233.270142,79.017738,-164.294250
72,0,-2.223321,1.898556,-0.576047,-38.275429,44.188038,50.121296,0.239612,2.241655,-1.288616,-53.974224,226.534256,276.750397,-0.402305,-1.253558,-0.845383,235.263931,79.053947,-162.520660
73,0,-2.221733,1.894376,-0.582606,-37.343273,44.015255,50.464802,0.238493,2.241322,-1.285065,-54.082775,226.606720,276.883698,-0.420132,-1.276223,-0.845580,237.463013,79.173141,-160.857422
74,0,-2.220715,1.890900,-0.587906,-36.401714,43.834759,50.785870,0.232971,2.247511,-1.269776,-54.217003,226.676819,277.021790,-0.415972,-1.284395,-0.843339,239.457306,79.243767,-159.021973
75,0,-2.218973,1.886590,-0.594004,-35.468643,43.667900,51.156345,0.243034,2.229314,-1.298509,-54.354408,226.749741,277.144501,-0.412595,-1.292662,-0.840751,241.471024,79.328117,-157.164505
76,0,-2.216987,1.883214,-0.599360,-34.521309,43.485298,51.488914,0.256830,2.204777,-1.337266,-54.500706,226.812531,277.266479,-0.410607,-1.298813,-0.839410,243.509155,79.417274,-155.332443
77,0,-2.215716,1.879190,-0.605656,-33.553429,43.314182,51.850498,0.259552,2.198206,-1.344458,-54.626400,226.881485,277.392426,-0.407245,-1.305255,-0.837708,245.529221,79.539009,-153.422989
78,0,-2.213043,1.875021,-0.612946,-32.555199,43.150772,52.212387,0.247748,2.214687,-1.311837,-54.759224,226.952164,277.519531,-0.405192,-1.312281,-0.835674,247.568771,79.645813,-151.515564
79,0,-2.212381,1.870748,-0.619071,-31.541210,42.977726,52.565887,0.239468,2.225477,-1.288850,-54.888126,227.024429,277.637695,-0.400925,-1.319327,-0.833211,249.605927,79.788696,-149.595169
80,0,-2.211106,1.866644,-0.624188,-30.521404,42.812908,52.939754,0.232080,2.234471,-1.268728,-55.029545,227.092743,277.764923,-0.398043,-1.328560,-0.830492,251.659714,79.928955,-147.617188
81,0,-2.208308,1.862334,-0.630421,-29.512634,42.646320,53.323738,0.236081,2.225785,-1.279667,-55.172066,227.167267,277.898376,-0.396785,-1.336441,-0.827834,253.747818,80.074455,-145.691071
82,0,-2.206727,1.858939,-0.635709,-28.479092,42.480843,53.685432,0.239131,2.218652,-1.287896,-55.309929,227.244858,278.024323,-0.392978,-1.344701,-0.826480,255.825287,80.248642,-143.699463
83,0,-2.204632,1.853845,-0.641940,-27.382172,42.325954,54.069344,0.235574,2.221567,-1.278290,-55.451416,227.313568,278.132050,-0.390571,-1.351219,-0.825417,257.903809,80.450462,-141.695724
84,0,-2.202967,1.849325,-0.649060,-26.338079,42.175365,54.464901,0.230938,2.226016,-1.265810,-55.588200,227.386322,278.248474,-0.387309,-1.358622,-0.821019,259.941803,80.659523,-139.695251
85,0,-2.201099,1.846221,-0.653652,-25.280268,42.020470,54.859344,0.236386,2.215328,-1.280304,-55.729015,227.450439,278.370056,-0.383962,-1.366115,-0.819599,262.017395,80.874947,-137.673141
86,0,-2.199322,1.841203,-0.661201,-24.178946,41.864685,55.251743,0.220005,2.237031,-1.235887,-55.881222,227.521164,278.498932,-0.382784,-1.375826,-0.818595,264.139984,81.102287,-135.610260
87,0,-2.196851,1.835667,-0.668329,-23.073565,41.725559,55.674244,0.228778,2.221393,-1.260292,-56.023125,227.596985,278.617828,-0.379480,-1.384084,-0.815171,266.223633,81.341370,-133.537079
88,0,-2.195034,1.831483,-0.674134,-21.976234,41.584843,56.092808,0.227328,2.221137,-1.256043,-56.165016,227.679840,278.741821,-0.376993,-1.392228,-0.813386,268.339874,81.599167,-131.459137
89,0,-2.194722,1.826143,-0.678795,-20.845852,41.442463,56.509502,0.216766,2.233736,-1.227905,-56.305855,227.750183,278.869110,-0.374285,-1.399891,-0.810480,270.430084,81.868179,-129.347305
90,0,-2.192429,1.822438,-0.686392,-19.691648,41.306900,56.938789,0.202840,2.250675,-1.190851,-56.452267,227.819397,278.986206,-0.372034,-1.406874,-0.808038,272.508453,82.162079,-127.234756
91,0,-2.189988,1.817119,-0.691909,-18.538267,41.172970,57.380630,0.206495,2.242988,-1.200906,-56.588493,227.893173,279.095032,-0.369941,-1.414537,-0.807372,274.619263,82.460373,-125.104057
92,0,-2.188197,1.812150,-0.697645,-17.366718,41.048687,57.835041,0.203281,2.244344,-1.193498,-56.731850,227.959793,279.206543,-0.367521,-1.422561,-0.803663,276.729340,82.769676,-122.950035
93,0,-2.186256,1.807656,-0.705805,-16.207693,40.916336,58.267990,0.195180,2.252589,-1.171767,-56.887897,228.041885,279.332794,-0.363855,-1.431768,-0.803162,278.874115,83.105728,-120.767967
94,0,-2.185389,1.802011,-0.710575,-15.029611,40.802620,58.725254,0.194514,2.250749,-1.169967,-57.016758,228.116226,279.452179,-0.361083,-1.438621,-0.799728,280.978302,83.442078,-118.583626
95,0,-2.182967,1.797407,-0.717142,-13.824985,40.693840,59.191322,0.190850,2.252729,-1.161171,-57.152409,228.189835,279.565399,-0.359094,-1.446878,-0.797958,283.094543,83.773788,-116.412552
96,0,-2.180810,1.792167,-0.723396,-12.587621,40.580818,59.665504,0.182948,2.260179,-1.141166,-57.282429,228.263367,279.674500,-0.355951,-1.454156,-0.796067,285.199677,84.164238,-114.178375
97,0,-2.178991,1.787036,-0.728983,-11.382117,40.475750,60.156128,0.182275,2.258137,-1.139125,-57.420067,228.342438,279.804016,-0.352746,-1.462671,-0.794510,287.325134,84.546982,-111.953239
98,0,-2.176541,1.781698,-0.736786,-10.152769,40.372581,60.641521,0.180686,2.257125,-1.135543,-57.558876,228.418198,279.920624,-0.349310,-1.469383,-0.791933,289.429596,84.950638,-109.723969
99,0,-2.175273,1.776534,-0.742681,-8.913542,40.272964,61.127003,0.181056,2.253411,-1.137730,-57.692966,228.493637,280.018066,-0.346691,-1.476598,-0.790062,291.549561,85.359528,-107.469475
100,0,-2.173467,1.771826,-0.747209,-7.643748,40.187477,61.631027,0.174462,2.258954,-1.120707,-57.831871,228.569870,280.134979,-0.343785,-1.484543,-0.788272,293.669250,85.804146,-105.197510
101,0,-2.172065,1.766453,-0.753939,-6.351861,40.105991,62.126503,0.166209,2.266266,-1.099986,-57.947041,228.648392,280.243683,-0.341222,-1.492548,-0.786514,295.784119,86.261246,-102.883583
102,0,-2.170909,1.760385,-0.760496,-5.113611,40.016071,62.655212,0.157308,2.273974,-1.078087,-58.083481,228.719879,280.359131,-0.338616,-1.500490,-0.784943,297.918091,86.710854,-100.598900
103,0,-2.168126,1.755589,-0.766346,-3.804688,39.941265,63.176392,0.155535,2.272714,-1.075006,-58.220940,228.796967,280.468628,-0.335261,-1.508145,-0.782345,300.051636,87.189651,-98.284470
104,0,-2.166877,1.749749,-0.771988,-2.502633,39.868298,63.723469,0.157047,2.267833,-1.079349,-58.338501,228.870193,280.590332,-0.332797,-1.516397,-0.780182,302.153900,87.679443,-95.935974
105,0,-2.164892,1.743989,-0.778818,-1.198162,39.792934,64.262909,0.156056,2.265662,-1.077769,-58.471020,228.949860,280.706482,-0.330721,-1.524752,-0.777522,304.262573,88.181671,-93.587486
106,0,-2.163432,1.736953,-0.784769,0.118146,39.738445,64.812538,0.153877,2.265034,-1.072920,-58.594540,229.029236,280.812103,-0.320807,-1.538039,-0.786736,306.569946,88.778610,-91.257240
107,0,-2.160821,1.732550,-0.789917,1.461637,39.688194,65.374207,0.150942,2.265290,-1.066403,-58.704468,229.109100,280.914825,-0.317062,-1.545931,-0.784848,308.596466,89.258362,-88.801544
108,0,-2.160136,1.726301,-0.795849,2.806512,39.638325,65.946480,0.138820,2.276235,-1.037118,-58.808716,229.188461,281.016998,-0.316740,-1.551762,-0.780328,310.745728,89.874313,-86.494919
109,0,-2.158247,1.720423,-0.802596,4.135365,39.593597,66.517250,0.133357,2.279051,-1.024199,-58.934738,229.268967,281.128967,-0.314402,-1.557838,-0.777591,312.870361,90.444901,-84.085197
110,0,-2.155478,1.714954,-0.808128,5.517750,39.551334,67.088692,0.133677,2.275341,-1.026131,-59.046677,229.343475,281.238281,-0.311584,-1.563861,-0.774095,314.959015,91.035172,-81.678551
111,0,-2.154409,1.708791,-0.814060,6.892164,39.516033,67.684769,0.137128,2.268077,-1.035853,-59.153965,229.423889,281.347626,-0.308462,-1.569643,-0.768018,316.946991,91.619049,-79.343231
112,0,-2.151653,1.703013,-0.820756,8.267655,39.491238,68.286987,0.132236,2.270147,-1.024676,-59.265614,229.504456,281.463959,-0.305331,-1.576280,-0.765596,319.084198,92.254387,-76.856918
113,0,-2.150616,1.697753,-0.825846,9.677760,39.462303,68.910118,0.121296,2.278768,-0.999137,-59.358341,229.590042,281.572205,-0.301964,-1.583437,-0.763212,321.179321,92.903015,-74.363106
114,0,-2.148012,1.691973,-0.832361,11.064707,39.437313,69.537003,0.127447,2.268580,-1.015491,-59.440727,229.675354,281.675323,-0.299217,-1.591573,-0.760348,323.269257,93.576279,-71.845665
115,0,-2.145603,1.684960,-0.839143,12.477939,39.416016,70.164955,0.121025,2.272286,-1.001344,-59.530945,229.751495,281.770630,-0.295472,-1.596863,-0.757720,325.372192,94.269218,-69.335945
116,0,-2.143662,1.678321,-0.845480,13.889689,39.392914,70.804817,0.119541,2.270349,-0.998600,-59.630329,229.836441,281.877777,-0.293485,-1.604765,-0.756194,327.467468,94.952423,-66.794121
117,0,-2.141686,1.672280,-0.852127,15.318927,39.392658,71.460625,0.111027,2.276096,-0.979090,-59.710346,229.918594,281.988434,-0.289210,-1.611129,-0.752283,329.513458,95.690979,-64.253502
118,0,-2.140049,1.666668,-0.857195,16.750004,39.394958,72.106796,0.120088,2.262701,-1.002921,-59.791046,230.007004,282.094910,-0.286610,-1.618650,-0.750754,331.621246,96.412140,-61.682636
119,0,-2.138070,1.660186,-0.863186,18.211445,39.398655,72.767418,0.113296,2.266613,-0.988045,-59.886284,230.083237,282.204590,-0.286994,-1.628346,-0.747033,333.650787,97.120728,-59.152500
120,0,-2.136874,1.653725,-0.868002,19.644489,39.411591,73.452583,0.112021,2.264408,-0.986011,-59.963696,230.166901,282.321686,-0.284338,-1.635178,-0.745740,335.736633,97.882645,-56.571594
121,0,-2.134367,1.648076,-0.873991,21.130459,39.434170,74.133369,0.110001,2.263290,-0.982509,-60.013855,230.249420,282.426941,-0.281208,-1.644246,-0.742790,337.765930,98.661957,-53.972271
122,0,-2.132129,1.640759,-0.879891,22.582050,39.460865,74.851234,0.107473,2.262546,-0.978182,-60.073254,230.334106,282.525391,-0.277923,-1.651560,-0.740841,339.823700,99.451218,-51.369305
123,0,-2.129814,1.634576,-0.885475,24.081629,39.495827,75.545128,0.091857,2.275127,-0.943053,-60.142426,230.416763,282.626007,-0.269747,-1.660055,-0.741931,341.927948,100.380455,-48.651379
124,0,-2.128523,1.628392,-0.890854,25.558975,39.536285,76.247055,0.082418,2.280989,-0.922111,-60.200821,230.497360,282.737915,-0.265681,-1.665945,-0.740040,343.922577,101.225204,-46.031391
125,0,-2.126359,1.622199,-0.896851,27.057302,39.589619,76.972176,0.084194,2.275823,-0.928096,-60.226158,230.578796,282.839661,-0.263436,-1.673188,-0.738621,345.925690,102.051537,-43.419109
126,0,-2.123496,1.614948,-0.903193,28.561024,39.646500,77.709442,0.081550,2.274754,-0.924557,-60.275711,230.665558,282.949158,-0.259391,-1.679994,-0.736064,347.921936,102.916893,-40.782684
127,0,-2.121931,1.608612,-0.908575,30.043110,39.708054,78.458832,0.082242,2.270232,-0.928117,-60.326740,230.749481,283.061646,-0.255930,-1.687850,-0.734622,349.903381,103.788780,-38.121887
128,0,-2.120432,1.603196,-0.914067,31.578493,39.775646,79.196716,0.073245,2.275388,-0.909060,-60.371021,230.824661,283.177582,-0.253343,-1.693046,-0.733002,351.862610,104.676170,-35.477161
129,0,-2.118600,1.594849,-0.919765,33.089985,39.852467,79.971878,0.075277,2.269630,-0.916192,-60.378723,230.909714,283.274750,-0.249134,-1.700162,-0.730759,353.833771,105.601997,-32.763153
130,0,-2.116464,1.588523,-0.926406,34.639923,39.940117,80.746231,0.078995,2.262134,-0.927225,-60.381695,230.987381,283.369110,-0.247094,-1.707478,-0.728853,355.789734,106.515747,-30.080093
131,0,-2.115494,1.582576,-0.931403,36.159828,40.032177,81.525444,0.068094,2.269070,-0.904019,-60.420742,231.060211,283.476501,-0.242951,-1.713538,-0.727311,357.747559,107.460007,-27.373857
132,0,-2.112534,1.574828,-0.938121,37.709648,40.130898,82.323540,0.059178,2.273617,-0.885601,-60.449345,231.139191,283.591797,-0.239411,-1.720720,-0.725057,359.682404,108.420471,-24.654835
133,0,-2.110699,1.568144,-0.943733,39.269352,40.235283,83.126976,0.062310,2.266812,-0.895517,-60.450558,231.220642,283.695740,-0.236007,-1.731985,-0.729809,361.531708,109.404663,-21.988504
134,0,-2.108475,1.561459,-0.948616,40.812935,40.347118,83.927513,0.064077,2.261496,-0.902087,-60.433426,231.303940,283.799438,-0.232152,-1.737947,-0.728236,363.445740,110.395859,-19.256556
135,0,-2.104892,1.554874,-0.954261,42.382694,40.479820,84.780197,0.062763,2.258737,-0.901825,-60.443008,231.374634,283.917145,-0.228681,-1.746822,-0.727852,365.388336,111.409950,-16.478840
136,0,-2.105161,1.548271,-0.958804,43.934273,40.610092,85.616814,0.053799,2.263131,-0.883645,-60.439392,231.456497,284.034515,-0.225908,-1.753468,-0.725959,367.278900,112.443108,-13.706697
137,0,-2.102186,1.540059,-0.966047,45.543270,40.754738,86.463448,0.057865,2.254979,-0.896105,-60.421932,231.531342,284.134125,-0.221508,-1.762181,-0.724881,369.186768,113.501244,-10.904057
138,0,-2.100439,1.533865,-0.970281,47.114601,40.896191,87.308815,0.053422,2.255181,-0.888864,-60.401436,231.609482,284.242493,-0.217447,-1.768966,-0.722692,371.067474,114.552315,-8.118211
139,0,-2.096763,1.526317,-0.976580,48.685104,41.055584,88.170898,0.054909,2.249852,-0.895170,-60.362614,231.687897,284.357330,-0.213934,-1.777069,-0.722277,372.935669,115.629433,-5.282961
140,0,-2.096108,1.520300,-0.981105,50.286598,41.225243,89.054924,0.059970,2.240807,-0.909097,-60.329136,231.770966,284.479706,-0.210523,-1.784646,-0.720871,374.798004,116.724411,-2.485332
141,0,-2.094035,1.511913,-0.986613,51.890568,41.411369,89.952156,0.047175,2.248675,-0.883386,-60.290100,231.847000,284.588257,-0.206850,-1.791860,-0.719819,376.673645,117.846207,0.350912
142,0,-2.091515,1.505003,-0.991818,53.499290,41.593895,90.832527,0.051177,2.240359,-0.895441,-60.246529,231.927322,284.707581,-0.202541,-1.798594,-0.720022,378.503754,118.996536,3.196982
143,0,-2.089472,1.497464,-0.998366,55.094517,41.796616,91.747528,0.052223,2.234911,-0.900860,-60.202293,232.006470,284.827515,-0.198962,-1.805390,-0.718403,380.367462,120.142815,6.036331
144,0,-2.088078,1.491439,-1.002664,56.706387,42.004181,92.677086,0.049751,2.233185,-0.898966,-60.152065,232.079529,284.949554,-0.194381,-1.812058,-0.717574,382.154907,121.315849,8.895370
145,0,-2.084529,1.483514,-1.008527,58.327702,42.213741,93.606087,0.048891,2.229897,-0.900153,-60.087231,232.164597,285.076630,-0.190647,-1.819290,-0.716838,383.959259,122.508316,11.758978
146,0,-2.084558,1.476089,-1.013307,59.951118,42.439205,94.537437,0.047362,2.226809,-0.899861,-60.013195,232.244171,285.208038,-0.186589,-1.826184,-0.715584,385.750336,123.712669,14.624177
147,0,-2.082110,1.469088,-1.019691,61.576046,42.672714,95.488739,0.049171,2.220087,-0.907781,-59.933697,232.325516,285.333221,-0.181928,-1.832114,-0.715223,387.512054,124.941254,17.502182
148,0,-2.078899,1.462218,-1.023721,63.186565,42.910580,96.449455,0.041231,2.223025,-0.894159,-59.866383,232.408844,285.457764,-0.178124,-1.839438,-0.714482,389.271973,126.176598,20.393913
149,0,-2.077904,1.455436,-1.030025,64.832916,43.166435,97.430779,0.033223,2.225817,-0.880682,-59.800056,232.491318,285.603943,-0.173880,-1.846281,-0.712653,391.037842,127.431068,23.287485
150,0,-2.074069,1.447183,-1.035122,66.492294,43.424725,98.403160,0.034893,2.219845,-0.888047,-59.718159,232.574265,285.733765,-0.168814,-1.852202,-0.711924,392.766754,128.713409,26.206303
151,0,-2.073833,1.439916,-1.039792,68.140823,43.701767,99.409096,0.040966,2.209287,-0.905237,-59.595291,232.661530,285.859955,-0.164007,-1.858429,-0.710916,394.481628,130.007797,29.114061
152,0,-2.070766,1.433402,-1.044837,69.767471,43.969955,100.389633,0.044713,2.201230,-0.917041,-59.479233,232.748840,286.005280,-0.160209,-1.864786,-0.710268,396.185516,131.310822,32.024277
153,0,-2.068282,1.425884,-1.049912,71.392601,44.256859,101.435417,0.028044,2.211911,-0.885987,-59.388065,232.833527,286.151825,-0.155959,-1.871578,-0.709525,397.895447,132.637070,34.966564
154,0,-2.065603,1.417956,-1.055303,73.076767,44.546921,102.432793,0.026406,2.208556,-0.886643,-59.259674,232.920425,286.285309,-0.151132,-1.877522,-0.708279,399.597809,133.988495,37.907043
155,0,-2.065182,1.410257,-1.059443,74.728752,44.846588,103.470230,0.027691,2.202254,-0.893843,-59.149837,233.006958,286.428833,-0.146243,-1.883236,-0.707735,401.282166,135.354889,40.860744
156,0,-2.061284,1.403380,-1.065072,76.385071,45.154755,104.504448,0.017875,2.206084,-0.877732,-59.035831,233.099411,286.581635,-0.141318,-1.888685,-0.705880,402.920410,136.718857,43.797287
157,0,-2.059699,1.396381,-1.070547,78.035568,45.484314,105.582916,0.010212,2.207857,-0.866503,-58.890911,233.193985,286.717834,-0.133752,-1.905535,-0.705481,404.773163,138.171829,46.989960
158,0,-2.056094,1.388167,-1.074871,79.712585,45.808159,106.621346,0.024011,2.190085,-0.899857,-58.735271,233.290802,286.856598,-0.127982,-1.912092,-0.704973,406.413879,139.582489,49.980762
159,0,-2.056016,1.381199,-1.078985,81.384850,46.149666,107.695244,0.019615,2.189364,-0.895676,-58.603897,233.382034,287.016327,-0.123502,-1.918994,-0.704895,408.057678,141.006729,52.982746
160,0,-2.052585,1.373294,-1.084142,83.046921,46.500225,108.768097,0.015394,2.188134,-0.892051,-58.444324,233.487289,287.166840,-0.118333,-1.925867,-0.702959,409.661713,142.451111,55.983395
161,0,-2.050022,1.366882,-1.089043,84.709541,46.860279,109.867294,0.018301,2.180191,-0.903321,-58.269054,233.588852,287.324036,-0.113277,-1.932456,-0.701868,411.260223,143.921417,58.972683
162,0,-2.048120,1.358706,-1.094790,86.351044,47.232143,110.990700,0.008560,2.183859,-0.888451,-58.110580,233.686325,287.485382,-0.107793,-1.938149,-0.700740,412.838623,145.399094,61.991619
163,0,-2.045643,1.351274,-1.098120,88.063126,47.608372,112.075760,0.010751,2.176790,-0.898162,-57.950180,233.786896,287.645721,-0.101608,-1.943939,-0.699767,414.428467,146.902161,65.015244
164,0,-2.042974,1.343629,-1.103249,89.699768,47.993191,113.203156,0.001465,2.179658,-0.884955,-57.764629,233.894775,287.791718,-0.095877,-1.950622,-0.698462,415.976105,148.410873,68.048683
165,0,-2.041525,1.337007,-1.108117,91.374214,48.396038,114.334793,-0.007302,2.182545,-0.872372,-57.602943,233.986969,287.963348,-0.090885,-1.956034,-0.698147,417.523529,149.938507,71.080070
166,0,-2.038235,1.328778,-1.112471,93.038116,48.804016,115.456635,-0.006500,2.175901,-0.879817,-57.399944,234.102417,288.113251,-0.084247,-1.962332,-0.695620,419.028931,151.482391,74.115860
167,0,-2.036159,1.320913,-1.117629,94.741997,49.224506,116.602982,-0.001526,2.166136,-0.895600,-57.213863,234.206818,288.276611,-0.079421,-1.968316,-0.694818,420.560303,153.031372,77.159409
168,0,-2.033507,1.313549,-1.122978,96.382912,49.658684,117.769257,-0.025950,2.182701,-0.852618,-57.035294,234.310959,288.447601,-0.074037,-1.978767,-0.695109,421.998566,154.587570,80.176659
169,0,-2.030599,1.306369,-1.128157,98.048050,50.101875,118.928322,-0.016193,2.168595,-0.878229,-56.821426,234.422119,288.615875,-0.068916,-1.984704,-0.694637,423.473663,156.181717,83.249802
170,0,-2.027289,1.298278,-1.131678,99.742416,50.550655,120.109085,-0.014245,2.161374,-0.887981,-56.622730,234.525269,288.779175,-0.061708,-1.989230,-0.692536,424.917206,157.795044,86.315491
171,0,-2.025241,1.290464,-1.137087,101.388977,51.011738,121.292526,-0.015309,2.156718,-0.891439,-56.391479,234.641068,288.944550,-0.056708,-1.996565,-0.692456,426.347473,159.411285,89.391663
172,0,-2.022417,1.283800,-1.142028,103.071075,51.493717,122.492157,-0.023995,2.158762,-0.880991,-56.178600,234.746414,289.106995,-0.049742,-2.002850,-0.689210,427.819305,161.033768,92.492905
173,0,-2.020559,1.275186,-1.146042,104.715858,51.967773,123.698715,-0.028777,2.157903,-0.877769,-55.966141,234.861099,289.292694,-0.044269,-2.009248,-0.687960,429.217072,162.688583,95.593124
174,0,-2.017180,1.267743,-1.151156,106.417633,52.461704,124.898552,-0.021673,2.145893,-0.897772,-55.714779,234.976852,289.472443,-0.038284,-2.013580,-0.687076,430.592194,164.354660,98.679871
175,0,-2.013695,1.260235,-1.154734,108.039696,52.968941,126.125443,-0.029070,2.146956,-0.889660,-55.490822,235.090820,289.635071,-0.032236,-2.020659,-0.685333,431.961456,166.017624,101.783455
176,0,-2.011464,1.253427,-1.159488,109.720963,53.483223,127.343582,-0.031204,2.143170,-0.891480,-55.235851,235.207657,289.805359,-0.025767,-2.027572,-0.682981,433.322632,167.706070,104.898613
177,0,-2.008990,1.245081,-1.163901,111.382683,54.003525,128.594391,-0.034455,2.140540,-0.891601,-54.994881,235.331024,289.992981,-0.019726,-2.032459,-0.681591,434.651215,169.420364,108.014389
178,0,-2.006307,1.237988,-1.168627,113.013687,54.537651,129.841888,-0.027279,2.128629,-0.912100,-54.771919,235.447754,290.169281,-0.014647,-2.039942,-0.679227,435.975647,171.133850,111.151833
179,0,-2.003768,1.230734,-1.173504,114.696823,55.079319,131.097412,-0.030681,2.125741,-0.912124,-54.498158,235.571457,290.350006,-0.007933,-2.046030,-0.677109,437.263611,172.862106,114.280342
180,0,-2.001321,1.222505,-1.176682,116.348900,55.636902,132.355240,-0.027808,2.117476,-0.923420,-54.252220,235.689407,290.536957,-0.001778,-2.052437,-0.675473,438.550232,174.602753,117.413193
181,0,-1.998337,1.215264,-1.182120,117.988647,56.207947,133.620697,-0.028869,2.112292,-0.927973,-53.976501,235.816910,290.707458,0.004608,-2.058245,-0.673993,439.784058,176.363113,120.524696
182,0,-1.995944,1.207256,-1.186357,119.647224,56.771423,134.898788,-0.035902,2.113078,-0.921064,-53.740982,235.940460,290.905640,0.009989,-2.065564,-0.672210,441.041565,178.123993,123.677551
183,0,-1.993278,1.199645,-1.189805,121.287071,57.365906,136.178802,-0.034402,2.105364,-0.930543,-53.453701,236.065155,291.086945,0.016701,-2.069925,-0.670050,442.224609,179.906464,126.809479
184,0,-1.990777,1.192210,-1.194582,122.929428,57.964806,137.484192,-0.045511,2.109652,-0.916450,-53.186863,236.197159,291.276245,0.022157,-2.078026,-0.667146,443.445251,181.688858,129.981247
185,0,-1.988047,1.184240,-1.197676,124.574699,58.572815,138.791458,-0.035481,2.094216,-0.940988,-52.898327,236.331421,291.458374,0.028573,-2.082637,-0.666034,444.582458,183.504211,133.107285
186,0,-1.984827,1.176712,-1.203103,126.211700,59.188343,140.096924,-0.049580,2.101508,-0.921581,-52.642097,236.462158,291.647003,0.034816,-2.090436,-0.663617,445.760193,185.317276,136.276993
187,0,-1.981807,1.168519,-1.207544,127.850044,59.817970,141.417343,-0.039756,2.086304,-0.946289,-52.353291,236.602402,291.847565,0.041335,-2.097098,-0.661464,446.900574,187.131897,139.441132
188,0,-1.978763,1.160692,-1.212185,129.477386,60.449860,142.750885,-0.045036,2.084913,-0.942944,-52.067879,236.748917,292.048889,0.047354,-2.103106,-0.660659,447.989838,188.977814,142.589111
189,0,-1.976891,1.153113,-1.215469,131.107269,61.099098,144.085617,-0.047070,2.080646,-0.945887,-51.785366,236.879410,292.219025,0.053042,-2.110675,-0.657961,449.102081,190.821762,145.761444
190,0,-1.973911,1.145105,-1.219082,132.742950,61.759983,145.429901,-0.044593,2.072250,-0.956021,-51.503281,237.023178,292.420502,0.058857,-2.117056,-0.656694,450.162567,192.667618,148.932465
191,0,-1.971534,1.137900,-1.223493,134.359177,62.429100,146.789658,-0.053122,2.073887,-0.947255,-51.210842,237.172638,292.617462,0.064886,-2.122231,-0.654702,451.213593,194.546448,152.077942
192,0,-1.968695,1.129327,-1.227651,135.980225,63.102417,148.147720,-0.051593,2.066095,-0.956740,-50.912727,237.320374,292.809570,0.071606,-2.127660,-0.653163,452.241943,196.430923,155.231934
193,0,-1.966305,1.121652,-1.232200,137.585037,63.789291,149.520386,-0.051854,2.060179,-0.961813,-50.612774,237.471085,293.003357,0.077573,-2.134887,-0.651557,453.264130,198.310486,158.383240
194,0,-1.963322,1.113220,-1.237140,139.214081,64.476776,150.890671,-0.057921,2.059340,-0.957546,-50.314522,237.629562,293.194000,0.083026,-2.140931,-0.650569,454.252502,200.199783,161.540451
195,0,-1.960565,1.106551,-1.241076,140.807632,65.180473,152.277710,-0.052249,2.047876,-0.973825,-50.024609,237.780579,293.399902,0.089667,-2.146475,-0.648572,455.226929,202.122223,164.698318
196,0,-1.957543,1.097847,-1.244587,142.438507,65.894905,153.658066,-0.053016,2.042244,-0.978460,-49.710442,237.944397,293.602997,0.095655,-2.151932,-0.646971,456.183563,204.030289,167.860992
197,0,-1.954263,1.090372,-1.248408,144.037491,66.621025,155.063736,-0.063696,2.045828,-0.965682,-49.392838,238.099701,293.786102,0.102344,-2.158147,-0.645337,457.114105,205.958374,171.025833
198,0,-1.952373,1.082197,-1.251624,145.636078,67.346886,156.478867,-0.072541,2.047803,-0.956069,-49.087357,238.261002,293.979370,0.108217,-2.164966,-0.645541,458.007355,207.896790,174.173950
199,0,-1.949390,1.074804,-1.256590,147.245117,68.090981,157.887039,-0.069012,2.038225,-0.968439,-48.776707,238.426178,294.190521,0.114545,-2.170950,-0.644952,458.899445,209.843353,177.336258
200,0,-1.946686,1.066518,-1.260335,148.859192,68.842705,159.311356,-0.065603,2.028772,-0.980186,-48.470985,238.589478,294.390381,0.120260,-2.176184,-0.644715,459.760986,211.807083,180.482071
201,0,-1.944423,1.058920,-1.263459,150.432617,69.599419,160.758942,-0.060093,2.017154,-0.994741,-48.130894,238.762115,294.583130,0.126897,-2.181390,-0.642962,460.625824,213.775314,183.632431
202,0,-1.941453,1.050889,-1.267292,152.032013,70.375046,162.194412,-0.093682,2.042063,-0.943228,-47.828686,238.925446,294.774994,0.145281,-2.174352,-0.644542,461.362091,215.956375,186.723694
203,0,-1.938720,1.043359,-1.270977,153.604599,71.144707,163.635056,-0.082612,2.025518,-0.968323,-47.506729,239.095734,294.990540,0.151014,-2.178979,-0.643555,462.169067,217.916473,189.846954
204,0,-1.935167,1.035576,-1.275200,155.198334,71.932228,165.093567,-0.100435,2.035537,-0.943190,-47.194279,239.271118,295.194519,0.156937,-2.183117,-0.642016,462.965454,219.901672,192.975647
205,0,-1.932427,1.027300,-1.278947,156.776581,72.725883,166.549896,-0.094012,2.023135,-0.960028,-46.844868,239.446854,295.369263,0.162786,-2.187456,-0.640849,463.740173,221.887543,196.096390
206,0,-1.929538,1.019946,-1.283199,158.367447,73.531723,168.028305,-0.115627,2.036649,-0.928939,-46.526459,239.626892,295.580566,0.167814,-2.192117,-0.640254,464.493439,223.872604,199.221451
207,0,-1.927681,1.011394,-1.285376,159.943542,74.338135,169.499481,-0.109418,2.024405,-0.945651,-46.183334,239.803345,295.781982,0.173978,-2.197253,-0.639787,465.223541,225.893417,202.333313
208,0,-1.923708,1.003840,-1.289374,161.498825,75.164757,170.982910,-0.112518,2.021017,-0.945545,-45.850677,239.976929,295.970093,0.180084,-2.201940,-0.639525,465.918549,227.906830,205.444122
209,0,-1.921425,0.995502,-1.292961,163.058411,75.995766,172.471115,-0.122228,2.023292,-0.934300,-45.499706,240.160446,296.173553,0.186572,-2.205311,-0.638886,466.629913,229.923843,208.564102
210,0,-1.919330,0.987322,-1.296827,164.621536,76.840157,173.981644,-0.126062,2.020481,-0.934170,-45.159378,240.336945,296.368622,0.192673,-2.209494,-0.636551,467.316681,231.974701,211.682938
211,0,-1.915439,0.979992,-1.300436,166.167999,77.685127,175.485214,-0.118496,2.007373,-0.951990,-44.813171,240.517761,296.576782,0.198542,-2.214662,-0.635966,467.983490,234.011642,214.802795
212,0,-1.912850,0.971989,-1.302639,167.736969,78.546333,176.988495,-0.129279,2.010565,-0.939079,-44.456161,240.694122,296.764557,0.205554,-2.218700,-0.635202,468.612061,236.048203,217.903534
213,0,-1.910716,0.964455,-1.306047,169.279938,79.410309,178.517715,-0.138791,2.012912,-0.929155,-44.122074,240.879547,296.972626,0.212007,-2.222293,-0.634284,469.244843,238.106995,221.012619
214,0,-1.907630,0.956584,-1.309273,170.818481,80.291908,180.046371,-0.129190,1.997890,-0.950345,-43.765476,241.062775,297.188507,0.213153,-2.250808,-0.632785,470.080688,240.103439,224.413116
215,0,-1.904872,0.948843,-1.311837,172.357895,81.175888,181.577576,-0.126860,1.989634,-0.959046,-43.412846,241.246643,297.373840,0.219629,-2.255638,-0.632774,470.689484,242.179138,227.535568
216,0,-1.902695,0.940769,-1.315349,173.883850,82.077354,183.127396,-0.146472,2.000695,-0.931987,-43.046741,241.430801,297.574493,0.227747,-2.259076,-0.631641,471.252869,244.275757,230.634995
217,0,-1.899347,0.933160,-1.318885,175.412247,82.989906,184.671432,-0.143734,1.992018,-0.941926,-42.695744,241.612457,297.797180,0.234355,-2.265819,-0.630011,471.821411,246.369232,233.758911
218,0,-1.896557,0.925213,-1.322229,176.930389,83.906975,186.219574,-0.144198,1.985994,-0.946631,-42.335789,241.799347,297.984619,0.240872,-2.268937,-0.628993,472.380493,248.485092,236.867874
219,0,-1.893303,0.916783,-1.325594,178.430405,84.844742,187.779068,-0.131917,1.968657,-0.970047,-41.946449,241.989136,298.178528,0.247970,-2.274290,-0.627592,472.876190,250.604752,239.969925
220,0,-1.890934,0.909514,-1.328503,179.932358,85.782562,189.336288,-0.152620,1.981006,-0.942637,-41.584099,242.176819,298.383240,0.255907,-2.280211,-0.625337,473.409637,252.710785,243.074966
221,0,-1.888016,0.901633,-1.331576,181.429596,86.734619,190.913040,-0.146533,1.969072,-0.957317,-41.209431,242.364517,298.590210,0.262425,-2.284086,-0.624791,473.859100,254.841949,246.153320
222,0,-1.885906,0.893737,-1.333702,182.946136,87.707794,192.484253,-0.150149,1.965932,-0.955731,-40.833309,242.558487,298.786743,0.268878,-2.290028,-0.622447,474.358673,256.976440,249.263138
223,0,-1.882886,0.885499,-1.336696,184.431442,88.673454,194.067551,-0.167497,1.974727,-0.933973,-40.453262,242.751602,298.976868,0.276823,-2.294837,-0.620504,474.769409,259.121582,252.345566
224,0,-1.880279,0.877694,-1.340501,185.910095,89.661774,195.643173,-0.145842,1.949218,-0.972337,-40.072598,242.946518,299.198456,0.283225,-2.300354,-0.619410,475.227661,261.261658,255.437698
225,0,-1.877175,0.870458,-1.344457,187.364319,90.643539,197.241760,-0.151094,1.947552,-0.968750,-39.696091,243.138641,299.389252,0.290626,-2.303939,-0.618059,475.631714,263.421387,258.514404
226,0,-1.874716,0.862414,-1.346929,188.833115,91.651917,198.840363,-0.158774,1.948004,-0.960994,-39.307537,243.338120,299.584167,0.304358,-2.314430,-0.620843,475.922272,265.542389,261.740692
227,0,-1.872132,0.854626,-1.349218,190.303375,92.669754,200.450073,-0.149580,1.933487,-0.979604,-38.917107,243.542282,299.794281,0.311464,-2.320214,-0.618856,476.287567,267.693634,264.807678
228,0,-1.868791,0.846104,-1.352206,191.750961,93.691513,202.061401,-0.154611,1.931549,-0.976676,-38.541584,243.737671,299.983582,0.318191,-2.324667,-0.616435,476.630798,269.863617,267.868927
229,0,-1.867261,0.838122,-1.355291,193.174271,94.724571,203.669632,-0.162598,1.932265,-0.967815,-38.138985,243.949173,300.180786,0.325113,-2.329617,-0.614269,476.996338,272.034393,270.933228
230,0,-1.863370,0.830140,-1.359013,194.587952,95.757713,205.280396,-0.158147,1.921976,-0.979645,-37.756371,244.151489,300.384155,0.332330,-2.334110,-0.612836,477.315155,274.197723,273.969757
231,0,-1.861140,0.822715,-1.362129,196.015091,96.810593,206.911819,-0.155577,1.913265,-0.987199,-37.373379,244.354492,300.584473,0.338648,-2.339065,-0.611601,477.614380,276.388123,277.005585
232,0,-1.858484,0.815995,-1.364624,197.414169,97.879265,208.544937,-0.167317,1.917266,-0.973485,-36.967533,244.562195,300.774261,0.345686,-2.343527,-0.608839,477.931427,278.566620,280.059662
233,0,-1.855518,0.806719,-1.367888,198.816681,98.948257,210.172699,-0.177573,1.920037,-0.962786,-36.577038,244.770447,300.968079,0.353049,-2.347953,-0.607410,478.181152,280.753906,283.074951
234,0,-1.852187,0.799130,-1.370910,200.194168,100.027512,211.805893,-0.159294,1.897183,-0.993505,-36.173279,244.989975,301.184784,0.359241,-2.353005,-0.605295,478.414246,282.949402,286.098724
235,0,-1.849432,0.791576,-1.373604,201.590271,101.111931,213.451889,-0.179001,1.908295,-0.968328,-35.763420,245.201431,301.360565,0.366425,-2.358222,-0.603676,478.662537,285.133942,289.112030
236,0,-1.847512,0.784168,-1.376083,202.980759,102.220062,215.098557,-0.189821,1.911448,-0.956315,-35.367966,245.419754,301.566437,0.373064,-2.363324,-0.601466,478.889465,287.332367,292.118744
237,0,-1.843548,0.775808,-1.378476,204.325745,103.322952,216.753967,-0.177852,1.894367,-0.977831,-34.963001,245.642502,301.779541,0.380765,-2.367351,-0.598373,479.090759,289.541382,295.130615
238,0,-1.840768,0.767893,-1.381892,205.681442,104.439659,218.394257,-0.178846,1.888926,-0.980454,-34.553638,245.860336,301.959412,0.387252,-2.372559,-0.597446,479.259552,291.745422,298.116302
239,0,-1.837107,0.760140,-1.384026,207.030640,105.569458,220.065704,-0.197738,1.898875,-0.956410,-34.146454,246.083893,302.183197,0.393752,-2.377597,-0.595239,479.436676,293.958923,301.108551
240,0,-1.834957,0.752605,-1.385971,208.347244,106.706276,221.723404,-0.189224,1.885087,-0.973046,-33.740993,246.310364,302.384796,0.401259,-2.382335,-0.593113,479.589813,296.161743,304.083862
241,0,-1.830784,0.744245,-1.389915,209.684738,107.850327,223.383270,-0.201600,1.889479,-0.958593,-33.339481,246.535172,302.587524,0.407683,-2.386740,-0.591114,479.716156,298.373291,307.049072
242,0,-1.828373,0.737023,-1.392738,210.991959,109.003761,225.048340,-0.212940,1.892645,-0.946031,-32.921513,246.772964,302.806549,0.414717,-2.390452,-0.589262,479.830536,300.602539,310.001221
243,0,-1.824793,0.728907,-1.394449,212.283218,110.168640,226.728699,-0.200761,1.875646,-0.967772,-32.511013,246.999741,302.999237,0.421958,-2.395825,-0.586973,479.939728,302.825195,312.963257
244,0,-1.822018,0.721939,-1.397414,213.595627,111.340530,228.392929,-0.202699,1.871043,-0.967594,-32.101982,247.232178,303.223785,0.428893,-2.401057,-0.585198,480.016296,305.041870,315.909332
245,0,-1.818377,0.713400,-1.400359,214.871597,112.514740,230.060883,-0.223929,1.882669,-0.942132,-31.682432,247.470840,303.423645,0.435498,-2.405148,-0.582986,480.064392,307.255463,318.840637
246,0,-1.815204,0.705415,-1.401891,216.161789,113.717880,231.740829,-0.202338,1.857803,-0.975444,-31.273611,247.708878,303.645569,0.442122,-2.408967,-0.581154,480.112091,309.481110,321.757904
247,0,-1.813071,0.698862,-1.404628,217.415421,114.914543,233.433731,-0.212267,1.859940,-0.964591,-30.853834,247.951431,303.859436,0.451317,-2.417762,-0.570726,480.013855,311.688110,324.534851
248,0,-1.809126,0.690617,-1.407538,218.663788,116.127541,235.110092,-0.224063,1.863580,-0.952706,-30.440187,248.187561,304.064056,0.458329,-2.422711,-0.567875,480.051941,313.920593,327.462982
249,0,-1.806899,0.683539,-1.410198,219.906708,117.344231,236.786392,-0.221024,1.854461,-0.959701,-30.032253,248.439133,304.300049,0.465589,-2.426910,-0.566205,480.065857,316.152069,330.347473
250,0,-1.803586,0.675413,-1.411128,221.136566,118.576233,238.492630,-0.226446,1.852782,-0.955741,-29.601059,248.685196,304.494904,0.472537,-2.431157,-0.563881,480.049622,318.383514,333.229309
251,0,-1.800411,0.667980,-1.414163,222.377838,119.809418,240.167435,-0.238308,1.856134,-0.942822,-29.174973,248.941452,304.725342,0.479298,-2.435561,-0.561546,480.035614,320.612823,336.120209
252,0,-1.797266,0.659970,-1.417119,223.565781,121.060066,241.863281,-0.234190,1.846391,-0.951627,-28.772264,249.187317,304.946838,0.486273,-2.440743,-0.560313,479.997406,322.842529,338.984589
253,0,-1.794744,0.652931,-1.419035,224.771835,122.310509,243.565887,-0.239791,1.844403,-0.947573,-28.345657,249.444885,305.148071,0.493533,-2.443713,-0.557253,479.943298,325.068817,341.847443
254,0,-1.792412,0.645440,-1.421493,225.962265,123.578094,245.243668,-0.235288,1.834344,-0.956424,-27.915209,249.702774,305.393860,0.500351,-2.448608,-0.556133,479.872711,327.303131,344.687195
255,0,-1.788146,0.637552,-1.424383,227.142761,124.844162,246.940765,-0.236835,1.829316,-0.958156,-27.519526,249.965042,305.596619,0.507212,-2.453768,-0.553306,479.810242,329.537140,347.541962
256,0,-1.786169,0.630931,-1.426046,228.330582,126.134262,248.640793,-0.233743,1.820318,-0.964690,-27.099657,250.227036,305.847137,0.513972,-2.456882,-0.551104,479.712280,331.764160,350.359344
257,0,-1.785382,0.620564,-1.415355,229.290955,127.309692,250.461487,-0.262274,1.837348,-0.930434,-26.673487,250.486969,306.055389,0.521269,-2.461993,-0.548871,479.616180,334.000153,353.182159
258,0,-1.783401,0.613453,-1.418690,230.491333,128.620926,252.122253,-0.253535,1.823717,-0.944970,-26.276695,250.760971,306.282379,0.528279,-2.465308,-0.546148,479.495728,336.231689,355.997437
259,0,-1.780469,0.606495,-1.419242,231.588760,129.910629,253.858810,-0.258773,1.821758,-0.941381,-25.873802,251.026184,306.532593,0.535601,-2.468380,-0.544108,479.380493,338.460388,358.791199
260,0,-1.778339,0.598069,-1.420836,232.717789,131.234894,255.545166,-0.270912,1.825174,-0.928294,-25.452482,251.294968,306.735809,0.542503,-2.474159,-0.542192,479.227936,340.688995,361.580841
261,0,-1.775645,0.591122,-1.424589,233.867477,132.561752,257.217041,-0.258883,1.808728,-0.946838,-25.033257,251.570023,306.977753,0.549060,-2.476644,-0.539591,479.064026,342.915588,364.345551
262,0,-1.771578,0.584822,-1.426100,234.943649,133.891266,258.938873,-0.253724,1.798182,-0.956800,-24.637779,251.834427,307.205475,0.555832,-2.481429,-0.536951,478.903778,345.153900,367.120697
263,0,-1.769907,0.576516,-1.426790,236.008011,135.203033,260.640533,-0.278537,1.812106,-0.927540,-24.228762,252.114288,307.442139,0.562409,-2.485962,-0.534859,478.706696,347.388916,369.861450
264,0,-1.766151,0.569659,-1.430941,237.110001,136.564575,262.327118,-0.280053,1.806665,-0.928957,-23.805042,252.395813,307.678650,0.568869,-2.490399,-0.531906,478.520264,349.615967,372.613647
265,0,-1.764958,0.563121,-1.431833,238.199387,137.919006,264.024231,-0.271322,1.793126,-0.942526,-23.415855,252.671219,307.905151,0.575466,-2.493530,-0.530156,478.338287,351.840698,375.349915
266,0,-1.759964,0.555095,-1.432776,239.211548,139.263046,265.752991,-0.276697,1.791026,-0.938572,-23.012177,252.953613,308.150909,0.582403,-2.497272,-0.526434,478.119202,354.062653,378.072296
267,0,-1.758355,0.547646,-1.435995,240.290833,140.622345,267.424225,-0.295086,1.799469,-0.918321,-22.605900,253.238052,308.383362,0.589403,-2.500589,-0.524891,477.900421,356.286713,380.784210
268,0,-1.755527,0.541083,-1.436361,241.306900,141.986862,269.141418,-0.286790,1.786619,-0.931150,-22.214863,253.521622,308.632599,0.595794,-2.504387,-0.523024,477.663788,358.513519,383.485016
269,0,-1.752422,0.533992,-1.439063,242.345963,143.366165,270.826355,-0.288918,1.781753,-0.931887,-21.828085,253.804565,308.876495,0.602883,-2.507327,-0.519026,477.389160,360.734772,386.156342
270,0,-1.749518,0.527020,-1.442310,243.391022,144.753906,272.495483,-0.296230,1.781283,-0.924738,-21.408457,254.088348,309.109650,0.608534,-2.512045,-0.517335,477.161926,362.953613,388.850464
271,0,-1.746811,0.519899,-1.441816,244.360474,146.138733,274.210236,-0.310561,1.786123,-0.910658,-21.014280,254.377899,309.358612,0.615641,-2.514530,-0.514037,476.875244,365.171417,391.493195
272,0,-1.743576,0.512596,-1.442782,245.302719,147.511612,275.917755,-0.308404,1.778263,-0.915639,-20.642851,254.663147,309.602386,0.622778,-2.518684,-0.511438,476.607819,367.385651,394.156525
273,0,-1.741199,0.505662,-1.446631,246.341476,148.921829,277.573639,-0.301084,1.766015,-0.927811,-20.240499,254.963730,309.865814,0.628941,-2.522090,-0.509085,476.321503,369.603241,396.795532
274,0,-1.738141,0.499793,-1.447751,247.271530,150.325089,279.268951,-0.314408,1.770249,-0.914224,-19.833403,255.258469,310.098358,0.635396,-2.525430,-0.506190,475.999451,371.808105,399.400940
275,0,-1.735430,0.492794,-1.449038,248.226013,151.721756,280.966553,-0.301829,1.753908,-0.931654,-19.433580,255.551880,310.355774,0.641178,-2.528608,-0.504807,475.725769,374.013489,402.042572
276,0,-1.733162,0.486170,-1.452219,249.204590,153.147095,282.612518,-0.309753,1.753898,-0.925590,-19.054459,255.850555,310.600647,0.648248,-2.531255,-0.500419,475.403564,376.216553,404.634064
277,0,-1.729288,0.479719,-1.453523,250.117310,154.558594,284.315247,-0.310181,1.747899,-0.927010,-18.646576,256.149078,310.854248,0.654767,-2.533565,-0.497304,475.098419,378.422394,407.228882
278,0,-1.728450,0.473262,-1.452885,251.009079,155.971619,286.001007,-0.324694,1.752901,-0.913359,-18.246431,256.451813,311.110931,0.660527,-2.538030,-0.494802,474.757141,380.628204,409.805481
279,0,-1.722905,0.466452,-1.456058,251.901184,157.401520,287.674805,-0.311354,1.736286,-0.931433,-17.869576,256.755920,311.352936,0.666962,-2.540689,-0.491885,474.408447,382.824585,412.363831
280,0,-1.721342,0.460246,-1.457941,252.810837,158.840546,289.325165,-0.323458,1.739329,-0.920026,-17.481466,257.064697,311.625793,0.673362,-2.542345,-0.489458,474.079956,385.016205,414.916351
281,0,-1.718450,0.453468,-1.459084,253.686966,160.275055,291.010681,-0.333605,1.740847,-0.910624,-17.075592,257.369995,311.855225,0.679706,-2.545929,-0.485956,473.718567,387.210449,417.449585
282,0,-1.715578,0.446523,-1.460875,254.580444,161.733093,292.670227,-0.334398,1.735133,-0.912217,-16.691042,257.682648,312.135132,0.685416,-2.548563,-0.483777,473.365784,389.406189,419.989105
283,0,-1.712134,0.440560,-1.463087,255.409241,163.182678,294.330414,-0.340283,1.733181,-0.908268,-16.306192,257.986145,312.368622,0.692861,-2.551007,-0.479250,472.984955,391.586456,422.498016
284,0,-1.709506,0.434575,-1.463743,256.226227,164.618881,296.007935,-0.339207,1.726091,-0.912127,-15.928712,258.294922,312.645020,0.698320,-2.553205,-0.478078,472.653198,393.756256,425.014587
285,0,-1.707640,0.428339,-1.465273,257.080444,166.082123,297.659515,-0.367802,1.741625,-0.881984,-15.534434,258.615570,312.892303,0.704679,-2.555160,-0.473717,472.222229,395.940826,427.475037
286,0,-1.704243,0.420924,-1.466653,257.905975,167.541580,299.313965,-0.344390,1.717513,-0.912096,-15.142864,258.931732,313.160248,0.710246,-2.557634,-0.472095,471.845337,398.114197,429.951324
287,0,-1.702039,0.415429,-1.467476,258.714447,169.001587,300.955841,-0.355276,1.719402,-0.902302,-14.767164,259.244781,313.423523,0.716363,-2.560672,-0.468245,471.454224,400.275543,432.416351
288,0,-1.698833,0.409048,-1.468324,259.484863,170.445908,302.624908,-0.354887,1.712608,-0.905962,-14.368549,259.570282,313.676880,0.722968,-2.562401,-0.465628,471.061829,402.432648,434.862427
289,0,-1.696930,0.402379,-1.468961,260.256958,171.910660,304.265350,-0.376231,1.722614,-0.883871,-13.976153,259.891846,313.953552,0.728936,-2.564810,-0.462961,470.644348,404.589966,437.302551
290,0,-1.692824,0.396089,-1.470938,261.020355,173.382492,305.908386,-0.357254,1.701959,-0.909002,-13.589555,260.215851,314.201172,0.735571,-2.566286,-0.460294,470.232605,406.746521,439.731720
291,0,-1.691175,0.389867,-1.471123,261.777191,174.865234,307.546906,-0.358625,1.696903,-0.909513,-13.196651,260.542358,314.485443,0.741582,-2.567332,-0.458219,469.822357,408.891998,442.144257
292,0,-1.688340,0.383237,-1.472080,262.510986,176.334702,309.188171,-0.372044,1.700801,-0.897805,-12.805089,260.868286,314.738678,0.747748,-2.569676,-0.455121,469.391968,411.027771,444.542694
293,0,-1.685085,0.376847,-1.473197,263.234650,177.809464,310.813354,-0.387915,1.706569,-0.882421,-12.400442,261.199097,315.007080,0.753808,-2.570496,-0.453400,468.943939,413.167053,446.918549
294,0,-1.683207,0.370490,-1.474868,263.969940,179.308304,312.432159,-0.368658,1.685910,-0.907068,-12.028360,261.528381,315.284668,0.760236,-2.572617,-0.449689,468.515778,415.292908,449.290039
295,0,-1.679882,0.364553,-1.475757,264.660461,180.795456,314.050781,-0.383852,1.691069,-0.893399,-11.645297,261.858185,315.552551,0.765892,-2.573236,-0.448438,468.075256,417.409485,451.657867
296,0,-1.677928,0.358209,-1.476220,265.357788,182.291000,315.657593,-0.374970,1.678192,-0.906080,-11.250670,262.200592,315.845398,0.772667,-2.574678,-0.445058,467.594147,419.533875,454.005829
297,0,-1.675222,0.352331,-1.476942,266.022827,183.785980,317.277802,-0.397806,1.689039,-0.883923,-10.863998,262.534729,316.106445,0.778192,-2.575320,-0.444373,467.168152,421.640900,456.364563
298,0,-1.672331,0.345931,-1.477531,266.679993,185.271820,318.880371,-0.387980,1.675337,-0.897534,-10.475545,262.873657,316.400787,0.785327,-2.575172,-0.440600,466.673737,423.754608,458.666748
299,0,-1.670671,0.339919,-1.479776,267.360077,186.781265,320.463745,-0.390446,1.671149,-0.897687,-10.110355,263.211456,316.672394,0.790417,-2.576505,-0.439562,466.213745,425.853058,460.968414
300,0,-1.667208,0.333849,-1.480190,267.991852,188.275192,322.057495,-0.394313,1.667809,-0.896514,-9.722616,263.556183,316.962341,0.797268,-2.576410,-0.436317,465.705505,427.949158,463.267334
301,0,-1.664851,0.327811,-1.480407,268.628418,189.780182,323.651825,-0.408083,1.671922,-0.884413,-9.338695,263.899841,317.241791,0.803183,-2.576119,-0.435757,465.231506,430.027679,465.567322
302,0,-1.662025,0.321916,-1.481421,269.223694,191.271103,325.233673,-0.421935,1.676177,-0.872502,-8.964314,264.241211,317.522308,0.809751,-2.577338,-0.433299,464.731140,432.104584,467.835541
303,0,-1.659064,0.316497,-1.483151,269.847321,192.771347,326.791412,-0.407604,1.659530,-0.890651,-8.577222,264.590240,317.824585,0.816032,-2.577754,-0.431312,464.217041,434.182800,470.081573
304,0,-1.657064,0.310454,-1.484424,270.421570,194.265320,328.371338,-0.428289,1.668499,-0.872034,-8.199056,264.936188,318.095520,0.822210,-2.577862,-0.429669,463.745209,436.254517,472.364349
305,0,-1.654075,0.305585,-1.484910,270.989624,195.753738,329.929016,-0.401501,1.643046,-0.903162,-7.799056,265.289734,318.402222,0.829261,-2.577641,-0.426912,463.207275,438.308990,474.598450
306,0,-1.651431,0.299889,-1.485797,271.588348,197.282578,331.479431,-0.422843,1.652702,-0.883697,-7.434887,265.636475,318.681519,0.834473,-2.578791,-0.426230,462.694305,440.354736,476.820618
307,0,-1.648653,0.293568,-1.486726,272.171844,198.812927,333.022400,-0.403458,1.632438,-0.906869,-7.039649,265.995697,318.981842,0.841613,-2.577096,-0.423199,462.146118,442.407593,479.033539
308,0,-1.646795,0.288764,-1.486930,272.723358,200.330795,334.554657,-0.424873,1.642438,-0.887137,-6.674781,266.341858,319.275421,0.846612,-2.578945,-0.422275,461.638123,444.437195,481.255249
309,0,-1.644156,0.283705,-1.488129,273.264252,201.850159,336.089996,-0.438138,1.646054,-0.876462,-6.298066,266.691833,319.565826,0.852735,-2.579226,-0.421483,461.081085,446.471893,483.451050
310,0,-1.641378,0.277722,-1.489449,273.797424,203.349564,337.609192,-0.419896,1.627005,-0.897858,-5.939774,267.049561,319.888824,0.859135,-2.578148,-0.419300,460.537201,448.491608,485.631073
311,0,-1.638760,0.272462,-1.489736,274.299225,204.860245,339.134064,-0.439910,1.635510,-0.880352,-5.578386,267.403076,320.170959,0.865542,-2.578246,-0.417460,459.967560,450.502930,487.794037
312,0,-1.635775,0.267091,-1.490110,274.817780,206.365021,340.635956,-0.445861,1.633724,-0.877248,-5.219196,267.765686,320.497528,0.871579,-2.578661,-0.415702,459.403015,452.507965,489.975098
313,0,-1.633755,0.261172,-1.491526,275.328308,207.890274,342.136536,-0.465818,1.642149,-0.859655,-4.851825,268.119202,320.776642,0.860736,-2.600231,-0.393317,459.099762,454.720093,491.891876
314,0,-1.631738,0.255894,-1.492085,275.799591,209.400467,343.628876,-0.449708,1.624691,-0.879327,-4.486620,268.484467,321.095428,0.867172,-2.599304,-0.391114,458.507141,456.703583,494.024628
315,0,-1.628673,0.251348,-1.493047,276.260437,210.912781,345.120300,-0.448664,1.617934,-0.883294,-4.137372,268.844910,321.405701,0.872414,-2.601080,-0.389426,457.957062,458.699066,496.170380
316,0,-1.626538,0.245777,-1.492181,276.712158,212.415558,346.608734,-0.457430,1.618233,-0.877520,-3.778770,269.209045,321.692444,0.878584,-2.600052,-0.388767,457.341827,460.667755,498.277344
317,0,-1.624107,0.240751,-1.494119,277.201447,213.944580,348.078674,-0.461999,1.615696,-0.875677,-3.424879,269.571716,322.024261,0.883739,-2.601383,-0.386210,456.773621,462.627777,500.395111
318,0,-1.621405,0.235138,-1.494038,277.636108,215.456009,349.540161,-0.470434,1.615843,-0.870183,-3.070346,269.931213,322.303619,0.890413,-2.601082,-0.384595,456.130096,464.589539,502.476440
319,0,-1.619373,0.230482,-1.493980,278.039886,216.962250,351.003113,-0.460739,1.603212,-0.882917,-2.720603,270.303955,322.628937,0.895382,-2.601447,-0.383217,455.557434,466.535156,504.574768
320,0,-1.617063,0.225096,-1.494716,278.467987,218.476563,352.440369,-0.477879,1.609298,-0.869081,-2.362468,270.672241,322.926270,0.902211,-2.601784,-0.381062,454.918762,468.482361,506.642334
321,0,-1.614393,0.220400,-1.495776,278.891724,219.995697,353.880432,-0.490245,1.612015,-0.859706,-2.027585,271.039703,323.235077,0.906771,-2.601833,-0.380684,454.312866,470.408783,508.709564
322,0,-1.612013,0.215401,-1.495777,279.284821,221.516678,355.322418,-0.449968,1.577195,-0.902448,-1.683400,271.413788,323.554749,0.913749,-2.601288,-0.378168,453.643311,472.333984,510.758209
323,0,-1.610446,0.209698,-1.495605,279.660797,223.023453,356.744415,-0.498088,1.605573,-0.858328,-1.348814,271.782318,323.854462,0.918205,-2.602984,-0.377387,453.041840,474.228638,512.803040
324,0,-1.607706,0.205278,-1.496977,280.071503,224.548538,358.160095,-0.482204,1.588328,-0.876847,-1.008366,272.159271,324.169861,0.924731,-2.601768,-0.375690,452.368683,476.141815,514.837585
325,0,-1.605112,0.199956,-1.496306,280.400391,226.050781,359.570526,-0.504162,1.597770,-0.859056,-0.680092,272.538940,324.483368,0.930032,-2.602895,-0.374744,451.749817,478.031769,516.862122
326,0,-1.602644,0.195850,-1.497103,280.771362,227.566925,360.964172,-0.496087,1.586181,-0.869444,-0.337833,272.915131,324.769623,0.936691,-2.601933,-0.372769,451.062469,479.914917,518.876709
327,0,-1.599104,0.190484,-1.497614,281.120270,229.095993,362.348419,-0.509402,1.589745,-0.859627,-0.005482,273.298462,325.097473,0.941355,-2.602497,-0.372020,450.423523,481.777893,520.877930
328,0,-1.588424,0.187587,-1.511407,281.577942,230.681412,363.645935,-0.498248,1.576056,-0.873827,0.334283,273.683167,325.384674,0.948327,-2.602728,-0.370273,449.718536,483.649384,522.847839
329,0,-1.585733,0.182163,-1.511721,281.888977,232.188110,365.027252,-0.514294,1.581463,-0.860792,0.664104,274.064148,325.704468,0.953362,-2.602131,-0.368989,449.091125,485.490051,524.848389
330,0,-1.583823,0.177898,-1.512119,282.212341,233.691849,366.385254,-0.513900,1.575347,-0.865273,0.985127,274.444489,326.003357,0.959176,-2.602043,-0.368643,448.375702,487.341400,526.804321
331,0,-1.581426,0.173073,-1.512185,282.511505,235.200714,367.747650,-0.533994,1.583447,-0.848355,1.311966,274.837677,326.315430,0.964118,-2.603514,-0.367343,447.701721,489.173676,528.753784
332,0,-1.579369,0.168213,-1.512955,282.829285,236.711182,369.088440,-0.507221,1.559001,-0.877063,1.638618,275.221741,326.616943,0.970953,-2.602036,-0.365558,446.997864,490.990814,530.698547
333,0,-1.577747,0.163892,-1.512985,283.096558,238.216187,370.430817,-0.522135,1.563408,-0.866442,1.966745,275.615326,326.930939,0.975963,-2.602651,-0.365833,446.338776,492.817352,532.651062
334,0,-1.575139,0.158905,-1.513478,283.385315,239.717300,371.749115,-0.505752,1.546730,-0.883999,2.275767,276.004578,327.232513,0.982883,-2.601106,-0.364073,445.598175,494.622925,534.551514
335,0,-1.572840,0.154504,-1.513895,283.650665,241.218475,373.071777,-0.539062,1.564048,-0.856531,2.598820,276.393311,327.544067,0.986878,-2.602513,-0.364064,444.912018,496.416870,536.471558
336,0,-1.570577,0.149825,-1.514011,283.882782,242.714188,374.370636,-0.519108,1.544723,-0.877976,2.917841,276.786102,327.847046,0.993356,-2.601562,-0.363265,444.200531,498.195496,538.369263
337,0,-1.568171,0.145329,-1.514483,284.133209,244.222595,375.675537,-0.533224,1.548898,-0.867393,3.243005,277.187256,328.145721,0.998996,-2.600933,-0.363170,443.502716,499.963043,540.261292
338,0,-1.566209,0.141323,-1.515097,284.366638,245.719803,376.960846,-0.510926,1.527296,-0.891236,3.544638,277.572388,328.446075,1.005252,-2.600579,-0.362582,442.760986,501.738556,542.134766
339,0,-1.563838,0.135961,-1.515419,284.588196,247.219879,378.252228,-0.540928,1.543047,-0.866170,3.844399,277.970276,328.763458,1.010403,-2.601093,-0.362404,442.053833,503.485382,544.009583
340,0,-1.562030,0.132379,-1.515911,284.813446,248.712296,379.516083,-0.523769,1.525297,-0.885034,4.154903,278.372223,329.044403,1.016350,-2.599804,-0.362654,441.300842,505.233002,545.851196
341,0,-1.558321,0.127283,-1.516133,285.011536,250.200394,380.780212,-0.530067,1.524546,-0.882222,4.443874,278.762268,329.366821,1.022166,-2.599504,-0.362045,440.559326,506.956451,547.682434
342,0,-1.556974,0.122809,-1.515681,285.193054,251.685120,382.029999,-0.538503,1.524719,-0.877003,4.756207,279.160706,329.649231,1.028955,-2.598277,-0.361245,439.825989,508.679871,549.531372
343,0,-1.554148,0.118357,-1.515936,285.411133,253.172882,383.275635,-0.539853,1.520123,-0.879144,5.057769,279.564911,329.944061,1.033930,-2.598675,-0.361303,439.100800,510.394440,551.355042
344,0,-1.552642,0.113077,-1.516001,285.559265,254.658127,384.503052,-0.520101,1.501159,-0.899481,5.354286,279.971039,330.258484,1.039822,-2.597577,-0.361960,438.342407,512.096619,553.154602
345,0,-1.549381,0.108282,-1.516514,285.727905,256.141022,385.728943,-0.538709,1.508765,-0.885318,5.653330,280.360596,330.533356,1.045389,-2.596878,-0.361751,437.591370,513.788879,554.951477
346,0,-1.547689,0.104793,-1.517275,285.896820,257.615692,386.948212,-0.521856,1.491490,-0.903126,5.933753,280.765137,330.832428,1.051296,-2.595601,-0.363721,436.824432,515.467651,556.734863
347,0,-1.544616,0.099844,-1.517237,286.027039,259.089325,388.161865,-0.541969,1.500346,-0.887479,6.229783,281.175354,331.129120,1.056765,-2.594855,-0.363376,436.063812,517.140747,558.505432
348,0,-1.542609,0.095462,-1.517768,286.163422,260.551208,389.352905,-0.540455,1.493959,-0.891654,6.521677,281.572449,331.399292,1.062435,-2.595025,-0.364015,435.309784,518.796631,560.275330
349,0,-1.539931,0.092354,-1.518412,286.297607,262.018402,390.545105,-0.545478,1.492286,-0.889952,6.800308,281.987427,331.704071,1.068228,-2.594002,-0.364359,434.530731,520.457642,562.023376
350,0,-1.536843,0.087619,-1.518556,286.424316,263.487671,391.733032,-0.548675,1.489425,-0.889099,7.088086,282.380981,331.977905,1.074549,-2.592562,-0.364690,433.769135,522.096985,563.771118
351,0,-1.535058,0.082972,-1.519217,286.512848,264.957458,392.900879,-0.560669,1.492597,-0.881805,7.371366,282.789276,332.256256,1.079962,-2.592573,-0.365308,432.975952,523.742493,565.495056
352,0,-1.533354,0.078866,-1.519119,286.631500,266.420349,394.073639,-0.551131,1.480983,-0.892442,7.630802,283.191406,332.551025,1.084889,-2.591727,-0.366071,432.205688,525.355103,567.216187
353,0,-1.530789,0.074668,-1.520205,286.733673,267.883972,395.224030,-0.565428,1.485881,-0.882259,7.905761,283.599213,332.819519,1.091337,-2.590846,-0.365465,431.433380,526.965820,568.929932
354,0,-1.527566,0.070512,-1.520133,286.796112,269.348114,396.377319,-0.547702,1.468306,-0.900225,8.167739,283.991302,333.089783,1.096030,-2.590964,-0.366875,430.650635,528.574341,570.615662
355,0,-1.526210,0.065888,-1.520029,286.874634,270.801056,397.521118,-0.583630,1.488790,-0.871347,8.409556,284.391479,333.373322,1.102335,-2.588970,-0.367309,429.848724,530.164734,572.306213
356,0,-1.530338,0.059516,-1.519352,286.873352,272.238434,398.574188,-0.564069,1.469806,-0.890583,8.687038,284.798920,333.634705,1.107265,-2.588583,-0.367989,429.086426,531.752319,573.987915
357,0,-1.527214,0.055134,-1.518704,286.941711,273.684113,399.712494,-0.580948,1.476770,-0.878270,8.940146,285.187653,333.902252,1.113395,-2.586902,-0.369143,428.254791,533.331421,575.639648
358,0,-1.525892,0.050555,-1.518660,286.961365,275.128540,400.803802,-0.561339,1.458798,-0.896860,9.185857,285.597656,334.159637,1.118129,-2.587260,-0.369642,427.499176,534.882202,577.295837
359,0,-1.523455,0.046795,-1.518489,287.000671,276.570923,401.921753,-0.578541,1.465900,-0.884910,9.437764,285.988159,334.422455,1.124102,-2.585517,-0.370425,426.693939,536.452576,578.937439
360,0,-1.520805,0.042967,-1.519015,287.062958,278.010071,403.021576,-0.570546,1.455557,-0.893377,9.679287,286.383698,334.657104,1.128242,-2.585592,-0.373144,425.911682,538.020874,580.570129
361,0,-1.519439,0.039686,-1.519188,287.068054,279.428680,404.101196,-0.587045,1.462518,-0.881589,9.910451,286.777649,334.932495,1.135001,-2.583915,-0.372204,425.117737,539.561584,582.193665
362,0,-1.516110,0.035228,-1.519327,287.083923,280.872345,405.193970,-0.584953,1.456376,-0.885333,10.151881,287.172363,335.161255,1.139205,-2.584382,-0.373543,424.329987,541.096313,583.794800
363,0,-1.515200,0.030496,-1.519222,287.090118,282.291809,406.259583,-0.588912,1.454164,-0.883941,10.399606,287.566925,335.402802,1.144370,-2.583273,-0.374493,423.530151,542.625244,585.396423
364,0,-1.512447,0.027881,-1.519401,287.090179,283.714844,407.332855,-0.587096,1.448857,-0.886994,10.622249,287.952057,335.654419,1.150286,-2.582290,-0.374474,422.749878,544.144470,586.992615
365,0,-1.510580,0.024042,-1.519241,287.084778,285.135406,408.391449,-0.582417,1.441128,-0.892571,10.844025,288.341217,335.880127,1.154858,-2.582002,-0.375538,421.962677,545.655823,588.564697
366,0,-1.508298,0.019706,-1.519189,287.079895,286.554443,409.455902,-0.594134,1.444627,-0.885129,11.071578,288.720764,336.109863,1.160095,-2.580472,-0.376701,421.156403,547.153015,590.127441
367,0,-1.506693,0.015612,-1.518616,287.024658,287.969543,410.496429,-0.590956,1.438060,-0.888779,11.297133,289.107086,336.339905,1.164463,-2.579579,-0.377935,420.392120,548.638062,591.682068
368,0,-1.504244,0.011988,-1.519217,286.992554,289.372711,411.544647,-0.592497,1.435086,-0.889079,11.492982,289.482147,336.577972,1.170570,-2.577636,-0.377824,419.563782,550.134460,593.214783
369,0,-1.502526,0.008543,-1.518341,286.974884,290.768372,412.586884,-0.604359,1.438802,-0.880741,11.714421,289.858459,336.787872,1.174917,-2.577091,-0.379414,418.795990,551.615967,594.757813
370,0,-1.499645,0.005226,-1.518869,286.934143,292.165741,413.603180,-0.588086,1.423078,-0.895416,11.929106,290.235535,337.007111,1.179929,-2.576253,-0.380381,418.019318,553.091980,596.282166
371,0,-1.498557,0.001567,-1.517935,286.857086,293.570679,414.627686,-0.603187,1.429616,-0.884249,12.139034,290.608337,337.234131,1.186187,-2.574396,-0.380200,417.207489,554.554321,597.783142
372,0,-1.495807,-0.003176,-1.517826,286.788879,294.948547,415.629333,-0.606257,1.427633,-0.883655,12.332141,290.971161,337.441467,1.189977,-2.572568,-0.382476,416.440338,556.006104,599.280823
373,0,-1.494700,-0.006955,-1.517828,286.714722,296.330841,416.637848,-0.615011,1.429134,-0.877599,12.544471,291.335114,337.640930,1.195651,-2.571042,-0.382187,415.647156,557.462341,600.764954
374,0,-1.491022,-0.000276,-1.512315,286.490509,297.665253,417.492706,-0.624794,1.431560,-0.870738,12.748326,291.708282,337.858246,1.200508,-2.569451,-0.383413,414.874451,558.902222,602.242554
375,0,-1.490032,-0.005097,-1.511492,286.405090,299.051422,418.478912,-0.594615,1.407013,-0.895678,12.935493,292.069000,338.060059,1.204971,-2.567773,-0.385027,414.105408,560.332520,603.711060
376,0,-1.488057,-0.007370,-1.511308,286.340485,300.413696,419.472778,-0.630634,1.427811,-0.868397,13.125224,292.419678,338.258698,1.210372,-2.565265,-0.384533,413.320953,561.760254,605.154846
377,0,-1.486826,-0.011947,-1.511825,286.222412,301.783813,420.439484,-0.626067,1.420431,-0.873113,13.328912,292.779816,338.470734,1.214369,-2.564661,-0.386033,412.556854,563.180298,606.596069
378,0,-1.484295,-0.014503,-1.510832,286.079437,303.147156,421.406067,-0.592943,1.394257,-0.899256,13.516478,293.131622,338.657990,1.219748,-2.561656,-0.388096,411.785919,564.598755,608.035828
379,0,-1.482785,-0.018934,-1.510004,285.956085,304.518463,422.376923,-0.599017,1.394295,-0.895603,13.712914,293.491730,338.870270,1.224957,-2.560035,-0.388546,411.015900,566.005737,609.446777
380,0,-1.481522,-0.021810,-1.509949,285.824951,305.872223,423.302826,-0.626841,1.409698,-0.874494,13.874678,293.836945,339.055481,1.229052,-2.557930,-0.389325,410.242676,567.405090,610.848267
381,0,-1.479354,-0.024883,-1.510441,285.691254,307.214233,424.270813,-0.614660,1.397513,-0.884883,14.051308,294.180634,339.261108,1.233805,-2.555516,-0.390491,409.472839,568.795837,612.244995
382,0,-1.467270,-0.033446,-1.521105,285.251404,308.524841,424.910706,-0.628003,1.402560,-0.874231,14.254430,294.532318,339.450867,1.237757,-2.561225,-0.373756,408.527557,570.594849,613.519043
383,0,-1.465519,-0.037175,-1.520707,285.105652,309.861359,425.846680,-0.604467,1.382896,-0.893220,14.425690,294.874115,339.640747,1.242291,-2.559754,-0.372173,407.749329,571.982910,614.862061
384,0,-1.463923,-0.040447,-1.520589,284.964111,311.187561,426.784393,-0.626666,1.394869,-0.876826,14.588120,295.215240,339.823761,1.247555,-2.556102,-0.375113,406.999268,573.332825,616.256958
385,0,-1.462647,-0.044129,-1.520253,284.785706,312.500702,427.703339,-0.638001,1.398935,-0.868244,14.751719,295.556366,340.022980,1.251022,-2.555153,-0.376630,406.225220,574.710327,617.580750
386,0,-1.460392,-0.047745,-1.519508,284.589630,313.822144,428.620026,-0.611747,1.377614,-0.888801,14.929571,295.888855,340.218018,1.255332,-2.552099,-0.379200,405.506073,576.059448,618.947449
387,0,-1.458676,-0.051377,-1.519442,284.379242,315.151886,429.508240,-0.640821,1.393596,-0.866483,15.104155,296.228210,340.385651,1.260478,-2.549770,-0.377360,404.740204,577.411133,620.251587
388,0,-1.457105,-0.055252,-1.519109,284.193176,316.446991,430.407623,-0.625586,1.379871,-0.878429,15.270543,296.569244,340.583832,1.264139,-2.547354,-0.379430,403.980743,578.742249,621.555969
389,0,-1.456323,-0.058228,-1.518656,284.013031,317.734680,431.312012,-0.626104,1.377535,-0.877998,15.415769,296.901245,340.769470,1.268135,-2.543947,-0.384213,403.230865,580.055115,622.893005
390,0,-1.454830,-0.061166,-1.517874,283.828888,319.043243,432.198517,-0.637701,1.381866,-0.869594,15.573529,297.240112,340.953918,1.263844,-2.552370,-0.412140,402.925323,581.284302,624.604675
391,0,-1.453008,-0.064724,-1.518270,283.581573,320.319702,433.071259,-0.635589,1.377172,-0.871648,15.740996,297.571228,341.129669,1.266358,-2.550891,-0.414286,402.229004,582.605042,625.907043
392,0,-1.451660,-0.067938,-1.518562,283.360443,321.598724,433.937683,-0.633370,1.372576,-0.872865,15.900239,297.900299,341.305450,1.270721,-2.547745,-0.416766,401.474976,583.898987,627.174377
393,0,-1.450280,-0.071604,-1.517596,283.148163,322.875854,434.803345,-0.615964,1.357656,-0.886202,16.063658,298.239716,341.501495,1.273805,-2.545372,-0.419275,400.740570,585.200317,628.439087
394,0,-1.447871,-0.074412,-1.517964,282.950226,324.138428,435.691650,-0.656179,1.381763,-0.855929,16.189596,298.571625,341.676178,1.277577,-2.541795,-0.423564,400.018433,586.473572,629.721741
395,0,-1.447561,-0.078236,-1.517320,282.709991,325.391846,436.535034,-0.639726,1.367749,-0.868931,16.322493,298.901001,341.857788,1.281118,-2.542569,-0.421122,399.245850,587.781738,630.902283
396,0,-1.446165,-0.081054,-1.516829,282.443115,326.644470,437.354279,-0.640145,1.365197,-0.868669,16.476324,299.228516,342.037689,1.284519,-2.538613,-0.426032,398.534149,589.043396,632.164551
397,0,-1.444378,-0.084260,-1.516360,282.155579,327.875671,438.184479,-0.630010,1.355786,-0.875812,16.620041,299.565063,342.210510,1.288439,-2.536291,-0.427013,397.770050,590.325195,633.357422
398,0,-1.443296,-0.088656,-1.516596,281.944397,329.126495,439.039246,-0.610514,1.339330,-0.890439,16.784044,299.897614,342.390900,1.291241,-2.533478,-0.431116,397.042236,591.567810,634.572083
399,0,-1.441304,-0.091563,-1.515669,281.683777,330.348785,439.865509,-0.636412,1.353763,-0.871283,16.899397,300.224792,342.551544,1.288295,-2.533591,-0.433257,396.291840,592.884888,635.798828
400,0,-1.440485,-0.093828,-1.515378,281.420380,331.579132,440.684937,-0.635998,1.350600,-0.872145,17.030472,300.563812,342.739441,1.291045,-2.532629,-0.433916,395.537292,594.151306,636.954712
401,0,-1.439294,-0.097695,-1.515240,281.145264,332.792145,441.491516,-0.629824,1.344207,-0.876721,17.148928,300.895966,342.911621,1.295191,-2.530233,-0.434775,394.746460,595.401306,638.087402
402,0,-1.437797,-0.100953,-1.515287,280.864471,334.005890,442.292816,-0.656424,1.358770,-0.857330,17.272274,301.212646,343.078949,1.298770,-2.527642,-0.436373,394.025848,596.634399,639.253784
403,0,-1.436053,-0.104221,-1.515362,280.599274,335.195221,443.085571,-0.646176,1.349270,-0.865672,17.403948,301.552795,343.258820,1.301693,-2.526827,-0.438435,393.302368,597.855652,640.392334
404,0,-1.434444,-0.107237,-1.514563,280.317200,336.384552,443.885895,-0.645336,1.345745,-0.866038,17.536657,301.881744,343.421417,1.304709,-2.524571,-0.441461,392.562836,599.070190,641.536865
405,0,-1.433000,-0.109803,-1.514368,280.041443,337.577911,444.672516,-0.634208,1.335717,-0.874340,17.655182,302.211182,343.600372,1.307465,-2.522101,-0.443399,391.828735,600.284546,642.655884
406,0,-1.430910,-0.113789,-1.513834,279.748260,338.746643,445.472168,-0.627292,1.327947,-0.879726,17.793316,302.549194,343.769165,1.310342,-2.520992,-0.445025,391.060699,601.500183,643.752075
407,0,-1.429832,-0.116777,-1.513898,279.447784,339.928711,446.233521,-0.645321,1.337250,-0.867128,17.896160,302.876648,343.928223,1.312540,-2.519673,-0.448301,390.357208,602.683899,644.873291
408,0,-1.427441,-0.121106,-1.513124,279.153534,341.069031,447.009613,-0.621551,1.318791,-0.884710,18.010113,303.212952,344.101837,1.316403,-2.521048,-0.440741,388.066437,604.260010,645.207886
409,0,-1.426989,-0.123731,-1.512490,278.849609,342.234039,447.767609,-0.642701,1.330369,-0.869854,18.115801,303.535736,344.269714,1.319130,-2.519038,-0.444200,388.058167,605.291504,646.644409
410,0,-1.425669,-0.126898,-1.512401,278.538055,343.380585,448.532104,-0.651358,1.333285,-0.864506,18.233063,303.865784,344.442108,1.321742,-2.517113,-0.445765,385.897552,606.773926,647.034790
411,0,-1.424678,-0.130239,-1.511803,278.216614,344.506958,449.284454,-0.635728,1.320041,-0.876503,18.323990,304.197052,344.599762,1.324400,-2.515857,-0.446987,385.257813,607.928467,648.128113
412,0,-1.423375,-0.133790,-1.511433,277.902527,345.647308,450.038910,-0.642341,1.321555,-0.872177,18.447708,304.525299,344.753693,1.326974,-2.514865,-0.448164,384.349121,609.137878,649.088318
413,0,-1.422072,-0.137038,-1.511101,277.603821,346.754211,450.796539,-0.664078,1.332697,-0.857446,18.545362,304.849060,344.934784,1.329295,-2.512591,-0.451662,383.405029,610.346191,650.033020
414,0,-1.421364,-0.140662,-1.510494,277.291321,347.882355,451.543060,-0.626848,1.305532,-0.884288,18.673531,305.185425,345.092743,1.331744,-2.512546,-0.451166,382.438507,611.568359,650.925049
415,0,-1.419785,-0.142817,-1.510561,276.948425,348.996735,452.277069,-0.634442,1.307897,-0.879760,18.771967,305.501434,345.240448,1.332990,-2.511831,-0.453451,382.365570,612.586548,652.254883
416,0,-1.418496,-0.145901,-1.510168,276.611053,350.110931,452.997742,-0.638737,1.307284,-0.877868,18.896069,305.832611,345.412170,1.335256,-2.512273,-0.452771,381.316925,613.818054,653.085388
417,0,-1.417448,-0.149079,-1.509597,276.282104,351.195953,453.730408,-0.659245,1.318334,-0.864155,18.976669,306.157013,345.562195,1.337094,-2.511587,-0.454513,381.747284,614.722900,654.626587
418,0,-1.416203,-0.152300,-1.508833,275.950439,352.281799,454.450745,-0.623257,1.291950,-0.890032,19.081200,306.481537,345.734039,1.339296,-2.509972,-0.457048,379.855377,616.105957,655.057007
419,0,-1.415398,-0.156201,-1.508806,275.614960,353.366547,455.172485,-0.647282,1.305123,-0.874083,19.176996,306.806671,345.888794,1.341370,-2.509846,-0.456541,379.583557,617.155701,656.227173
420,0,-1.413886,-0.158297,-1.507992,275.254272,354.433228,455.887817,-0.669437,1.316632,-0.859534,19.277994,307.129150,346.045898,1.343692,-2.508025,-0.457975,378.231720,618.418213,656.897095
421,0,-1.413904,-0.161524,-1.507653,274.902740,355.503906,456.589325,-0.645872,1.298584,-0.877321,19.380983,307.447906,346.201599,1.345215,-2.508714,-0.458820,378.525757,619.338806,658.316650
422,0,-1.411603,-0.165203,-1.507409,274.548187,356.568726,457.306793,-0.648285,1.297455,-0.876177,19.482302,307.765381,346.353485,1.347494,-2.507877,-0.459334,377.049622,620.632324,658.891113
423,0,-1.410872,-0.168789,-1.506776,274.211914,357.608185,458.017792,-0.653170,1.297817,-0.873685,19.587503,308.089539,346.523468,1.348981,-2.507185,-0.460650,376.360809,621.757141,659.833923
424,0,-1.409548,-0.172110,-1.506917,273.866302,358.664337,458.725830,-0.636446,1.284067,-0.886216,19.693287,308.404907,346.679108,1.351017,-2.506576,-0.461989,376.357208,622.724243,661.090759
425,0,-1.409245,-0.174267,-1.506145,273.485168,359.701294,459.423706,-0.647624,1.288516,-0.879203,19.797443,308.719513,346.816132,1.351096,-2.507942,-0.463268,377.899689,623.347046,663.064758
426,0,-1.408723,-0.177074,-1.506602,273.117126,360.723572,460.123138,-0.654533,1.289841,-0.875666,19.898800,309.034607,346.980316,1.352885,-2.508723,-0.460746,377.190765,624.469910,663.928284
427,0,-1.407411,-0.180614,-1.505874,272.772461,361.754608,460.811462,-0.659382,1.290467,-0.873322,20.000536,309.349487,347.123474,1.355910,-2.506438,-0.462615,375.058044,625.885925,664.155518
428,0,-1.406847,-0.184251,-1.505417,272.402588,362.754425,461.497681,-0.642497,1.277231,-0.885228,20.091064,309.661041,347.267914,1.357720,-2.504943,-0.464385,373.709839,627.137695,664.742188
429,0,-1.405270,-0.187113,-1.505211,272.034363,363.771454,462.176361,-0.644586,1.275592,-0.885187,20.194023,309.974976,347.424377,1.361171,-2.501913,-0.464593,370.546478,628.778809,664.461792
430,0,-1.404519,-0.190025,-1.504599,271.641968,364.792633,462.847565,-0.687810,1.301212,-0.856426,20.273907,310.279999,347.566284,1.363711,-2.500978,-0.464059,369.812317,629.889343,665.296875
431,0,-1.403947,-0.193096,-1.504572,271.262268,365.791779,463.514587,-0.657637,1.278992,-0.878140,20.373985,310.593292,347.709747,1.364147,-2.500350,-0.466634,369.643005,630.864807,666.405518
432,0,-1.402495,-0.196386,-1.504192,270.897156,366.780975,464.195099,-0.668752,1.283758,-0.871615,20.460510,310.902527,347.842957,1.364461,-2.501771,-0.466422,369.331604,631.907776,667.399170
433,0,-1.402041,-0.199843,-1.503700,270.519806,367.763245,464.863861,-0.697862,1.300001,-0.852331,20.558472,311.208344,347.989838,1.365952,-2.501897,-0.465784,368.271606,633.092834,668.046936
434,0,-1.402275,-0.202687,-1.503577,270.125946,368.732666,465.516968,-0.690984,1.293240,-0.858129,20.647686,311.518494,348.143402,1.367806,-2.502419,-0.463392,367.829651,634.139343,668.962036
435,0,-1.401851,-0.205293,-1.503152,269.712921,369.704681,466.172546,-0.657356,1.269038,-0.881722,20.745392,311.823212,348.277618,1.368371,-2.501602,-0.465319,368.138214,635.011963,670.236267
436,0,-1.401663,-0.208073,-1.503398,269.311981,370.674591,466.827972,-0.666896,1.272685,-0.875751,20.834778,312.115540,348.406097,1.371031,-2.500209,-0.463383,365.925751,636.443115,670.319275
437,0,-1.401171,-0.211756,-1.503185,268.936676,371.638641,467.470215,-0.690596,1.285289,-0.860867,20.927752,312.424622,348.560760,1.370713,-2.502084,-0.463237,367.197693,637.093384,672.002380
438,0,-1.400302,-0.214522,-1.502957,268.547913,372.584839,468.120422,-0.692584,1.283944,-0.860232,21.015982,312.728424,348.695953,1.372595,-2.499045,-0.466053,364.176941,638.689575,671.720276
439,0,-1.400307,-0.216833,-1.502674,268.143127,373.526855,468.768433,-0.674267,1.270069,-0.872552,21.089560,313.019714,348.831665,1.373280,-2.500224,-0.465067,363.973083,639.667114,672.689575
440,0,-1.399264,-0.219669,-1.502275,267.734985,374.467041,469.411194,-0.645167,1.248659,-0.892366,21.193464,313.330200,348.966736,1.374632,-2.500019,-0.463314,362.870667,640.852722,673.237976
441,0,-1.398928,-0.222456,-1.501859,267.331512,375.406677,470.044586,-0.665384,1.259557,-0.879781,21.282412,313.628479,349.104614,1.375576,-2.499909,-0.462171,363.540741,641.625916,674.603210
442,0,-1.398847,-0.226013,-1.501493,266.941071,376.321442,470.667938,-0.693349,1.275333,-0.861749,21.350405,313.919952,349.236115,1.377901,-2.498086,-0.461529,361.767517,642.942627,674.841553
443,0,-1.398500,-0.228806,-1.501425,266.523743,377.233643,471.289093,-0.657098,1.249272,-0.886411,21.451408,314.223236,349.373260,1.378983,-2.498971,-0.459185,361.460754,643.948730,675.722534
444,0,-1.398674,-0.231577,-1.501456,266.114868,378.143250,471.914154,-0.669881,1.255697,-0.878409,21.516747,314.528198,349.494446,1.380009,-2.498034,-0.458717,360.465240,645.083008,676.278748
445,0,-1.397933,-0.234658,-1.501763,265.711273,379.049408,472.529144,-0.695332,1.269810,-0.861752,21.588985,314.825165,349.639221,1.380820,-2.497718,-0.457788,360.297363,646.043884,677.214722
446,0,-1.396599,-0.237212,-1.502264,265.306000,379.955322,473.144714,-0.662348,1.246353,-0.884120,21.668402,315.127167,349.775940,1.381752,-2.497759,-0.456314,359.640533,647.095825,677.907654
447,0,-1.396435,-0.240595,-1.501110,264.901398,380.854462,473.769684,-0.670325,1.249707,-0.879481,21.739790,315.421906,349.890442,1.382259,-2.498363,-0.454145,358.357605,648.306580,678.298828
448,0,-1.397080,-0.243196,-1.500822,264.478424,381.739807,474.372650,-0.685634,1.257323,-0.869804,21.811218,315.718048,350.024872,1.383155,-2.498073,-0.452963,357.028076,649.514465,678.675964
449,0,-1.396614,-0.245899,-1.501010,264.033630,382.615143,474.966187,-0.678958,1.250790,-0.874867,21.876953,316.025421,350.173950,1.383920,-2.498131,-0.451334,356.820770,650.461609,679.545654
450,0,-1.396057,-0.248279,-1.501384,263.624390,383.489868,475.576050,-0.687040,1.254034,-0.869643,21.940008,316.318787,350.300476,1.383667,-2.498543,-0.450044,356.740723,651.380554,680.472046
451,0,-1.395677,-0.250771,-1.501271,263.221161,384.360321,476.183319,-0.681939,1.248770,-0.872958,21.995369,316.602600,350.427124,1.384050,-2.500160,-0.447411,357.056305,652.200806,681.548340
452,0,-1.396165,-0.253287,-1.501023,262.783295,385.215820,476.774872,-0.684531,1.248161,-0.872115,22.063519,316.908478,350.567291,1.385945,-2.498015,-0.446287,354.925842,653.560913,681.522705
453,0,-1.395968,-0.255921,-1.501058,262.353424,386.067169,477.352753,-0.723353,1.270743,-0.847206,22.112532,317.200714,350.693298,1.385804,-2.498605,-0.445030,354.098267,654.642334,682.069153
454,0,-1.395336,-0.258821,-1.500955,261.937500,386.909149,477.941376,-0.717835,1.265279,-0.850594,22.163731,317.489685,350.816559,1.386776,-2.498488,-0.443253,352.585693,655.870544,682.292725
455,0,-1.394545,-0.261352,-1.500985,261.540466,387.756989,478.555725,-0.678045,1.237897,-0.876706,22.204718,317.789337,350.949280,1.387313,-2.499820,-0.439175,352.400269,656.788086,683.101868
456,0,-1.394967,-0.263542,-1.500874,261.097443,388.597504,479.124634,-0.679383,1.236930,-0.876175,22.254267,318.081848,351.079529,1.388684,-2.499514,-0.436424,351.096924,657.950134,683.400574
457,0,-1.395586,-0.265668,-1.501362,260.648651,389.418854,479.689728,-0.712783,1.256051,-0.854464,22.293858,318.371460,351.216675,1.388700,-2.499870,-0.435467,350.610504,658.926208,684.060486
458,0,-1.394953,-0.267068,-1.501880,260.223236,390.233795,480.253174,-0.710664,1.252691,-0.856404,22.334166,318.668457,351.331238,1.389105,-2.500573,-0.433671,349.344574,660.068115,684.361816
459,0,-1.394543,-0.269718,-1.501804,259.815491,391.055084,480.844910,-0.687394,1.235962,-0.871899,22.367138,318.963409,351.458405,1.388580,-2.502198,-0.430619,349.151245,660.972717,685.119263
460,0,-1.394373,-0.272469,-1.501135,259.375610,391.866760,481.413239,-0.702119,1.243457,-0.862591,22.403168,319.249695,351.583527,1.387836,-2.504110,-0.428686,349.481415,661.742676,686.119263
461,0,-1.395202,-0.274225,-1.502248,258.932983,392.672394,481.957458,-0.710514,1.246937,-0.857373,22.428631,319.544312,351.715179,1.387607,-2.506202,-0.426723,349.640961,662.537842,687.019714
462,0,-1.395143,-0.276698,-1.502252,258.486206,393.465332,482.522125,-0.703170,1.240118,-0.862419,22.448126,319.837402,351.856323,1.387725,-2.507157,-0.423706,348.665710,663.604736,687.402771
463,0,-1.394638,-0.279301,-1.501668,258.063538,394.237518,483.096283,-0.705062,1.239421,-0.861233,22.462988,320.121552,351.966095,1.388429,-2.507341,-0.420907,346.949036,664.824280,687.440735
464,0,-1.394932,-0.282743,-1.501396,257.614899,395.002960,483.641022,-0.722912,1.248756,-0.850307,22.487736,320.414886,352.078033,1.386783,-2.509790,-0.420058,347.397125,665.544067,688.450623
465,0,-1.417937,-0.268563,-1.488519,257.127533,395.935669,484.501740,-0.723768,1.247232,-0.850287,22.516783,320.711243,352.217102,1.387561,-2.510519,-0.417378,346.355103,666.604797,688.770386
466,0,-1.418804,-0.269307,-1.487925,256.706268,396.715302,485.074890,-0.735513,1.252917,-0.842967,22.519896,320.997070,352.348541,1.388319,-2.510489,-0.414375,344.489044,667.847473,688.722351
467,0,-1.418218,-0.273157,-1.487352,256.278564,397.443268,485.605408,-0.729458,1.247246,-0.846744,22.528681,321.285370,352.465515,1.388565,-2.511042,-0.412969,343.455597,668.884399,689.031677
468,0,-1.419130,-0.275293,-1.486932,255.835114,398.196533,486.149689,-0.704995,1.230019,-0.862598,22.542664,321.579651,352.590759,1.387997,-2.512854,-0.412044,343.719055,669.605286,689.910889
469,0,-1.420712,-0.275356,-1.487415,255.379944,398.975494,486.706390,-0.706582,1.229121,-0.862255,22.539938,321.866150,352.720581,1.385871,-2.515592,-0.411930,344.079681,670.324951,690.823303
470,0,-1.420830,-0.278424,-1.487139,254.936630,399.700378,487.234802,-0.736824,1.246327,-0.843520,22.540747,322.155884,352.832520,1.386349,-2.517327,-0.407384,341.692841,671.685181,690.469910
471,0,-1.419965,-0.282487,-1.487019,254.489868,400.394257,487.717468,-0.724141,1.236417,-0.851841,22.537748,322.440887,352.946655,1.385226,-2.520497,-0.404146,342.560547,672.268127,691.569519
472,0,-1.421588,-0.282501,-1.485659,254.045761,401.137299,488.271881,-0.694481,1.215518,-0.870976,22.545059,322.732819,353.078857,1.384878,-2.521854,-0.401681,341.718414,673.244568,691.905273
473,0,-1.421823,-0.285533,-1.486028,253.612961,401.848877,488.787506,-0.700972,1.218077,-0.867069,22.526337,323.018829,353.195953,1.382462,-2.525309,-0.400322,342.740540,673.778137,693.049438
474,0,-1.421490,-0.289028,-1.486822,253.158478,402.557922,489.273041,-0.734457,1.237669,-0.846454,22.516361,323.299194,353.318787,1.381760,-2.528062,-0.396728,341.963318,674.727478,693.372925
475,0,-1.423431,-0.287177,-1.486739,252.708313,403.301392,489.817108,-0.717094,1.224822,-0.857899,22.504835,323.583954,353.452362,1.380920,-2.528723,-0.397070,342.106903,675.445984,694.127502
476,0,-1.420181,-0.291093,-1.488322,252.291855,403.979248,490.291931,-0.692338,1.207139,-0.873700,22.487692,323.875519,353.566956,1.379918,-2.529648,-0.397475,341.105499,676.438904,694.366821
477,0,-1.425343,-0.284902,-1.489796,251.816010,404.788727,490.846741,-0.705500,1.213906,-0.865982,22.457150,324.156250,353.676270,1.380171,-2.529393,-0.395477,339.535217,677.566101,694.325928

