-7.218135418537532377e-01 -1.457485369794622621e+00 -2.956331802544852616e-01 -9.606523766693292332e-01 2.171279391405517398e-04 5.100375566366782687e-01 -1.507417947357056143e+00 -3.059093472828566806e-01 1.542784595886057319e+00 1.858725173889595305e-03
-6.929417033122633462e-01 -1.533098483647556964e+00 -3.081962015208674632e-01 -8.818272883921305372e-01 2.926090473471918037e-04 5.774367708297974966e-01 -1.512262277058684656e+00 -2.512604253276438104e-01 1.576501765543974143e+00 1.509622164132800627e-03
-6.620190774967185110e-01 -1.608951537417860012e+00 -3.191919617028408096e-01 -8.012186002045045274e-01 3.652424962429084163e-04 6.184525163108971491e-01 -1.517061075406062498e+00 -2.199152036394667886e-01 1.612173763752521305e+00 1.452668977914331819e-03
-6.306847292332993238e-01 -1.685036121354775762e+00 -3.303359481048269708e-01 -7.187899786592415463e-01 4.957754312999123995e-04 6.266869652683836334e-01 -1.521691678738316345e+00 -2.228797280397227243e-01 1.648572430905260289e+00 2.610658701140078797e-03
-6.005281465818098630e-01 -1.761294759777368490e+00 -3.437033593955017285e-01 -6.346181457803803383e-01 9.444255735653068334e-04 0.000000000000000000e+00 0.000000000000000000e+00 0.000000000000000000e+00 0.000000000000000000e+00 0.000000000000000000e+00
-6.005281465818098630e-01 -1.761294759777368490e+00 -3.437033593955017285e-01 -6.346181457803803383e-01 9.444255735653068334e-04 0.000000000000000000e+00 0.000000000000000000e+00 0.000000000000000000e+00 0.000000000000000000e+00 0.000000000000000000e+00
-6.005281465818098630e-01 -1.761294759777368490e+00 -3.437033593955017285e-01 -6.346181457803803383e-01 9.444255735653068334e-04 0.000000000000000000e+00 0.000000000000000000e+00 0.000000000000000000e+00 0.000000000000000000e+00 0.000000000000000000e+00
-6.005281465818098630e-01 -1.761294759777368490e+00 -3.437033593955017285e-01 -6.346181457803803383e-01 9.444255735653068334e-04 0.000000000000000000e+00 0.000000000000000000e+00 0.000000000000000000e+00 0.000000000000000000e+00 0.000000000000000000e+00
-6.005281465818098630e-01 -1.761294759777368490e+00 -3.437033593955017285e-01 -6.346181457803803383e-01 9.444255735653068334e-04 0.000000000000000000e+00 0.000000000000000000e+00 0.000000000000000000e+00 0.000000000000000000e+00 0.000000000000000000e+00
-6.005281465818098630e-01 -1.761294759777368490e+00 -3.437033593955017285e-01 -6.346181457803803383e-01 9.444255735653068334e-04 0.000000000000000000e+00 0.000000000000000000e+00 0.000000000000000000e+00 0.000000000000000000e+00 0.000000000000000000e+00
-6.005281465818098630e-01 -1.761294759777368490e+00 -3.437033593955017285e-01 -6.346181457803803383e-01 9.444255735653068334e-04 0.000000000000000000e+00 0.000000000000000000e+00 0.000000000000000000e+00 0.000000000000000000e+00 0.000000000000000000e+00
-6.005281465818098630e-01 -1.761294759777368490e+00 -3.437033593955017285e-01 -6.346181457803803383e-01 9.444255735653068334e-04 0.000000000000000000e+00 0.000000000000000000e+00 0.000000000000000000e+00 0.000000000000000000e+00 0.000000000000000000e+00
-6.005281465818098630e-01 -1.761294759777368490e+00 -3.437033593955017285e-01 -6.346181457803803383e-01 9.444255735653068334e-04 0.000000000000000000e+00 0.000000000000000000e+00 0.000000000000000000e+00 0.000000000000000000e+00 0.000000000000000000e+00
-6.005281465818098630e-01 -1.761294759777368490e+00 -3.437033593955017285e-01 -6.346181457803803383e-01 9.444255735653068334e-04 0.000000000000000000e+00 0.000000000000000000e+00 0.000000000000000000e+00 0.000000000000000000e+00 0.000000000000000000e+00
-6.005281465818098630e-01 -1.761294759777368490e+00 -3.437033593955017285e-01 -6.346181457803803383e-01 9.444255735653068334e-04 0.000000000000000000e+00 0.000000000000000000e+00 0.000000000000000000e+00 0.000000000000000000e+00 0.000000000000000000e+00
-6.005281465818098630e-01 -1.761294759777368490e+00 -3.437033593955017285e-01 -6.346181457803803383e-01 9.444255735653068334e-04 0.000000000000000000e+00 0.000000000000000000e+00 0.000000000000000000e+00 0.000000000000000000e+00 0.000000000000000000e+00
-6.005281465818098630e-01 -1.761294759777368490e+00 -3.437033593955017285e-01 -6.346181457803803383e-01 9.444255735653068334e-04 0.000000000000000000e+00 0.000000000000000000e+00 0.000000000000000000e+00 0.000000000000000000e+00 0.000000000000000000e+00
-6.005281465818098630e-01 -1.761294759777368490e+00 -3.437033593955017285e-01 -6.346181457803803383e-01 9.444255735653068334e-04 0.000000000000000000e+00 0.000000000000000000e+00 0.000000000000000000e+00 0.000000000000000000e+00 0.000000000000000000e+00
-6.005281465818098630e-01 -1.761294759777368490e+00 -3.437033593955017285e-01 -6.346181457803803383e-01 9.444255735653068334e-04 0.000000000000000000e+00 0.000000000000000000e+00 0.000000000000000000e+00 0.000000000000000000e+00 0.000000000000000000e+00
-6.005281465818098630e-01 -1.761294759777368490e+00 -3.437033593955017285e-01 -6.346181457803803383e-01 9.444255735653068334e-04 0.000000000000000000e+00 0.000000000000000000e+00 0.000000000000000000e+00 0.000000000000000000e+00 0.000000000000000000e+00
-6.005281465818098630e-01 -1.761294759777368490e+00 -3.437033593955017285e-01 -6.346181457803803383e-01 9.444255735653068334e-04 0.000000000000000000e+00 0.000000000000000000e+00 0.000000000000000000e+00 0.000000000000000000e+00 0.000000000000000000e+00
-6.005281465818098630e-01 -1.761294759777368490e+00 -3.437033593955017285e-01 -6.346181457803803383e-01 9.444255735653068334e-04 0.000000000000000000e+00 0.000000000000000000e+00 0.000000000000000000e+00 0.000000000000000000e+00 0.000000000000000000e+00
-6.005281465818098630e-01 -1.761294759777368490e+00 -3.437033593955017285e-01 -6.346181457803803383e-01 9.444255735653068334e-04 0.000000000000000000e+00 0.000000000000000000e+00 0.000000000000000000e+00 0.000000000000000000e+00 0.000000000000000000e+00
-6.005281465818098630e-01 -1.761294759777368490e+00 -3.437033593955017285e-01 -6.346181457803803383e-01 9.444255735653068334e-04 0.000000000000000000e+00 0.000000000000000000e+00 0.000000000000000000e+00 0.000000000000000000e+00 0.000000000000000000e+00
-6.005281465818098630e-01 -1.761294759777368490e+00 -3.437033593955017285e-01 -6.346181457803803383e-01 9.444255735653068334e-04 0.000000000000000000e+00 0.000000000000000000e+00 0.000000000000000000e+00 0.000000000000000000e+00 0.000000000000000000e+00
-6.005281465818098630e-01 -1.761294759777368490e+00 -3.437033593955017285e-01 -6.346181457803803383e-01 9.444255735653068334e-04 0.000000000000000000e+00 0.000000000000000000e+00 0.000000000000000000e+00 0.000000000000000000e+00 0.000000000000000000e+00
-6.005281465818098630e-01 -1.761294759777368490e+00 -3.437033593955017285e-01 -6.346181457803803383e-01 9.444255735653068334e-04 0.000000000000000000e+00 0.000000000000000000e+00 0.000000000000000000e+00 0.000000000000000000e+00 0.000000000000000000e+00
-6.005281465818098630e-01 -1.761294759777368490e+00 -3.437033593955017285e-01 -6.346181457803803383e-01 9.444255735653068334e-04 0.000000000000000000e+00 0.000000000000000000e+00 0.000000000000000000e+00 0.000000000000000000e+00 0.000000000000000000e+00
-6.005281465818098630e-01 -1.761294759777368490e+00 -3.437033593955017285e-01 -6.346181457803803383e-01 9.444255735653068334e-04 0.000000000000000000e+00 0.000000000000000000e+00 0.000000000000000000e+00 0.000000000000000000e+00 0.000000000000000000e+00
-6.005281465818098630e-01 -1.761294759777368490e+00 -3.437033593955017285e-01 -6.346181457803803383e-01 9.444255735653068334e-04 0.000000000000000000e+00 0.000000000000000000e+00 0.000000000000000000e+00 0.000000000000000000e+00 0.000000000000000000e+00
-6.005281465818098630e-01 -1.761294759777368490e+00 -3.437033593955017285e-01 -6.346181457803803383e-01 9.444255735653068334e-04 0.000000000000000000e+00 0.000000000000000000e+00 0.000000000000000000e+00 0.000000000000000000e+00 0.000000000000000000e+00
