-6.339232104999119599e-01 -2.962028469218259685e-01 1.357296125249353169e+00 -4.397586367297746657e-01 5.278844142199863847e-04 -2.803168370912525464e-01 -8.380514444217077030e-02 -9.112329863598307433e-01 -5.728495926288296181e-01 5.485481829854502341e-03
-6.528343313962823302e-01 -3.025142620711928632e-01 1.297872306292068734e+00 -4.812374599986527501e-01 7.681016988516240146e-04 -3.782224179274083498e-01 -1.262283029873381146e-01 -1.188476379145690043e+00 -8.295764653775622444e-01 4.804345692632751297e-03
-6.752450996395880090e-01 -3.109072556166777579e-01 1.230128301144353342e+00 -5.343540796312982177e-01 9.467044085538986464e-04 -4.482153648661139078e-01 -1.678598709096981723e-01 -1.354880102954305832e+00 -1.062332392652909796e+00 3.572054194045493070e-03
-6.999037656025650644e-01 -3.215842278205763294e-01 1.158847152104165890e+00 -5.975438677068669602e-01 1.039905167299414379e-03 -4.931733192595411652e-01 -2.135394440779717351e-01 -1.425622980803750384e+00 -1.263795761511374405e+00 1.864015174910315514e-03
-7.258203591587478742e-01 -3.350098001800181913e-01 1.087666080164443994e+00 -6.688143214751930410e-01 1.074598492540557561e-03 -5.183318711236566401e-01 -2.685114471888376264e-01 -1.423621438794438587e+00 -1.425409075366520728e+00 6.938665048228647315e-04
-7.523249298332566060e-01 -3.517921525996085541e-01 1.018846180191518958e+00 -7.457966656544454676e-01 1.084513524838166256e-03 -5.300914134901741903e-01 -3.356470483918074788e-01 -1.376397999458499832e+00 -1.539646883585048087e+00 1.983006459521735815e-04
-7.790388152389591259e-01 -3.725181874474859378e-01 9.533323711820032020e-01 -8.258943303370090971e-01 1.082970851171387652e-03 -5.342777081140512863e-01 -4.145206969575475631e-01 -1.310276180190314887e+00 -1.601953293651271704e+00 -3.085347333557015887e-05
-8.057854540451645509e-01 -3.976297235935514762e-01 8.910755524715128217e-01 -9.064634787511818281e-01 1.073792906660494357e-03 -5.349327761241077228e-01 -5.022307229213107682e-01 -1.245136374209808716e+00 -1.611382968283453954e+00 -1.835588902178677986e-04
-8.324920137497017203e-01 -4.273747297530332556e-01 8.314633526502607230e-01 -9.849620771257971974e-01 1.052508223445268974e-03 -5.341311940907431666e-01 -5.949001231896359210e-01 -1.192243996425041308e+00 -1.569971967492306941e+00 -4.256936643045057642e-04
-8.591156514057962656e-01 -4.618203956470279259e-01 7.737134021883823598e-01 -1.059037903936807190e+00 9.950441455695668673e-04 -5.324727531218900189e-01 -6.889133178798930723e-01 -1.154999009237567043e+00 -1.481516536220200964e+00 -1.149281557514044306e-03
-8.856041126045517409e-01 -5.008975054905611124e-01 7.171569826708334983e-01 -1.126574218057529997e+00 8.462614998101640213e-04 -5.297692239751097265e-01 -7.815421968706640632e-01 -1.131128390350977897e+00 -1.350726282414454360e+00 -2.975652915188056486e-03
-9.118843309543630538e-01 -5.444501426995032034e-01 6.614007513727683252e-01 -1.185721041349752980e+00 6.303935090130865972e-04 -5.256043669962254805e-01 -8.710527441788407099e-01 -1.115124625961303462e+00 -1.182936465844458773e+00 -4.317359815941548482e-03
-9.378679229594273359e-01 -5.922769891760554239e-01 6.063841488007963854e-01 -1.234926451725363750e+00 3.826957870798936728e-04 -5.196718401012860866e-01 -9.565369295310449660e-01 -1.100332051439439685e+00 -9.841082075122166151e-01 -4.953954438663858706e-03
-9.634640004049984663e-01 -6.441591819285412690e-01 5.523569506781762506e-01 -1.272968184896500432e+00 1.374270445404512670e-04 -5.119215489114219420e-01 -1.037643855049716901e+00 -1.080543962452402473e+00 -7.608346634227316496e-01 -4.905374850788847899e-03
-9.885936460892222888e-01 -6.998741077006224165e-01 4.997996270476196545e-01 -1.298981150379709071e+00 -7.701451380614571978e-05 -5.025929136844767831e-01 -1.114298515441622950e+00 -1.051146472611132143e+00 -5.202593096641711101e-01 -4.288831166931939519e-03
-1.013201739840972948e+00 -7.591975790006730840e-01 4.493108377507760709e-01 -1.312471833197618620e+00 -2.407156580840119685e-04 -4.921618750350131299e-01 -1.186469426001013350e+00 -1.009775785936871451e+00 -2.698136563581904901e-01 -3.274022885557325083e-03
-1.037262853357094672e+00 -8.218991814233971294e-01 4.014878261620214994e-01 -1.313310317192046384e+00 -3.434444174734740170e-04 -4.812222703224324771e-01 -1.254032048454481130e+00 -9.564602317750916516e-01 -1.676967988855304625e-02 -2.054575187789240212e-03
-1.060780227146870924e+00 -8.877353231090092667e-01 3.568232550424836336e-01 -1.301699887602128625e+00 -3.844697108857884622e-04 -4.703474757955227181e-01 -1.316722833712242746e+00 -8.932914223907570950e-01 2.322085917983564285e-01 -8.205058682462889035e-04
-1.083777697502536386e+00 -9.564443817819815452e-01 3.156361529346748407e-01 -1.278127070056075620e+00 -3.711229372255579468e-04 -4.599494071133112816e-01 -1.374181173459446237e+00 -8.237420421561755246e-01 4.714563509210609737e-01 2.669354732046098737e-04
-1.106285985664849481e+00 -1.027746166805878492e+00 2.780433130765442296e-01 -1.243300074010154743e+00 -3.164925839364928330e-04 -4.501657632462626735e-01 -1.426035700477937151e+00 -7.518567971626124447e-01 6.965399209184162110e-01 1.092607065781302711e-03
-1.128324560123743714e+00 -1.101346259754336643e+00 2.439681829313037897e-01 -1.198082989474413385e+00 -2.368555092442496961e-04 -4.407714891778850563e-01 -1.472001858969161470e+00 -6.815026029048090184e-01 9.043416907148292827e-01 1.592741493844862521e-03
-1.149881909499212096e+00 -1.176942972744827509e+00 2.131746547945365944e-01 -1.143436456852515271e+00 -1.493471571262608736e-04 -4.311469875093655313e-01 -1.511934259809815106e+00 -6.158705627353440182e-01 1.092930652437963834e+00 1.750167042359776015e-03
-1.170893302496993194e+00 -1.254236322370831713e+00 1.853178069941238404e-01 -1.080364485619246695e+00 -7.060908209523061190e-05 -4.202278599556200644e-01 -1.545866992520084526e+00 -5.571369560082549688e-01 1.261439424665372400e+00 1.574761500620605126e-03
-1.191226424374561832e+00 -1.332934843531696556e+00 1.599883456407837634e-01 -1.009877464751759657e+00 -1.566209980100915892e-05 -4.066624375513729905e-01 -1.573970423217296188e+00 -5.065892270668015396e-01 1.409740417349742980e+00 1.098939645884429005e-03
-1.210684640952550906e+00 -1.412759747465291094e+00 1.367377066687974763e-01 -9.329690265968056950e-01 3.047457270906205236e-06 -3.891643315597830832e-01 -1.596498078671890308e+00 -4.650127794397258540e-01 1.538168763099078573e+00 3.741911414383073103e-04
-1.229039218622688612e+00 -1.493446464008205021e+00 1.150712396260306497e-01 -8.506033612760268703e-01 -2.526648022378593666e-05 -3.670915534027521243e-01 -1.613734330858277000e+00 -4.333293408553365311e-01 1.647313306415576273e+00 -5.662787498938426888e-04
-1.246099675081254743e+00 -1.574742204583510441e+00 9.438877852737601049e-02 -7.637072698337066257e-01 -1.139082965881834097e-04 -3.412091291713238994e-01 -1.625914811506108171e+00 -4.136492219730927289e-01 1.737921828846405337e+00 -1.772836327287949420e-03
-1.261819074688709685e+00 -1.656395803541009792e+00 7.384122222385659795e-02 -6.731584445766408686e-01 -2.600601960295242107e-04 -3.143879921491002927e-01 -1.633071979149987030e+00 -4.109511260703882507e-01 1.810976505141314030e+00 -2.923037988826815425e-03
-1.276376997872477492e+00 -1.738139427512196855e+00 5.212695254576635295e-02 -5.797614314979905314e-01 -3.566743288402674829e-04 0.000000000000000000e+00 0.000000000000000000e+00 0.000000000000000000e+00 0.000000000000000000e+00 0.000000000000000000e+00
-1.276376997872477492e+00 -1.738139427512196855e+00 5.212695254576635295e-02 -5.797614314979905314e-01 -3.566743288402674829e-04 0.000000000000000000e+00 0.000000000000000000e+00 0.000000000000000000e+00 0.000000000000000000e+00 0.000000000000000000e+00
-1.276376997872477492e+00 -1.738139427512196855e+00 5.212695254576635295e-02 -5.797614314979905314e-01 -3.566743288402674829e-04 0.000000000000000000e+00 0.000000000000000000e+00 0.000000000000000000e+00 0.000000000000000000e+00 0.000000000000000000e+00
