-9.299329599354899667e-01 -4.723340545554900460e-01 -3.355607029132304242e-03 -1.470431628253047851e+00 -4.738044130427305307e-04 -1.103000620436418222e+00 -5.310328239651416204e-01 -1.084878954566337761e+00 -5.695211993966021735e-01 -3.750051410062278309e-03
-9.876419938145040156e-01 -4.995474305924045288e-01 -6.024653517063373320e-02 -1.493093143189802019e+00 -6.427474563578558465e-04 -1.154180677580281644e+00 -5.442675207382898783e-01 -1.137818562830028357e+00 -4.532302987350830259e-01 -3.378860866302505449e-03
-1.047882424667967438e+00 -5.271736107496590718e-01 -1.194019825309900334e-01 -1.509578049215710260e+00 -7.843155032593830071e-04 -1.204808617069267118e+00 -5.525236031450911911e-01 -1.183108947207125894e+00 -3.296981205181642172e-01 -2.831360938030542344e-03
-1.110648364185026882e+00 -5.549380969073267611e-01 -1.804491649709180634e-01 -1.519708781027302447e+00 -8.922844938464268840e-04 -1.255318790341188873e+00 -5.552897231533533429e-01 -1.220943648798560544e+00 -2.026146362318448080e-01 -2.159379811740876672e-03
-1.175952230050543834e+00 -5.825392192224607690e-01 -2.430621763925940870e-01 -1.523485525461506507e+00 -9.638535937532313443e-04 -1.306077317310338826e+00 -5.520224463026798256e-01 -1.252260228433520250e+00 -7.553488868407973178e-02 -1.431381998136089205e-03
-1.243818249207163218e+00 -6.096472789835349904e-01 -3.069921789758556785e-01 -1.521070861672169094e+00 -1.000378396499293368e-03 -1.357320383132387009e+00 -5.421611952214853147e-01 -1.278600051665232273e+00 4.829327578674863508e-02 -7.304960549212418915e-04
-1.314273122753981227e+00 -6.359057913639005744e-01 -3.720857533120370819e-01 -1.512764859416611429e+00 -1.008825370604700010e-03 -1.409097470936361063e+00 -5.251702476073115688e-01 -1.301871486723628291e+00 1.661200451111528309e-01 -1.689394821081308725e-04
-1.387334785783366886e+00 -6.609348812982799304e-01 -4.382881571643256757e-01 -1.498976041748749655e+00 -1.006911702176543130e-03 -1.461233260587714300e+00 -5.005817986875862324e-01 -1.324048077045771210e+00 2.757763533572371584e-01 3.827336856313836005e-05
-1.463000200850930632e+00 -6.843374348755584258e-01 -5.056333810721689304e-01 -1.480187031905264794e+00 -1.000396855308494570e-03 -1.513308301351274698e+00 -4.680510715455700188e-01 -1.346904478156864871e+00 3.757801968696963812e-01 1.302969373609712462e-04
-1.541233245944851671e+00 -7.057067179090198428e-01 -5.742240919011902811e-01 -1.456920888256928448e+00 -9.882576251153117088e-04 -1.564660901878420995e+00 -4.273856606692280624e-01 -1.371814216580426793e+00 4.653228729667282515e-01 2.427846038636569527e-04
-1.621953371566671631e+00 -7.246357824676862291e-01 -6.442043206913440345e-01 -1.429707424853400521e+00 -9.765753963040938509e-04 -1.614402512436399206e+00 -3.785812911733279496e-01 -1.399604575803075290e+00 5.442692680705568664e-01 2.336445762243558565e-04
-1.705025583287563151e+00 -7.407280339264731284e-01 -7.157301017025226031e-01 -1.399049782580188861e+00 -9.732057285031523244e-04 -1.661444234417830623e+00 -3.218450291757380399e-01 -1.430515620223572038e+00 6.131528454642352077e-01 6.739335601882990548e-05
-1.790252627863524904e+00 -7.536101741145199151e-01 -7.889404389598739797e-01 -1.365386342246034612e+00 -9.842098429893291617e-04 -1.704540891519233048e+00 -2.576428037609360122e-01 -1.464206745147026645e+00 6.732688066830856410e-01 -2.200822897235347661e-04
-1.877367958101370027e+00 -7.629542219306739703e-01 -8.639191384610760416e-01 -1.329018495548345502e+00 -1.000190220896332019e-03 0.000000000000000000e+00 0.000000000000000000e+00 0.000000000000000000e+00 0.000000000000000000e+00 0.000000000000000000e+00
-1.877367958101370027e+00 -7.629542219306739703e-01 -8.639191384610760416e-01 -1.329018495548345502e+00 -1.000190220896332019e-03 0.000000000000000000e+00 0.000000000000000000e+00 0.000000000000000000e+00 0.000000000000000000e+00 0.000000000000000000e+00
-1.877367958101370027e+00 -7.629542219306739703e-01 -8.639191384610760416e-01 -1.329018495548345502e+00 -1.000190220896332019e-03 0.000000000000000000e+00 0.000000000000000000e+00 0.000000000000000000e+00 0.000000000000000000e+00 0.000000000000000000e+00
-1.877367958101370027e+00 -7.629542219306739703e-01 -8.639191384610760416e-01 -1.329018495548345502e+00 -1.000190220896332019e-03 0.000000000000000000e+00 0.000000000000000000e+00 0.000000000000000000e+00 0.000000000000000000e+00 0.000000000000000000e+00
-1.877367958101370027e+00 -7.629542219306739703e-01 -8.639191384610760416e-01 -1.329018495548345502e+00 -1.000190220896332019e-03 0.000000000000000000e+00 0.000000000000000000e+00 0.000000000000000000e+00 0.000000000000000000e+00 0.000000000000000000e+00
-1.877367958101370027e+00 -7.629542219306739703e-01 -8.639191384610760416e-01 -1.329018495548345502e+00 -1.000190220896332019e-03 0.000000000000000000e+00 0.000000000000000000e+00 0.000000000000000000e+00 0.000000000000000000e+00 0.000000000000000000e+00
-1.877367958101370027e+00 -7.629542219306739703e-01 -8.639191384610760416e-01 -1.329018495548345502e+00 -1.000190220896332019e-03 0.000000000000000000e+00 0.000000000000000000e+00 0.000000000000000000e+00 0.000000000000000000e+00 0.000000000000000000e+00
-1.877367958101370027e+00 -7.629542219306739703e-01 -8.639191384610760416e-01 -1.329018495548345502e+00 -1.000190220896332019e-03 0.000000000000000000e+00 0.000000000000000000e+00 0.000000000000000000e+00 0.000000000000000000e+00 0.000000000000000000e+00
-1.877367958101370027e+00 -7.629542219306739703e-01 -8.639191384610760416e-01 -1.329018495548345502e+00 -1.000190220896332019e-03 0.000000000000000000e+00 0.000000000000000000e+00 0.000000000000000000e+00 0.000000000000000000e+00 0.000000000000000000e+00
-1.877367958101370027e+00 -7.629542219306739703e-01 -8.639191384610760416e-01 -1.329018495548345502e+00 -1.000190220896332019e-03 0.000000000000000000e+00 0.000000000000000000e+00 0.000000000000000000e+00 0.000000000000000000e+00 0.000000000000000000e+00
-1.877367958101370027e+00 -7.629542219306739703e-01 -8.639191384610760416e-01 -1.329018495548345502e+00 -1.000190220896332019e-03 0.000000000000000000e+00 0.000000000000000000e+00 0.000000000000000000e+00 0.000000000000000000e+00 0.000000000000000000e+00
-1.877367958101370027e+00 -7.629542219306739703e-01 -8.639191384610760416e-01 -1.329018495548345502e+00 -1.000190220896332019e-03 0.000000000000000000e+00 0.000000000000000000e+00 0.000000000000000000e+00 0.000000000000000000e+00 0.000000000000000000e+00
-1.877367958101370027e+00 -7.629542219306739703e-01 -8.639191384610760416e-01 -1.329018495548345502e+00 -1.000190220896332019e-03 0.000000000000000000e+00 0.000000000000000000e+00 0.000000000000000000e+00 0.000000000000000000e+00 0.000000000000000000e+00
-1.877367958101370027e+00 -7.629542219306739703e-01 -8.639191384610760416e-01 -1.329018495548345502e+00 -1.000190220896332019e-03 0.000000000000000000e+00 0.000000000000000000e+00 0.000000000000000000e+00 0.000000000000000000e+00 0.000000000000000000e+00
-1.877367958101370027e+00 -7.629542219306739703e-01 -8.639191384610760416e-01 -1.329018495548345502e+00 -1.000190220896332019e-03 0.000000000000000000e+00 0.000000000000000000e+00 0.000000000000000000e+00 0.000000000000000000e+00 0.000000000000000000e+00
-1.877367958101370027e+00 -7.629542219306739703e-01 -8.639191384610760416e-01 -1.329018495548345502e+00 -1.000190220896332019e-03 0.000000000000000000e+00 0.000000000000000000e+00 0.000000000000000000e+00 0.000000000000000000e+00 0.000000000000000000e+00
-1.877367958101370027e+00 -7.629542219306739703e-01 -8.639191384610760416e-01 -1.329018495548345502e+00 -1.000190220896332019e-03 0.000000000000000000e+00 0.000000000000000000e+00 0.000000000000000000e+00 0.000000000000000000e+00 0.000000000000000000e+00
-1.877367958101370027e+00 -7.629542219306739703e-01 -8.639191384610760416e-01 -1.329018495548345502e+00 -1.000190220896332019e-03 0.000000000000000000e+00 0.000000000000000000e+00 0.000000000000000000e+00 0.000000000000000000e+00 0.000000000000000000e+00
