8.138711401320442018e-01 -6.568893457567546168e-01 1.303912159188076458e+00 -7.462606709396835125e-01 -8.627812888955179870e-05 1.649918447466923510e+00 -2.303534716808412763e-01 5.577182577966240951e-01 1.713679642949100135e+00 4.797243571312686042e-03
8.969128105666482886e-01 -6.657017112726875130e-01 1.329213010627227520e+00 -6.592664070699445489e-01 1.718778909506024058e-04 1.660833408692081736e+00 -1.762473103186577017e-01 5.060170287830202396e-01 1.739885277394780383e+00 5.163120396803083656e-03
9.803743289462059085e-01 -6.721070030907208004e-01 1.351906372470161655e+00 -5.710012261695671665e-01 4.384737637175492586e-04 1.669230367591151509e+00 -1.281058363606651374e-01 4.538672368586831318e-01 1.765303618007548758e+00 5.331917455338936948e-03
1.064193596147722021e+00 -6.764628132489092227e-01 1.372268150531753550e+00 -4.815043382318295873e-01 7.084129397054703993e-04 1.676385344030320912e+00 -8.711620316376876560e-02 4.072355612318375728e-01 1.789937758754750918e+00 5.398783519758421079e-03
1.148380602531820394e+00 -6.791560477282699848e-01 1.390935628846120320e+00 -3.908169841939680422e-01 1.000852868368981748e-03 0.000000000000000000e+00 0.000000000000000000e+00 0.000000000000000000e+00 0.000000000000000000e+00 0.000000000000000000e+00
1.148380602531820394e+00 -6.791560477282699848e-01 1.390935628846120320e+00 -3.908169841939680422e-01 1.000852868368981748e-03 0.000000000000000000e+00 0.000000000000000000e+00 0.000000000000000000e+00 0.000000000000000000e+00 0.000000000000000000e+00
1.148380602531820394e+00 -6.791560477282699848e-01 1.390935628846120320e+00 -3.908169841939680422e-01 1.000852868368981748e-03 0.000000000000000000e+00 0.000000000000000000e+00 0.000000000000000000e+00 0.000000000000000000e+00 0.000000000000000000e+00
1.148380602531820394e+00 -6.791560477282699848e-01 1.390935628846120320e+00 -3.908169841939680422e-01 1.000852868368981748e-03 0.000000000000000000e+00 0.000000000000000000e+00 0.000000000000000000e+00 0.000000000000000000e+00 0.000000000000000000e+00
1.148380602531820394e+00 -6.791560477282699848e-01 1.390935628846120320e+00 -3.908169841939680422e-01 1.000852868368981748e-03 0.000000000000000000e+00 0.000000000000000000e+00 0.000000000000000000e+00 0.000000000000000000e+00 0.000000000000000000e+00
1.148380602531820394e+00 -6.791560477282699848e-01 1.390935628846120320e+00 -3.908169841939680422e-01 1.000852868368981748e-03 0.000000000000000000e+00 0.000000000000000000e+00 0.000000000000000000e+00 0.000000000000000000e+00 0.000000000000000000e+00
1.148380602531820394e+00 -6.791560477282699848e-01 1.390935628846120320e+00 -3.908169841939680422e-01 1.000852868368981748e-03 0.000000000000000000e+00 0.000000000000000000e+00 0.000000000000000000e+00 0.000000000000000000e+00 0.000000000000000000e+00
1.148380602531820394e+00 -6.791560477282699848e-01 1.390935628846120320e+00 -3.908169841939680422e-01 1.000852868368981748e-03 0.000000000000000000e+00 0.000000000000000000e+00 0.000000000000000000e+00 0.000000000000000000e+00 0.000000000000000000e+00
1.148380602531820394e+00 -6.791560477282699848e-01 1.390935628846120320e+00 -3.908169841939680422e-01 1.000852868368981748e-03 0.000000000000000000e+00 0.000000000000000000e+00 0.000000000000000000e+00 0.000000000000000000e+00 0.000000000000000000e+00
1.148380602531820394e+00 -6.791560477282699848e-01 1.390935628846120320e+00 -3.908169841939680422e-01 1.000852868368981748e-03 0.000000000000000000e+00 0.000000000000000000e+00 0.000000000000000000e+00 0.000000000000000000e+00 0.000000000000000000e+00
1.148380602531820394e+00 -6.791560477282699848e-01 1.390935628846120320e+00 -3.908169841939680422e-01 1.000852868368981748e-03 0.000000000000000000e+00 0.000000000000000000e+00 0.000000000000000000e+00 0.000000000000000000e+00 0.000000000000000000e+00
1.148380602531820394e+00 -6.791560477282699848e-01 1.390935628846120320e+00 -3.908169841939680422e-01 1.000852868368981748e-03 0.000000000000000000e+00 0.000000000000000000e+00 0.000000000000000000e+00 0.000000000000000000e+00 0.000000000000000000e+00
1.148380602531820394e+00 -6.791560477282699848e-01 1.390935628846120320e+00 -3.908169841939680422e-01 1.000852868368981748e-03 0.000000000000000000e+00 0.000000000000000000e+00 0.000000000000000000e+00 0.000000000000000000e+00 0.000000000000000000e+00
1.148380602531820394e+00 -6.791560477282699848e-01 1.390935628846120320e+00 -3.908169841939680422e-01 1.000852868368981748e-03 0.000000000000000000e+00 0.000000000000000000e+00 0.000000000000000000e+00 0.000000000000000000e+00 0.000000000000000000e+00
1.148380602531820394e+00 -6.791560477282699848e-01 1.390935628846120320e+00 -3.908169841939680422e-01 1.000852868368981748e-03 0.000000000000000000e+00 0.000000000000000000e+00 0.000000000000000000e+00 0.000000000000000000e+00 0.000000000000000000e+00
1.148380602531820394e+00 -6.791560477282699848e-01 1.390935628846120320e+00 -3.908169841939680422e-01 1.000852868368981748e-03 0.000000000000000000e+00 0.000000000000000000e+00 0.000000000000000000e+00 0.000000000000000000e+00 0.000000000000000000e+00
1.148380602531820394e+00 -6.791560477282699848e-01 1.390935628846120320e+00 -3.908169841939680422e-01 1.000852868368981748e-03 0.000000000000000000e+00 0.000000000000000000e+00 0.000000000000000000e+00 0.000000000000000000e+00 0.000000000000000000e+00
1.148380602531820394e+00 -6.791560477282699848e-01 1.390935628846120320e+00 -3.908169841939680422e-01 1.000852868368981748e-03 0.000000000000000000e+00 0.000000000000000000e+00 0.000000000000000000e+00 0.000000000000000000e+00 0.000000000000000000e+00
1.148380602531820394e+00 -6.791560477282699848e-01 1.390935628846120320e+00 -3.908169841939680422e-01 1.000852868368981748e-03 0.000000000000000000e+00 0.000000000000000000e+00 0.000000000000000000e+00 0.000000000000000000e+00 0.000000000000000000e+00
1.148380602531820394e+00 -6.791560477282699848e-01 1.390935628846120320e+00 -3.908169841939680422e-01 1.000852868368981748e-03 0.000000000000000000e+00 0.000000000000000000e+00 0.000000000000000000e+00 0.000000000000000000e+00 0.000000000000000000e+00
1.148380602531820394e+00 -6.791560477282699848e-01 1.390935628846120320e+00 -3.908169841939680422e-01 1.000852868368981748e-03 0.000000000000000000e+00 0.000000000000000000e+00 0.000000000000000000e+00 0.000000000000000000e+00 0.000000000000000000e+00
1.148380602531820394e+00 -6.791560477282699848e-01 1.390935628846120320e+00 -3.908169841939680422e-01 1.000852868368981748e-03 0.000000000000000000e+00 0.000000000000000000e+00 0.000000000000000000e+00 0.000000000000000000e+00 0.000000000000000000e+00
1.148380602531820394e+00 -6.791560477282699848e-01 1.390935628846120320e+00 -3.908169841939680422e-01 1.000852868368981748e-03 0.000000000000000000e+00 0.000000000000000000e+00 0.000000000000000000e+00 0.000000000000000000e+00 0.000000000000000000e+00
1.148380602531820394e+00 -6.791560477282699848e-01 1.390935628846120320e+00 -3.908169841939680422e-01 1.000852868368981748e-03 0.000000000000000000e+00 0.000000000000000000e+00 0.000000000000000000e+00 0.000000000000000000e+00 0.000000000000000000e+00
1.148380602531820394e+00 -6.791560477282699848e-01 1.390935628846120320e+00 -3.908169841939680422e-01 1.000852868368981748e-03 0.000000000000000000e+00 0.000000000000000000e+00 0.000000000000000000e+00 0.000000000000000000e+00 0.000000000000000000e+00
1.148380602531820394e+00 -6.791560477282699848e-01 1.390935628846120320e+00 -3.908169841939680422e-01 1.000852868368981748e-03 0.000000000000000000e+00 0.000000000000000000e+00 0.000000000000000000e+00 0.000000000000000000e+00 0.000000000000000000e+00
1.148380602531820394e+00 -6.791560477282699848e-01 1.390935628846120320e+00 -3.908169841939680422e-01 1.000852868368981748e-03 0.000000000000000000e+00 0.000000000000000000e+00 0.000000000000000000e+00 0.000000000000000000e+00 0.000000000000000000e+00
