-4.532635182426398290e-01 -1.560810246526138645e+00 -1.108801721012289548e-01 -8.480878673255862754e-01 2.239741167985961792e-04 1.838485114400817688e-01 -1.833246936456455423e+00 -2.422580990803507861e-01 2.028579453234645502e+00 1.205543848784996607e-03
-4.416053746565602456e-01 -1.653176529004594997e+00 -1.214084233560819154e-01 -7.423848306981429834e-01 2.657324207143083039e-04 2.331628717215920576e-01 -1.847325649569125483e+00 -2.105650250970593218e-01 2.114060732548865840e+00 8.351660783142424941e-04
-4.284885764537604280e-01 -1.746070870960733323e+00 -1.316531402865833700e-01 -6.330138357005421490e-01 3.098745731434477627e-04 2.623359640559964068e-01 -1.857886839122768086e+00 -2.048943386100288977e-01 2.187419899952017133e+00 8.828430485827897184e-04
-4.149294763113404727e-01 -1.839290560288351140e+00 -1.431892354039821236e-01 -5.205956422217250523e-01 4.376716059438096594e-04 2.711820028483994949e-01 -1.864393786552355881e+00 -2.307219023479752384e-01 2.248363869576341934e+00 2.555940656007237716e-03
-4.016217883809975464e-01 -1.932578104803322372e+00 -1.576318020183146984e-01 -4.057791580573040235e-01 9.991257448569905528e-04 0.000000000000000000e+00 0.000000000000000000e+00 0.000000000000000000e+00 0.000000000000000000e+00 0.000000000000000000e+00
-4.016217883809975464e-01 -1.932578104803322372e+00 -1.576318020183146984e-01 -4.057791580573040235e-01 9.991257448569905528e-04 0.000000000000000000e+00 0.000000000000000000e+00 0.000000000000000000e+00 0.000000000000000000e+00 0.000000000000000000e+00
-4.016217883809975464e-01 -1.932578104803322372e+00 -1.576318020183146984e-01 -4.057791580573040235e-01 9.991257448569905528e-04 0.000000000000000000e+00 0.000000000000000000e+00 0.000000000000000000e+00 0.000000000000000000e+00 0.000000000000000000e+00
-4.016217883809975464e-01 -1.932578104803322372e+00 -1.576318020183146984e-01 -4.057791580573040235e-01 9.991257448569905528e-04 0.000000000000000000e+00 0.000000000000000000e+00 0.000000000000000000e+00 0.000000000000000000e+00 0.000000000000000000e+00
-4.016217883809975464e-01 -1.932578104803322372e+00 -1.576318020183146984e-01 -4.057791580573040235e-01 9.991257448569905528e-04 0.000000000000000000e+00 0.000000000000000000e+00 0.000000000000000000e+00 0.000000000000000000e+00 0.000000000000000000e+00
-4.016217883809975464e-01 -1.932578104803322372e+00 -1.576318020183146984e-01 -4.057791580573040235e-01 9.991257448569905528e-04 0.000000000000000000e+00 0.000000000000000000e+00 0.000000000000000000e+00 0.000000000000000000e+00 0.000000000000000000e+00
-4.016217883809975464e-01 -1.932578104803322372e+00 -1.576318020183146984e-01 -4.057791580573040235e-01 9.991257448569905528e-04 0.000000000000000000e+00 0.000000000000000000e+00 0.000000000000000000e+00 0.000000000000000000e+00 0.000000000000000000e+00
-4.016217883809975464e-01 -1.932578104803322372e+00 -1.576318020183146984e-01 -4.057791580573040235e-01 9.991257448569905528e-04 0.000000000000000000e+00 0.000000000000000000e+00 0.000000000000000000e+00 0.000000000000000000e+00 0.000000000000000000e+00
-4.016217883809975464e-01 -1.932578104803322372e+00 -1.576318020183146984e-01 -4.057791580573040235e-01 9.991257448569905528e-04 0.000000000000000000e+00 0.000000000000000000e+00 0.000000000000000000e+00 0.000000000000000000e+00 0.000000000000000000e+00
-4.016217883809975464e-01 -1.932578104803322372e+00 -1.576318020183146984e-01 -4.057791580573040235e-01 9.991257448569905528e-04 0.000000000000000000e+00 0.000000000000000000e+00 0.000000000000000000e+00 0.000000000000000000e+00 0.000000000000000000e+00
-4.016217883809975464e-01 -1.932578104803322372e+00 -1.576318020183146984e-01 -4.057791580573040235e-01 9.991257448569905528e-04 0.000000000000000000e+00 0.000000000000000000e+00 0.000000000000000000e+00 0.000000000000000000e+00 0.000000000000000000e+00
-4.016217883809975464e-01 -1.932578104803322372e+00 -1.576318020183146984e-01 -4.057791580573040235e-01 9.991257448569905528e-04 0.000000000000000000e+00 0.000000000000000000e+00 0.000000000000000000e+00 0.000000000000000000e+00 0.000000000000000000e+00
-4.016217883809975464e-01 -1.932578104803322372e+00 -1.576318020183146984e-01 -4.057791580573040235e-01 9.991257448569905528e-04 0.000000000000000000e+00 0.000000000000000000e+00 0.000000000000000000e+00 0.000000000000000000e+00 0.000000000000000000e+00
-4.016217883809975464e-01 -1.932578104803322372e+00 -1.576318020183146984e-01 -4.057791580573040235e-01 9.991257448569905528e-04 0.000000000000000000e+00 0.000000000000000000e+00 0.000000000000000000e+00 0.000000000000000000e+00 0.000000000000000000e+00
-4.016217883809975464e-01 -1.932578104803322372e+00 -1.576318020183146984e-01 -4.057791580573040235e-01 9.991257448569905528e-04 0.000000000000000000e+00 0.000000000000000000e+00 0.000000000000000000e+00 0.000000000000000000e+00 0.000000000000000000e+00
-4.016217883809975464e-01 -1.932578104803322372e+00 -1.576318020183146984e-01 -4.057791580573040235e-01 9.991257448569905528e-04 0.000000000000000000e+00 0.000000000000000000e+00 0.000000000000000000e+00 0.000000000000000000e+00 0.000000000000000000e+00
-4.016217883809975464e-01 -1.932578104803322372e+00 -1.576318020183146984e-01 -4.057791580573040235e-01 9.991257448569905528e-04 0.000000000000000000e+00 0.000000000000000000e+00 0.000000000000000000e+00 0.000000000000000000e+00 0.000000000000000000e+00
-4.016217883809975464e-01 -1.932578104803322372e+00 -1.576318020183146984e-01 -4.057791580573040235e-01 9.991257448569905528e-04 0.000000000000000000e+00 0.000000000000000000e+00 0.000000000000000000e+00 0.000000000000000000e+00 0.000000000000000000e+00
-4.016217883809975464e-01 -1.932578104803322372e+00 -1.576318020183146984e-01 -4.057791580573040235e-01 9.991257448569905528e-04 0.000000000000000000e+00 0.000000000000000000e+00 0.000000000000000000e+00 0.000000000000000000e+00 0.000000000000000000e+00
-4.016217883809975464e-01 -1.932578104803322372e+00 -1.576318020183146984e-01 -4.057791580573040235e-01 9.991257448569905528e-04 0.000000000000000000e+00 0.000000000000000000e+00 0.000000000000000000e+00 0.000000000000000000e+00 0.000000000000000000e+00
-4.016217883809975464e-01 -1.932578104803322372e+00 -1.576318020183146984e-01 -4.057791580573040235e-01 9.991257448569905528e-04 0.000000000000000000e+00 0.000000000000000000e+00 0.000000000000000000e+00 0.000000000000000000e+00 0.000000000000000000e+00
-4.016217883809975464e-01 -1.932578104803322372e+00 -1.576318020183146984e-01 -4.057791580573040235e-01 9.991257448569905528e-04 0.000000000000000000e+00 0.000000000000000000e+00 0.000000000000000000e+00 0.000000000000000000e+00 0.000000000000000000e+00
-4.016217883809975464e-01 -1.932578104803322372e+00 -1.576318020183146984e-01 -4.057791580573040235e-01 9.991257448569905528e-04 0.000000000000000000e+00 0.000000000000000000e+00 0.000000000000000000e+00 0.000000000000000000e+00 0.000000000000000000e+00
-4.016217883809975464e-01 -1.932578104803322372e+00 -1.576318020183146984e-01 -4.057791580573040235e-01 9.991257448569905528e-04 0.000000000000000000e+00 0.000000000000000000e+00 0.000000000000000000e+00 0.000000000000000000e+00 0.000000000000000000e+00
-4.016217883809975464e-01 -1.932578104803322372e+00 -1.576318020183146984e-01 -4.057791580573040235e-01 9.991257448569905528e-04 0.000000000000000000e+00 0.000000000000000000e+00 0.000000000000000000e+00 0.000000000000000000e+00 0.000000000000000000e+00
-4.016217883809975464e-01 -1.932578104803322372e+00 -1.576318020183146984e-01 -4.057791580573040235e-01 9.991257448569905528e-04 0.000000000000000000e+00 0.000000000000000000e+00 0.000000000000000000e+00 0.000000000000000000e+00 0.000000000000000000e+00
-4.016217883809975464e-01 -1.932578104803322372e+00 -1.576318020183146984e-01 -4.057791580573040235e-01 9.991257448569905528e-04 0.000000000000000000e+00 0.000000000000000000e+00 0.000000000000000000e+00 0.000000000000000000e+00 0.000000000000000000e+00
