-3.878775349717076826e-01 -2.503649069265229676e-01 6.031699928471250249e-01 -1.619393618133083024e+00 -7.127701973684691644e-04 -3.548679138371415021e-01 -5.089548610334597711e-01 -8.425728133387777596e-01 -9.295833670836652907e-01 -4.109625466930527660e-03
-4.048958097405409018e-01 -2.795124945263431915e-01 5.595809478870279463e-01 -1.656884956159211608e+00 -8.864737483501065277e-04 -3.403654953766640512e-01 -5.829517519964046990e-01 -8.717808992019420167e-01 -7.498267605225729104e-01 -3.474071019632748569e-03
-4.209541015537799358e-01 -3.122401217847203814e-01 5.157513025396510686e-01 -1.684129648049675465e+00 -9.985521231946634449e-04 -3.211658362647810683e-01 -6.545525451675431317e-01 -8.765929069475366653e-01 -5.448938378092775814e-01 -2.241567496891137910e-03
-4.359250146077833232e-01 -3.483771712950044508e-01 4.729113407817749359e-01 -1.700503012524109847e+00 -1.036043625331591143e-03 -2.994182610800679711e-01 -7.227409902056811664e-01 -8.567992351575222099e-01 -3.274672894886865304e-01 -7.498300427385539563e-04
-4.497712629854876965e-01 -3.877043295183922877e-01 4.321769615208858051e-01 -1.705933184965111149e+00 -1.042956805638905245e-03 -2.769249675540870204e-01 -7.865431644677568501e-01 -8.146875852177822841e-01 -1.086034488200282033e-01 -1.382636061462812942e-04
-4.625256955060978448e-01 -4.299542327870014002e-01 3.944458376327128479e-01 -1.700804149633478923e+00 -1.040136264878816679e-03 -2.550886504122030218e-01 -8.449980653721818058e-01 -7.546224777634594760e-01 1.025807066326450689e-01 5.641081520177322920e-05
-4.742686573746818790e-01 -4.748174465654553811e-01 3.603374722998874957e-01 -1.685836759155263209e+00 -1.035521135484155112e-03 -2.348592373716807402e-01 -8.972642755690793948e-01 -6.821673066565069332e-01 2.993478095643152814e-01 9.230258789323036539e-05
-4.851071816939280246e-01 -5.219538775987233592e-01 3.301830354424083458e-01 -1.661969044807475759e+00 -1.034955513702811788e-03 -2.167704863849233554e-01 -9.427286206653584522e-01 -6.030887371495831095e-01 4.773542869557501067e-01 1.131243562686772485e-05
-4.951590538111952933e-01 -5.710074984185811164e-01 3.040565791021478947e-01 -1.630253689625845492e+00 -1.042087579838880604e-03 -2.010374423453450132e-01 -9.810724163971552558e-01 -5.225291268052089100e-01 6.343071036326037859e-01 -1.426413227213751142e-04
-5.045412164609835992e-01 -6.216230927904363712e-01 2.818342454426926991e-01 -1.591775559341158441e+00 -1.022670863257528224e-03 -1.876432529957669515e-01 -1.012311887437105096e+00 -4.444466731891038025e-01 7.695626056937410198e-01 3.883343316270453224e-04
-5.133613180824214695e-01 -6.734633975542946294e-01 2.632652030221835915e-01 -1.547588219490540151e+00 -9.795901762571959225e-04 -1.764020324287581265e-01 -1.036806095277165829e+00 -3.713808484101821517e-01 8.837467970123676908e-01 8.616137400066459185e-04
-5.217133827836418769e-01 -7.262220060659163590e-01 2.480344451109950110e-01 -1.498674932641212987e+00 -9.219432919804830236e-04 -1.670412940244073163e-01 -1.055172170232433926e+00 -3.046151582237716093e-01 9.782657369865417341e-01 1.152937685534258412e-03
-5.296766228760048101e-01 -7.796325623003047545e-01 2.358082270698742544e-01 -1.445921382261425192e+00 -8.579876404124716933e-04 -1.592648018472585525e-01 -1.068211124687768354e+00 -2.445243608224150211e-01 1.055071007595756782e+00 1.279113031360225522e-03
-5.373160382912088862e-01 -8.334754186108896956e-01 2.262632483510948478e-01 -1.390092793029680474e+00 -7.938972998463543485e-04 -1.527883083040825485e-01 -1.076857126211698157e+00 -1.908995743755881880e-01 1.116571784634893705e+00 1.281806811322346463e-03
-5.446846570584522595e-01 -8.875806209563336102e-01 2.191027865621773818e-01 -1.331821044564618139e+00 -7.336037639013618609e-04 -1.473723753448682450e-01 -1.082104046908878958e+00 -1.432092357783493197e-01 1.165434969301244461e+00 1.205870718899848667e-03
-5.518265600416898398e-01 -9.418273375773998923e-01 2.140655232921611639e-01 -1.271605318928222372e+00 -6.791081290912651201e-04 -1.428380596647508827e-01 -1.084934332421326086e+00 -1.007452654003241355e-01 1.204314512727916009e+00 1.089912696201935684e-03
-5.587821616988436491e-01 -9.961385267722016046e-01 2.109260959363597754e-01 -1.209830495418638741e+00 -6.312896853022452286e-04 -1.391120331430752144e-01 -1.086223783896033135e+00 -6.278854711602795124e-02 1.235496470191670415e+00 9.563688757803981552e-04
-5.655926245703480904e-01 -1.050475608140752248e+00 2.094935112549393685e-01 -1.146782878843251252e+00 -5.905470134870010896e-04 -1.362092574300891590e-01 -1.086741627371013985e+00 -2.865169362840835204e-02 1.260952331507750435e+00 8.148534363048838634e-04
-5.723056878871616293e-01 -1.104832373124402967e+00 2.096043935570092442e-01 -1.082666320110928559e+00 -5.574847063820443467e-04 -1.342612663362709180e-01 -1.087135299673015698e+00 2.217646041397240003e-03 1.282331174646455185e+00 6.612461420991340997e-04
-5.789828081055125031e-01 -1.159229152079824132e+00 2.111126433661355550e-01 -1.017615722832966973e+00 -5.342314345117161328e-04 -1.335424043670185579e-01 -1.087935579108421313e+00 3.016499618252641360e-02 1.301011945559229943e+00 4.650654374065646022e-04
-5.857072239465979102e-01 -1.213707445690237252e+00 2.138761213790920102e-01 -9.517062182473580156e-01 -5.282352686626853606e-04 -1.344883168217085034e-01 -1.089565872208261510e+00 5.526956025912933834e-02 1.318190091712179379e+00 1.199233169806146861e-04
-5.925922705770948484e-01 -1.268324691428490913e+00 2.177413113192582239e-01 -8.849600538042290410e-01 -5.677553180367464350e-04 -1.377009326099377651e-01 -1.092344914765072783e+00 7.730379880332448328e-02 1.334923288862578827e+00 -7.904009874812208385e-04
-5.997902780579045245e-01 -1.323149094817982929e+00 2.225230498498904641e-01 -8.173493590617157967e-01 -7.628838390438025426e-04 0.000000000000000000e+00 0.000000000000000000e+00 0.000000000000000000e+00 0.000000000000000000e+00 0.000000000000000000e+00
-5.997902780579045245e-01 -1.323149094817982929e+00 2.225230498498904641e-01 -8.173493590617157967e-01 -7.628838390438025426e-04 0.000000000000000000e+00 0.000000000000000000e+00 0.000000000000000000e+00 0.000000000000000000e+00 0.000000000000000000e+00
-5.997902780579045245e-01 -1.323149094817982929e+00 2.225230498498904641e-01 -8.173493590617157967e-01 -7.628838390438025426e-04 0.000000000000000000e+00 0.000000000000000000e+00 0.000000000000000000e+00 0.000000000000000000e+00 0.000000000000000000e+00
-5.997902780579045245e-01 -1.323149094817982929e+00 2.225230498498904641e-01 -8.173493590617157967e-01 -7.628838390438025426e-04 0.000000000000000000e+00 0.000000000000000000e+00 0.000000000000000000e+00 0.000000000000000000e+00 0.000000000000000000e+00
-5.997902780579045245e-01 -1.323149094817982929e+00 2.225230498498904641e-01 -8.173493590617157967e-01 -7.628838390438025426e-04 0.000000000000000000e+00 0.000000000000000000e+00 0.000000000000000000e+00 0.000000000000000000e+00 0.000000000000000000e+00
-5.997902780579045245e-01 -1.323149094817982929e+00 2.225230498498904641e-01 -8.173493590617157967e-01 -7.628838390438025426e-04 0.000000000000000000e+00 0.000000000000000000e+00 0.000000000000000000e+00 0.000000000000000000e+00 0.000000000000000000e+00
-5.997902780579045245e-01 -1.323149094817982929e+00 2.225230498498904641e-01 -8.173493590617157967e-01 -7.628838390438025426e-04 0.000000000000000000e+00 0.000000000000000000e+00 0.000000000000000000e+00 0.000000000000000000e+00 0.000000000000000000e+00
-5.997902780579045245e-01 -1.323149094817982929e+00 2.225230498498904641e-01 -8.173493590617157967e-01 -7.628838390438025426e-04 0.000000000000000000e+00 0.000000000000000000e+00 0.000000000000000000e+00 0.000000000000000000e+00 0.000000000000000000e+00
-5.997902780579045245e-01 -1.323149094817982929e+00 2.225230498498904641e-01 -8.173493590617157967e-01 -7.628838390438025426e-04 0.000000000000000000e+00 0.000000000000000000e+00 0.000000000000000000e+00 0.000000000000000000e+00 0.000000000000000000e+00
