-3.587095102957522652e-01 -6.655142755188985237e-01 6.405356530083210487e-01 -6.403171050100189277e-01 1.020464159969998192e-03 1.808916625507057951e-01 -6.346476099227905676e-01 4.529543144153627687e-01 -4.487879277911216436e-01 -8.175315622714184743e-05
-3.492197040088000914e-01 -6.992900854041628200e-01 6.686562353792921964e-01 -6.656993174009846470e-01 1.007770631095581239e-03 1.897961257390437251e-01 -6.755161977052854816e-01 5.624116474194233994e-01 -5.076442478193153862e-01 -2.538705774883401409e-04
-3.390560700740398170e-01 -7.350115894461768384e-01 7.017410682974148939e-01 -6.936614917536605418e-01 9.737137405084929235e-04 2.032726786952049614e-01 -7.144300808402799241e-01 6.616966583624532827e-01 -5.592434870535167857e-01 -6.811378117417671817e-04
-3.279697867238937081e-01 -7.725334956186808988e-01 7.391554739783146033e-01 -7.238400677446035214e-01 9.136130238482374809e-04 2.217256670029217891e-01 -7.504381234500810960e-01 7.482881136179935222e-01 -6.035715198188589259e-01 -1.202014333205107983e-03
-3.157089488769521668e-01 -8.116629514346442864e-01 7.801878913481381517e-01 -7.559036495461018967e-01 8.333654362702293348e-04 2.452167569388304380e-01 -7.825891163192673083e-01 8.206483473964714115e-01 -6.412716360299673957e-01 -1.604951751560163139e-03
-3.020381149121000308e-01 -8.521635833684473305e-01 8.240896397224632963e-01 -7.895748823605415190e-01 7.332326761015807567e-04 2.734166792970423310e-01 -8.100126386760598818e-01 8.780349674865021159e-01 -6.734246562887913345e-01 -2.002655203372970694e-03
-2.867589309878763593e-01 -8.937633768089150443e-01 8.701026993227219952e-01 -8.246421646866264332e-01 5.817938187804847557e-04 3.055836784844729870e-01 -8.319958688093533894e-01 9.202611920051735339e-01 -7.013456465216993951e-01 -3.028777146421920453e-03
-2.697295784040661948e-01 -9.361659318281987385e-01 9.174767753200427922e-01 -8.609606899210956454e-01 2.220646868251365392e-04 3.405870516762031230e-01 -8.480511003856748831e-01 9.474815199464161619e-01 -7.263705046893834671e-01 -7.194582639106963246e-03
-2.508804081649437800e-01 -9.790641973268147114e-01 9.654791581132762257e-01 -8.984415586679603827e-01 -1.002590760745950211e-03 0.000000000000000000e+00 0.000000000000000000e+00 0.000000000000000000e+00 0.000000000000000000e+00 0.000000000000000000e+00
-2.508804081649437800e-01 -9.790641973268147114e-01 9.654791581132762257e-01 -8.984415586679603827e-01 -1.002590760745950211e-03 0.000000000000000000e+00 0.000000000000000000e+00 0.000000000000000000e+00 0.000000000000000000e+00 0.000000000000000000e+00
-2.508804081649437800e-01 -9.790641973268147114e-01 9.654791581132762257e-01 -8.984415586679603827e-01 -1.002590760745950211e-03 0.000000000000000000e+00 0.000000000000000000e+00 0.000000000000000000e+00 0.000000000000000000e+00 0.000000000000000000e+00
-2.508804081649437800e-01 -9.790641973268147114e-01 9.654791581132762257e-01 -8.984415586679603827e-01 -1.002590760745950211e-03 0.000000000000000000e+00 0.000000000000000000e+00 0.000000000000000000e+00 0.000000000000000000e+00 0.000000000000000000e+00
-2.508804081649437800e-01 -9.790641973268147114e-01 9.654791581132762257e-01 -8.984415586679603827e-01 -1.002590760745950211e-03 0.000000000000000000e+00 0.000000000000000000e+00 0.000000000000000000e+00 0.000000000000000000e+00 0.000000000000000000e+00
-2.508804081649437800e-01 -9.790641973268147114e-01 9.654791581132762257e-01 -8.984415586679603827e-01 -1.002590760745950211e-03 0.000000000000000000e+00 0.000000000000000000e+00 0.000000000000000000e+00 0.000000000000000000e+00 0.000000000000000000e+00
-2.508804081649437800e-01 -9.790641973268147114e-01 9.654791581132762257e-01 -8.984415586679603827e-01 -1.002590760745950211e-03 0.000000000000000000e+00 0.000000000000000000e+00 0.000000000000000000e+00 0.000000000000000000e+00 0.000000000000000000e+00
-2.508804081649437800e-01 -9.790641973268147114e-01 9.654791581132762257e-01 -8.984415586679603827e-01 -1.002590760745950211e-03 0.000000000000000000e+00 0.000000000000000000e+00 0.000000000000000000e+00 0.000000000000000000e+00 0.000000000000000000e+00
-2.508804081649437800e-01 -9.790641973268147114e-01 9.654791581132762257e-01 -8.984415586679603827e-01 -1.002590760745950211e-03 0.000000000000000000e+00 0.000000000000000000e+00 0.000000000000000000e+00 0.000000000000000000e+00 0.000000000000000000e+00
-2.508804081649437800e-01 -9.790641973268147114e-01 9.654791581132762257e-01 -8.984415586679603827e-01 -1.002590760745950211e-03 0.000000000000000000e+00 0.000000000000000000e+00 0.000000000000000000e+00 0.000000000000000000e+00 0.000000000000000000e+00
-2.508804081649437800e-01 -9.790641973268147114e-01 9.654791581132762257e-01 -8.984415586679603827e-01 -1.002590760745950211e-03 0.000000000000000000e+00 0.000000000000000000e+00 0.000000000000000000e+00 0.000000000000000000e+00 0.000000000000000000e+00
-2.508804081649437800e-01 -9.790641973268147114e-01 9.654791581132762257e-01 -8.984415586679603827e-01 -1.002590760745950211e-03 0.000000000000000000e+00 0.000000000000000000e+00 0.000000000000000000e+00 0.000000000000000000e+00 0.000000000000000000e+00
-2.508804081649437800e-01 -9.790641973268147114e-01 9.654791581132762257e-01 -8.984415586679603827e-01 -1.002590760745950211e-03 0.000000000000000000e+00 0.000000000000000000e+00 0.000000000000000000e+00 0.000000000000000000e+00 0.000000000000000000e+00
-2.508804081649437800e-01 -9.790641973268147114e-01 9.654791581132762257e-01 -8.984415586679603827e-01 -1.002590760745950211e-03 0.000000000000000000e+00 0.000000000000000000e+00 0.000000000000000000e+00 0.000000000000000000e+00 0.000000000000000000e+00
-2.508804081649437800e-01 -9.790641973268147114e-01 9.654791581132762257e-01 -8.984415586679603827e-01 -1.002590760745950211e-03 0.000000000000000000e+00 0.000000000000000000e+00 0.000000000000000000e+00 0.000000000000000000e+00 0.000000000000000000e+00
-2.508804081649437800e-01 -9.790641973268147114e-01 9.654791581132762257e-01 -8.984415586679603827e-01 -1.002590760745950211e-03 0.000000000000000000e+00 0.000000000000000000e+00 0.000000000000000000e+00 0.000000000000000000e+00 0.000000000000000000e+00
-2.508804081649437800e-01 -9.790641973268147114e-01 9.654791581132762257e-01 -8.984415586679603827e-01 -1.002590760745950211e-03 0.000000000000000000e+00 0.000000000000000000e+00 0.000000000000000000e+00 0.000000000000000000e+00 0.000000000000000000e+00
-2.508804081649437800e-01 -9.790641973268147114e-01 9.654791581132762257e-01 -8.984415586679603827e-01 -1.002590760745950211e-03 0.000000000000000000e+00 0.000000000000000000e+00 0.000000000000000000e+00 0.000000000000000000e+00 0.000000000000000000e+00
-2.508804081649437800e-01 -9.790641973268147114e-01 9.654791581132762257e-01 -8.984415586679603827e-01 -1.002590760745950211e-03 0.000000000000000000e+00 0.000000000000000000e+00 0.000000000000000000e+00 0.000000000000000000e+00 0.000000000000000000e+00
-2.508804081649437800e-01 -9.790641973268147114e-01 9.654791581132762257e-01 -8.984415586679603827e-01 -1.002590760745950211e-03 0.000000000000000000e+00 0.000000000000000000e+00 0.000000000000000000e+00 0.000000000000000000e+00 0.000000000000000000e+00
-2.508804081649437800e-01 -9.790641973268147114e-01 9.654791581132762257e-01 -8.984415586679603827e-01 -1.002590760745950211e-03 0.000000000000000000e+00 0.000000000000000000e+00 0.000000000000000000e+00 0.000000000000000000e+00 0.000000000000000000e+00
-2.508804081649437800e-01 -9.790641973268147114e-01 9.654791581132762257e-01 -8.984415586679603827e-01 -1.002590760745950211e-03 0.000000000000000000e+00 0.000000000000000000e+00 0.000000000000000000e+00 0.000000000000000000e+00 0.000000000000000000e+00
-2.508804081649437800e-01 -9.790641973268147114e-01 9.654791581132762257e-01 -8.984415586679603827e-01 -1.002590760745950211e-03 0.000000000000000000e+00 0.000000000000000000e+00 0.000000000000000000e+00 0.000000000000000000e+00 0.000000000000000000e+00
