-3.341699131531410960e-01 -8.651927714763228972e-01 9.800392975652070238e-01 -1.092211062518453124e+00 6.694834305845701831e-04 7.371091656034219897e-01 -1.280196713186014801e+00 1.297160277572697140e+00 4.298151717008327766e-01 2.342973535462919595e-03
-2.913241369866620412e-01 -9.291860271583014530e-01 1.053260147080499864e+00 -1.069921790940072892e+00 8.009676113469397368e-04 8.569155233295812080e-01 -1.279865113639570451e+00 1.464416990305856148e+00 4.457854315676045842e-01 2.629683615247391942e-03
-2.417023523369666305e-01 -9.927601333713036436e-01 1.135782584772692116e+00 -1.048234199473527140e+00 9.110879070826627662e-04 9.924356929939084360e-01 -1.271482124260044255e+00 1.650448753843845928e+00 4.337518293309147177e-01 2.202405914714461021e-03
-1.843879782512916343e-01 -1.055511059336988966e+00 1.228652823114389392e+00 -1.028714587928168278e+00 8.420407923893454992e-04 1.146287481713499812e+00 -1.255018519313707559e+00 1.857404766833943954e+00 3.903922309071793939e-01 -1.380942293866345340e-03
-1.182786137757293882e-01 -1.117054926669864168e+00 1.333059878197159875e+00 -1.013068286171922239e+00 -5.677877865470208098e-05 0.000000000000000000e+00 0.000000000000000000e+00 0.000000000000000000e+00 0.000000000000000000e+00 0.000000000000000000e+00
-1.182786137757293882e-01 -1.117054926669864168e+00 1.333059878197159875e+00 -1.013068286171922239e+00 -5.677877865470208098e-05 0.000000000000000000e+00 0.000000000000000000e+00 0.000000000000000000e+00 0.000000000000000000e+00 0.000000000000000000e+00
-1.182786137757293882e-01 -1.117054926669864168e+00 1.333059878197159875e+00 -1.013068286171922239e+00 -5.677877865470208098e-05 0.000000000000000000e+00 0.000000000000000000e+00 0.000000000000000000e+00 0.000000000000000000e+00 0.000000000000000000e+00
-1.182786137757293882e-01 -1.117054926669864168e+00 1.333059878197159875e+00 -1.013068286171922239e+00 -5.677877865470208098e-05 0.000000000000000000e+00 0.000000000000000000e+00 0.000000000000000000e+00 0.000000000000000000e+00 0.000000000000000000e+00
-1.182786137757293882e-01 -1.117054926669864168e+00 1.333059878197159875e+00 -1.013068286171922239e+00 -5.677877865470208098e-05 0.000000000000000000e+00 0.000000000000000000e+00 0.000000000000000000e+00 0.000000000000000000e+00 0.000000000000000000e+00
-1.182786137757293882e-01 -1.117054926669864168e+00 1.333059878197159875e+00 -1.013068286171922239e+00 -5.677877865470208098e-05 0.000000000000000000e+00 0.000000000000000000e+00 0.000000000000000000e+00 0.000000000000000000e+00 0.000000000000000000e+00
-1.182786137757293882e-01 -1.117054926669864168e+00 1.333059878197159875e+00 -1.013068286171922239e+00 -5.677877865470208098e-05 0.000000000000000000e+00 0.000000000000000000e+00 0.000000000000000000e+00 0.000000000000000000e+00 0.000000000000000000e+00
-1.182786137757293882e-01 -1.117054926669864168e+00 1.333059878197159875e+00 -1.013068286171922239e+00 -5.677877865470208098e-05 0.000000000000000000e+00 0.000000000000000000e+00 0.000000000000000000e+00 0.000000000000000000e+00 0.000000000000000000e+00
-1.182786137757293882e-01 -1.117054926669864168e+00 1.333059878197159875e+00 -1.013068286171922239e+00 -5.677877865470208098e-05 0.000000000000000000e+00 0.000000000000000000e+00 0.000000000000000000e+00 0.000000000000000000e+00 0.000000000000000000e+00
-1.182786137757293882e-01 -1.117054926669864168e+00 1.333059878197159875e+00 -1.013068286171922239e+00 -5.677877865470208098e-05 0.000000000000000000e+00 0.000000000000000000e+00 0.000000000000000000e+00 0.000000000000000000e+00 0.000000000000000000e+00
-1.182786137757293882e-01 -1.117054926669864168e+00 1.333059878197159875e+00 -1.013068286171922239e+00 -5.677877865470208098e-05 0.000000000000000000e+00 0.000000000000000000e+00 0.000000000000000000e+00 0.000000000000000000e+00 0.000000000000000000e+00
-1.182786137757293882e-01 -1.117054926669864168e+00 1.333059878197159875e+00 -1.013068286171922239e+00 -5.677877865470208098e-05 0.000000000000000000e+00 0.000000000000000000e+00 0.000000000000000000e+00 0.000000000000000000e+00 0.000000000000000000e+00
-1.182786137757293882e-01 -1.117054926669864168e+00 1.333059878197159875e+00 -1.013068286171922239e+00 -5.677877865470208098e-05 0.000000000000000000e+00 0.000000000000000000e+00 0.000000000000000000e+00 0.000000000000000000e+00 0.000000000000000000e+00
-1.182786137757293882e-01 -1.117054926669864168e+00 1.333059878197159875e+00 -1.013068286171922239e+00 -5.677877865470208098e-05 0.000000000000000000e+00 0.000000000000000000e+00 0.000000000000000000e+00 0.000000000000000000e+00 0.000000000000000000e+00
-1.182786137757293882e-01 -1.117054926669864168e+00 1.333059878197159875e+00 -1.013068286171922239e+00 -5.677877865470208098e-05 0.000000000000000000e+00 0.000000000000000000e+00 0.000000000000000000e+00 0.000000000000000000e+00 0.000000000000000000e+00
-1.182786137757293882e-01 -1.117054926669864168e+00 1.333059878197159875e+00 -1.013068286171922239e+00 -5.677877865470208098e-05 0.000000000000000000e+00 0.000000000000000000e+00 0.000000000000000000e+00 0.000000000000000000e+00 0.000000000000000000e+00
-1.182786137757293882e-01 -1.117054926669864168e+00 1.333059878197159875e+00 -1.013068286171922239e+00 -5.677877865470208098e-05 0.000000000000000000e+00 0.000000000000000000e+00 0.000000000000000000e+00 0.000000000000000000e+00 0.000000000000000000e+00
-1.182786137757293882e-01 -1.117054926669864168e+00 1.333059878197159875e+00 -1.013068286171922239e+00 -5.677877865470208098e-05 0.000000000000000000e+00 0.000000000000000000e+00 0.000000000000000000e+00 0.000000000000000000e+00 0.000000000000000000e+00
-1.182786137757293882e-01 -1.117054926669864168e+00 1.333059878197159875e+00 -1.013068286171922239e+00 -5.677877865470208098e-05 0.000000000000000000e+00 0.000000000000000000e+00 0.000000000000000000e+00 0.000000000000000000e+00 0.000000000000000000e+00
-1.182786137757293882e-01 -1.117054926669864168e+00 1.333059878197159875e+00 -1.013068286171922239e+00 -5.677877865470208098e-05 0.000000000000000000e+00 0.000000000000000000e+00 0.000000000000000000e+00 0.000000000000000000e+00 0.000000000000000000e+00
-1.182786137757293882e-01 -1.117054926669864168e+00 1.333059878197159875e+00 -1.013068286171922239e+00 -5.677877865470208098e-05 0.000000000000000000e+00 0.000000000000000000e+00 0.000000000000000000e+00 0.000000000000000000e+00 0.000000000000000000e+00
-1.182786137757293882e-01 -1.117054926669864168e+00 1.333059878197159875e+00 -1.013068286171922239e+00 -5.677877865470208098e-05 0.000000000000000000e+00 0.000000000000000000e+00 0.000000000000000000e+00 0.000000000000000000e+00 0.000000000000000000e+00
-1.182786137757293882e-01 -1.117054926669864168e+00 1.333059878197159875e+00 -1.013068286171922239e+00 -5.677877865470208098e-05 0.000000000000000000e+00 0.000000000000000000e+00 0.000000000000000000e+00 0.000000000000000000e+00 0.000000000000000000e+00
-1.182786137757293882e-01 -1.117054926669864168e+00 1.333059878197159875e+00 -1.013068286171922239e+00 -5.677877865470208098e-05 0.000000000000000000e+00 0.000000000000000000e+00 0.000000000000000000e+00 0.000000000000000000e+00 0.000000000000000000e+00
-1.182786137757293882e-01 -1.117054926669864168e+00 1.333059878197159875e+00 -1.013068286171922239e+00 -5.677877865470208098e-05 0.000000000000000000e+00 0.000000000000000000e+00 0.000000000000000000e+00 0.000000000000000000e+00 0.000000000000000000e+00
-1.182786137757293882e-01 -1.117054926669864168e+00 1.333059878197159875e+00 -1.013068286171922239e+00 -5.677877865470208098e-05 0.000000000000000000e+00 0.000000000000000000e+00 0.000000000000000000e+00 0.000000000000000000e+00 0.000000000000000000e+00
-1.182786137757293882e-01 -1.117054926669864168e+00 1.333059878197159875e+00 -1.013068286171922239e+00 -5.677877865470208098e-05 0.000000000000000000e+00 0.000000000000000000e+00 0.000000000000000000e+00 0.000000000000000000e+00 0.000000000000000000e+00
