-3.670313935717773868e-01 -4.692144537567654039e-01 7.310093645293427311e-01 -1.256181739163052091e+00 4.451956676359896336e-04 -1.990705503582336777e-01 -3.436447822276246511e-02 -6.324310870520122307e-01 -4.714401570568304001e-01 -1.433385423121014048e-03
-3.762272578103234566e-01 -4.723875711472028671e-01 7.001873868301142778e-01 -1.277153421178750081e+00 3.472177356328380983e-04 -1.839172847709219238e-01 -6.346234780874872305e-02 -6.164395539845701766e-01 -4.194336403139613534e-01 -1.959558640063030054e-03
-3.844435004263108135e-01 -4.771114135645753707e-01 6.707934974877943768e-01 -1.294794910780183494e+00 2.354929044700247156e-04 -1.643248523197467781e-01 -9.447684834744986271e-02 -5.878777868463974654e-01 -3.528297920286693756e-01 -2.234496623256267221e-03
-3.915346190407145710e-01 -4.834226678845080505e-01 6.433052879902080301e-01 -1.308626043627957092e+00 1.208038860406262740e-04 -1.418223722880750937e-01 -1.262250863986537630e-01 -5.497641899517264896e-01 -2.766226569554733894e-01 -2.293780368587968778e-03
-3.974164709567951648e-01 -4.913067336509729377e-01 6.180721162671041213e-01 -1.318386975916599368e+00 1.183203097494021450e-05 -1.176370383216114035e-01 -1.576813153292982161e-01 -5.046634344620777313e-01 -1.952186457728465330e-01 -2.179437101313721082e-03
-4.020531789405806244e-01 -5.007061941793514714e-01 5.953335065368333678e-01 -1.324006782017263850e+00 -8.522172041248291300e-05 -9.273415967570936003e-02 -1.879892105675695646e-01 -4.547721946054142372e-01 -1.123961220132901756e-01 -1.941075027748462387e-03
-4.054459840282644834e-01 -5.115295168342620657e-01 5.752337386166759270e-01 -1.325569830255733272e+00 -1.666170868856179841e-04 -6.785610175367676189e-02 -2.164664530982119695e-01 -4.019953584031495941e-01 -3.126096476938679258e-02 -1.627907329462701530e-03
-4.076238383196066906e-01 -5.236598612019156551e-01 5.578345115996936610e-01 -1.323281118783871557e+00 -2.308807192762404956e-04 -4.355708582684381103e-02 -2.426068873530718428e-01 -3.479845403396457093e-01 4.577422943723589988e-02 -1.285272647812450014e-03
-4.086355920001484843e-01 -5.369634561808284134e-01 5.431266235582411506e-01 -1.317431954500134728e+00 -2.781304995967767311e-04 -2.023507361083574235e-02 -2.660718995782553886e-01 -2.941577608290503187e-01 1.169832856747375083e-01 -9.449956064107247096e-04
-4.085442729224387226e-01 -5.512968579352867105e-01 5.310415115660401808e-01 -1.308372098576970455e+00 -3.097086172780092080e-04 1.826381554194997370e-03 -2.866680350891661067e-01 -2.417022398440201725e-01 1.811971184632838461e-01 -6.315623536246500790e-04
-4.074223376697999055e-01 -5.665135740943999521e-01 5.214630026157760501e-01 -1.296483977638907437e+00 -3.275824512609935065e-04 2.243870505277650862e-02 -3.043343231822654982e-01 -1.915701790052827258e-01 2.377624187612593087e-01 -3.574766796596857000e-04
-4.053476177913816203e-01 -5.824701451700742272e-01 5.142402035737693167e-01 -1.282160592508879038e+00 -3.340760084943847114e-04 4.149439756836566240e-02 -3.191314215134850585e-01 -1.444559808401353063e-01 2.864677026005685856e-01 -1.298711446678237178e-04
-4.023994802105287927e-01 -5.990315756835660199e-01 5.092009892160678231e-01 -1.265785628264755713e+00 -3.316025565085004836e-04 5.896275161705664958e-02 -3.312286102698352996e-01 -1.007842871540288177e-01 3.274992848824681557e-01 4.946903971768493473e-05
-3.986559937017097877e-01 -6.160752787571567302e-01 5.061630352992393389e-01 -1.247718397686577774e+00 -3.225274574544031037e-04 7.486973017638030858e-02 -3.408740614718135387e-01 -6.075907833657007151e-02 3.613446115635594591e-01 1.815019810819478959e-04
-3.941917473910059866e-01 -6.334938491412900330e-01 5.049414472743307680e-01 -1.228280682606309293e+00 -3.086930300850635302e-04 8.928492621407652097e-02 -3.483714076826653905e-01 -2.443176049817064738e-02 3.887543016053712774e-01 2.766885473867911451e-04
-3.890760813189865219e-01 -6.511965605398666312e-01 5.053570144256570584e-01 -1.207750684741328184e+00 -2.914337952156221515e-04 1.023133214403889046e-01 -3.540542279715328533e-01 8.311343026526057942e-03 4.105999572996224534e-01 3.451846973888277915e-04
-3.833722550101162363e-01 -6.691097019436205162e-01 5.072414101528527342e-01 -1.186361485166865126e+00 -2.717084065066648719e-04 1.140765261774061984e-01 -3.582628280750777550e-01 3.768791454391418050e-02 4.277839914892623829e-01 3.945077741791453200e-04
-3.771372457730908789e-01 -6.871759858272636912e-01 5.104401830432507836e-01 -1.164302817049833072e+00 -2.502697702212324546e-04 1.247001847405070640e-01 -3.613256776728628328e-01 6.397545780796111414e-02 4.411733623406424720e-01 4.287727257086481844e-04
-3.704218541356134042e-01 -7.053533468758343972e-01 5.148141942128127146e-01 -1.141724533525932950e+00 -2.278094353597830146e-04 1.343078327495491886e-01 -3.635472209714135094e-01 8.748022339123828761e-02 4.515656704780011133e-01 4.492066972289885827e-04
-3.632709406782068107e-01 -7.236133027980669041e-01 5.202401444263059505e-01 -1.118741145217873711e+00 -2.051858098310017995e-04 1.430182691481319268e-01 -3.651991184446494176e-01 1.085190042698637586e-01 4.596677661611830445e-01 4.524725105756245182e-04
-3.557236289095495607e-01 -7.419392455878911496e-01 5.266098906510372490e-01 -1.095435236730382345e+00 -1.837425763782192718e-04 1.509462353731454987e-01 -3.665188557964857430e-01 1.273949244946263881e-01 4.661181697498286147e-01 4.288646690556502297e-04
-3.478139185922490828e-01 -7.603242890881368732e-01 5.338285567507166096e-01 -1.071862189293186329e+00 -1.666709566534174279e-04 1.581942063460093362e-01 -3.677008700049147483e-01 1.443733219935864065e-01 4.714609487439217483e-01 3.414323944960367149e-04
-3.395713436868533219e-01 -7.787691328942223379e-01 5.418121104222367590e-01 -1.048054457246748283e+00 -1.644178275095657617e-04 1.648514981079154118e-01 -3.688968761217095160e-01 1.596710734304029322e-01 4.761546409287628068e-01 4.506258287703348740e-05
-3.310214350886511725e-01 -7.972800246244498013e-01 5.504847178440284150e-01 -1.024024419160434851e+00 -2.160387393524051394e-04 0.000000000000000000e+00 0.000000000000000000e+00 0.000000000000000000e+00 0.000000000000000000e+00 0.000000000000000000e+00
-3.310214350886511725e-01 -7.972800246244498013e-01 5.504847178440284150e-01 -1.024024419160434851e+00 -2.160387393524051394e-04 0.000000000000000000e+00 0.000000000000000000e+00 0.000000000000000000e+00 0.000000000000000000e+00 0.000000000000000000e+00
-3.310214350886511725e-01 -7.972800246244498013e-01 5.504847178440284150e-01 -1.024024419160434851e+00 -2.160387393524051394e-04 0.000000000000000000e+00 0.000000000000000000e+00 0.000000000000000000e+00 0.000000000000000000e+00 0.000000000000000000e+00
-3.310214350886511725e-01 -7.972800246244498013e-01 5.504847178440284150e-01 -1.024024419160434851e+00 -2.160387393524051394e-04 0.000000000000000000e+00 0.000000000000000000e+00 0.000000000000000000e+00 0.000000000000000000e+00 0.000000000000000000e+00
-3.310214350886511725e-01 -7.972800246244498013e-01 5.504847178440284150e-01 -1.024024419160434851e+00 -2.160387393524051394e-04 0.000000000000000000e+00 0.000000000000000000e+00 0.000000000000000000e+00 0.000000000000000000e+00 0.000000000000000000e+00
-3.310214350886511725e-01 -7.972800246244498013e-01 5.504847178440284150e-01 -1.024024419160434851e+00 -2.160387393524051394e-04 0.000000000000000000e+00 0.000000000000000000e+00 0.000000000000000000e+00 0.000000000000000000e+00 0.000000000000000000e+00
-3.310214350886511725e-01 -7.972800246244498013e-01 5.504847178440284150e-01 -1.024024419160434851e+00 -2.160387393524051394e-04 0.000000000000000000e+00 0.000000000000000000e+00 0.000000000000000000e+00 0.000000000000000000e+00 0.000000000000000000e+00
-3.310214350886511725e-01 -7.972800246244498013e-01 5.504847178440284150e-01 -1.024024419160434851e+00 -2.160387393524051394e-04 0.000000000000000000e+00 0.000000000000000000e+00 0.000000000000000000e+00 0.000000000000000000e+00 0.000000000000000000e+00
