-4.152279722276620566e-01 -4.049679904445652873e-02 5.148077302076516926e-01 -1.252335231393565174e+00 0.000000000000000000e+00 -4.759870968439822506e-04 9.006128551469782563e-05 3.954052853036458745e-04 -7.209565301864227869e-04 0.000000000000000000e+00
-4.201638181037229969e-01 -3.817313421751983987e-02 5.101652928143873833e-01 -1.274686478655484789e+00 6.568119458254161806e-05 -9.871691752121895813e-02 4.647329653873370769e-02 -9.284874786528593549e-02 -4.470249452383923128e-01 1.313623891650832253e-03
-4.294020966487231972e-01 -3.413348378106875747e-02 5.012285467731180111e-01 -1.316004312471899640e+00 1.632061667359005540e-04 -1.847655709000036173e-01 8.079300872902160646e-02 -1.787349208253875832e-01 -8.263566763282976790e-01 1.950499443067178719e-03
-4.423423177695878783e-01 -2.895136595298382007e-02 4.881325574667234601e-01 -1.373000843614732736e+00 2.683399115250713861e-04 -2.588044224172941221e-01 1.036423565616987202e-01 -2.619197861278912409e-01 -1.139930622856662801e+00 2.102674895783417184e-03
-4.583987444457133797e-01 -2.316086172886267641e-02 4.708210412750633567e-01 -1.442457323509199973e+00 3.606893838533178670e-04 -3.211285335225098625e-01 1.158100844824229009e-01 -3.462303238332020139e-01 -1.389129597889346757e+00 1.846989446564930052e-03
-4.770002475298248945e-01 -1.725034603585586662e-02 4.490900662568597657e-01 -1.521214984621597877e+00 4.227873765950281547e-04 -3.720300616822300177e-01 1.182103138601362236e-01 -4.346195003640714316e-01 -1.575153222247958729e+00 1.241959854834205536e-03
-4.975901273771297095e-01 -1.165615854621978101e-02 4.226394422421324570e-01 -1.606177614957853272e+00 4.405211598079245765e-04 -4.117975969460966335e-01 1.118837497927216845e-01 -5.290124802945455063e-01 -1.699252606725109693e+00 3.546756642579286523e-04
-5.196284792014927989e-01 -6.757091191399311123e-03 3.911409446810604207e-01 -1.694339304768679444e+00 4.035348918758870432e-04 -4.407670364872625091e-01 9.798134709640937690e-02 -6.299699512214411712e-01 -1.763233796216523652e+00 -7.397253586407508824e-04
-5.425958890285880187e-01 -2.874009241193871151e-03 3.543229753732689558e-01 -1.782823702081398398e+00 3.065290007013156252e-04 -4.593481965419047852e-01 7.766163900410880117e-02 -7.363593861558295206e-01 -1.769687946254376865e+00 -1.940117823491428360e-03
-5.659999958401030762e-01 -2.756853863957651161e-04 3.120685137035945633e-01 -1.868935955967862439e+00 1.505185291016678179e-04 -4.680821362303020372e-01 5.196647709596211029e-02 -8.450892333934884038e-01 -1.722245077729281926e+00 -3.120209431992955820e-03
-5.893862334210042686e-01 8.087694049434478952e-04 2.645204903845171929e-01 -1.950224414752064428e+00 -5.571325953488296475e-05 -4.677247516180231823e-01 2.168909582678426456e-02 -9.509604663815468539e-01 -1.625769175684040668e+00 -4.124635772731015219e-03
-6.123544027278320367e-01 1.737712041132842989e-04 2.121766589499327060e-01 -2.024548398571990315e+00 -2.946039029600329147e-04 -4.593633861365549187e-01 -1.269996401660326846e-02 -1.046876628691689959e+00 -1.486479676398519745e+00 -4.777812868502998890e-03
-6.345804188183715722e-01 -2.378129456113080124e-03 1.559456844375322060e-01 -2.090140151766627152e+00 -5.402295577144040992e-04 -4.445203218107915411e-01 -5.103801320452727719e-02 -1.124619490248010223e+00 -1.311835063892736297e+00 -4.912513095087425209e-03
-6.558403118025633027e-01 -7.042848486533491437e-03 9.713577378947572949e-02 -2.145655459142342902e+00 -7.615129247272562447e-04 -4.251978596838354996e-01 -9.329438060840822278e-02 -1.176198212961129475e+00 -1.110306147514313890e+00 -4.425667340257043343e-03
-6.760292486257766242e-01 -1.400489735789203771e-02 3.736032506647084944e-02 -2.190214421051504434e+00 -9.273119833879990689e-04 -4.037787364642662635e-01 -1.392409774271709255e-01 -1.195508974460097518e+00 -8.911792381832340793e-01 -3.315981173214856484e-03
-6.951661055497635466e-01 -2.340942165332674657e-02 -2.163768647856600252e-02 -2.223430458102953811e+00 -1.016403221964335508e-03 -3.827371384797394471e-01 -1.880904859086941217e-01 -1.179960230900737095e+00 -6.643207410289860837e-01 -1.781824771526730085e-03
-7.133765026860577896e-01 -3.532550436726688420e-02 -7.820946803519135404e-02 -2.245415152268691816e+00 -1.042768727910062861e-03 -3.642079427258846369e-01 -2.383216542788026970e-01 -1.131435631132506892e+00 -4.396938833147634451e-01 -5.273101189145472812e-04
-7.308557357198455229e-01 -4.971760695376681999e-02 -1.310099543618375995e-01 -2.256741862262231280e+00 -1.043636381265199663e-03 -3.495846606757544439e-01 -2.878420517299986603e-01 -1.056009726532924686e+00 -2.265341998707888493e-01 -1.735306710273678676e-05
-7.478230997014970738e-01 -6.643659951644537154e-02 -1.791376295617265191e-01 -2.258369310449351186e+00 -1.030017881460279592e-03 -3.393472796330301300e-01 -3.343798512535708922e-01 -9.625535039977786145e-01 -3.254896374239929502e-02 2.723699960984020656e-04
-7.644821510961330446e-01 -8.523427412071074571e-02 -2.221763567802923500e-01 -2.251529656986433370e+00 -9.896427136868572207e-04 -3.331810278927192503e-01 -3.759534920853075390e-01 -8.607745443713162858e-01 1.367930692583606278e-01 8.075033554684491605e-04
-7.809968540685295890e-01 -1.057944574173054764e-01 -2.601487517548169426e-01 -2.237599730619112659e+00 -8.959593823403677994e-04 -3.302940594479300551e-01 -4.112036659318944465e-01 -7.594478994904918512e-01 2.785985273464142153e-01 1.873666626929787775e-03
-7.974844654000063926e-01 -1.277717087014105524e-01 -2.934038229210230719e-01 -2.217974764430092893e+00 -7.580539790391613341e-04 -3.297522266295354609e-01 -4.395450256821015755e-01 -6.651014233241223650e-01 3.924993237803913182e-01 2.758108066024128439e-03
-8.140217284983749524e-01 -1.508217959257256990e-01 -3.225029264821829278e-01 -2.193976296951456906e+00 -5.921968854253602211e-04 -3.307452619673721950e-01 -4.610017444863031555e-01 -5.819820712231975612e-01 4.799693495727192505e-01 3.317141872276022259e-03
-8.306565940329541098e-01 -1.746242970546949824e-01 -3.481164133659526705e-01 -2.166787486622466563e+00 -4.154749661572773242e-04 -3.326973106915831480e-01 -4.760500225793855011e-01 -5.122697376753949650e-01 5.437762065798055211e-01 3.534438385361657504e-03
-8.474204389640274115e-01 -1.989027758226702414e-01 -3.709335525511481269e-01 -2.137395278746577532e+00 -2.419845359719815787e-04 -3.352768986214650915e-01 -4.855695753595052899e-01 -4.563427837039096824e-01 5.878441575177846268e-01 3.469808603705914693e-03
-8.643385668992799031e-01 -2.234386914119111389e-01 -3.915980954313074691e-01 -2.106551962389517474e+00 -7.966965830859886214e-05 -3.383625587050490546e-01 -4.907183117848178955e-01 -4.132908576031867343e-01 6.168663271412052618e-01 3.246297553267653898e-03
-8.814376482876551400e-01 -2.480706618338698322e-01 -4.106839625193052790e-01 -2.074785045124680760e+00 6.831308445500130946e-05 -3.419816277675045701e-01 -4.926394084391736428e-01 -3.817173417599558638e-01 6.353383452967328315e-01 2.959654855272002890e-03
-8.987501317790123068e-01 -2.726857286355916510e-01 -4.286943469114863903e-01 -2.042434107768555052e+00 2.016798249961183952e-04 -3.462496698271422257e-01 -4.923013360344363765e-01 -3.602076878436219487e-01 6.470187471225147258e-01 2.667334810822341497e-03
-9.163164622313385577e-01 -2.972107354569958892e-01 -4.460681995451368231e-01 -2.009685668840188288e+00 3.245935871509412303e-04 -3.513266090465247959e-01 -4.905001364280849319e-01 -3.474770526730086018e-01 6.549687785673330431e-01 2.458275243096455943e-03
-9.341861420423512863e-01 -3.216060388305392870e-01 -4.631864949566227851e-01 -1.976598089493350363e+00 4.572333081856415349e-04 -3.573935962202550720e-01 -4.879060674708681211e-01 -3.423659082297189626e-01 6.617515869367592840e-01 2.652794420694005225e-03
