-6.553968749131764415e-01 -1.672126859352588979e-01 7.364809326584286220e-01 -7.268875715660411130e-01 1.070028768370600214e-03 -1.444474336568617179e-01 -2.129110437189371541e-01 -6.445196031172357731e-01 -1.606478951629739083e+00 -2.198655552725472585e-04
-6.612419037727417237e-01 -1.814629912891589647e-01 7.082560948702406600e-01 -8.090253059096321753e-01 1.029739124921478762e-03 -1.169005771913059766e-01 -2.850061070780011141e-01 -5.644967557637593503e-01 -1.642754686871820802e+00 -8.057928689824273016e-04
-6.654192486433659903e-01 -1.995646771109285955e-01 6.838741193010099417e-01 -8.904766695221010275e-01 9.191504336311722909e-04 -8.354689741248602641e-02 -3.620337164353926718e-01 -4.876395113846133667e-01 -1.629027272249375935e+00 -2.211773825806128552e-03
-6.676143778620237113e-01 -2.216342111598806897e-01 6.630271982066345826e-01 -9.688649067833448036e-01 7.169229991789875323e-04 -4.390258437315484180e-02 -4.413906809790418273e-01 -4.169384218875067938e-01 -1.567764745224875300e+00 -4.044548689043693870e-03
-6.674787174019012337e-01 -2.476853332134252295e-01 6.454879698622715267e-01 -1.041989278227457350e+00 4.482166968901564550e-04 2.713209202450175828e-03 -5.210224410708904630e-01 -3.507845668872608402e-01 -1.462487428882251805e+00 -5.374126045776621112e-03
-6.646389379942116982e-01 -2.776512291734231641e-01 6.312295699777257241e-01 -1.107880171753239607e+00 1.471486079526089855e-04 5.679558815379149445e-02 -5.993179191999583599e-01 -2.851679976909154979e-01 -1.317817870515645140e+00 -6.021361778750948524e-03
-6.587129439448562440e-01 -3.113974914683343420e-01 6.204557099166347900e-01 -1.164855697863932615e+00 -1.539655385249604587e-04 1.185198809871099435e-01 -6.749252458982238911e-01 -2.154772012218187371e-01 -1.139510522213859955e+00 -6.022282929551388449e-03
-6.493244114741059114e-01 -3.487275999895220191e-01 6.135691061485673004e-01 -1.211571328651132928e+00 -4.285013377407027781e-04 1.877706494150063188e-01 -7.466021704237535417e-01 -1.377320753613500703e-01 -9.343126157440073687e-01 -5.490715984314845956e-03
-6.361119483492778670e-01 -3.893844230974917719e-01 6.111041254614143492e-01 -1.247051780464506932e+00 -6.572541374521680482e-04 2.642492624965602221e-01 -8.131364621593955011e-01 -4.929961374305907862e-02 -7.096090362674807306e-01 -4.575055994229304535e-03
-6.187326576469250883e-01 -4.330504807004225132e-01 6.136465093257255088e-01 -1.270701632734516862e+00 -8.291405048787040769e-04 3.475858140470555746e-01 -8.733211520586146026e-01 5.084767728622208161e-02 -4.729970454001984903e-01 -3.437727348530721441e-03
-5.968620414259311335e-01 -4.793485188319054346e-01 6.217583420980469233e-01 -1.282297970316268687e+00 -9.408933138620812278e-04 4.374123244198793170e-01 -9.259607626296584293e-01 1.622366554464292066e-01 -2.319267516350357605e-01 -2.235056179667543452e-03
-5.701911313801373282e-01 -5.278450715710460983e-01 6.359244523952125583e-01 -1.281964154279290558e+00 -9.957304937887952352e-04 5.334182009158768834e-01 -9.699310547828136064e-01 2.833222059433120332e-01 6.676320739562785489e-03 -1.096743598534279931e-03
-5.384238054924320727e-01 -5.780565883514158232e-01 6.565263436594639401e-01 -1.270135719596901192e+00 -1.001421682830650481e-03 6.353465177541053333e-01 -1.004230335607393831e+00 4.120378252850286360e-01 2.365686936477878755e-01 -1.138237808371031848e-04
-5.012749168035246505e-01 -6.294584600153007026e-01 6.838445096523988465e-01 -1.247520039583641216e+00 -9.684358634359330155e-04 7.429777737781476654e-01 -1.028037433277698254e+00 5.463633198586992368e-01 4.523136002651986232e-01 6.597163878943493147e-04
-4.584701766762004915e-01 -6.814960291874881948e-01 7.180811473604207240e-01 -1.215052885814601913e+00 -9.028768768129612600e-04 8.560948025464836242e-01 -1.040751383443749400e+00 6.847327541604368850e-01 6.493430753807846179e-01 1.311179732459435109e-03
-4.097472939657047508e-01 -7.335968525986840127e-01 7.593928398012270709e-01 -1.173849367580808378e+00 -8.086245295344245305e-04 9.744576542099141481e-01 -1.042016468223917025e+00 8.262338488161261596e-01 8.240703646758715806e-01 1.885046945570733722e-03
-3.548585462579909033e-01 -7.851826929086453966e-01 8.079225646494434532e-01 -1.125152469128161581e+00 -6.848929986793530697e-04 1.097774954154277172e+00 -1.031716806199228342e+00 9.705944969643269804e-01 9.739379690529372802e-01 2.474630617101429217e-03
-2.935751522767130473e-01 -8.356800402771261682e-01 8.638244734972266858e-01 -1.070286443805132492e+00 -5.254415086562388461e-04 1.225667879625557344e+00 -1.009946947369614767e+00 1.118038176955663987e+00 1.097320506460582434e+00 3.189029800462283171e-03
-2.256910999456236411e-01 -8.845306443404834518e-01 9.272839504050363058e-01 -1.010615983450628974e+00 -3.190853328878615752e-04 1.357681046621787901e+00 -9.770120812671445609e-01 1.269189538156193064e+00 1.193409207090069701e+00 4.127123515367544550e-03
-1.510181500992054393e-01 -9.312061850552232345e-01 9.985491689977461505e-01 -9.475016705422247831e-01 -5.145073935322510422e-05 1.493458996928364257e+00 -9.335108142947958765e-01 1.425304371854196672e+00 1.262286258168083819e+00 5.352691870692729420e-03
-6.935897034590920995e-02 -9.752307686515044871e-01 1.078005436481257684e+00 -8.822494229224256967e-01 2.888367265732907333e-04 1.633183595065924365e+00 -8.804916719256238311e-01 1.589125349670230225e+00 1.305044952395981950e+00 6.805749318530316533e-03
1.956064731859302741e-02 -1.016211675299082406e+00 1.166335155113908062e+00 -8.160531134872957004e-01 6.886251622086542786e-04 1.778392353290044525e+00 -8.196181329515580538e-01 1.766594372653008449e+00 1.323926188702598594e+00 7.995768712707271991e-03
1.162110727254439396e-01 -1.053868230244409343e+00 1.264794771163604947e+00 -7.499603673969343909e-01 1.028050086378835479e-03 1.933008508137018078e+00 -7.531310989065385098e-01 1.969192320993936818e+00 1.321854921807226191e+00 6.788498483403625737e-03
2.214618814896607835e-01 -1.088046211401789032e+00 1.375676356589094596e+00 -6.848627016803323642e-01 7.458736768859456018e-04 0.000000000000000000e+00 0.000000000000000000e+00 0.000000000000000000e+00 0.000000000000000000e+00 0.000000000000000000e+00
2.214618814896607835e-01 -1.088046211401789032e+00 1.375676356589094596e+00 -6.848627016803323642e-01 7.458736768859456018e-04 0.000000000000000000e+00 0.000000000000000000e+00 0.000000000000000000e+00 0.000000000000000000e+00 0.000000000000000000e+00
2.214618814896607835e-01 -1.088046211401789032e+00 1.375676356589094596e+00 -6.848627016803323642e-01 7.458736768859456018e-04 0.000000000000000000e+00 0.000000000000000000e+00 0.000000000000000000e+00 0.000000000000000000e+00 0.000000000000000000e+00
2.214618814896607835e-01 -1.088046211401789032e+00 1.375676356589094596e+00 -6.848627016803323642e-01 7.458736768859456018e-04 0.000000000000000000e+00 0.000000000000000000e+00 0.000000000000000000e+00 0.000000000000000000e+00 0.000000000000000000e+00
2.214618814896607835e-01 -1.088046211401789032e+00 1.375676356589094596e+00 -6.848627016803323642e-01 7.458736768859456018e-04 0.000000000000000000e+00 0.000000000000000000e+00 0.000000000000000000e+00 0.000000000000000000e+00 0.000000000000000000e+00
2.214618814896607835e-01 -1.088046211401789032e+00 1.375676356589094596e+00 -6.848627016803323642e-01 7.458736768859456018e-04 0.000000000000000000e+00 0.000000000000000000e+00 0.000000000000000000e+00 0.000000000000000000e+00 0.000000000000000000e+00
2.214618814896607835e-01 -1.088046211401789032e+00 1.375676356589094596e+00 -6.848627016803323642e-01 7.458736768859456018e-04 0.000000000000000000e+00 0.000000000000000000e+00 0.000000000000000000e+00 0.000000000000000000e+00 0.000000000000000000e+00
2.214618814896607835e-01 -1.088046211401789032e+00 1.375676356589094596e+00 -6.848627016803323642e-01 7.458736768859456018e-04 0.000000000000000000e+00 0.000000000000000000e+00 0.000000000000000000e+00 0.000000000000000000e+00 0.000000000000000000e+00
