-8.570958162871925579e-01 -9.679719238399103753e-01 -2.183947775180443765e-02 -1.472266868552867702e+00 -5.360971721171394703e-04 -3.228956473815966510e-01 -1.906595268547050859e+00 -5.551616378826259579e-01 1.417629570558512908e+00 2.807475472451592419e-03
-8.741384516380498182e-01 -1.064517743655196025e+00 -4.930003960778068378e-02 -1.393042562604204226e+00 -3.950448029327367316e-04 -3.408527070171442630e-01 -1.930916396305714988e+00 -5.492112371195247977e-01 1.584486118973269075e+00 2.821047383688054556e-03
-8.921977318220830622e-01 -1.161940979675592178e+00 -7.731960827369623035e-02 -1.306557186339771581e+00 -2.603443809334343457e-04 -3.611856036806646575e-01 -1.948464720407921957e+00 -5.603913733183109036e-01 1.729707525288653791e+00 2.694008439986047068e-03
-9.112764573048789396e-01 -1.259933479093478637e+00 -1.068094585759376824e-01 -1.213852420698739998e+00 -1.398361529923388032e-04 -3.815745096559171601e-01 -1.959849988357730277e+00 -5.897970060448290974e-01 1.854095312820630337e+00 2.410164558821910850e-03
-9.312154155802454536e-01 -1.358208542383365192e+00 -1.387269966663753074e-01 -1.115941545503273513e+00 -4.177778762907413397e-05 -3.987791655073300023e-01 -1.965501265797730213e+00 -6.383507618087524982e-01 1.958217503909329915e+00 1.961167307265293709e-03
-9.517062046256694607e-01 -1.456489129747185363e+00 -1.741332344140419375e-01 -1.013827588328214846e+00 4.042329655539799794e-05 -4.098157809084808645e-01 -1.965611747276403642e+00 -7.081247549533327135e-01 2.042279143501173344e+00 1.644021683689442584e-03
-9.724619857373157927e-01 -1.554492744145569150e+00 -2.144249691757678655e-01 -9.085164151940298138e-01 2.080151025668285449e-04 -4.151156222329256962e-01 -1.960072287967675297e+00 -8.058346952345184500e-01 2.106223462683701086e+00 3.351836120228610452e-03
-9.935708602880474194e-01 -1.651903297898078549e+00 -2.618475569637369604e-01 -8.010303798724013324e-01 1.000466176164269139e-03 0.000000000000000000e+00 0.000000000000000000e+00 0.000000000000000000e+00 0.000000000000000000e+00 0.000000000000000000e+00
-9.935708602880474194e-01 -1.651903297898078549e+00 -2.618475569637369604e-01 -8.010303798724013324e-01 1.000466176164269139e-03 0.000000000000000000e+00 0.000000000000000000e+00 0.000000000000000000e+00 0.000000000000000000e+00 0.000000000000000000e+00
-9.935708602880474194e-01 -1.651903297898078549e+00 -2.618475569637369604e-01 -8.010303798724013324e-01 1.000466176164269139e-03 0.000000000000000000e+00 0.000000000000000000e+00 0.000000000000000000e+00 0.000000000000000000e+00 0.000000000000000000e+00
-9.935708602880474194e-01 -1.651903297898078549e+00 -2.618475569637369604e-01 -8.010303798724013324e-01 1.000466176164269139e-03 0.000000000000000000e+00 0.000000000000000000e+00 0.000000000000000000e+00 0.000000000000000000e+00 0.000000000000000000e+00
-9.935708602880474194e-01 -1.651903297898078549e+00 -2.618475569637369604e-01 -8.010303798724013324e-01 1.000466176164269139e-03 0.000000000000000000e+00 0.000000000000000000e+00 0.000000000000000000e+00 0.000000000000000000e+00 0.000000000000000000e+00
-9.935708602880474194e-01 -1.651903297898078549e+00 -2.618475569637369604e-01 -8.010303798724013324e-01 1.000466176164269139e-03 0.000000000000000000e+00 0.000000000000000000e+00 0.000000000000000000e+00 0.000000000000000000e+00 0.000000000000000000e+00
-9.935708602880474194e-01 -1.651903297898078549e+00 -2.618475569637369604e-01 -8.010303798724013324e-01 1.000466176164269139e-03 0.000000000000000000e+00 0.000000000000000000e+00 0.000000000000000000e+00 0.000000000000000000e+00 0.000000000000000000e+00
-9.935708602880474194e-01 -1.651903297898078549e+00 -2.618475569637369604e-01 -8.010303798724013324e-01 1.000466176164269139e-03 0.000000000000000000e+00 0.000000000000000000e+00 0.000000000000000000e+00 0.000000000000000000e+00 0.000000000000000000e+00
-9.935708602880474194e-01 -1.651903297898078549e+00 -2.618475569637369604e-01 -8.010303798724013324e-01 1.000466176164269139e-03 0.000000000000000000e+00 0.000000000000000000e+00 0.000000000000000000e+00 0.000000000000000000e+00 0.000000000000000000e+00
-9.935708602880474194e-01 -1.651903297898078549e+00 -2.618475569637369604e-01 -8.010303798724013324e-01 1.000466176164269139e-03 0.000000000000000000e+00 0.000000000000000000e+00 0.000000000000000000e+00 0.000000000000000000e+00 0.000000000000000000e+00
-9.935708602880474194e-01 -1.651903297898078549e+00 -2.618475569637369604e-01 -8.010303798724013324e-01 1.000466176164269139e-03 0.000000000000000000e+00 0.000000000000000000e+00 0.000000000000000000e+00 0.000000000000000000e+00 0.000000000000000000e+00
-9.935708602880474194e-01 -1.651903297898078549e+00 -2.618475569637369604e-01 -8.010303798724013324e-01 1.000466176164269139e-03 0.000000000000000000e+00 0.000000000000000000e+00 0.000000000000000000e+00 0.000000000000000000e+00 0.000000000000000000e+00
-9.935708602880474194e-01 -1.651903297898078549e+00 -2.618475569637369604e-01 -8.010303798724013324e-01 1.000466176164269139e-03 0.000000000000000000e+00 0.000000000000000000e+00 0.000000000000000000e+00 0.000000000000000000e+00 0.000000000000000000e+00
-9.935708602880474194e-01 -1.651903297898078549e+00 -2.618475569637369604e-01 -8.010303798724013324e-01 1.000466176164269139e-03 0.000000000000000000e+00 0.000000000000000000e+00 0.000000000000000000e+00 0.000000000000000000e+00 0.000000000000000000e+00
-9.935708602880474194e-01 -1.651903297898078549e+00 -2.618475569637369604e-01 -8.010303798724013324e-01 1.000466176164269139e-03 0.000000000000000000e+00 0.000000000000000000e+00 0.000000000000000000e+00 0.000000000000000000e+00 0.000000000000000000e+00
-9.935708602880474194e-01 -1.651903297898078549e+00 -2.618475569637369604e-01 -8.010303798724013324e-01 1.000466176164269139e-03 0.000000000000000000e+00 0.000000000000000000e+00 0.000000000000000000e+00 0.000000000000000000e+00 0.000000000000000000e+00
-9.935708602880474194e-01 -1.651903297898078549e+00 -2.618475569637369604e-01 -8.010303798724013324e-01 1.000466176164269139e-03 0.000000000000000000e+00 0.000000000000000000e+00 0.000000000000000000e+00 0.000000000000000000e+00 0.000000000000000000e+00
-9.935708602880474194e-01 -1.651903297898078549e+00 -2.618475569637369604e-01 -8.010303798724013324e-01 1.000466176164269139e-03 0.000000000000000000e+00 0.000000000000000000e+00 0.000000000000000000e+00 0.000000000000000000e+00 0.000000000000000000e+00
-9.935708602880474194e-01 -1.651903297898078549e+00 -2.618475569637369604e-01 -8.010303798724013324e-01 1.000466176164269139e-03 0.000000000000000000e+00 0.000000000000000000e+00 0.000000000000000000e+00 0.000000000000000000e+00 0.000000000000000000e+00
-9.935708602880474194e-01 -1.651903297898078549e+00 -2.618475569637369604e-01 -8.010303798724013324e-01 1.000466176164269139e-03 0.000000000000000000e+00 0.000000000000000000e+00 0.000000000000000000e+00 0.000000000000000000e+00 0.000000000000000000e+00
-9.935708602880474194e-01 -1.651903297898078549e+00 -2.618475569637369604e-01 -8.010303798724013324e-01 1.000466176164269139e-03 0.000000000000000000e+00 0.000000000000000000e+00 0.000000000000000000e+00 0.000000000000000000e+00 0.000000000000000000e+00
-9.935708602880474194e-01 -1.651903297898078549e+00 -2.618475569637369604e-01 -8.010303798724013324e-01 1.000466176164269139e-03 0.000000000000000000e+00 0.000000000000000000e+00 0.000000000000000000e+00 0.000000000000000000e+00 0.000000000000000000e+00
-9.935708602880474194e-01 -1.651903297898078549e+00 -2.618475569637369604e-01 -8.010303798724013324e-01 1.000466176164269139e-03 0.000000000000000000e+00 0.000000000000000000e+00 0.000000000000000000e+00 0.000000000000000000e+00 0.000000000000000000e+00
-9.935708602880474194e-01 -1.651903297898078549e+00 -2.618475569637369604e-01 -8.010303798724013324e-01 1.000466176164269139e-03 0.000000000000000000e+00 0.000000000000000000e+00 0.000000000000000000e+00 0.000000000000000000e+00 0.000000000000000000e+00
