-5.357507647585139088e-01 -1.221346454034171636e+00 3.704892650840831414e-01 -1.705131705416936372e+00 -6.841344281604661536e-04 7.209551050998973080e-03 -1.345069537187236319e+00 -1.257352747648538688e-02 1.183765870401990661e+00 1.448066760672053581e-03
-5.356566592950432470e-01 -1.288404008156877945e+00 3.712568683827018323e-01 -1.645103079713096106e+00 -6.144727815368307162e-04 1.882109269412386363e-03 -1.341151082454124399e+00 1.535206597237346454e-02 1.200572514076806874e+00 1.393232932472708097e-03
-5.358595590616155313e-01 -1.355274096865189737e+00 3.732643257422729732e-01 -1.584380312995691709e+00 -5.474658125104411074e-04 -4.057995331445503860e-03 -1.337401774166235402e+00 4.014914719142247124e-02 1.214455334348086613e+00 1.340139380527792827e-03
-5.363411455760463964e-01 -1.422001214813396919e+00 3.764481659984489359e-01 -1.523009749708219118e+00 -4.828174597056356142e-04 -9.631730288617959199e-03 -1.334542358964141417e+00 6.367680512351905908e-02 1.227411265749450475e+00 1.292967056096109863e-03
-5.370146188159454770e-01 -1.488660627223159949e+00 3.808586647866827324e-01 -1.460957432883270180e+00 -4.200580675209039704e-04 -1.346946479798189801e-02 -1.333188248195262826e+00 8.820997576467615175e-02 1.241046336498980773e+00 1.255187843694633527e-03
-5.377075320706412587e-01 -1.555354055849284878e+00 3.866842569490907544e-01 -1.398132310603575013e+00 -3.592255296233277961e-04 -1.385826509391562163e-02 -1.333868572522498797e+00 1.165118432481601629e-01 1.256502445593904449e+00 1.216650757951523052e-03
-5.381569789194803333e-01 -1.622206595062359424e+00 3.942717883968206993e-01 -1.334414011269495548e+00 -3.052718783816251108e-04 0.000000000000000000e+00 0.000000000000000000e+00 0.000000000000000000e+00 0.000000000000000000e+00 0.000000000000000000e+00
-5.381569789194803333e-01 -1.622206595062359424e+00 3.942717883968206993e-01 -1.334414011269495548e+00 -3.052718783816251108e-04 0.000000000000000000e+00 0.000000000000000000e+00 0.000000000000000000e+00 0.000000000000000000e+00 0.000000000000000000e+00
-5.381569789194803333e-01 -1.622206595062359424e+00 3.942717883968206993e-01 -1.334414011269495548e+00 -3.052718783816251108e-04 0.000000000000000000e+00 0.000000000000000000e+00 0.000000000000000000e+00 0.000000000000000000e+00 0.000000000000000000e+00
-5.381569789194803333e-01 -1.622206595062359424e+00 3.942717883968206993e-01 -1.334414011269495548e+00 -3.052718783816251108e-04 0.000000000000000000e+00 0.000000000000000000e+00 0.000000000000000000e+00 0.000000000000000000e+00 0.000000000000000000e+00
-5.381569789194803333e-01 -1.622206595062359424e+00 3.942717883968206993e-01 -1.334414011269495548e+00 -3.052718783816251108e-04 0.000000000000000000e+00 0.000000000000000000e+00 0.000000000000000000e+00 0.000000000000000000e+00 0.000000000000000000e+00
-5.381569789194803333e-01 -1.622206595062359424e+00 3.942717883968206993e-01 -1.334414011269495548e+00 -3.052718783816251108e-04 0.000000000000000000e+00 0.000000000000000000e+00 0.000000000000000000e+00 0.000000000000000000e+00 0.000000000000000000e+00
-5.381569789194803333e-01 -1.622206595062359424e+00 3.942717883968206993e-01 -1.334414011269495548e+00 -3.052718783816251108e-04 0.000000000000000000e+00 0.000000000000000000e+00 0.000000000000000000e+00 0.000000000000000000e+00 0.000000000000000000e+00
-5.381569789194803333e-01 -1.622206595062359424e+00 3.942717883968206993e-01 -1.334414011269495548e+00 -3.052718783816251108e-04 0.000000000000000000e+00 0.000000000000000000e+00 0.000000000000000000e+00 0.000000000000000000e+00 0.000000000000000000e+00
-5.381569789194803333e-01 -1.622206595062359424e+00 3.942717883968206993e-01 -1.334414011269495548e+00 -3.052718783816251108e-04 0.000000000000000000e+00 0.000000000000000000e+00 0.000000000000000000e+00 0.000000000000000000e+00 0.000000000000000000e+00
-5.381569789194803333e-01 -1.622206595062359424e+00 3.942717883968206993e-01 -1.334414011269495548e+00 -3.052718783816251108e-04 0.000000000000000000e+00 0.000000000000000000e+00 0.000000000000000000e+00 0.000000000000000000e+00 0.000000000000000000e+00
-5.381569789194803333e-01 -1.622206595062359424e+00 3.942717883968206993e-01 -1.334414011269495548e+00 -3.052718783816251108e-04 0.000000000000000000e+00 0.000000000000000000e+00 0.000000000000000000e+00 0.000000000000000000e+00 0.000000000000000000e+00
-5.381569789194803333e-01 -1.622206595062359424e+00 3.942717883968206993e-01 -1.334414011269495548e+00 -3.052718783816251108e-04 0.000000000000000000e+00 0.000000000000000000e+00 0.000000000000000000e+00 0.000000000000000000e+00 0.000000000000000000e+00
-5.381569789194803333e-01 -1.622206595062359424e+00 3.942717883968206993e-01 -1.334414011269495548e+00 -3.052718783816251108e-04 0.000000000000000000e+00 0.000000000000000000e+00 0.000000000000000000e+00 0.000000000000000000e+00 0.000000000000000000e+00
-5.381569789194803333e-01 -1.622206595062359424e+00 3.942717883968206993e-01 -1.334414011269495548e+00 -3.052718783816251108e-04 0.000000000000000000e+00 0.000000000000000000e+00 0.000000000000000000e+00 0.000000000000000000e+00 0.000000000000000000e+00
-5.381569789194803333e-01 -1.622206595062359424e+00 3.942717883968206993e-01 -1.334414011269495548e+00 -3.052718783816251108e-04 0.000000000000000000e+00 0.000000000000000000e+00 0.000000000000000000e+00 0.000000000000000000e+00 0.000000000000000000e+00
-5.381569789194803333e-01 -1.622206595062359424e+00 3.942717883968206993e-01 -1.334414011269495548e+00 -3.052718783816251108e-04 0.000000000000000000e+00 0.000000000000000000e+00 0.000000000000000000e+00 0.000000000000000000e+00 0.000000000000000000e+00
-5.381569789194803333e-01 -1.622206595062359424e+00 3.942717883968206993e-01 -1.334414011269495548e+00 -3.052718783816251108e-04 0.000000000000000000e+00 0.000000000000000000e+00 0.000000000000000000e+00 0.000000000000000000e+00 0.000000000000000000e+00
-5.381569789194803333e-01 -1.622206595062359424e+00 3.942717883968206993e-01 -1.334414011269495548e+00 -3.052718783816251108e-04 0.000000000000000000e+00 0.000000000000000000e+00 0.000000000000000000e+00 0.000000000000000000e+00 0.000000000000000000e+00
-5.381569789194803333e-01 -1.622206595062359424e+00 3.942717883968206993e-01 -1.334414011269495548e+00 -3.052718783816251108e-04 0.000000000000000000e+00 0.000000000000000000e+00 0.000000000000000000e+00 0.000000000000000000e+00 0.000000000000000000e+00
-5.381569789194803333e-01 -1.622206595062359424e+00 3.942717883968206993e-01 -1.334414011269495548e+00 -3.052718783816251108e-04 0.000000000000000000e+00 0.000000000000000000e+00 0.000000000000000000e+00 0.000000000000000000e+00 0.000000000000000000e+00
-5.381569789194803333e-01 -1.622206595062359424e+00 3.942717883968206993e-01 -1.334414011269495548e+00 -3.052718783816251108e-04 0.000000000000000000e+00 0.000000000000000000e+00 0.000000000000000000e+00 0.000000000000000000e+00 0.000000000000000000e+00
-5.381569789194803333e-01 -1.622206595062359424e+00 3.942717883968206993e-01 -1.334414011269495548e+00 -3.052718783816251108e-04 0.000000000000000000e+00 0.000000000000000000e+00 0.000000000000000000e+00 0.000000000000000000e+00 0.000000000000000000e+00
-5.381569789194803333e-01 -1.622206595062359424e+00 3.942717883968206993e-01 -1.334414011269495548e+00 -3.052718783816251108e-04 0.000000000000000000e+00 0.000000000000000000e+00 0.000000000000000000e+00 0.000000000000000000e+00 0.000000000000000000e+00
-5.381569789194803333e-01 -1.622206595062359424e+00 3.942717883968206993e-01 -1.334414011269495548e+00 -3.052718783816251108e-04 0.000000000000000000e+00 0.000000000000000000e+00 0.000000000000000000e+00 0.000000000000000000e+00 0.000000000000000000e+00
-5.381569789194803333e-01 -1.622206595062359424e+00 3.942717883968206993e-01 -1.334414011269495548e+00 -3.052718783816251108e-04 0.000000000000000000e+00 0.000000000000000000e+00 0.000000000000000000e+00 0.000000000000000000e+00 0.000000000000000000e+00
