-9.370403989451258076e-01 -1.087038073922197839e-01 3.878723129954954052e-01 -2.219776089846146494e+00 -1.123950107344821479e-03 -3.068799147205668598e-01 -1.201246371172030925e+00 -1.429632061417264843e+00 -1.197141815929972264e+00 -9.997871838149797585e-04
-9.490910988793032077e-01 -1.748223987523563894e-01 3.152121363284576816e-01 -2.256452536669649067e+00 -1.138126959626328209e-03 -2.410139986835481141e-01 -1.322371827202731831e+00 -1.453203533340753806e+00 -7.335289364700494641e-01 -2.835370456301347002e-04
-9.582848295909445202e-01 -2.469204555471739559e-01 2.458112673984720609e-01 -2.270071104011414764e+00 -1.125038353890517231e-03 -1.838746142328260280e-01 -1.441961135896351109e+00 -1.388017378599712304e+00 -2.723713468353129996e-01 2.617721147162196645e-04
-9.652645997588783500e-01 -3.247080916146344309e-01 1.829263664854381410e-01 -2.262071287374356920e+00 -1.089517037432827370e-03 -1.395954033586771503e-01 -1.555752721349209056e+00 -1.257698018260678507e+00 1.599963327411612068e-01 7.104263291537975386e-04
-9.707046842353169724e-01 -4.076202533400957728e-01 1.282335043230265759e-01 -2.234817362945332953e+00 -1.021536317711419645e-03 -1.088016895287717833e-01 -1.658243234509226394e+00 -1.093857243248230970e+00 5.450784885804801361e-01 1.359614394428156244e-03
-9.751791985336351054e-01 -4.948682882075181588e-01 8.196280936853087007e-02 -2.191147583026410217e+00 -8.810739816531732577e-04 -8.949028596636199318e-02 -1.744960697348447498e+00 -9.254138990899142270e-01 8.733955983784529309e-01 2.809246721164927307e-03
-9.791087551710768722e-01 -5.855527260229426156e-01 4.334279830727421484e-02 -2.133973146600298687e+00 -6.807422824301623959e-04 -7.859113274883570976e-02 -1.813688756308488026e+00 -7.724002212251330768e-01 1.143488728522228826e+00 4.006633984460217235e-03
-9.827651036563624931e-01 -6.787752237690102275e-01 1.109471788376317075e-02 -2.065996140837047523e+00 -4.590221905083370895e-04 -7.312696970571305743e-02 -1.864449954921351571e+00 -6.449616084702208818e-01 1.359540115265025717e+00 4.434401838436506128e-03
-9.862968288008518991e-01 -7.737173479513604901e-01 -1.618172754313074169e-02 -1.989557457333926749e+00 -2.450080932516418781e-04 -7.063450288978830038e-02 -1.898842483647005475e+00 -5.455289085378782765e-01 1.528773670062416601e+00 4.280281945133903795e-03
-9.897503416187412029e-01 -8.696821609216751625e-01 -3.977331640067399698e-02 -1.906587195283520497e+00 -5.397522641189519748e-05 -6.907025635778524242e-02 -1.919296259406292338e+00 -4.718317771508650504e-01 1.659405241008126586e+00 3.820657336794933395e-03
-9.930760885646462421e-01 -9.661076467775582266e-01 -6.074094102642613874e-02 -1.818618984424593243e+00 1.092750839141593260e-04 -6.651493891810160430e-02 -1.928509717117661504e+00 -4.193524925150427518e-01 1.759364217178545964e+00 3.265006206521090578e-03
-9.961199585720802441e-01 -1.062562944288798494e+00 -7.988150899853260767e-02 -1.726835810900070545e+00 2.459865518602439845e-04 -6.087740014867999705e-02 -1.929105950224807575e+00 -3.828113594421291843e-01 1.835663470490453975e+00 2.734229358921692627e-03
-9.986064288768579100e-01 -1.158735927181869796e+00 -9.772476594109788528e-02 -1.632126027528066681e+00 3.597308780154695202e-04 -4.972940609555442232e-02 -1.923459657861425587e+00 -3.568651388513055522e-01 1.894195667440075725e+00 2.274886523104511366e-03
-1.000129353042603420e+00 -1.254417832556686818e+00 -1.145476585813094694e-01 -1.535137203708167863e+00 4.536905219399811726e-04 -3.045848331490843414e-02 -1.913638107496340890e+00 -3.364578528042317940e-01 1.939776476397974792e+00 1.879192878490232831e-03
-1.000182333618596875e+00 -1.349488613938052861e+00 -1.304171090748890982e-01 -1.436320567191727848e+00 5.289488724637933818e-04 -1.059611519868185192e-03 -1.901415627627320415e+00 -3.173890098715926866e-01 1.976332730328799414e+00 1.505167010476243100e-03
-9.982733448930256603e-01 -1.443904962075948539e+00 -1.452987326046586425e-01 -1.335961903360039615e+00 5.840223088381549330e-04 3.817977451142443718e-02 -1.888326962757912009e+00 -2.976324705953907745e-01 2.007173276633764214e+00 1.101468727487230374e-03
-9.941369203561344348e-01 -1.537689987675689984e+00 -1.592613374538561777e-01 -1.234200176527600945e+00 6.161536365508566565e-04 8.272849073782490015e-02 -1.875700511994828013e+00 -2.792520969839507039e-01 2.035234536648773407e+00 6.426265542540346865e-04
-9.879415129319928379e-01 -1.630919285516996720e+00 -1.727176286814620931e-01 -1.131044736079674262e+00 6.250319960279725152e-04 1.239081484828309376e-01 -1.864585956826133373e+00 -2.691258245521183645e-01 2.063108808958531437e+00 1.775671895423161441e-04
-9.802923794827043125e-01 -1.723697533835900408e+00 -1.865325402659683551e-01 -1.026405915549435166e+00 6.220612749527035419e-04 1.529826689857701483e-01 -1.855564966378072889e+00 -2.762982316901254620e-01 2.092776410604780590e+00 -5.941442150537851728e-05
-9.719766114298447057e-01 -1.816127708317250455e+00 -2.019134198385274248e-01 -9.201392606654417161e-01 6.644648431537290454e-04 1.663153610571919128e-01 -1.848603489627001828e+00 -3.076175914511813936e-01 2.125333097679869887e+00 8.480713640205100705e-04
-9.636683358071685968e-01 -1.908282107250154347e+00 -2.202400336917547108e-01 -8.120858027719594086e-01 1.000130466474657845e-03 0.000000000000000000e+00 0.000000000000000000e+00 0.000000000000000000e+00 0.000000000000000000e+00 0.000000000000000000e+00
-9.636683358071685968e-01 -1.908282107250154347e+00 -2.202400336917547108e-01 -8.120858027719594086e-01 1.000130466474657845e-03 0.000000000000000000e+00 0.000000000000000000e+00 0.000000000000000000e+00 0.000000000000000000e+00 0.000000000000000000e+00
-9.636683358071685968e-01 -1.908282107250154347e+00 -2.202400336917547108e-01 -8.120858027719594086e-01 1.000130466474657845e-03 0.000000000000000000e+00 0.000000000000000000e+00 0.000000000000000000e+00 0.000000000000000000e+00 0.000000000000000000e+00
-9.636683358071685968e-01 -1.908282107250154347e+00 -2.202400336917547108e-01 -8.120858027719594086e-01 1.000130466474657845e-03 0.000000000000000000e+00 0.000000000000000000e+00 0.000000000000000000e+00 0.000000000000000000e+00 0.000000000000000000e+00
-9.636683358071685968e-01 -1.908282107250154347e+00 -2.202400336917547108e-01 -8.120858027719594086e-01 1.000130466474657845e-03 0.000000000000000000e+00 0.000000000000000000e+00 0.000000000000000000e+00 0.000000000000000000e+00 0.000000000000000000e+00
-9.636683358071685968e-01 -1.908282107250154347e+00 -2.202400336917547108e-01 -8.120858027719594086e-01 1.000130466474657845e-03 0.000000000000000000e+00 0.000000000000000000e+00 0.000000000000000000e+00 0.000000000000000000e+00 0.000000000000000000e+00
-9.636683358071685968e-01 -1.908282107250154347e+00 -2.202400336917547108e-01 -8.120858027719594086e-01 1.000130466474657845e-03 0.000000000000000000e+00 0.000000000000000000e+00 0.000000000000000000e+00 0.000000000000000000e+00 0.000000000000000000e+00
-9.636683358071685968e-01 -1.908282107250154347e+00 -2.202400336917547108e-01 -8.120858027719594086e-01 1.000130466474657845e-03 0.000000000000000000e+00 0.000000000000000000e+00 0.000000000000000000e+00 0.000000000000000000e+00 0.000000000000000000e+00
-9.636683358071685968e-01 -1.908282107250154347e+00 -2.202400336917547108e-01 -8.120858027719594086e-01 1.000130466474657845e-03 0.000000000000000000e+00 0.000000000000000000e+00 0.000000000000000000e+00 0.000000000000000000e+00 0.000000000000000000e+00
-9.636683358071685968e-01 -1.908282107250154347e+00 -2.202400336917547108e-01 -8.120858027719594086e-01 1.000130466474657845e-03 0.000000000000000000e+00 0.000000000000000000e+00 0.000000000000000000e+00 0.000000000000000000e+00 0.000000000000000000e+00
-9.636683358071685968e-01 -1.908282107250154347e+00 -2.202400336917547108e-01 -8.120858027719594086e-01 1.000130466474657845e-03 0.000000000000000000e+00 0.000000000000000000e+00 0.000000000000000000e+00 0.000000000000000000e+00 0.000000000000000000e+00
