-5.363411455760463964e-01 -1.422001214813396919e+00 3.764481659984489359e-01 -1.523009749708219118e+00 -4.828174597056356142e-04 -9.631730288617959199e-03 -1.334542358964141417e+00 6.367680512351905908e-02 1.227411265749450475e+00 1.292967056096109863e-03
-5.370146188159454770e-01 -1.488660627223159949e+00 3.808586647866827324e-01 -1.460957432883270180e+00 -4.200580675209039704e-04 -1.346946479798189801e-02 -1.333188248195262826e+00 8.820997576467615175e-02 1.241046336498980773e+00 1.255187843694633527e-03
-5.377075320706412587e-01 -1.555354055849284878e+00 3.866842569490907544e-01 -1.398132310603575013e+00 -3.592255296233277961e-04 -1.385826509391562163e-02 -1.333868572522498797e+00 1.165118432481601629e-01 1.256502445593904449e+00 1.216650757951523052e-03
-5.381569789194803333e-01 -1.622206595062359424e+00 3.942717883968206993e-01 -1.334414011269495548e+00 -3.052718783816251108e-04 0.000000000000000000e+00 0.000000000000000000e+00 0.000000000000000000e+00 0.000000000000000000e+00 0.000000000000000000e+00
-5.381569789194803333e-01 -1.622206595062359424e+00 3.942717883968206993e-01 -1.334414011269495548e+00 -3.052718783816251108e-04 0.000000000000000000e+00 0.000000000000000000e+00 0.000000000000000000e+00 0.000000000000000000e+00 0.000000000000000000e+00
-5.381569789194803333e-01 -1.622206595062359424e+00 3.942717883968206993e-01 -1.334414011269495548e+00 -3.052718783816251108e-04 0.000000000000000000e+00 0.000000000000000000e+00 0.000000000000000000e+00 0.000000000000000000e+00 0.000000000000000000e+00
-5.381569789194803333e-01 -1.622206595062359424e+00 3.942717883968206993e-01 -1.334414011269495548e+00 -3.052718783816251108e-04 0.000000000000000000e+00 0.000000000000000000e+00 0.000000000000000000e+00 0.000000000000000000e+00 0.000000000000000000e+00
-5.381569789194803333e-01 -1.622206595062359424e+00 3.942717883968206993e-01 -1.334414011269495548e+00 -3.052718783816251108e-04 0.000000000000000000e+00 0.000000000000000000e+00 0.000000000000000000e+00 0.000000000000000000e+00 0.000000000000000000e+00
-5.381569789194803333e-01 -1.622206595062359424e+00 3.942717883968206993e-01 -1.334414011269495548e+00 -3.052718783816251108e-04 0.000000000000000000e+00 0.000000000000000000e+00 0.000000000000000000e+00 0.000000000000000000e+00 0.000000000000000000e+00
-5.381569789194803333e-01 -1.622206595062359424e+00 3.942717883968206993e-01 -1.334414011269495548e+00 -3.052718783816251108e-04 0.000000000000000000e+00 0.000000000000000000e+00 0.000000000000000000e+00 0.000000000000000000e+00 0.000000000000000000e+00
-5.381569789194803333e-01 -1.622206595062359424e+00 3.942717883968206993e-01 -1.334414011269495548e+00 -3.052718783816251108e-04 0.000000000000000000e+00 0.000000000000000000e+00 0.000000000000000000e+00 0.000000000000000000e+00 0.000000000000000000e+00
-5.381569789194803333e-01 -1.622206595062359424e+00 3.942717883968206993e-01 -1.334414011269495548e+00 -3.052718783816251108e-04 0.000000000000000000e+00 0.000000000000000000e+00 0.000000000000000000e+00 0.000000000000000000e+00 0.000000000000000000e+00
-5.381569789194803333e-01 -1.622206595062359424e+00 3.942717883968206993e-01 -1.334414011269495548e+00 -3.052718783816251108e-04 0.000000000000000000e+00 0.000000000000000000e+00 0.000000000000000000e+00 0.000000000000000000e+00 0.000000000000000000e+00
-5.381569789194803333e-01 -1.622206595062359424e+00 3.942717883968206993e-01 -1.334414011269495548e+00 -3.052718783816251108e-04 0.000000000000000000e+00 0.000000000000000000e+00 0.000000000000000000e+00 0.000000000000000000e+00 0.000000000000000000e+00
-5.381569789194803333e-01 -1.622206595062359424e+00 3.942717883968206993e-01 -1.334414011269495548e+00 -3.052718783816251108e-04 0.000000000000000000e+00 0.000000000000000000e+00 0.000000000000000000e+00 0.000000000000000000e+00 0.000000000000000000e+00
-5.381569789194803333e-01 -1.622206595062359424e+00 3.942717883968206993e-01 -1.334414011269495548e+00 -3.052718783816251108e-04 0.000000000000000000e+00 0.000000000000000000e+00 0.000000000000000000e+00 0.000000000000000000e+00 0.000000000000000000e+00
-5.381569789194803333e-01 -1.622206595062359424e+00 3.942717883968206993e-01 -1.334414011269495548e+00 -3.052718783816251108e-04 0.000000000000000000e+00 0.000000000000000000e+00 0.000000000000000000e+00 0.000000000000000000e+00 0.000000000000000000e+00
-5.381569789194803333e-01 -1.622206595062359424e+00 3.942717883968206993e-01 -1.334414011269495548e+00 -3.052718783816251108e-04 0.000000000000000000e+00 0.000000000000000000e+00 0.000000000000000000e+00 0.000000000000000000e+00 0.000000000000000000e+00
-5.381569789194803333e-01 -1.622206595062359424e+00 3.942717883968206993e-01 -1.334414011269495548e+00 -3.052718783816251108e-04 0.000000000000000000e+00 0.000000000000000000e+00 0.000000000000000000e+00 0.000000000000000000e+00 0.000000000000000000e+00
-5.381569789194803333e-01 -1.622206595062359424e+00 3.942717883968206993e-01 -1.334414011269495548e+00 -3.052718783816251108e-04 0.000000000000000000e+00 0.000000000000000000e+00 0.000000000000000000e+00 0.000000000000000000e+00 0.000000000000000000e+00
-5.381569789194803333e-01 -1.622206595062359424e+00 3.942717883968206993e-01 -1.334414011269495548e+00 -3.052718783816251108e-04 0.000000000000000000e+00 0.000000000000000000e+00 0.000000000000000000e+00 0.000000000000000000e+00 0.000000000000000000e+00
-5.381569789194803333e-01 -1.622206595062359424e+00 3.942717883968206993e-01 -1.334414011269495548e+00 -3.052718783816251108e-04 0.000000000000000000e+00 0.000000000000000000e+00 0.000000000000000000e+00 0.000000000000000000e+00 0.000000000000000000e+00
-5.381569789194803333e-01 -1.622206595062359424e+00 3.942717883968206993e-01 -1.334414011269495548e+00 -3.052718783816251108e-04 0.000000000000000000e+00 0.000000000000000000e+00 0.000000000000000000e+00 0.000000000000000000e+00 0.000000000000000000e+00
-5.381569789194803333e-01 -1.622206595062359424e+00 3.942717883968206993e-01 -1.334414011269495548e+00 -3.052718783816251108e-04 0.000000000000000000e+00 0.000000000000000000e+00 0.000000000000000000e+00 0.000000000000000000e+00 0.000000000000000000e+00
-5.381569789194803333e-01 -1.622206595062359424e+00 3.942717883968206993e-01 -1.334414011269495548e+00 -3.052718783816251108e-04 0.000000000000000000e+00 0.000000000000000000e+00 0.000000000000000000e+00 0.000000000000000000e+00 0.000000000000000000e+00
-5.381569789194803333e-01 -1.622206595062359424e+00 3.942717883968206993e-01 -1.334414011269495548e+00 -3.052718783816251108e-04 0.000000000000000000e+00 0.000000000000000000e+00 0.000000000000000000e+00 0.000000000000000000e+00 0.000000000000000000e+00
-5.381569789194803333e-01 -1.622206595062359424e+00 3.942717883968206993e-01 -1.334414011269495548e+00 -3.052718783816251108e-04 0.000000000000000000e+00 0.000000000000000000e+00 0.000000000000000000e+00 0.000000000000000000e+00 0.000000000000000000e+00
-5.381569789194803333e-01 -1.622206595062359424e+00 3.942717883968206993e-01 -1.334414011269495548e+00 -3.052718783816251108e-04 0.000000000000000000e+00 0.000000000000000000e+00 0.000000000000000000e+00 0.000000000000000000e+00 0.000000000000000000e+00
-5.381569789194803333e-01 -1.622206595062359424e+00 3.942717883968206993e-01 -1.334414011269495548e+00 -3.052718783816251108e-04 0.000000000000000000e+00 0.000000000000000000e+00 0.000000000000000000e+00 0.000000000000000000e+00 0.000000000000000000e+00
-5.381569789194803333e-01 -1.622206595062359424e+00 3.942717883968206993e-01 -1.334414011269495548e+00 -3.052718783816251108e-04 0.000000000000000000e+00 0.000000000000000000e+00 0.000000000000000000e+00 0.000000000000000000e+00 0.000000000000000000e+00
-5.381569789194803333e-01 -1.622206595062359424e+00 3.942717883968206993e-01 -1.334414011269495548e+00 -3.052718783816251108e-04 0.000000000000000000e+00 0.000000000000000000e+00 0.000000000000000000e+00 0.000000000000000000e+00 0.000000000000000000e+00
