4.197686391655469640e-01 -3.411657744092115863e-01 -1.191221417978369779e-01
4.197686391655469640e-01 -3.411657744092115863e-01 -1.191221417978369779e-01
4.197686391655469640e-01 -3.411657744092115863e-01 -1.191221417978369779e-01
4.197686391655469640e-01 -3.411657744092115863e-01 -1.191221417978369779e-01
4.197686391655469640e-01 -3.411657744092115863e-01 -1.191221417978369779e-01
4.197686391655469640e-01 -3.411657744092115863e-01 -1.191221417978369779e-01
4.197686391655469640e-01 -3.411657744092115863e-01 -1.191221417978369779e-01
4.197686391655469640e-01 -3.411657744092115863e-01 -1.191221417978369779e-01
4.197686391655469640e-01 -3.411657744092115863e-01 -1.191221417978369779e-01
4.197686391655469640e-01 -3.411657744092115863e-01 -1.191221417978369779e-01
4.197686391655469640e-01 -3.411657744092115863e-01 -1.191221417978369779e-01
4.197686391655469640e-01 -3.411657744092115863e-01 -1.191221417978369779e-01
4.197686391655469640e-01 -3.411657744092115863e-01 -1.191221417978369779e-01
4.197686391655469640e-01 -3.411657744092115863e-01 -1.191221417978369779e-01
4.197686391655469640e-01 -3.411657744092115863e-01 -1.191221417978369779e-01
4.197686391655469640e-01 -3.411657744092115863e-01 -1.191221417978369779e-01
4.197686391655469640e-01 -3.411657744092115863e-01 -1.191221417978369779e-01
4.197686391655469640e-01 -3.411657744092115863e-01 -1.191221417978369779e-01
4.197686391655469640e-01 -3.411657744092115863e-01 -1.191221417978369779e-01
4.197686391655469640e-01 -3.411657744092115863e-01 -1.191221417978369779e-01
4.197686391655469640e-01 -3.411657744092115863e-01 -1.191221417978369779e-01
4.197686391655469640e-01 -3.411657744092115863e-01 -1.191221417978369779e-01
4.197686391655469640e-01 -3.411657744092115863e-01 -1.191221417978369779e-01
4.197686391655469640e-01 -3.411657744092115863e-01 -1.191221417978369779e-01
4.197686391655469640e-01 -3.411657744092115863e-01 -1.191221417978369779e-01
4.197686391655469640e-01 -3.411657744092115863e-01 -1.191221417978369779e-01
4.197686391655469640e-01 -3.411657744092115863e-01 -1.191221417978369779e-01
4.197686391655469640e-01 -3.411657744092115863e-01 -1.191221417978369779e-01
4.197686391655469640e-01 -3.411657744092115863e-01 -1.191221417978369779e-01
4.197686391655469640e-01 -3.411657744092115863e-01 -1.191221417978369779e-01
