-6.762215437581725608e-01 -1.390165817748531540e-01 4.019784650474545473e-01 -1.773103370621354591e+00 -5.115168479738556838e-04 -2.554787813812985781e-02 -3.129636356520194840e-02 -3.194581857472537090e-01 2.118576007551977169e-01 -5.535485359996124635e-03
-6.778155505685332649e-01 -1.415729697008736854e-01 3.807350033147133828e-01 -1.757721580184996801e+00 -7.632885654479111374e-04 -3.188013620721422137e-02 -5.112775852041040459e-02 -4.248692346548237353e-01 3.076358087271570674e-01 -5.035434349481108206e-03
-6.795637967876322350e-01 -1.452097921133266301e-01 3.558259865289709611e-01 -1.738009067956887144e+00 -9.508799721719372053e-04 -3.496492438197908864e-02 -7.273644824905899087e-02 -4.981803357148485989e-01 3.942502445621942631e-01 -3.751828134480522658e-03
-6.813505510955182309e-01 -1.499644684477612344e-01 3.286409395702954983e-01 -1.714543677232745367e+00 -1.012577717943910233e-03 -3.573508615771882335e-02 -9.509352668869222591e-02 -5.437009391735087016e-01 4.693078144828337628e-01 -1.233954915439461428e-03
-6.831049373432878102e-01 -1.558235447101640192e-01 3.003352506700280311e-01 -1.688006577231228711e+00 -1.024004097156090264e-03 -3.508772495539114883e-02 -1.171815252480554737e-01 -5.661137780053494550e-01 5.307420000303325613e-01 -2.285275842436012683e-04
-6.847931288946067507e-01 -1.627272143159686768e-01 2.718361486831769591e-01 -1.659148789133540358e+00 -1.022333238656685612e-03 -3.376383102637919159e-02 -1.380733921160931799e-01 -5.699820397370213287e-01 5.771557619537687200e-01 3.341716998809428829e-05
-6.864080299413006792e-01 -1.705782891168852733e-01 2.438622858109209812e-01 -1.628745216395325546e+00 -1.018315799326645777e-03 -3.229802093387779821e-02 -1.570214960183319297e-01 -5.594772574451193359e-01 6.080714547642959156e-01 8.034878660079870826e-05
-6.879592514428595207e-01 -1.792526348049485185e-01 2.169514852522320403e-01 -1.597551171033616990e+00 -1.014193241358971910e-03 -3.102443003117766329e-02 -1.734869137612651546e-01 -5.382160111737785968e-01 6.238809072341724438e-01 8.245115935347618874e-05
-6.894641676826478438e-01 -1.886110026170447762e-01 1.914909965438928996e-01 -1.566260839963893980e+00 -1.010396853706375768e-03 -3.009832479576723951e-02 -1.871673562419252090e-01 -5.092097741667827027e-01 6.258066213944594169e-01 7.592775305192330242e-05
-6.909410869655150389e-01 -1.985107113692925751e-01 1.677457172648885442e-01 -1.535473402256460229e+00 -1.007125707326071620e-03 -2.953838565734483862e-02 -1.979941750449558668e-01 -4.749055855800871639e-01 6.157487541486738047e-01 6.542292760608191021e-05
-6.924050507805132870e-01 -2.088147762085411363e-01 1.458825026415719039e-01 -1.505673972611270672e+00 -1.004199700805573402e-03 -2.927927629996470923e-02 -2.060812967849713351e-01 -4.372642924663327491e-01 5.959885929037903596e-01 5.852013040996314455e-05
-6.938657922522247778e-01 -2.193988045845182699e-01 1.259893046392883686e-01 -1.477225990468074013e+00 -1.000009862390492839e-03 -2.921482943422953893e-02 -2.116805675195423952e-01 -3.978639600456708725e-01 5.689596428639314141e-01 8.379676830160929927e-05
-6.953275897217906509e-01 -2.301541814220717241e-01 1.080904657855031731e-01 -1.450378529661939364e+00 -9.887527377148463189e-04 -2.923594939131658396e-02 -2.151075367510688341e-01 -3.579767770757038559e-01 5.369492161226916416e-01 2.251424935129324044e-04
-6.967900532208747277e-01 -2.409896003958954813e-01 9.215979018817888058e-02 -1.425279756475518411e+00 -9.593724131796532544e-04 -2.924926998168173378e-02 -2.167083794764753379e-01 -3.186135119464856835e-01 5.019754637284207233e-01 5.876064907038611824e-04
-6.982495278827572927e-01 -2.518304657020125070e-01 7.813095101968026146e-02 -1.401995594249024757e+00 -9.264264933114603083e-04 -2.918949323765197140e-02 -2.168173061223405695e-01 -2.805767833699724934e-01 4.656832445298723089e-01 6.589183973638579458e-04
-6.997003651263044022e-01 -2.626183289315711100e-01 6.590840865962672990e-02 -1.380526741267384727e+00 -8.942736649060691219e-04 -2.901674487094265883e-02 -2.157572645911719211e-01 -2.444508472010706313e-01 4.293770596327989852e-01 6.430565681078239445e-04
-7.011362901822451033e-01 -2.733087802234877572e-01 5.537556382096525676e-02 -1.360826952454880390e+00 -8.643993723604603526e-04 -2.871850111881379605e-02 -2.138090258383331110e-01 -2.106568967732295461e-01 3.939957762500872485e-01 5.974858509121759283e-04
-7.025514481928972765e-01 -2.838692860916196548e-01 4.640015848680219962e-02 -1.342816903233371439e+00 -8.374315570849234650e-04 -2.830316021304331298e-02 -2.112101173626380890e-01 -1.795081066832611705e-01 3.602009844301804486e-01 5.393563055107385108e-04
-7.039408148788185438e-01 -2.942782709344530789e-01 3.883960187250199564e-02 -1.326390539138953439e+00 -8.135020507809804591e-04 -2.778733371842530275e-02 -2.081796968566683170e-01 -1.512111322860040519e-01 3.285272818883595569e-01 4.785901260788602259e-04
-7.053005815196370376e-01 -3.045238923752823790e-01 3.254552593500322638e-02 -1.311421553207511304e+00 -7.924261481573260804e-04 -2.719533281636977648e-02 -2.049124288165858343e-01 -1.258815187499753574e-01 2.993797186288444379e-01 4.215180524730885491e-04
-7.066284061292708030e-01 -3.146029481536908867e-01 2.736881089400046430e-02 -1.297769342700129558e+00 -7.738924405873176971e-04 -2.655649219267609135e-02 -2.015811155681703493e-01 -1.035343008200552556e-01 2.730442101476360794e-01 3.706741514001678293e-04
-7.079237148318391348e-01 -3.245192438550172920e-01 2.316232337469477029e-02 -1.285285413769553298e+00 -7.576578841523009741e-04 -2.590617405136639781e-02 -1.983259140265277443e-01 -8.412975038611388012e-02 2.496785786115273131e-01 3.246911287003337006e-04
-7.091877021615270449e-01 -3.342827075182303043e-01 1.978296372045666718e-02 -1.273815844699733857e+00 -7.435001968861002170e-04 -2.527974659375929745e-02 -1.952692732642603568e-01 -6.758719308476206222e-02 2.293913813963882331e-01 2.831537453240153056e-04
-7.104233647842086441e-01 -3.439082669475177489e-01 1.709286547485399516e-02 -1.263204414833335232e+00 -7.312957683003108202e-04 -2.471325245363284462e-02 -1.925111885857493377e-01 -5.380196491205341963e-02 2.122285973279706972e-01 2.440885717157885871e-04
-7.116354423869236667e-01 -3.534147867863554060e-01 1.496016852677351482e-02 -1.253295189600573512e+00 -7.210684761328188834e-04 -2.424155205430121585e-02 -1.901303967767531411e-01 -4.265393896160961373e-02 1.981845046552347667e-01 2.045458433498387359e-04
-7.128302199262512850e-01 -3.628243544703426693e-01 1.325936369891299489e-02 -1.243933385211317466e+00 -7.129568981290571776e-04 -2.389555078655264050e-02 -1.881913536797457098e-01 -3.401609655721040543e-02 1.872360877851201033e-01 1.622315600752346294e-04
-7.140152418131291423e-01 -3.721617487701543436e-01 1.187129090952587090e-02 -1.234965271166603706e+00 -7.070918418836694098e-04 -2.370043773755625000e-02 -1.867478859962338200e-01 -2.776145578774249362e-02 1.793622808942749169e-01 1.173011249077562240e-04
-7.151989309985561372e-01 -3.814542135582671967e-01 1.068272171058818470e-02 -1.226236585613607932e+00 -7.030351658865484962e-04 -2.367378370854007416e-02 -1.858492957622567276e-01 -2.377138397875371706e-02 1.745737110599133723e-01 8.113351994241764964e-05
-7.163901908677212660e-01 -3.907312692512957542e-01 9.585786460231143780e-03 -1.217590826403574411e+00 -6.977376486994243954e-04 0.000000000000000000e+00 0.000000000000000000e+00 0.000000000000000000e+00 0.000000000000000000e+00 0.000000000000000000e+00
-7.163901908677212660e-01 -3.907312692512957542e-01 9.585786460231143780e-03 -1.217590826403574411e+00 -6.977376486994243954e-04 0.000000000000000000e+00 0.000000000000000000e+00 0.000000000000000000e+00 0.000000000000000000e+00 0.000000000000000000e+00
-7.163901908677212660e-01 -3.907312692512957542e-01 9.585786460231143780e-03 -1.217590826403574411e+00 -6.977376486994243954e-04 0.000000000000000000e+00 0.000000000000000000e+00 0.000000000000000000e+00 0.000000000000000000e+00 0.000000000000000000e+00
