1.100391071663656462e+00 -9.107092451654799081e-01 1.357972440185456708e+00 -6.002393841256339346e-01 6.676769737477531884e-04 2.135977547076035155e+00 -9.441038213982594351e-02 9.989710937864850759e-01 1.595086132115839828e+00 7.695090768941003669e-03
1.208245885810065090e+00 -9.114667639708985414e-01 1.406367594409254185e+00 -5.185188984921865751e-01 1.001541427846510280e-03 2.157096282928171238e+00 -1.515037610837238757e-02 9.679030844759495267e-01 1.634409712668946968e+00 6.677289081975143134e-03
1.317008862387259338e+00 -9.087487044771084266e-01 1.454426307558210230e+00 -4.348977997108615101e-01 1.001822636522356610e-03 0.000000000000000000e+00 0.000000000000000000e+00 0.000000000000000000e+00 0.000000000000000000e+00 0.000000000000000000e+00
1.317008862387259338e+00 -9.087487044771084266e-01 1.454426307558210230e+00 -4.348977997108615101e-01 1.001822636522356610e-03 0.000000000000000000e+00 0.000000000000000000e+00 0.000000000000000000e+00 0.000000000000000000e+00 0.000000000000000000e+00
1.317008862387259338e+00 -9.087487044771084266e-01 1.454426307558210230e+00 -4.348977997108615101e-01 1.001822636522356610e-03 0.000000000000000000e+00 0.000000000000000000e+00 0.000000000000000000e+00 0.000000000000000000e+00 0.000000000000000000e+00
1.317008862387259338e+00 -9.087487044771084266e-01 1.454426307558210230e+00 -4.348977997108615101e-01 1.001822636522356610e-03 0.000000000000000000e+00 0.000000000000000000e+00 0.000000000000000000e+00 0.000000000000000000e+00 0.000000000000000000e+00
1.317008862387259338e+00 -9.087487044771084266e-01 1.454426307558210230e+00 -4.348977997108615101e-01 1.001822636522356610e-03 0.000000000000000000e+00 0.000000000000000000e+00 0.000000000000000000e+00 0.000000000000000000e+00 0.000000000000000000e+00
1.317008862387259338e+00 -9.087487044771084266e-01 1.454426307558210230e+00 -4.348977997108615101e-01 1.001822636522356610e-03 0.000000000000000000e+00 0.000000000000000000e+00 0.000000000000000000e+00 0.000000000000000000e+00 0.000000000000000000e+00
1.317008862387259338e+00 -9.087487044771084266e-01 1.454426307558210230e+00 -4.348977997108615101e-01 1.001822636522356610e-03 0.000000000000000000e+00 0.000000000000000000e+00 0.000000000000000000e+00 0.000000000000000000e+00 0.000000000000000000e+00
1.317008862387259338e+00 -9.087487044771084266e-01 1.454426307558210230e+00 -4.348977997108615101e-01 1.001822636522356610e-03 0.000000000000000000e+00 0.000000000000000000e+00 0.000000000000000000e+00 0.000000000000000000e+00 0.000000000000000000e+00
1.317008862387259338e+00 -9.087487044771084266e-01 1.454426307558210230e+00 -4.348977997108615101e-01 1.001822636522356610e-03 0.000000000000000000e+00 0.000000000000000000e+00 0.000000000000000000e+00 0.000000000000000000e+00 0.000000000000000000e+00
1.317008862387259338e+00 -9.087487044771084266e-01 1.454426307558210230e+00 -4.348977997108615101e-01 1.001822636522356610e-03 0.000000000000000000e+00 0.000000000000000000e+00 0.000000000000000000e+00 0.000000000000000000e+00 0.000000000000000000e+00
1.317008862387259338e+00 -9.087487044771084266e-01 1.454426307558210230e+00 -4.348977997108615101e-01 1.001822636522356610e-03 0.000000000000000000e+00 0.000000000000000000e+00 0.000000000000000000e+00 0.000000000000000000e+00 0.000000000000000000e+00
1.317008862387259338e+00 -9.087487044771084266e-01 1.454426307558210230e+00 -4.348977997108615101e-01 1.001822636522356610e-03 0.000000000000000000e+00 0.000000000000000000e+00 0.000000000000000000e+00 0.000000000000000000e+00 0.000000000000000000e+00
1.317008862387259338e+00 -9.087487044771084266e-01 1.454426307558210230e+00 -4.348977997108615101e-01 1.001822636522356610e-03 0.000000000000000000e+00 0.000000000000000000e+00 0.000000000000000000e+00 0.000000000000000000e+00 0.000000000000000000e+00
1.317008862387259338e+00 -9.087487044771084266e-01 1.454426307558210230e+00 -4.348977997108615101e-01 1.001822636522356610e-03 0.000000000000000000e+00 0.000000000000000000e+00 0.000000000000000000e+00 0.000000000000000000e+00 0.000000000000000000e+00
1.317008862387259338e+00 -9.087487044771084266e-01 1.454426307558210230e+00 -4.348977997108615101e-01 1.001822636522356610e-03 0.000000000000000000e+00 0.000000000000000000e+00 0.000000000000000000e+00 0.000000000000000000e+00 0.000000000000000000e+00
1.317008862387259338e+00 -9.087487044771084266e-01 1.454426307558210230e+00 -4.348977997108615101e-01 1.001822636522356610e-03 0.000000000000000000e+00 0.000000000000000000e+00 0.000000000000000000e+00 0.000000000000000000e+00 0.000000000000000000e+00
1.317008862387259338e+00 -9.087487044771084266e-01 1.454426307558210230e+00 -4.348977997108615101e-01 1.001822636522356610e-03 0.000000000000000000e+00 0.000000000000000000e+00 0.000000000000000000e+00 0.000000000000000000e+00 0.000000000000000000e+00
1.317008862387259338e+00 -9.087487044771084266e-01 1.454426307558210230e+00 -4.348977997108615101e-01 1.001822636522356610e-03 0.000000000000000000e+00 0.000000000000000000e+00 0.000000000000000000e+00 0.000000000000000000e+00 0.000000000000000000e+00
1.317008862387259338e+00 -9.087487044771084266e-01 1.454426307558210230e+00 -4.348977997108615101e-01 1.001822636522356610e-03 0.000000000000000000e+00 0.000000000000000000e+00 0.000000000000000000e+00 0.000000000000000000e+00 0.000000000000000000e+00
1.317008862387259338e+00 -9.087487044771084266e-01 1.454426307558210230e+00 -4.348977997108615101e-01 1.001822636522356610e-03 0.000000000000000000e+00 0.000000000000000000e+00 0.000000000000000000e+00 0.000000000000000000e+00 0.000000000000000000e+00
1.317008862387259338e+00 -9.087487044771084266e-01 1.454426307558210230e+00 -4.348977997108615101e-01 1.001822636522356610e-03 0.000000000000000000e+00 0.000000000000000000e+00 0.000000000000000000e+00 0.000000000000000000e+00 0.000000000000000000e+00
1.317008862387259338e+00 -9.087487044771084266e-01 1.454426307558210230e+00 -4.348977997108615101e-01 1.001822636522356610e-03 0.000000000000000000e+00 0.000000000000000000e+00 0.000000000000000000e+00 0.000000000000000000e+00 0.000000000000000000e+00
1.317008862387259338e+00 -9.087487044771084266e-01 1.454426307558210230e+00 -4.348977997108615101e-01 1.001822636522356610e-03 0.000000000000000000e+00 0.000000000000000000e+00 0.000000000000000000e+00 0.000000000000000000e+00 0.000000000000000000e+00
1.317008862387259338e+00 -9.087487044771084266e-01 1.454426307558210230e+00 -4.348977997108615101e-01 1.001822636522356610e-03 0.000000000000000000e+00 0.000000000000000000e+00 0.000000000000000000e+00 0.000000000000000000e+00 0.000000000000000000e+00
1.317008862387259338e+00 -9.087487044771084266e-01 1.454426307558210230e+00 -4.348977997108615101e-01 1.001822636522356610e-03 0.000000000000000000e+00 0.000000000000000000e+00 0.000000000000000000e+00 0.000000000000000000e+00 0.000000000000000000e+00
1.317008862387259338e+00 -9.087487044771084266e-01 1.454426307558210230e+00 -4.348977997108615101e-01 1.001822636522356610e-03 0.000000000000000000e+00 0.000000000000000000e+00 0.000000000000000000e+00 0.000000000000000000e+00 0.000000000000000000e+00
1.317008862387259338e+00 -9.087487044771084266e-01 1.454426307558210230e+00 -4.348977997108615101e-01 1.001822636522356610e-03 0.000000000000000000e+00 0.000000000000000000e+00 0.000000000000000000e+00 0.000000000000000000e+00 0.000000000000000000e+00
1.317008862387259338e+00 -9.087487044771084266e-01 1.454426307558210230e+00 -4.348977997108615101e-01 1.001822636522356610e-03 0.000000000000000000e+00 0.000000000000000000e+00 0.000000000000000000e+00 0.000000000000000000e+00 0.000000000000000000e+00
1.317008862387259338e+00 -9.087487044771084266e-01 1.454426307558210230e+00 -4.348977997108615101e-01 1.001822636522356610e-03 0.000000000000000000e+00 0.000000000000000000e+00 0.000000000000000000e+00 0.000000000000000000e+00 0.000000000000000000e+00
