-7.371249581045277166e-01 -2.603041656058080466e-01 8.404431356659980423e-01 -1.065678561707436245e+00 1.018059719156695761e-03 -7.699021160790551349e-03 -9.479318316720901638e-01 1.298066405293005210e-01 -2.372505493273617538e-01 4.124755449162743860e-05
-7.386319979384768919e-01 -3.116940246853882046e-01 8.472115654866426704e-01 -1.082532443351410967e+00 1.019704469522620836e-03 -3.014079667898450152e-02 -1.027797181591602937e+00 1.353685964128926722e-01 -3.370776328794943266e-01 3.289500731850013125e-05
-7.413541030350647709e-01 -3.670986811200577793e-01 8.536521128096571376e-01 -1.104280311448105012e+00 1.021551558789932611e-03 -5.444210193175843399e-02 -1.108093128693391494e+00 1.288109464602884002e-01 -4.349573619338805708e-01 3.694178534623464261e-05
-7.453544420982078922e-01 -4.265258234911761814e-01 8.590851442363235391e-01 -1.130549506745171850e+00 1.023951083765878073e-03 -8.000678126286195346e-02 -1.188542847422367599e+00 1.086606285333277383e-01 -5.253839059413385471e-01 4.799049951891115845e-05
-7.506581353515300314e-01 -4.899646589653620654e-01 8.628189322308648102e-01 -1.160670499391084132e+00 1.025248899595982647e-03 -1.060738650664432708e-01 -1.268776709483717680e+00 7.467575989082431143e-02 -6.024198529182434036e-01 2.595631660208994290e-05
-7.572500318613357706e-01 -5.573743027916440163e-01 8.641955781721689656e-01 -1.193685573936804634e+00 1.019114872634741160e-03 -1.318379301961146166e-01 -1.348192876525639239e+00 2.753291882608390612e-02 -6.603014909144105937e-01 -1.226805392248297294e-04
-7.650774641312529933e-01 -6.286710693116851489e-01 8.626249765713807083e-01 -1.228374861654575323e+00 9.888993642607414765e-04 -1.565486453983445658e-01 -1.425935330400821766e+00 -3.141203201576491660e-02 -6.937857543554134532e-01 -6.043101674799919443e-04
-7.740608993673294691e-01 -7.037184527835548264e-01 8.576177879859723241e-01 -1.263317578004962360e+00 9.089337874535125591e-04 -1.796687047215290711e-01 -1.500947669437393106e+00 -1.001437717081685441e-01 -6.988543270077418601e-01 -1.599311536144577264e-03
-7.841093401221829184e-01 -7.823232071964175693e-01 8.488209173256838769e-01 -1.296984319089646842e+00 7.817781995381390585e-04 -2.009688150970687648e-01 -1.572095088257254414e+00 -1.759374132057683060e-01 -6.733348216936899666e-01 -2.543111758307470445e-03
-7.951362216191738552e-01 -8.642372429125709798e-01 8.360449183556571962e-01 -1.327842729991851156e+00 6.185830603913406063e-04 -2.205376299398197903e-01 -1.638280714323068654e+00 -2.555199794005343361e-01 -6.171682180440877241e-01 -3.263902782935967743e-03
-8.070746710053494644e-01 -9.491627493348601119e-01 8.192702112636823797e-01 -1.354465692226043183e+00 4.318504778658854328e-04 -2.387689877235123492e-01 -1.698510128445782419e+00 -3.354941418394971619e-01 -5.324592446838405380e-01 -3.734651650509103905e-03
-8.199065859737970641e-01 -1.036753434407695407e+00 7.985959103447208829e-01 -1.375642524464513183e+00 2.329789782593057873e-04 -2.566382993689530490e-01 -1.751813701456705452e+00 -4.134860183792305466e-01 -4.235366447693992842e-01 -3.977429992131593234e-03
-8.336919564788134451e-01 -1.126620059329238144e+00 7.741589961894972394e-01 -1.390433106122524576e+00 3.051603624129996337e-05 -2.757074101003276212e-01 -1.797332498430852743e+00 -4.887382831044723708e-01 -2.958116331602295146e-01 -4.049258840360115720e-03
-8.486088849121024014e-01 -1.218336271894681078e+00 7.460229320053566315e-01 -1.398176268684420354e+00 -1.707681948794426770e-04 -2.983385686657789582e-01 -1.834324251308858234e+00 -5.627212836828127118e-01 -1.548632512379156112e-01 -4.025684622414852157e-03
-8.649960865159047607e-01 -1.311446582060059596e+00 7.140646014210698667e-01 -1.398455587316562276e+00 -3.757787036833087858e-04 -3.277440320760462988e-01 -1.862206203307570807e+00 -6.391666116857364077e-01 -5.586372642839537717e-03 -4.100210176077322827e-03
-8.834065941491912044e-01 -1.405470467827330872e+00 6.778449669441478642e-01 -1.391041662741208329e+00 -6.154103213729467461e-04 -3.682101526657288737e-01 -1.880477715345426626e+00 -7.243926895384408260e-01 1.482784915070780307e-01 -4.792632353792759640e-03
-9.046478181585637657e-01 -1.499904713931454747e+00 6.364888733093500006e-01 -1.375802768391802600e+00 -1.005652492322478032e-03 0.000000000000000000e+00 0.000000000000000000e+00 0.000000000000000000e+00 0.000000000000000000e+00 0.000000000000000000e+00
-9.046478181585637657e-01 -1.499904713931454747e+00 6.364888733093500006e-01 -1.375802768391802600e+00 -1.005652492322478032e-03 0.000000000000000000e+00 0.000000000000000000e+00 0.000000000000000000e+00 0.000000000000000000e+00 0.000000000000000000e+00
-9.046478181585637657e-01 -1.499904713931454747e+00 6.364888733093500006e-01 -1.375802768391802600e+00 -1.005652492322478032e-03 0.000000000000000000e+00 0.000000000000000000e+00 0.000000000000000000e+00 0.000000000000000000e+00 0.000000000000000000e+00
-9.046478181585637657e-01 -1.499904713931454747e+00 6.364888733093500006e-01 -1.375802768391802600e+00 -1.005652492322478032e-03 0.000000000000000000e+00 0.000000000000000000e+00 0.000000000000000000e+00 0.000000000000000000e+00 0.000000000000000000e+00
-9.046478181585637657e-01 -1.499904713931454747e+00 6.364888733093500006e-01 -1.375802768391802600e+00 -1.005652492322478032e-03 0.000000000000000000e+00 0.000000000000000000e+00 0.000000000000000000e+00 0.000000000000000000e+00 0.000000000000000000e+00
-9.046478181585637657e-01 -1.499904713931454747e+00 6.364888733093500006e-01 -1.375802768391802600e+00 -1.005652492322478032e-03 0.000000000000000000e+00 0.000000000000000000e+00 0.000000000000000000e+00 0.000000000000000000e+00 0.000000000000000000e+00
-9.046478181585637657e-01 -1.499904713931454747e+00 6.364888733093500006e-01 -1.375802768391802600e+00 -1.005652492322478032e-03 0.000000000000000000e+00 0.000000000000000000e+00 0.000000000000000000e+00 0.000000000000000000e+00 0.000000000000000000e+00
-9.046478181585637657e-01 -1.499904713931454747e+00 6.364888733093500006e-01 -1.375802768391802600e+00 -1.005652492322478032e-03 0.000000000000000000e+00 0.000000000000000000e+00 0.000000000000000000e+00 0.000000000000000000e+00 0.000000000000000000e+00
-9.046478181585637657e-01 -1.499904713931454747e+00 6.364888733093500006e-01 -1.375802768391802600e+00 -1.005652492322478032e-03 0.000000000000000000e+00 0.000000000000000000e+00 0.000000000000000000e+00 0.000000000000000000e+00 0.000000000000000000e+00
-9.046478181585637657e-01 -1.499904713931454747e+00 6.364888733093500006e-01 -1.375802768391802600e+00 -1.005652492322478032e-03 0.000000000000000000e+00 0.000000000000000000e+00 0.000000000000000000e+00 0.000000000000000000e+00 0.000000000000000000e+00
-9.046478181585637657e-01 -1.499904713931454747e+00 6.364888733093500006e-01 -1.375802768391802600e+00 -1.005652492322478032e-03 0.000000000000000000e+00 0.000000000000000000e+00 0.000000000000000000e+00 0.000000000000000000e+00 0.000000000000000000e+00
-9.046478181585637657e-01 -1.499904713931454747e+00 6.364888733093500006e-01 -1.375802768391802600e+00 -1.005652492322478032e-03 0.000000000000000000e+00 0.000000000000000000e+00 0.000000000000000000e+00 0.000000000000000000e+00 0.000000000000000000e+00
-9.046478181585637657e-01 -1.499904713931454747e+00 6.364888733093500006e-01 -1.375802768391802600e+00 -1.005652492322478032e-03 0.000000000000000000e+00 0.000000000000000000e+00 0.000000000000000000e+00 0.000000000000000000e+00 0.000000000000000000e+00
-9.046478181585637657e-01 -1.499904713931454747e+00 6.364888733093500006e-01 -1.375802768391802600e+00 -1.005652492322478032e-03 0.000000000000000000e+00 0.000000000000000000e+00 0.000000000000000000e+00 0.000000000000000000e+00 0.000000000000000000e+00
-9.046478181585637657e-01 -1.499904713931454747e+00 6.364888733093500006e-01 -1.375802768391802600e+00 -1.005652492322478032e-03 0.000000000000000000e+00 0.000000000000000000e+00 0.000000000000000000e+00 0.000000000000000000e+00 0.000000000000000000e+00
