-6.036289159237311353e-01 4.565622724934040311e-02 1.726222933460377917e-01 -1.112386531086730468e+00 7.404576978935768338e-04 -3.472109484087366749e-01 -5.223255745762728219e-01 -3.603249538178976974e-01 -5.500117287292596302e-01 -3.729853531893664517e-03
-6.210339111216305330e-01 1.623346361700445106e-02 1.550239896079562141e-01 -1.132066420737304568e+00 5.323508145418649577e-04 -3.480999039579873444e-01 -5.884552726467190409e-01 -3.519660747616316643e-01 -3.935977930114840095e-01 -4.162137667034236654e-03
-6.383787344437049649e-01 -1.640661181225790827e-02 1.380523770820529239e-01 -1.143272706500332303e+00 3.344928302688501267e-04 -3.468964664414877497e-01 -6.528015085852472144e-01 -3.394322505180655258e-01 -2.241257152605538872e-01 -3.957159685460296186e-03
-6.555902456157541858e-01 -5.213235721758475993e-02 1.219208320986228111e-01 -1.145600241352910720e+00 1.606240322990655750e-04 -3.442302234409836403e-01 -7.145149081065370611e-01 -3.226308996686023667e-01 -4.655069705156941740e-02 -3.477375959395690927e-03
-6.726247809760848018e-01 -9.077600013764910991e-02 1.068251721553054312e-01 -1.138878270109894952e+00 1.762546510408061011e-05 -3.406907072066123754e-01 -7.728728584012871661e-01 -3.019131988663474320e-01 1.344394248603155984e-01 -2.859971343899699731e-03
-6.894652216173663417e-01 -1.321406789606141552e-01 9.292507279880110604e-02 -1.123149596091320701e+00 -9.143394231847092415e-05 -3.368088128256302993e-01 -8.272935764593009056e-01 -2.780019871300863921e-01 3.145734803714830274e-01 -2.181188148451030685e-03
-7.061176582628058140e-01 -1.760087101294849632e-01 8.033346613976652395e-02 -1.098642339227288156e+00 -1.661528580689641940e-04 -3.330487329087891690e-01 -8.773606233774159380e-01 -2.518321331806916974e-01 4.901451372806503448e-01 -1.494378315009865397e-03
-7.226080890585367955e-01 -2.221507890385011064e-01 6.911444867274303683e-02 -1.065736002745559574e+00 -2.079593369990019656e-04 -3.298086159146194629e-01 -9.228415781803227524e-01 -2.243803493404697980e-01 6.581267296345707507e-01 -8.361295786007555408e-04
-7.389796858063220064e-01 -2.703346650475791368e-01 5.928846707158150209e-02 -1.024927718135882682e+00 -2.195797510944566154e-04 -3.274319349557034964e-01 -9.636775201815602765e-01 -1.965196320232307226e-01 8.161656921935372955e-01 -2.324082819090927780e-04
-7.552907535893024216e-01 -3.203319472526291456e-01 5.084029894819912937e-02 -9.768020795237751797e-01 -2.044024116300148357e-04 -3.262213556596078590e-01 -9.999456441009995089e-01 -1.689633624676474821e-01 9.625127722421507048e-01 3.035467892888355943e-04
-7.716134746020431034e-01 -3.719231171502881406e-01 4.372760681076843375e-02 -9.220048040418777902e-01 -1.658468964994885613e-04 -3.264544202548125273e-01 -1.031823397953180343e+00 -1.422538427486138846e-01 1.095945509637946902e+00 7.711103026105252693e-04
-7.880335915901039989e-01 -4.249005016432498838e-01 3.788832912221490323e-02 -8.612219832761922600e-01 -1.068560272254190981e-04 -3.284023397612177986e-01 -1.059547689859235309e+00 -1.167855537710705549e-01 1.215656415313711713e+00 1.179817385481389102e-03
-8.046508496810178546e-01 -4.790699754446858250e-01 3.324641458133816008e-02 -7.951626920930405795e-01 -2.947904172271727480e-05 -3.323451618182781675e-01 -1.083389476028719045e+00 -9.283829081753493251e-02 1.321185823663033831e+00 1.547539710054036304e-03
-8.215800283299645734e-01 -5.342518611464530665e-01 2.971700413435687804e-02 -7.245445455845247462e-01 6.460706905356420400e-05 -3.385835729789341553e-01 -1.103637714035344830e+00 -7.058820893962561294e-02 1.412362930170315334e+00 1.881722215525629413e-03
-8.389523418775886032e-01 -5.902803627025531297e-01 2.720638975980419622e-02 -6.500818771824157238e-01 1.732683178488253527e-04 -3.474462709524815396e-01 -1.120570031122001931e+00 -5.021228749105362266e-02 1.489253368042181114e+00 2.173224975905223028e-03
-8.569168618817062377e-01 -6.470020614487321797e-01 2.560017241401518762e-02 -5.724700702797780316e-01 2.951750767214905485e-04 -3.592904000823537447e-01 -1.134433974923581445e+00 -3.212434691578017198e-02 1.552236138052754510e+00 2.438135177453303916e-03
-8.756427404139651705e-01 -7.042730841122658569e-01 2.473853291495401591e-02 -4.923682162039081933e-01 4.352065765180207621e-04 -3.745175706451778774e-01 -1.145420453270673544e+00 -1.723278998122340297e-02 1.602037081517396544e+00 2.800629995930604271e-03
-8.953238811450900947e-01 -7.619542266826695442e-01 2.437879399530802627e-02 -4.103849603958348302e-01 6.237885295305165608e-04 -3.936228146224974855e-01 -1.153622851408073524e+00 -7.194778392919798024e-03 1.639665116161467262e+00 3.771639060249914674e-03
-9.161889947157080272e-01 -8.199025903728676123e-01 2.413432065718662534e-02 -3.270681960283333134e-01 9.989949872381909471e-04 0.000000000000000000e+00 0.000000000000000000e+00 0.000000000000000000e+00 0.000000000000000000e+00 0.000000000000000000e+00
-9.161889947157080272e-01 -8.199025903728676123e-01 2.413432065718662534e-02 -3.270681960283333134e-01 9.989949872381909471e-04 0.000000000000000000e+00 0.000000000000000000e+00 0.000000000000000000e+00 0.000000000000000000e+00 0.000000000000000000e+00
-9.161889947157080272e-01 -8.199025903728676123e-01 2.413432065718662534e-02 -3.270681960283333134e-01 9.989949872381909471e-04 0.000000000000000000e+00 0.000000000000000000e+00 0.000000000000000000e+00 0.000000000000000000e+00 0.000000000000000000e+00
-9.161889947157080272e-01 -8.199025903728676123e-01 2.413432065718662534e-02 -3.270681960283333134e-01 9.989949872381909471e-04 0.000000000000000000e+00 0.000000000000000000e+00 0.000000000000000000e+00 0.000000000000000000e+00 0.000000000000000000e+00
-9.161889947157080272e-01 -8.199025903728676123e-01 2.413432065718662534e-02 -3.270681960283333134e-01 9.989949872381909471e-04 0.000000000000000000e+00 0.000000000000000000e+00 0.000000000000000000e+00 0.000000000000000000e+00 0.000000000000000000e+00
-9.161889947157080272e-01 -8.199025903728676123e-01 2.413432065718662534e-02 -3.270681960283333134e-01 9.989949872381909471e-04 0.000000000000000000e+00 0.000000000000000000e+00 0.000000000000000000e+00 0.000000000000000000e+00 0.000000000000000000e+00
-9.161889947157080272e-01 -8.199025903728676123e-01 2.413432065718662534e-02 -3.270681960283333134e-01 9.989949872381909471e-04 0.000000000000000000e+00 0.000000000000000000e+00 0.000000000000000000e+00 0.000000000000000000e+00 0.000000000000000000e+00
-9.161889947157080272e-01 -8.199025903728676123e-01 2.413432065718662534e-02 -3.270681960283333134e-01 9.989949872381909471e-04 0.000000000000000000e+00 0.000000000000000000e+00 0.000000000000000000e+00 0.000000000000000000e+00 0.000000000000000000e+00
-9.161889947157080272e-01 -8.199025903728676123e-01 2.413432065718662534e-02 -3.270681960283333134e-01 9.989949872381909471e-04 0.000000000000000000e+00 0.000000000000000000e+00 0.000000000000000000e+00 0.000000000000000000e+00 0.000000000000000000e+00
-9.161889947157080272e-01 -8.199025903728676123e-01 2.413432065718662534e-02 -3.270681960283333134e-01 9.989949872381909471e-04 0.000000000000000000e+00 0.000000000000000000e+00 0.000000000000000000e+00 0.000000000000000000e+00 0.000000000000000000e+00
-9.161889947157080272e-01 -8.199025903728676123e-01 2.413432065718662534e-02 -3.270681960283333134e-01 9.989949872381909471e-04 0.000000000000000000e+00 0.000000000000000000e+00 0.000000000000000000e+00 0.000000000000000000e+00 0.000000000000000000e+00
-9.161889947157080272e-01 -8.199025903728676123e-01 2.413432065718662534e-02 -3.270681960283333134e-01 9.989949872381909471e-04 0.000000000000000000e+00 0.000000000000000000e+00 0.000000000000000000e+00 0.000000000000000000e+00 0.000000000000000000e+00
-9.161889947157080272e-01 -8.199025903728676123e-01 2.413432065718662534e-02 -3.270681960283333134e-01 9.989949872381909471e-04 0.000000000000000000e+00 0.000000000000000000e+00 0.000000000000000000e+00 0.000000000000000000e+00 0.000000000000000000e+00
