-1.347786442867908274e+00 -4.989306413872935941e-01 -4.787594911879823889e-01 -1.077108037981710842e+00 -6.127710527174375305e-04 -8.100388667812395971e-01 -6.378193729428821568e-01 -2.351252512883308110e-01 1.215728828757928870e+00 -6.795156018962128855e-04
-1.389168832354263250e+00 -5.296984095105420343e-01 -4.891940414237129220e-01 -1.018553196106084080e+00 -6.576811873787636762e-04 -8.276477897270974049e-01 -6.153553624649696907e-01 -2.086910047146111058e-01 1.171096837512535904e+00 -8.982026932265225897e-04
-1.431463562609463391e+00 -5.593980228901254126e-01 -4.985063079362826444e-01 -9.619771987332457197e-01 -7.099361125075885192e-04 -8.458946051040014957e-01 -5.939922675916680106e-01 -1.862453302513939479e-01 1.131519947456768094e+00 -1.045098502576495992e-03
-1.474716017973329851e+00 -5.880970945700833008e-01 -5.069025431205527177e-01 -9.070983384543969130e-01 -7.668939315600311994e-04 -8.650491072773309753e-01 -5.739814335991570982e-01 -1.679247036854022435e-01 1.097577205576975468e+00 -1.139156381048854472e-03
-1.518985102596060566e+00 -6.158704368169619636e-01 -5.146011325910101464e-01 -8.536139959815097766e-01 -8.281759806755226725e-04 -8.853816924546147327e-01 -5.554668449375723682e-01 -1.539717894091491568e-01 1.069686849457741840e+00 -1.225640982309828594e-03
-1.564343215332504755e+00 -6.427959415232031848e-01 -5.218375588400685494e-01 -8.012040767302818223e-01 -8.998168310746624361e-04 -9.071622547288852312e-01 -5.385100941248237572e-01 -1.447285249811682828e-01 1.048198385024558643e+00 -1.432817007982795706e-03
-1.610876029496135731e+00 -6.689511684880760090e-01 -5.288691489668200241e-01 -7.495323756381688796e-01 -1.010848083982073854e-03 -9.306562832726209544e-01 -5.231045392974561503e-01 -1.406318025350285217e-01 1.033434021842258632e+00 -2.220625058148227495e-03
-1.658682114395331197e+00 -6.944112789118582763e-01 -5.359806421537185450e-01 -6.982428180998793144e-01 -1.278914641615448841e-03 0.000000000000000000e+00 0.000000000000000000e+00 0.000000000000000000e+00 0.000000000000000000e+00 0.000000000000000000e+00
-1.658682114395331197e+00 -6.944112789118582763e-01 -5.359806421537185450e-01 -6.982428180998793144e-01 -1.278914641615448841e-03 0.000000000000000000e+00 0.000000000000000000e+00 0.000000000000000000e+00 0.000000000000000000e+00 0.000000000000000000e+00
-1.658682114395331197e+00 -6.944112789118582763e-01 -5.359806421537185450e-01 -6.982428180998793144e-01 -1.278914641615448841e-03 0.000000000000000000e+00 0.000000000000000000e+00 0.000000000000000000e+00 0.000000000000000000e+00 0.000000000000000000e+00
-1.658682114395331197e+00 -6.944112789118582763e-01 -5.359806421537185450e-01 -6.982428180998793144e-01 -1.278914641615448841e-03 0.000000000000000000e+00 0.000000000000000000e+00 0.000000000000000000e+00 0.000000000000000000e+00 0.000000000000000000e+00
-1.658682114395331197e+00 -6.944112789118582763e-01 -5.359806421537185450e-01 -6.982428180998793144e-01 -1.278914641615448841e-03 0.000000000000000000e+00 0.000000000000000000e+00 0.000000000000000000e+00 0.000000000000000000e+00 0.000000000000000000e+00
-1.658682114395331197e+00 -6.944112789118582763e-01 -5.359806421537185450e-01 -6.982428180998793144e-01 -1.278914641615448841e-03 0.000000000000000000e+00 0.000000000000000000e+00 0.000000000000000000e+00 0.000000000000000000e+00 0.000000000000000000e+00
-1.658682114395331197e+00 -6.944112789118582763e-01 -5.359806421537185450e-01 -6.982428180998793144e-01 -1.278914641615448841e-03 0.000000000000000000e+00 0.000000000000000000e+00 0.000000000000000000e+00 0.000000000000000000e+00 0.000000000000000000e+00
-1.658682114395331197e+00 -6.944112789118582763e-01 -5.359806421537185450e-01 -6.982428180998793144e-01 -1.278914641615448841e-03 0.000000000000000000e+00 0.000000000000000000e+00 0.000000000000000000e+00 0.000000000000000000e+00 0.000000000000000000e+00
-1.658682114395331197e+00 -6.944112789118582763e-01 -5.359806421537185450e-01 -6.982428180998793144e-01 -1.278914641615448841e-03 0.000000000000000000e+00 0.000000000000000000e+00 0.000000000000000000e+00 0.000000000000000000e+00 0.000000000000000000e+00
-1.658682114395331197e+00 -6.944112789118582763e-01 -5.359806421537185450e-01 -6.982428180998793144e-01 -1.278914641615448841e-03 0.000000000000000000e+00 0.000000000000000000e+00 0.000000000000000000e+00 0.000000000000000000e+00 0.000000000000000000e+00
-1.658682114395331197e+00 -6.944112789118582763e-01 -5.359806421537185450e-01 -6.982428180998793144e-01 -1.278914641615448841e-03 0.000000000000000000e+00 0.000000000000000000e+00 0.000000000000000000e+00 0.000000000000000000e+00 0.000000000000000000e+00
-1.658682114395331197e+00 -6.944112789118582763e-01 -5.359806421537185450e-01 -6.982428180998793144e-01 -1.278914641615448841e-03 0.000000000000000000e+00 0.000000000000000000e+00 0.000000000000000000e+00 0.000000000000000000e+00 0.000000000000000000e+00
-1.658682114395331197e+00 -6.944112789118582763e-01 -5.359806421537185450e-01 -6.982428180998793144e-01 -1.278914641615448841e-03 0.000000000000000000e+00 0.000000000000000000e+00 0.000000000000000000e+00 0.000000000000000000e+00 0.000000000000000000e+00
-1.658682114395331197e+00 -6.944112789118582763e-01 -5.359806421537185450e-01 -6.982428180998793144e-01 -1.278914641615448841e-03 0.000000000000000000e+00 0.000000000000000000e+00 0.000000000000000000e+00 0.000000000000000000e+00 0.000000000000000000e+00
-1.658682114395331197e+00 -6.944112789118582763e-01 -5.359806421537185450e-01 -6.982428180998793144e-01 -1.278914641615448841e-03 0.000000000000000000e+00 0.000000000000000000e+00 0.000000000000000000e+00 0.000000000000000000e+00 0.000000000000000000e+00
-1.658682114395331197e+00 -6.944112789118582763e-01 -5.359806421537185450e-01 -6.982428180998793144e-01 -1.278914641615448841e-03 0.000000000000000000e+00 0.000000000000000000e+00 0.000000000000000000e+00 0.000000000000000000e+00 0.000000000000000000e+00
-1.658682114395331197e+00 -6.944112789118582763e-01 -5.359806421537185450e-01 -6.982428180998793144e-01 -1.278914641615448841e-03 0.000000000000000000e+00 0.000000000000000000e+00 0.000000000000000000e+00 0.000000000000000000e+00 0.000000000000000000e+00
-1.658682114395331197e+00 -6.944112789118582763e-01 -5.359806421537185450e-01 -6.982428180998793144e-01 -1.278914641615448841e-03 0.000000000000000000e+00 0.000000000000000000e+00 0.000000000000000000e+00 0.000000000000000000e+00 0.000000000000000000e+00
-1.658682114395331197e+00 -6.944112789118582763e-01 -5.359806421537185450e-01 -6.982428180998793144e-01 -1.278914641615448841e-03 0.000000000000000000e+00 0.000000000000000000e+00 0.000000000000000000e+00 0.000000000000000000e+00 0.000000000000000000e+00
-1.658682114395331197e+00 -6.944112789118582763e-01 -5.359806421537185450e-01 -6.982428180998793144e-01 -1.278914641615448841e-03 0.000000000000000000e+00 0.000000000000000000e+00 0.000000000000000000e+00 0.000000000000000000e+00 0.000000000000000000e+00
-1.658682114395331197e+00 -6.944112789118582763e-01 -5.359806421537185450e-01 -6.982428180998793144e-01 -1.278914641615448841e-03 0.000000000000000000e+00 0.000000000000000000e+00 0.000000000000000000e+00 0.000000000000000000e+00 0.000000000000000000e+00
-1.658682114395331197e+00 -6.944112789118582763e-01 -5.359806421537185450e-01 -6.982428180998793144e-01 -1.278914641615448841e-03 0.000000000000000000e+00 0.000000000000000000e+00 0.000000000000000000e+00 0.000000000000000000e+00 0.000000000000000000e+00
-1.658682114395331197e+00 -6.944112789118582763e-01 -5.359806421537185450e-01 -6.982428180998793144e-01 -1.278914641615448841e-03 0.000000000000000000e+00 0.000000000000000000e+00 0.000000000000000000e+00 0.000000000000000000e+00 0.000000000000000000e+00
-1.658682114395331197e+00 -6.944112789118582763e-01 -5.359806421537185450e-01 -6.982428180998793144e-01 -1.278914641615448841e-03 0.000000000000000000e+00 0.000000000000000000e+00 0.000000000000000000e+00 0.000000000000000000e+00 0.000000000000000000e+00
