1.995859132460106322e-01 -7.363975294728767329e-01 1.242159478858564370e+00 -1.153743054221985309e+00 6.581905331613413686e-04 4.996112834326022489e-01 -3.852896876501485379e-02 2.290530075701293078e-01 4.263520783870528019e-01 2.337506983402906028e-03
2.245685631318651287e-01 -7.379669315925955209e-01 1.253051961801556979e+00 -1.131837649897953879e+00 7.718408926244631511e-04 4.996529977170898751e-01 -3.138804239437469057e-02 2.178496588598505257e-01 4.381080864806288777e-01 2.273007189262434783e-03
2.495892367467156814e-01 -7.392265751801421203e-01 1.263563678131523149e+00 -1.109415048173834517e+00 8.788386180708936775e-04 5.004134722970108307e-01 -2.519287175093222475e-02 2.102343265993229793e-01 4.484520344823892946e-01 2.139954508928609660e-03
2.746860231934822316e-01 -7.402205217877168009e-01 1.273863057316148462e+00 -1.086528491347759529e+00 9.686209251084958909e-04 5.019357289353312268e-01 -1.987893215149257736e-02 2.059875836925053605e-01 4.577311365215016026e-01 1.795646140752045136e-03
2.998960600579276270e-01 -7.409880807938605818e-01 1.284102588458071459e+00 -1.063218370310970107e+00 1.001893870538907031e-03 5.042007372889075745e-01 -1.535118012287515002e-02 2.047906228384616667e-01 4.662024207357899352e-01 6.654589086082240978e-04
3.252518054437504857e-01 -7.415619763803202869e-01 1.294411603329008509e+00 -1.039517020007705517e+00 1.002969298294625802e-03 5.071149077164569530e-01 -1.147791172919368843e-02 2.061802974187408322e-01 4.740270060652934103e-01 2.150855511437758591e-05
3.507769154097084008e-01 -7.419665574176200762e-01 1.304887808617479328e+00 -1.015453899601120202e+00 9.296697563707647868e-04 0.000000000000000000e+00 0.000000000000000000e+00 0.000000000000000000e+00 0.000000000000000000e+00 0.000000000000000000e+00
3.507769154097084008e-01 -7.419665574176200762e-01 1.304887808617479328e+00 -1.015453899601120202e+00 9.296697563707647868e-04 0.000000000000000000e+00 0.000000000000000000e+00 0.000000000000000000e+00 0.000000000000000000e+00 0.000000000000000000e+00
3.507769154097084008e-01 -7.419665574176200762e-01 1.304887808617479328e+00 -1.015453899601120202e+00 9.296697563707647868e-04 0.000000000000000000e+00 0.000000000000000000e+00 0.000000000000000000e+00 0.000000000000000000e+00 0.000000000000000000e+00
3.507769154097084008e-01 -7.419665574176200762e-01 1.304887808617479328e+00 -1.015453899601120202e+00 9.296697563707647868e-04 0.000000000000000000e+00 0.000000000000000000e+00 0.000000000000000000e+00 0.000000000000000000e+00 0.000000000000000000e+00
3.507769154097084008e-01 -7.419665574176200762e-01 1.304887808617479328e+00 -1.015453899601120202e+00 9.296697563707647868e-04 0.000000000000000000e+00 0.000000000000000000e+00 0.000000000000000000e+00 0.000000000000000000e+00 0.000000000000000000e+00
3.507769154097084008e-01 -7.419665574176200762e-01 1.304887808617479328e+00 -1.015453899601120202e+00 9.296697563707647868e-04 0.000000000000000000e+00 0.000000000000000000e+00 0.000000000000000000e+00 0.000000000000000000e+00 0.000000000000000000e+00
3.507769154097084008e-01 -7.419665574176200762e-01 1.304887808617479328e+00 -1.015453899601120202e+00 9.296697563707647868e-04 0.000000000000000000e+00 0.000000000000000000e+00 0.000000000000000000e+00 0.000000000000000000e+00 0.000000000000000000e+00
3.507769154097084008e-01 -7.419665574176200762e-01 1.304887808617479328e+00 -1.015453899601120202e+00 9.296697563707647868e-04 0.000000000000000000e+00 0.000000000000000000e+00 0.000000000000000000e+00 0.000000000000000000e+00 0.000000000000000000e+00
3.507769154097084008e-01 -7.419665574176200762e-01 1.304887808617479328e+00 -1.015453899601120202e+00 9.296697563707647868e-04 0.000000000000000000e+00 0.000000000000000000e+00 0.000000000000000000e+00 0.000000000000000000e+00 0.000000000000000000e+00
3.507769154097084008e-01 -7.419665574176200762e-01 1.304887808617479328e+00 -1.015453899601120202e+00 9.296697563707647868e-04 0.000000000000000000e+00 0.000000000000000000e+00 0.000000000000000000e+00 0.000000000000000000e+00 0.000000000000000000e+00
3.507769154097084008e-01 -7.419665574176200762e-01 1.304887808617479328e+00 -1.015453899601120202e+00 9.296697563707647868e-04 0.000000000000000000e+00 0.000000000000000000e+00 0.000000000000000000e+00 0.000000000000000000e+00 0.000000000000000000e+00
3.507769154097084008e-01 -7.419665574176200762e-01 1.304887808617479328e+00 -1.015453899601120202e+00 9.296697563707647868e-04 0.000000000000000000e+00 0.000000000000000000e+00 0.000000000000000000e+00 0.000000000000000000e+00 0.000000000000000000e+00
3.507769154097084008e-01 -7.419665574176200762e-01 1.304887808617479328e+00 -1.015453899601120202e+00 9.296697563707647868e-04 0.000000000000000000e+00 0.000000000000000000e+00 0.000000000000000000e+00 0.000000000000000000e+00 0.000000000000000000e+00
3.507769154097084008e-01 -7.419665574176200762e-01 1.304887808617479328e+00 -1.015453899601120202e+00 9.296697563707647868e-04 0.000000000000000000e+00 0.000000000000000000e+00 0.000000000000000000e+00 0.000000000000000000e+00 0.000000000000000000e+00
3.507769154097084008e-01 -7.419665574176200762e-01 1.304887808617479328e+00 -1.015453899601120202e+00 9.296697563707647868e-04 0.000000000000000000e+00 0.000000000000000000e+00 0.000000000000000000e+00 0.000000000000000000e+00 0.000000000000000000e+00
3.507769154097084008e-01 -7.419665574176200762e-01 1.304887808617479328e+00 -1.015453899601120202e+00 9.296697563707647868e-04 0.000000000000000000e+00 0.000000000000000000e+00 0.000000000000000000e+00 0.000000000000000000e+00 0.000000000000000000e+00
3.507769154097084008e-01 -7.419665574176200762e-01 1.304887808617479328e+00 -1.015453899601120202e+00 9.296697563707647868e-04 0.000000000000000000e+00 0.000000000000000000e+00 0.000000000000000000e+00 0.000000000000000000e+00 0.000000000000000000e+00
3.507769154097084008e-01 -7.419665574176200762e-01 1.304887808617479328e+00 -1.015453899601120202e+00 9.296697563707647868e-04 0.000000000000000000e+00 0.000000000000000000e+00 0.000000000000000000e+00 0.000000000000000000e+00 0.000000000000000000e+00
3.507769154097084008e-01 -7.419665574176200762e-01 1.304887808617479328e+00 -1.015453899601120202e+00 9.296697563707647868e-04 0.000000000000000000e+00 0.000000000000000000e+00 0.000000000000000000e+00 0.000000000000000000e+00 0.000000000000000000e+00
3.507769154097084008e-01 -7.419665574176200762e-01 1.304887808617479328e+00 -1.015453899601120202e+00 9.296697563707647868e-04 0.000000000000000000e+00 0.000000000000000000e+00 0.000000000000000000e+00 0.000000000000000000e+00 0.000000000000000000e+00
3.507769154097084008e-01 -7.419665574176200762e-01 1.304887808617479328e+00 -1.015453899601120202e+00 9.296697563707647868e-04 0.000000000000000000e+00 0.000000000000000000e+00 0.000000000000000000e+00 0.000000000000000000e+00 0.000000000000000000e+00
3.507769154097084008e-01 -7.419665574176200762e-01 1.304887808617479328e+00 -1.015453899601120202e+00 9.296697563707647868e-04 0.000000000000000000e+00 0.000000000000000000e+00 0.000000000000000000e+00 0.000000000000000000e+00 0.000000000000000000e+00
3.507769154097084008e-01 -7.419665574176200762e-01 1.304887808617479328e+00 -1.015453899601120202e+00 9.296697563707647868e-04 0.000000000000000000e+00 0.000000000000000000e+00 0.000000000000000000e+00 0.000000000000000000e+00 0.000000000000000000e+00
3.507769154097084008e-01 -7.419665574176200762e-01 1.304887808617479328e+00 -1.015453899601120202e+00 9.296697563707647868e-04 0.000000000000000000e+00 0.000000000000000000e+00 0.000000000000000000e+00 0.000000000000000000e+00 0.000000000000000000e+00
3.507769154097084008e-01 -7.419665574176200762e-01 1.304887808617479328e+00 -1.015453899601120202e+00 9.296697563707647868e-04 0.000000000000000000e+00 0.000000000000000000e+00 0.000000000000000000e+00 0.000000000000000000e+00 0.000000000000000000e+00
