-4.568522892139734726e-01 -2.874236439311136371e-01 3.436190585465784264e-01 -1.034542150012826012e+00 9.428538447333466473e-04 -6.559674087866811387e-01 -7.932903859855962303e-03 -1.125745544333526915e+00 -6.419002453437863132e-01 2.173596852647830240e-03
-4.936653285491309773e-01 -2.894194226345735421e-01 2.839553167537172129e-01 -1.066843901058646793e+00 1.002539217390923613e-03 -7.362607867031497610e-01 -3.991557406919779560e-02 -1.193274835857223826e+00 -6.460350209164174018e-01 1.193707453151539961e-03
-5.342677184762804066e-01 -2.932901029978678964e-01 2.219893448347300124e-01 -1.097745560972596346e+00 1.018834801504719945e-03 -8.120477985429890300e-01 -7.741360726588711327e-02 -1.239319438379744120e+00 -6.180331982789903922e-01 3.259116822759251190e-04
-5.784941870279222131e-01 -2.992219714691921051e-01 1.586284315605229200e-01 -1.125738235505100882e+00 1.016236181350117004e-03 -8.845293710328361314e-01 -1.186373694264837853e-01 -1.267218265484141959e+00 -5.598534906500894914e-01 -5.197240309205968661e-05
-6.262232821789848192e-01 -3.073121274051970886e-01 9.467831925394704085e-02 -1.149470884919501890e+00 9.972586833382345202e-04 -9.545819030212514544e-01 -1.618031187200993648e-01 -1.279002246131517584e+00 -4.746529882880204942e-01 -3.795499602376488021e-04
-6.773633759404480426e-01 -3.175758363260538508e-01 3.089646651812215372e-02 -1.167789750476793564e+00 9.482584343919661912e-04 -1.022801875229265356e+00 -2.052741784171353001e-01 -1.275637054716497909e+00 -3.663773111458334397e-01 -9.800049789253674482e-04
-7.318433086296601831e-01 -3.299558054890897041e-01 -3.197793551197722350e-02 -1.179765593533107060e+00 8.767471462110070467e-04 -1.089598653784242588e+00 -2.475993832607168432e-01 -1.257488040601987489e+00 -2.395168611262718794e-01 -1.430225763619182673e-03
-7.896073537067349601e-01 -3.443303159820037540e-01 -9.321715770193148010e-02 -1.184714440565751259e+00 7.961276316334917015e-04 -1.155280901541495098e+00 -2.874902098582806653e-01 -1.224784443799084910e+00 -9.897694065288484278e-02 -1.612390291550306470e-03
-8.506123563630492157e-01 -3.605188559328197928e-01 -1.521168796979844862e-01 -1.182212383008904633e+00 7.198402473065322604e-04 -1.220100053126284001e+00 -3.237707990163206651e-01 -1.177994439921060010e+00 5.004115113693086148e-02 -1.525747686539189688e-03
-9.148246276507223662e-01 -3.782873213544957758e-01 -2.080191322578400226e-01 -1.172095923281346819e+00 6.584022009837342017e-04 -1.284245425753464342e+00 -3.553693084335195485e-01 -1.118045051197110507e+00 2.023291945511547230e-01 -1.228760926455960958e-03
-9.822155164930518323e-01 -3.973557674628704905e-01 -2.603341140195323256e-01 -1.154442568017359338e+00 6.177794850262514166e-04 -1.347817776846589766e+00 -3.813689221674937957e-01 -1.046299635233846281e+00 3.530671052797478837e-01 -8.124543191496561359e-04
-1.052756033075900488e+00 -4.174055369877218147e-01 -3.085589034698370536e-01 -1.129547797637470596e+00 5.986974925275142471e-04 -1.410810331656972005e+00 -4.009953904970268712e-01 -9.644957890060950056e-01 4.978954075977748972e-01 -3.816398499747438236e-04
-1.126410107480959155e+00 -4.380895489450800651e-01 -3.522829352993234742e-01 -1.097891373424964234e+00 5.970023246745599296e-04 -1.473081488101175118e+00 -4.136802391471652296e-01 -8.744806365897287437e-01 6.331284842501261334e-01 -3.390335705908699947e-05
-1.203127202790529982e+00 -4.590464383725555986e-01 -3.911795634606973771e-01 -1.060093967259316816e+00 6.054868618252590758e-04 -1.534341906191415861e+00 -4.191377885495102817e-01 -7.779325632274776137e-01 7.559481233129503597e-01 1.696907430139836829e-04
-1.282835021796323582e+00 -4.799147123567261697e-01 -4.249859373743298807e-01 -1.016882526098862982e+00 6.147989885051021591e-04 -1.594156380115872018e+00 -4.173654796834112002e-01 -6.761274782726506283e-01 8.642288232090751254e-01 1.862425335968613950e-04
-1.365432092235627115e+00 -5.003476527697293674e-01 -4.534813715625939934e-01 -9.690554810028815247e-01 6.157023215539034937e-04 -1.651941408786070209e+00 -4.086588082600635663e-01 -5.699086837652818094e-01 9.565409019196299267e-01 1.806666097602717966e-05
-1.450780484801331482e+00 -5.200300065746573663e-01 -4.764605918157980846e-01 -9.174445843873357820e-01 5.999909404272848806e-04 -1.706967851314086460e+00 -3.936470760985588679e-01 -4.595844050640815470e-01 1.032217932310915298e+00 -3.142276225323711782e-04
-1.538698652731584238e+00 -5.386922581351889505e-01 -4.937210349374562268e-01 -8.628782666010150759e-01 5.640488257213007329e-04 -1.758363358605053328e+00 -3.732450312106317947e-01 -3.452088624331631772e-01 1.091326355726413455e+00 -7.188422941196823037e-04
-1.628954625937498513e+00 -5.561220714563066547e-01 -5.050585154319126024e-01 -8.061476451406269783e-01 5.153589157472214825e-04 -1.805119464118285721e+00 -3.485962664223543617e-01 -2.267496098891273459e-01 1.134612429207761952e+00 -9.737981994815848993e-04
-1.721259167165542170e+00 -5.721646016821819725e-01 -5.102289024090498337e-01 -7.480275820125213970e-01 4.606090920338035458e-04 -1.846090824560874477e+00 -3.208506045175073540e-01 -1.034077395427436957e-01 1.162401262562112292e+00 -1.094996474268358951e-03
-1.815260074560256509e+00 -5.867247280702431178e-01 -5.089533931858579718e-01 -6.892584417751340675e-01 4.073636008705535587e-04 -1.880018147894284342e+00 -2.912025277612234619e-01 2.551018446383747362e-02 1.175382804747746146e+00 -1.064909823265000176e-03
-1.910539069097446863e+00 -5.997667146146501427e-01 -5.009310267441476894e-01 -6.305206510055382241e-01 3.617320544217459983e-04 -1.905579890743807514e+00 -2.608397308881406640e-01 1.604473288342060378e-01 1.174755815391917091e+00 -9.126309289761515330e-04
-2.006612518273759971e+00 -6.113077404773552548e-01 -4.858305546842800471e-01 -5.724297219694243211e-01 3.000509958045737306e-04 -1.921468983526264385e+00 -2.308205172541011319e-01 3.020094411973528459e-01 1.161818580722277838e+00 -1.233621172343445354e-03
-2.102935337215864564e+00 -6.214090875715014839e-01 -4.632735630222843404e-01 -5.155343469289559444e-01 7.018196773181305747e-05 -1.926456378842095418e+00 -2.020269418829246655e-01 4.511398332399135791e-01 1.137907500809368422e+00 -4.597380561455212920e-03
-2.198907901866213876e+00 -6.301669751939799058e-01 -4.327935840324453887e-01 -4.603240278212027414e-01 -1.003190875034155102e-03 0.000000000000000000e+00 0.000000000000000000e+00 0.000000000000000000e+00 0.000000000000000000e+00 0.000000000000000000e+00
-2.198907901866213876e+00 -6.301669751939799058e-01 -4.327935840324453887e-01 -4.603240278212027414e-01 -1.003190875034155102e-03 0.000000000000000000e+00 0.000000000000000000e+00 0.000000000000000000e+00 0.000000000000000000e+00 0.000000000000000000e+00
-2.198907901866213876e+00 -6.301669751939799058e-01 -4.327935840324453887e-01 -4.603240278212027414e-01 -1.003190875034155102e-03 0.000000000000000000e+00 0.000000000000000000e+00 0.000000000000000000e+00 0.000000000000000000e+00 0.000000000000000000e+00
-2.198907901866213876e+00 -6.301669751939799058e-01 -4.327935840324453887e-01 -4.603240278212027414e-01 -1.003190875034155102e-03 0.000000000000000000e+00 0.000000000000000000e+00 0.000000000000000000e+00 0.000000000000000000e+00 0.000000000000000000e+00
-2.198907901866213876e+00 -6.301669751939799058e-01 -4.327935840324453887e-01 -4.603240278212027414e-01 -1.003190875034155102e-03 0.000000000000000000e+00 0.000000000000000000e+00 0.000000000000000000e+00 0.000000000000000000e+00 0.000000000000000000e+00
-2.198907901866213876e+00 -6.301669751939799058e-01 -4.327935840324453887e-01 -4.603240278212027414e-01 -1.003190875034155102e-03 0.000000000000000000e+00 0.000000000000000000e+00 0.000000000000000000e+00 0.000000000000000000e+00 0.000000000000000000e+00
-2.198907901866213876e+00 -6.301669751939799058e-01 -4.327935840324453887e-01 -4.603240278212027414e-01 -1.003190875034155102e-03 0.000000000000000000e+00 0.000000000000000000e+00 0.000000000000000000e+00 0.000000000000000000e+00 0.000000000000000000e+00
