-4.989426047327080171e-01 -3.936189393876946552e-01 8.080036672147615784e-01 -6.340422545577979463e-01 8.570527393716122948e-04 9.440969534653596840e-02 -2.617329388018053635e-02 -3.947216577305897589e-01 1.658331032891092183e-01 1.738587863036003328e-03
-4.933846662094678592e-01 -3.960100332464537853e-01 7.866424388161799008e-01 -6.247742236562525697e-01 9.108819557440834798e-04 1.111587704648032693e-01 -4.782187717518282533e-02 -4.272245679716339950e-01 1.853606180309065321e-01 1.076584327449424134e-03
-4.870671142658712371e-01 -3.996590564391059308e-01 7.641554195909325831e-01 -6.148319549684730934e-01 9.404622928191649477e-04 1.263510388719323030e-01 -7.298046385304329808e-02 -4.497403845049461335e-01 1.988453737555899992e-01 5.916067415016300086e-04
-4.800784230022396293e-01 -4.047118006228059284e-01 7.410000284733793130e-01 -6.045465038575463801e-01 9.537717932906088344e-04 1.397738252726326846e-01 -1.010548836739995904e-01 -4.631078223510647907e-01 2.057090222185349870e-01 2.661900094288783842e-04
-4.725143862114212223e-01 -4.112889077170351348e-01 7.176210520246143476e-01 -5.942785810577662087e-01 9.577242946824686062e-04 1.512807358163683891e-01 -1.315421418845839074e-01 -4.675795289752997519e-01 2.053584559956041222e-01 7.905002783719465033e-05
-4.644748757883143120e-01 -4.194899553511198254e-01 6.944752896653271224e-01 -5.844174995884289237e-01 9.580057473206087708e-04 1.607902084621386785e-01 -1.640209526816937546e-01 -4.629152471857444495e-01 1.972216293867465331e-01 5.629052762802885150e-06
-4.560606571681696808e-01 -4.293971640358659192e-01 6.720504504450776073e-01 -5.753772935780299136e-01 9.590668374325139137e-04 1.682843724028928456e-01 -1.981441736949212939e-01 -4.484967844049900232e-01 1.808041202079798404e-01 2.122180223810245171e-05
-4.473706187042357785e-01 -4.410787307042562388e-01 6.508783235146494706e-01 -5.675917081868415703e-01 9.636664930124264148e-04 1.738007692786778802e-01 -2.336313333678060877e-01 -4.234425386085625687e-01 1.557117078237678365e-01 9.199311159825022466e-05
-4.384988028653424297e-01 -4.545918681292444030e-01 6.315397107821301148e-01 -5.615047132393792273e-01 9.730309663054961767e-04 1.774363167778669481e-01 -2.702627484997631169e-01 -3.867722546503872261e-01 1.217398989492463612e-01 1.872894658613953470e-04
-4.295316230179369588e-01 -4.699858331128763944e-01 6.146637360227651392e-01 -5.575601327394255069e-01 9.858438818350849075e-04 1.793435969481096404e-01 -3.078792996726402720e-01 -3.375194951872989013e-01 7.889160999907438021e-02 2.562583105917755908e-04
-4.205442762570114068e-01 -4.873046842546208124e-01 6.009157025064633117e-01 -5.561846128169632975e-01 9.983887483219979105e-04 1.797469352185109004e-01 -3.463770228348881375e-01 -2.749606703260358276e-01 2.751039844924494521e-02 2.508973297382617942e-04
-4.115966256609617790e-01 -5.065894312195757809e-01 5.909724208457556305e-01 -5.577662725247000131e-01 1.006429233588741106e-03 1.789530119209925552e-01 -3.856949392990990377e-01 -1.988656332141535144e-01 -3.163319415473463819e-02 1.608097053348656394e-04
-4.027281117625002294e-01 -5.278796109717204255e-01 5.854877489421389525e-01 -5.626302761849168999e-01 1.012442806067515152e-03 1.773702779692313825e-01 -4.258035950428936678e-01 -1.096934380723330188e-01 -9.728007320433876282e-02 1.202714495754793572e-04
-3.939514038671182994e-01 -5.512138144314314703e-01 5.850505001290600138e-01 -5.710129548248824571e-01 1.017872059638129465e-03 1.755341579076387104e-01 -4.666840691942206742e-01 -8.744976261577802612e-03 -1.676535727993107017e-01 1.085850714122865978e-04
-3.852453859183714302e-01 -5.766274333173228017e-01 5.901343871553574871e-01 -5.830385456228390773e-01 1.022301604807477303e-03 1.741203589749371894e-01 -5.082723777178260738e-01 1.016777405259505357e-01 -2.405118159591324023e-01 8.859090338695727192e-05
-3.765484882004871969e-01 -6.041470382413647311e-01 6.010466887054058960e-01 -5.987038985393288160e-01 1.024767348283172914e-03 1.739379543576841936e-01 -5.503920984808376993e-01 2.182460310009681215e-01 -3.133070583297957734e-01 4.931486951391134149e-05
-3.677540934232875758e-01 -6.337818950227589454e-01 6.178879372875528686e-01 -6.178777086204628732e-01 1.024551817781355284e-03 1.758878955439927005e-01 -5.926971356278851744e-01 3.368249716429395635e-01 -3.834762016226821446e-01 -4.310610036354328549e-06
-3.587095102957522652e-01 -6.655142755188985237e-01 6.405356530083210487e-01 -6.403171050100189277e-01 1.020464159969998192e-03 1.808916625507057951e-01 -6.346476099227905676e-01 4.529543144153627687e-01 -4.487879277911216436e-01 -8.175315622714184743e-05
-3.492197040088000914e-01 -6.992900854041628200e-01 6.686562353792921964e-01 -6.656993174009846470e-01 1.007770631095581239e-03 1.897961257390437251e-01 -6.755161977052854816e-01 5.624116474194233994e-01 -5.076442478193153862e-01 -2.538705774883401409e-04
-3.390560700740398170e-01 -7.350115894461768384e-01 7.017410682974148939e-01 -6.936614917536605418e-01 9.737137405084929235e-04 2.032726786952049614e-01 -7.144300808402799241e-01 6.616966583624532827e-01 -5.592434870535167857e-01 -6.811378117417671817e-04
-3.279697867238937081e-01 -7.725334956186808988e-01 7.391554739783146033e-01 -7.238400677446035214e-01 9.136130238482374809e-04 2.217256670029217891e-01 -7.504381234500810960e-01 7.482881136179935222e-01 -6.035715198188589259e-01 -1.202014333205107983e-03
-3.157089488769521668e-01 -8.116629514346442864e-01 7.801878913481381517e-01 -7.559036495461018967e-01 8.333654362702293348e-04 2.452167569388304380e-01 -7.825891163192673083e-01 8.206483473964714115e-01 -6.412716360299673957e-01 -1.604951751560163139e-03
-3.020381149121000308e-01 -8.521635833684473305e-01 8.240896397224632963e-01 -7.895748823605415190e-01 7.332326761015807567e-04 2.734166792970423310e-01 -8.100126386760598818e-01 8.780349674865021159e-01 -6.734246562887913345e-01 -2.002655203372970694e-03
-2.867589309878763593e-01 -8.937633768089150443e-01 8.701026993227219952e-01 -8.246421646866264332e-01 5.817938187804847557e-04 3.055836784844729870e-01 -8.319958688093533894e-01 9.202611920051735339e-01 -7.013456465216993951e-01 -3.028777146421920453e-03
-2.697295784040661948e-01 -9.361659318281987385e-01 9.174767753200427922e-01 -8.609606899210956454e-01 2.220646868251365392e-04 3.405870516762031230e-01 -8.480511003856748831e-01 9.474815199464161619e-01 -7.263705046893834671e-01 -7.194582639106963246e-03
-2.508804081649437800e-01 -9.790641973268147114e-01 9.654791581132762257e-01 -8.984415586679603827e-01 -1.002590760745950211e-03 0.000000000000000000e+00 0.000000000000000000e+00 0.000000000000000000e+00 0.000000000000000000e+00 0.000000000000000000e+00
-2.508804081649437800e-01 -9.790641973268147114e-01 9.654791581132762257e-01 -8.984415586679603827e-01 -1.002590760745950211e-03 0.000000000000000000e+00 0.000000000000000000e+00 0.000000000000000000e+00 0.000000000000000000e+00 0.000000000000000000e+00
-2.508804081649437800e-01 -9.790641973268147114e-01 9.654791581132762257e-01 -8.984415586679603827e-01 -1.002590760745950211e-03 0.000000000000000000e+00 0.000000000000000000e+00 0.000000000000000000e+00 0.000000000000000000e+00 0.000000000000000000e+00
-2.508804081649437800e-01 -9.790641973268147114e-01 9.654791581132762257e-01 -8.984415586679603827e-01 -1.002590760745950211e-03 0.000000000000000000e+00 0.000000000000000000e+00 0.000000000000000000e+00 0.000000000000000000e+00 0.000000000000000000e+00
-2.508804081649437800e-01 -9.790641973268147114e-01 9.654791581132762257e-01 -8.984415586679603827e-01 -1.002590760745950211e-03 0.000000000000000000e+00 0.000000000000000000e+00 0.000000000000000000e+00 0.000000000000000000e+00 0.000000000000000000e+00
-2.508804081649437800e-01 -9.790641973268147114e-01 9.654791581132762257e-01 -8.984415586679603827e-01 -1.002590760745950211e-03 0.000000000000000000e+00 0.000000000000000000e+00 0.000000000000000000e+00 0.000000000000000000e+00 0.000000000000000000e+00
