-8.199404785632854464e-01 -1.643015755332950800e-01 6.048236486894815744e-01 -1.609552071844019938e+00 8.355335848419249544e-04 -5.150115512619914959e-01 8.240457947938573113e-02 -1.050796855891062087e+00 -1.210810808788347792e+00 2.642226023480645936e-03
-8.491572000640402740e-01 -1.610487715161190436e-01 5.430527183911820766e-01 -1.673445344586799388e+00 8.291689091206727591e-04 -5.843344300150955517e-01 6.505608034352097779e-02 -1.235418605965989514e+00 -1.277865454855587446e+00 -1.272935144250443400e-04
-8.808780402122663444e-01 -1.592240598179375521e-01 4.731290624449556170e-01 -1.736321939426342276e+00 6.780599831986582927e-04 -6.344168029645220752e-01 3.649423396362985045e-02 -1.398473118924528968e+00 -1.257531896790858861e+00 -3.022178518440288893e-03
-9.142841378259357610e-01 -1.593000771162635387e-01 3.962279010230827514e-01 -1.794260109870204900e+00 4.033101133180819545e-04 -6.681219522733883309e-01 -1.520345966519849601e-03 -1.538023228437457757e+00 -1.158763408877254264e+00 -5.494997397611525898e-03
-9.487135295962317860e-01 -1.616814800294625598e-01 3.138101923608631605e-01 -1.843946750806477963e+00 4.753410231598181402e-05 -6.885878354059202788e-01 -4.762805826398015113e-02 -1.648354173244392262e+00 -9.937328187254629297e-01 -7.115520220042003026e-03
-9.836805872115139682e-01 -1.667192101080275102e-01 2.277072148803995222e-01 -1.882816285656021327e+00 -3.380482873414175594e-04 -6.993411523056426438e-01 -1.007546015712991044e-01 -1.722059549609272766e+00 -7.773906969908661591e-01 -7.711647793147986818e-03
-1.018881488005596747e+00 -1.747247532655686053e-01 1.401508437031225851e-01 -1.909138183800034527e+00 -6.794843051171317030e-04 -7.040180158816556899e-01 -1.601108631508218472e-01 -1.751127423545538742e+00 -5.264379628802654532e-01 -6.828720355514282872e-03
-1.054213632940566248e+00 -1.859117241341927407e-01 5.347051495870164262e-02 -1.922122518078968945e+00 -9.193744432177610327e-04 -7.066428986993902317e-01 -2.237394173724827351e-01 -1.733606574888418850e+00 -2.596866855786880701e-01 -4.797802762012586160e-03
-1.089744792652691752e+00 -2.003539417258338451e-01 -3.018930777002847010e-02 -1.921886130353308353e+00 -1.031149387717812584e-03 -7.106231942425097481e-01 -2.888443518328220327e-01 -1.673196454574602310e+00 4.727754513211612775e-03 -2.235498890001028863e-03
-1.125654715965562991e+00 -2.179567214335734471e-01 -1.091340887601819770e-01 -1.909318288719765278e+00 -1.057307509421784005e-03 -7.181984662574237843e-01 -3.520555941547918177e-01 -1.578895619803069916e+00 2.513568326708616185e-01 -5.231624340794303624e-04
-1.162165039160232283e+00 -2.384616750364629556e-01 -1.822559907191070860e-01 -1.885869409548442510e+00 -1.052567144478439975e-03 -7.302064638933841723e-01 -4.100990720577900595e-01 -1.462438039178501681e+00 4.689775834264557908e-01 9.480729886688179283e-05
-1.199482902829259068e+00 -2.614803229995630307e-01 -2.490466175409958294e-01 -1.853308597404497604e+00 -1.036289388461121693e-03 -7.463572733805351467e-01 -4.603729592620016131e-01 -1.335812536437775089e+00 6.512162428788980106e-01 3.255551203463635671e-04
-1.237768131449651365e+00 -2.865459839103234319e-01 -3.095010707501601455e-01 -1.813491757174037433e+00 -1.001662375056772266e-03 -7.657045724078471727e-01 -5.013132182152083560e-01 -1.209089064183286322e+00 7.963368046092026420e-01 6.925402680869890840e-04
-1.277124826313904782e+00 -3.131645439440652878e-01 -3.639732578135038699e-01 -1.768185022393885530e+00 -9.199154661873467460e-04 -7.871338972850696614e-01 -5.323712006748375636e-01 -1.089443741266874710e+00 9.061346956030392752e-01 1.634938177388510190e-03
-1.317608106274654522e+00 -3.408529768343878663e-01 -4.130326037381223947e-01 -1.718957011594828055e+00 -8.008237806181250310e-04 -8.096655992149933700e-01 -5.537686578064511256e-01 -9.811869184923707188e-01 9.845602159811513987e-01 2.381833711384435167e-03
-1.359237269112894220e+00 -3.691656237509586269e-01 -4.573472061389768362e-01 -1.667123594243190121e+00 -6.620254350030994103e-04 -8.325832567647939442e-01 -5.662529383314152120e-01 -8.862920480170884963e-01 1.036668347032758453e+00 2.775966912300512415e-03
-1.402009864465832090e+00 -3.977089265549076380e-01 -4.976044135234296006e-01 -1.613733469436379853e+00 -5.191109075626006283e-04 -8.554519070587557339e-01 -5.708660560789803329e-01 -8.051441476890548454e-01 1.067802496136207369e+00 2.858290548809975205e-03
-1.445913765474217572e+00 -4.261466019437006314e-01 -5.344662915322435648e-01 -1.559581544847397749e+00 -3.839496456770188156e-04 -8.780780201677098606e-01 -5.687535077758600899e-01 -7.372375601762800601e-01 1.083038491779643842e+00 2.703225237711636472e-03
-1.490936289649092084e+00 -4.541986979089545073e-01 -5.685504586588955300e-01 -1.505236435253703320e+00 -2.650102495852702422e-04 -9.004504834974885741e-01 -5.610419193050777409e-01 -6.816833425330401930e-01 1.086902191873888812e+00 2.378787921834971033e-03
-1.537070642453336022e+00 -4.816378942930594764e-01 -6.004250503717878384e-01 -1.451071326140945361e+00 -1.676748163550692181e-04 -9.226870560848802194e-01 -5.487839276820993817e-01 -6.374918342578466124e-01 1.083302182255159174e+00 1.946708664604020374e-03
-1.584319677934509452e+00 -5.082828035634250341e-01 -6.306119334210222860e-01 -1.397299881682898981e+00 -9.483576683460827285e-05 -9.449807096234679182e-01 -5.328981854073101543e-01 -6.037376609846896169e-01 1.075428889160926271e+00 1.456780990409218580e-03
-1.632697622790579839e+00 -5.339897658476687736e-01 -6.595951195640912257e-01 -1.344011347875471163e+00 -4.783863054535804490e-05 -9.675588971214068579e-01 -5.141392456848753456e-01 -5.796637228613776838e-01 1.065770676148557694e+00 9.399427257850045047e-04
-1.682230648584812194e+00 -5.586463374730077369e-01 -6.878281247252285846e-01 -1.291195263930171144e+00 -2.707605635831559360e-05 -9.906605158846459869e-01 -4.931314325067795989e-01 -5.646601032227469563e-01 1.056321678906002148e+00 4.152514837408490802e-04
-1.732956210789622364e+00 -5.821648676018537083e-01 -7.157427942305127910e-01 -1.238760850051127793e+00 -3.282756423579503161e-05 -1.014511244096203857e+00 -4.703706025769199828e-01 -5.582933901056831294e-01 1.048688277580866135e+00 -1.150301575495887331e-04
-1.784922122164153580e+00 -6.044790152993180232e-01 -7.437558000725947860e-01 -1.186542318082550951e+00 -6.597671496676814199e-05 -1.039318227490623192e+00 -4.462829539492855768e-01 -5.602601168416393440e-01 1.044370639371535736e+00 -6.629830146194621264e-04
-1.838185175489510437e+00 -6.255407705822749742e-01 -7.722755694783670632e-01 -1.134300479051342014e+00 -1.304765147906568551e-04 -1.065261066507138255e+00 -4.212351056591399079e-01 -5.703953881154454342e-01 1.044836780624177397e+00 -1.289995996477773937e-03
-1.892808951512465754e+00 -6.453169010294904639e-01 -8.017095132394138624e-01 -1.081726524949220281e+00 -2.431431142795871764e-04 0.000000000000000000e+00 0.000000000000000000e+00 0.000000000000000000e+00 0.000000000000000000e+00 0.000000000000000000e+00
-1.892808951512465754e+00 -6.453169010294904639e-01 -8.017095132394138624e-01 -1.081726524949220281e+00 -2.431431142795871764e-04 0.000000000000000000e+00 0.000000000000000000e+00 0.000000000000000000e+00 0.000000000000000000e+00 0.000000000000000000e+00
-1.892808951512465754e+00 -6.453169010294904639e-01 -8.017095132394138624e-01 -1.081726524949220281e+00 -2.431431142795871764e-04 0.000000000000000000e+00 0.000000000000000000e+00 0.000000000000000000e+00 0.000000000000000000e+00 0.000000000000000000e+00
-1.892808951512465754e+00 -6.453169010294904639e-01 -8.017095132394138624e-01 -1.081726524949220281e+00 -2.431431142795871764e-04 0.000000000000000000e+00 0.000000000000000000e+00 0.000000000000000000e+00 0.000000000000000000e+00 0.000000000000000000e+00
-1.892808951512465754e+00 -6.453169010294904639e-01 -8.017095132394138624e-01 -1.081726524949220281e+00 -2.431431142795871764e-04 0.000000000000000000e+00 0.000000000000000000e+00 0.000000000000000000e+00 0.000000000000000000e+00 0.000000000000000000e+00
