-2.312537908929443997e-01 -2.112235867205174700e-01 6.745390633405323744e-01 -1.383898389598818390e+00 -7.579428483823747158e-04 -5.794559882974641141e-02 -3.555314093978454992e-01 -2.725816671655932888e-01 -3.510922827385511424e-01 -2.648132666364209128e-03
-2.334445997134530215e-01 -2.313943090463297936e-01 6.605817962911648689e-01 -1.397943228401790083e+00 -8.794159931778964059e-04 -4.381617641017216541e-02 -4.034144465162464721e-01 -2.791453409873494440e-01 -2.808967760594346941e-01 -2.429462895910432935e-03
-2.347519959966491709e-01 -2.538428639754030103e-01 6.467431658644102743e-01 -1.407525022330167186e+00 -9.740150354828605236e-04 -2.614792566392310294e-02 -4.489710985814641120e-01 -2.767726085350908916e-01 -1.916358785675411069e-01 -1.891980846099283221e-03
-2.350410336252908294e-01 -2.784235698401642534e-01 6.334683612924932872e-01 -1.411961096555631956e+00 -1.007109415325758116e-03 -5.780752572832944386e-03 -4.916141172952244731e-01 -2.654960914383400761e-01 -8.872148450929442931e-02 -6.618875968579518432e-04
-2.342180242912111632e-01 -3.049623797349121368e-01 6.211767397378055167e-01 -1.410847137030593723e+00 -1.015150603830213948e-03 1.646018668159314816e-02 -5.307761978949578907e-01 -2.458324310937554102e-01 2.227919050076265783e-02 -1.608237700891181673e-04
-2.322271399741975273e-01 -3.332598185064303831e-01 6.102383680001964850e-01 -1.404045075428584477e+00 -1.016326465371534616e-03 3.981768634027282872e-02 -5.659487754303649254e-01 -2.187674347521798845e-01 1.360412320401827579e-01 -2.351723082641239888e-05
-2.290445379769885659e-01 -3.630966360332169574e-01 6.009576708092289055e-01 -1.391652045645279223e+00 -1.015866090423457819e-03 6.365203994417935329e-02 -5.967363505357317077e-01 -1.856139438193512015e-01 2.478605956661071308e-01 9.207498961535766423e-06
-2.246711844092470767e-01 -3.942414304627643862e-01 5.935654115881554560e-01 -1.373956308171975005e+00 -1.014237285424944611e-03 8.746707135482985340e-02 -6.228958885909480214e-01 -1.478451844214680455e-01 3.539147494660853654e-01 3.257609997026421860e-05
-2.191255237184436822e-01 -4.264593453869812145e-01 5.882190168878183023e-01 -1.351387337174949854e+00 -1.008132027763229124e-03 1.109132138160680014e-01 -6.443582984843363448e-01 -1.069278940067441425e-01 4.513794199405029572e-01 1.221051532343083910e-04
-2.124362804796453008e-01 -4.595213891622957347e-01 5.850090660786294583e-01 -1.324462030269580648e+00 -9.847755048323708019e-04 1.337848647759678766e-01 -6.612408755062904042e-01 -6.419901618377672758e-02 5.385061381073862341e-01 4.671304586171662787e-04
-2.046361932362561475e-01 -4.932129906064027236e-01 5.839705838055594400e-01 -1.293734781410587953e+00 -9.170466029476758655e-04 1.560017448677828988e-01 -6.738320288821401105e-01 -2.076964546140008111e-02 6.145449771798540128e-01 1.354578037693898946e-03
-1.957567147578515576e-01 -5.273412256645791940e-01 5.850980041799472842e-01 -1.259755302604232963e+00 -8.230177522440193516e-04 1.775895695680915487e-01 -6.825647011635285200e-01 2.254840748775761156e-02 6.795895761271010249e-01 1.880577014073131145e-03
-1.858241151820825277e-01 -5.617395735437478166e-01 5.883618472956148038e-01 -1.223039954112413730e+00 -7.099023238505824127e-04 1.986519915153807658e-01 -6.879669575833723405e-01 6.527686231335061429e-02 7.343069698363862141e-01 2.262308567868739212e-03
-1.748585476774324188e-01 -5.962687175283323260e-01 5.937211479937243297e-01 -1.184061377404707294e+00 -5.818122701780790388e-04 2.193113500930024551e-01 -6.905828796916896328e-01 1.071860139621896302e-01 7.795715341541309407e-01 2.561801073450067044e-03
-1.628727714806547655e-01 -6.308167794720387356e-01 6.011340692984425971e-01 -1.143239124205873036e+00 -4.415095102806483335e-04 2.397155239355528988e-01 -6.909612388741288580e-01 1.482584260943644039e-01 8.164450639766872575e-01 2.806055197948614105e-03
-1.498711448626449672e-01 -6.652986306339909728e-01 6.105658605775612369e-01 -1.100934153534401050e+00 -2.906115670875315284e-04 2.600325323601959115e-01 -6.896370232390446331e-01 1.886358255823722130e-01 8.460994134294389513e-01 3.017958863862336104e-03
-1.358489222839288080e-01 -6.996544654158155518e-01 6.219962824944496038e-01 -1.057449611258527877e+00 -1.298744712385267806e-04 2.804444515743233501e-01 -6.871166956364911371e-01 2.286084383377668394e-01 8.696908455174613417e-01 3.214741916980094847e-03
-1.207916290353360234e-01 -7.338477204264496345e-01 6.354266818976488373e-01 -1.013036328388694951e+00 4.042091552874124780e-05 3.011458649718556368e-01 -6.838651002126816536e-01 2.686079880639846706e-01 8.882656573966600799e-01 3.405907735345360676e-03
-1.046736393399042286e-01 -7.678628938273893700e-01 6.508872464847106354e-01 -9.678983789668154092e-01 2.203317179988087252e-04 3.223597939086360054e-01 -6.803034680187943772e-01 3.092112917412348505e-01 9.027589884375895046e-01 3.598216049401348898e-03
-8.745544133127841624e-02 -8.017035068701061640e-01 6.684462115625354750e-01 -9.221983723915802011e-01 4.098871759297026103e-04 3.443639601725161925e-01 -6.768122608543357677e-01 3.511793015564957932e-01 9.140001315047046049e-01 3.791109158617877051e-03
-6.907938753303236035e-02 -8.353902672203666890e-01 6.882215710576263801e-01 -8.760626156090072225e-01 6.075817643184155742e-04 3.675210759649210068e-01 -6.737352070052111674e-01 3.955071899018171577e-01 9.227151356514604608e-01 3.953891767774259276e-03
-4.946289746938704879e-02 -8.689598536015358254e-01 7.103980482031931887e-01 -8.295853806601027891e-01 8.037314438981378855e-04 3.923298012729062867e-01 -6.713917276233827280e-01 4.435295429113363941e-01 9.295446989780894453e-01 3.922993591594446661e-03
-2.848855842919014239e-02 -9.024641292453404740e-01 7.352508667462852587e-01 -7.828334034276261955e-01 9.533196208045274659e-04 4.194867808039380863e-01 -6.700855128760924151e-01 4.970563708618424004e-01 9.350395446495317620e-01 2.991763538127791174e-03
-5.988309848779630601e-03 -9.359705417082474499e-01 7.631824684923971258e-01 -7.358479879193575712e-01 8.658258757584683194e-04 0.000000000000000000e+00 0.000000000000000000e+00 0.000000000000000000e+00 0.000000000000000000e+00 0.000000000000000000e+00
-5.988309848779630601e-03 -9.359705417082474499e-01 7.631824684923971258e-01 -7.358479879193575712e-01 8.658258757584683194e-04 0.000000000000000000e+00 0.000000000000000000e+00 0.000000000000000000e+00 0.000000000000000000e+00 0.000000000000000000e+00
-5.988309848779630601e-03 -9.359705417082474499e-01 7.631824684923971258e-01 -7.358479879193575712e-01 8.658258757584683194e-04 0.000000000000000000e+00 0.000000000000000000e+00 0.000000000000000000e+00 0.000000000000000000e+00 0.000000000000000000e+00
-5.988309848779630601e-03 -9.359705417082474499e-01 7.631824684923971258e-01 -7.358479879193575712e-01 8.658258757584683194e-04 0.000000000000000000e+00 0.000000000000000000e+00 0.000000000000000000e+00 0.000000000000000000e+00 0.000000000000000000e+00
-5.988309848779630601e-03 -9.359705417082474499e-01 7.631824684923971258e-01 -7.358479879193575712e-01 8.658258757584683194e-04 0.000000000000000000e+00 0.000000000000000000e+00 0.000000000000000000e+00 0.000000000000000000e+00 0.000000000000000000e+00
-5.988309848779630601e-03 -9.359705417082474499e-01 7.631824684923971258e-01 -7.358479879193575712e-01 8.658258757584683194e-04 0.000000000000000000e+00 0.000000000000000000e+00 0.000000000000000000e+00 0.000000000000000000e+00 0.000000000000000000e+00
-5.988309848779630601e-03 -9.359705417082474499e-01 7.631824684923971258e-01 -7.358479879193575712e-01 8.658258757584683194e-04 0.000000000000000000e+00 0.000000000000000000e+00 0.000000000000000000e+00 0.000000000000000000e+00 0.000000000000000000e+00
-5.988309848779630601e-03 -9.359705417082474499e-01 7.631824684923971258e-01 -7.358479879193575712e-01 8.658258757584683194e-04 0.000000000000000000e+00 0.000000000000000000e+00 0.000000000000000000e+00 0.000000000000000000e+00 0.000000000000000000e+00
