-7.528667455437979550e-01 -9.684194738231087785e-01 2.614374955824344537e-02 -1.286817990275813672e+00 4.577574755901190869e-04 -1.758249475370952664e-01 -7.570829032241269685e-01 -3.966291356673459223e-01 7.342692836421385039e-01 2.849334964733839497e-03
-7.606491916226516548e-01 -1.006706812924841765e+00 8.621773272956961831e-03 -1.247914570213678909e+00 5.977216355528284153e-04 -1.556489215770745782e-01 -7.657467820346599563e-01 -3.504395257057296154e-01 7.780684012426960505e-01 2.799283199254185700e-03
-7.674898572107735628e-01 -1.045311259308987495e+00 -6.926976924093292826e-03 -1.207207964534336320e+00 7.324098180601179651e-04 -1.368133117624383277e-01 -7.720889276829140391e-01 -3.109750039410050793e-01 8.141321135868516690e-01 2.693763650145791430e-03
-7.734764214347112921e-01 -1.084141598641464199e+00 -2.084132370598679174e-02 -1.165017851096036505e+00 8.575746971810236860e-04 -1.197312844787543629e-01 -7.766067866495335315e-01 -2.782869356378699921e-01 8.438022687659961774e-01 2.503297582418115286e-03
-7.787268010539208918e-01 -1.123128694018327156e+00 -3.347246832892855628e-02 -1.121603200543028978e+00 9.607567291735778564e-04 -1.050075923841930770e-01 -7.797419075372573616e-01 -2.526228924588352909e-01 8.682930110601493334e-01 2.063640639851082974e-03
-7.834009132373417339e-01 -1.162221974354920695e+00 -4.519977442291413239e-02 -1.077169835446133872e+00 9.950822669725551718e-04 -9.348224366841587085e-02 -7.818656067318691116e-01 -2.345461218797114389e-01 8.886673019379027760e-01 6.865107559795467426e-04
-7.877145729726859891e-01 -1.201385582173405409e+00 -5.645269412835738493e-02 -1.031877209280073870e+00 9.982636968405575809e-04 -8.627319470688510350e-02 -7.832721563696932732e-01 -2.250583941088650508e-01 9.058525233211990324e-01 6.362859736004633764e-05
-7.919568536858109242e-01 -1.240594274565854693e+00 -6.774102735729491120e-02 -9.858436143409509134e-01 9.868203569903368291e-04 -8.484561426249959126e-02 -7.841738478489874709e-01 -2.257666645787504978e-01 9.206718987824596967e-01 -2.288667970044169862e-04
-7.965127016595233700e-01 -1.279828656164512468e+00 -7.969772734722799234e-02 -9.391504225224542868e-01 9.814600638203077338e-04 0.000000000000000000e+00 0.000000000000000000e+00 0.000000000000000000e+00 0.000000000000000000e+00 0.000000000000000000e+00
-7.965127016595233700e-01 -1.279828656164512468e+00 -7.969772734722799234e-02 -9.391504225224542868e-01 9.814600638203077338e-04 0.000000000000000000e+00 0.000000000000000000e+00 0.000000000000000000e+00 0.000000000000000000e+00 0.000000000000000000e+00
-7.965127016595233700e-01 -1.279828656164512468e+00 -7.969772734722799234e-02 -9.391504225224542868e-01 9.814600638203077338e-04 0.000000000000000000e+00 0.000000000000000000e+00 0.000000000000000000e+00 0.000000000000000000e+00 0.000000000000000000e+00
-7.965127016595233700e-01 -1.279828656164512468e+00 -7.969772734722799234e-02 -9.391504225224542868e-01 9.814600638203077338e-04 0.000000000000000000e+00 0.000000000000000000e+00 0.000000000000000000e+00 0.000000000000000000e+00 0.000000000000000000e+00
-7.965127016595233700e-01 -1.279828656164512468e+00 -7.969772734722799234e-02 -9.391504225224542868e-01 9.814600638203077338e-04 0.000000000000000000e+00 0.000000000000000000e+00 0.000000000000000000e+00 0.000000000000000000e+00 0.000000000000000000e+00
-7.965127016595233700e-01 -1.279828656164512468e+00 -7.969772734722799234e-02 -9.391504225224542868e-01 9.814600638203077338e-04 0.000000000000000000e+00 0.000000000000000000e+00 0.000000000000000000e+00 0.000000000000000000e+00 0.000000000000000000e+00
-7.965127016595233700e-01 -1.279828656164512468e+00 -7.969772734722799234e-02 -9.391504225224542868e-01 9.814600638203077338e-04 0.000000000000000000e+00 0.000000000000000000e+00 0.000000000000000000e+00 0.000000000000000000e+00 0.000000000000000000e+00
-7.965127016595233700e-01 -1.279828656164512468e+00 -7.969772734722799234e-02 -9.391504225224542868e-01 9.814600638203077338e-04 0.000000000000000000e+00 0.000000000000000000e+00 0.000000000000000000e+00 0.000000000000000000e+00 0.000000000000000000e+00
-7.965127016595233700e-01 -1.279828656164512468e+00 -7.969772734722799234e-02 -9.391504225224542868e-01 9.814600638203077338e-04 0.000000000000000000e+00 0.000000000000000000e+00 0.000000000000000000e+00 0.000000000000000000e+00 0.000000000000000000e+00
-7.965127016595233700e-01 -1.279828656164512468e+00 -7.969772734722799234e-02 -9.391504225224542868e-01 9.814600638203077338e-04 0.000000000000000000e+00 0.000000000000000000e+00 0.000000000000000000e+00 0.000000000000000000e+00 0.000000000000000000e+00
-7.965127016595233700e-01 -1.279828656164512468e+00 -7.969772734722799234e-02 -9.391504225224542868e-01 9.814600638203077338e-04 0.000000000000000000e+00 0.000000000000000000e+00 0.000000000000000000e+00 0.000000000000000000e+00 0.000000000000000000e+00
-7.965127016595233700e-01 -1.279828656164512468e+00 -7.969772734722799234e-02 -9.391504225224542868e-01 9.814600638203077338e-04 0.000000000000000000e+00 0.000000000000000000e+00 0.000000000000000000e+00 0.000000000000000000e+00 0.000000000000000000e+00
-7.965127016595233700e-01 -1.279828656164512468e+00 -7.969772734722799234e-02 -9.391504225224542868e-01 9.814600638203077338e-04 0.000000000000000000e+00 0.000000000000000000e+00 0.000000000000000000e+00 0.000000000000000000e+00 0.000000000000000000e+00
-7.965127016595233700e-01 -1.279828656164512468e+00 -7.969772734722799234e-02 -9.391504225224542868e-01 9.814600638203077338e-04 0.000000000000000000e+00 0.000000000000000000e+00 0.000000000000000000e+00 0.000000000000000000e+00 0.000000000000000000e+00
-7.965127016595233700e-01 -1.279828656164512468e+00 -7.969772734722799234e-02 -9.391504225224542868e-01 9.814600638203077338e-04 0.000000000000000000e+00 0.000000000000000000e+00 0.000000000000000000e+00 0.000000000000000000e+00 0.000000000000000000e+00
-7.965127016595233700e-01 -1.279828656164512468e+00 -7.969772734722799234e-02 -9.391504225224542868e-01 9.814600638203077338e-04 0.000000000000000000e+00 0.000000000000000000e+00 0.000000000000000000e+00 0.000000000000000000e+00 0.000000000000000000e+00
-7.965127016595233700e-01 -1.279828656164512468e+00 -7.969772734722799234e-02 -9.391504225224542868e-01 9.814600638203077338e-04 0.000000000000000000e+00 0.000000000000000000e+00 0.000000000000000000e+00 0.000000000000000000e+00 0.000000000000000000e+00
-7.965127016595233700e-01 -1.279828656164512468e+00 -7.969772734722799234e-02 -9.391504225224542868e-01 9.814600638203077338e-04 0.000000000000000000e+00 0.000000000000000000e+00 0.000000000000000000e+00 0.000000000000000000e+00 0.000000000000000000e+00
-7.965127016595233700e-01 -1.279828656164512468e+00 -7.969772734722799234e-02 -9.391504225224542868e-01 9.814600638203077338e-04 0.000000000000000000e+00 0.000000000000000000e+00 0.000000000000000000e+00 0.000000000000000000e+00 0.000000000000000000e+00
-7.965127016595233700e-01 -1.279828656164512468e+00 -7.969772734722799234e-02 -9.391504225224542868e-01 9.814600638203077338e-04 0.000000000000000000e+00 0.000000000000000000e+00 0.000000000000000000e+00 0.000000000000000000e+00 0.000000000000000000e+00
-7.965127016595233700e-01 -1.279828656164512468e+00 -7.969772734722799234e-02 -9.391504225224542868e-01 9.814600638203077338e-04 0.000000000000000000e+00 0.000000000000000000e+00 0.000000000000000000e+00 0.000000000000000000e+00 0.000000000000000000e+00
-7.965127016595233700e-01 -1.279828656164512468e+00 -7.969772734722799234e-02 -9.391504225224542868e-01 9.814600638203077338e-04 0.000000000000000000e+00 0.000000000000000000e+00 0.000000000000000000e+00 0.000000000000000000e+00 0.000000000000000000e+00
-7.965127016595233700e-01 -1.279828656164512468e+00 -7.969772734722799234e-02 -9.391504225224542868e-01 9.814600638203077338e-04 0.000000000000000000e+00 0.000000000000000000e+00 0.000000000000000000e+00 0.000000000000000000e+00 0.000000000000000000e+00
