4.669900784887288658e-01 3.665317397225570928e-01 3.446672661108006741e-01
4.669900784887288658e-01 3.665317397225570928e-01 3.446672661108006741e-01
4.669900784887288658e-01 3.665317397225570928e-01 3.446672661108006741e-01
4.669900784887288658e-01 3.665317397225570928e-01 3.446672661108006741e-01
4.669900784887288658e-01 3.665317397225570928e-01 3.446672661108006741e-01
4.669900784887288658e-01 3.665317397225570928e-01 3.446672661108006741e-01
4.669900784887288658e-01 3.665317397225570928e-01 3.446672661108006741e-01
4.669900784887288658e-01 3.665317397225570928e-01 3.446672661108006741e-01
4.669900784887288658e-01 3.665317397225570928e-01 3.446672661108006741e-01
4.669900784887288658e-01 3.665317397225570928e-01 3.446672661108006741e-01
4.669900784887288658e-01 3.665317397225570928e-01 3.446672661108006741e-01
4.669900784887288658e-01 3.665317397225570928e-01 3.446672661108006741e-01
4.669900784887288658e-01 3.665317397225570928e-01 3.446672661108006741e-01
4.669900784887288658e-01 3.665317397225570928e-01 3.446672661108006741e-01
4.669900784887288658e-01 3.665317397225570928e-01 3.446672661108006741e-01
4.669900784887288658e-01 3.665317397225570928e-01 3.446672661108006741e-01
4.669900784887288658e-01 3.665317397225570928e-01 3.446672661108006741e-01
4.669900784887288658e-01 3.665317397225570928e-01 3.446672661108006741e-01
4.669900784887288658e-01 3.665317397225570928e-01 3.446672661108006741e-01
4.669900784887288658e-01 3.665317397225570928e-01 3.446672661108006741e-01
4.669900784887288658e-01 3.665317397225570928e-01 3.446672661108006741e-01
4.669900784887288658e-01 3.665317397225570928e-01 3.446672661108006741e-01
4.669900784887288658e-01 3.665317397225570928e-01 3.446672661108006741e-01
4.669900784887288658e-01 3.665317397225570928e-01 3.446672661108006741e-01
4.669900784887288658e-01 3.665317397225570928e-01 3.446672661108006741e-01
4.669900784887288658e-01 3.665317397225570928e-01 3.446672661108006741e-01
4.669900784887288658e-01 3.665317397225570928e-01 3.446672661108006741e-01
4.669900784887288658e-01 3.665317397225570928e-01 3.446672661108006741e-01
4.669900784887288658e-01 3.665317397225570928e-01 3.446672661108006741e-01
4.669900784887288658e-01 3.665317397225570928e-01 3.446672661108006741e-01
