-1.153165914046238694e+00 -1.101496707908344586e-01 -7.727638987665957915e-03 -1.798221597809959160e+00 -1.033515709445988326e-03 -1.224082456788042617e+00 -1.003825397955048659e+00 -1.292322276330770903e+00 -2.311816446093860056e-01 -2.164743740093169264e-03
-1.215718068769070292e+00 -1.631836298264992824e-01 -7.234794933451448029e-02 -1.793598516155860079e+00 -1.060538034808908986e-03 -1.251043094456633531e+00 -1.060679180713296255e+00 -1.292406206936970392e+00 9.246163308198002140e-02 -5.404465072584123397e-04
-1.279972519185366142e+00 -2.186049372433929161e-01 -1.355221063768151102e-01 -1.773592912706553726e+00 -1.055926787843310339e-03 -1.285089008325919213e+00 -1.108426148337872785e+00 -1.263483140846012764e+00 4.001120689861276669e-01 9.222493931197142843e-05
-1.346352747698615682e+00 -2.758679964165483556e-01 -1.963594749700686704e-01 -1.739433052348991149e+00 -1.032177918327597350e-03 -1.327604570264991235e+00 -1.145261183463108567e+00 -1.216747371865071425e+00 6.831972071512522060e-01 4.749773903142591198e-04
-1.415317941687038283e+00 -3.343493065753622706e-01 -2.545568069239715903e-01 -1.692619093832748334e+00 -9.715930643798018160e-04 -1.379303879768450036e+00 -1.169626203176278523e+00 -1.163946639078057954e+00 9.362791703248569686e-01 1.211697078955911114e-03
-1.487342299482169894e+00 -3.933701601496161770e-01 -3.103254276792760669e-01 -1.634776145988948270e+00 -8.501998130857061275e-04 -1.440487155902630878e+00 -1.180417071485077685e+00 -1.115372415106089310e+00 1.156858956876002598e+00 2.427865025881912903e-03
-1.562905696039547099e+00 -4.522200662103872948e-01 -3.642665226417389768e-01 -1.567540774258424197e+00 -6.866554055379338458e-04 -1.511267931147543209e+00 -1.176998121215422577e+00 -1.078821899249257754e+00 1.344707434610482144e+00 3.270888150955445633e-03
-1.642490324161949289e+00 -5.101735163926692795e-01 -4.172401259223052494e-01 -1.492493088267215828e+00 -5.078724287200642564e-04 -1.591692562448044912e+00 -1.159069003645640139e+00 -1.059472065611325675e+00 1.500953719824169141e+00 3.575659536357391789e-03
-1.726577140512232988e+00 -5.664979909483958131e-01 -4.702535777163532882e-01 -1.411131081308164781e+00 -3.416429779689718295e-04 -1.681736327005675324e+00 -1.126489491114530006e+00 -1.060269035880960331e+00 1.627240139181019396e+00 3.324589015021848538e-03
-1.815635003054152596e+00 -6.204677661187176785e-01 -5.243630877105558419e-01 -1.324817467840714968e+00 -2.111025560640899959e-04 -1.781157250838391271e+00 -1.079395503406437085e+00 -1.082190199884049964e+00 1.726272269348993804e+00 2.610808438097636779e-03
-1.910103428730362207e+00 -6.713704518546970146e-01 -5.806059497409001846e-01 -1.234753802401157508e+00 -1.344026173574689570e-04 -1.889368513524191995e+00 -1.018053714719586500e+00 -1.124857240606887743e+00 1.801273308791146999e+00 1.533998774132421103e-03
-2.010367371889144383e+00 -7.185105432590904728e-01 -6.399555413586693886e-01 -1.141964583803448896e+00 -1.257263289525648628e-04 -2.005278863175647519e+00 -9.428018280878691648e-01 -1.186991832355384746e+00 1.855784371954172673e+00 1.735257680980817774e-04
-2.116724106508110381e+00 -7.612140512727872954e-01 -7.032909605789514629e-01 -1.047276340447567122e+00 -1.958651962652278476e-04 -2.127134692379319070e+00 -8.540701602739370069e-01 -1.266708384405642374e+00 1.893764867117636364e+00 -1.402777346253259588e-03
-2.229344047951630881e+00 -7.988369030354290912e-01 -7.713780858215720793e-01 -9.512815263072151861e-01 -3.497402974723537385e-04 -2.252398828870408654e+00 -7.524570352528361372e-01 -1.361742504852413216e+00 1.919896282807037613e+00 -3.077502024142517167e-03
-2.348229227395457031e+00 -8.307777453031726100e-01 -8.448666004848752742e-01 -8.542828136075335532e-01 -5.714134778606245503e-04 0.000000000000000000e+00 0.000000000000000000e+00 0.000000000000000000e+00 0.000000000000000000e+00 0.000000000000000000e+00
-2.348229227395457031e+00 -8.307777453031726100e-01 -8.448666004848752742e-01 -8.542828136075335532e-01 -5.714134778606245503e-04 0.000000000000000000e+00 0.000000000000000000e+00 0.000000000000000000e+00 0.000000000000000000e+00 0.000000000000000000e+00
-2.348229227395457031e+00 -8.307777453031726100e-01 -8.448666004848752742e-01 -8.542828136075335532e-01 -5.714134778606245503e-04 0.000000000000000000e+00 0.000000000000000000e+00 0.000000000000000000e+00 0.000000000000000000e+00 0.000000000000000000e+00
-2.348229227395457031e+00 -8.307777453031726100e-01 -8.448666004848752742e-01 -8.542828136075335532e-01 -5.714134778606245503e-04 0.000000000000000000e+00 0.000000000000000000e+00 0.000000000000000000e+00 0.000000000000000000e+00 0.000000000000000000e+00
-2.348229227395457031e+00 -8.307777453031726100e-01 -8.448666004848752742e-01 -8.542828136075335532e-01 -5.714134778606245503e-04 0.000000000000000000e+00 0.000000000000000000e+00 0.000000000000000000e+00 0.000000000000000000e+00 0.000000000000000000e+00
-2.348229227395457031e+00 -8.307777453031726100e-01 -8.448666004848752742e-01 -8.542828136075335532e-01 -5.714134778606245503e-04 0.000000000000000000e+00 0.000000000000000000e+00 0.000000000000000000e+00 0.000000000000000000e+00 0.000000000000000000e+00
-2.348229227395457031e+00 -8.307777453031726100e-01 -8.448666004848752742e-01 -8.542828136075335532e-01 -5.714134778606245503e-04 0.000000000000000000e+00 0.000000000000000000e+00 0.000000000000000000e+00 0.000000000000000000e+00 0.000000000000000000e+00
-2.348229227395457031e+00 -8.307777453031726100e-01 -8.448666004848752742e-01 -8.542828136075335532e-01 -5.714134778606245503e-04 0.000000000000000000e+00 0.000000000000000000e+00 0.000000000000000000e+00 0.000000000000000000e+00 0.000000000000000000e+00
-2.348229227395457031e+00 -8.307777453031726100e-01 -8.448666004848752742e-01 -8.542828136075335532e-01 -5.714134778606245503e-04 0.000000000000000000e+00 0.000000000000000000e+00 0.000000000000000000e+00 0.000000000000000000e+00 0.000000000000000000e+00
-2.348229227395457031e+00 -8.307777453031726100e-01 -8.448666004848752742e-01 -8.542828136075335532e-01 -5.714134778606245503e-04 0.000000000000000000e+00 0.000000000000000000e+00 0.000000000000000000e+00 0.000000000000000000e+00 0.000000000000000000e+00
-2.348229227395457031e+00 -8.307777453031726100e-01 -8.448666004848752742e-01 -8.542828136075335532e-01 -5.714134778606245503e-04 0.000000000000000000e+00 0.000000000000000000e+00 0.000000000000000000e+00 0.000000000000000000e+00 0.000000000000000000e+00
-2.348229227395457031e+00 -8.307777453031726100e-01 -8.448666004848752742e-01 -8.542828136075335532e-01 -5.714134778606245503e-04 0.000000000000000000e+00 0.000000000000000000e+00 0.000000000000000000e+00 0.000000000000000000e+00 0.000000000000000000e+00
-2.348229227395457031e+00 -8.307777453031726100e-01 -8.448666004848752742e-01 -8.542828136075335532e-01 -5.714134778606245503e-04 0.000000000000000000e+00 0.000000000000000000e+00 0.000000000000000000e+00 0.000000000000000000e+00 0.000000000000000000e+00
-2.348229227395457031e+00 -8.307777453031726100e-01 -8.448666004848752742e-01 -8.542828136075335532e-01 -5.714134778606245503e-04 0.000000000000000000e+00 0.000000000000000000e+00 0.000000000000000000e+00 0.000000000000000000e+00 0.000000000000000000e+00
-2.348229227395457031e+00 -8.307777453031726100e-01 -8.448666004848752742e-01 -8.542828136075335532e-01 -5.714134778606245503e-04 0.000000000000000000e+00 0.000000000000000000e+00 0.000000000000000000e+00 0.000000000000000000e+00 0.000000000000000000e+00
-2.348229227395457031e+00 -8.307777453031726100e-01 -8.448666004848752742e-01 -8.542828136075335532e-01 -5.714134778606245503e-04 0.000000000000000000e+00 0.000000000000000000e+00 0.000000000000000000e+00 0.000000000000000000e+00 0.000000000000000000e+00
-2.348229227395457031e+00 -8.307777453031726100e-01 -8.448666004848752742e-01 -8.542828136075335532e-01 -5.714134778606245503e-04 0.000000000000000000e+00 0.000000000000000000e+00 0.000000000000000000e+00 0.000000000000000000e+00 0.000000000000000000e+00
