-5.150478025399918280e-01 -3.239297446901308053e-01 4.081897645992313417e-01 -1.572290950568411283e+00 -6.435207592430152107e-04 -3.601997541347387588e-01 -7.391627445803793384e-01 -4.393288021481385197e-01 -1.615661432639517336e+00 -2.888157018175625639e-03
-5.328336817633185785e-01 -3.664680296525271719e-01 3.813287846342728882e-01 -1.646223218134668764e+00 -7.905081425920198850e-04 -3.557175844665346198e-01 -8.507656992479268876e-01 -5.372195992991692926e-01 -1.478645351325147628e+00 -2.939747666980093484e-03
-5.500839502048106011e-01 -4.144832961783483927e-01 3.501533980527828938e-01 -1.710855290311785959e+00 -9.178372456286952412e-04 -3.450053688298399535e-01 -9.603053305164247488e-01 -6.235077316298004435e-01 -1.292641443542345669e+00 -2.546582060733507125e-03
-5.665785041713679027e-01 -4.678011996424659702e-01 3.156082374388952672e-01 -1.764284868152380170e+00 -1.002251024722475379e-03 -3.298910793311468082e-01 -1.066358069282351995e+00 -6.909032122777520879e-01 -1.068591556811884224e+00 -1.688275581875601020e-03
-5.821871115612839986e-01 -5.261924431915393496e-01 2.789038820575614475e-01 -1.805166224006701237e+00 -1.033418221689644863e-03 -3.121721477983220860e-01 -1.167824870981467367e+00 -7.340871076266758388e-01 -8.176271170864233273e-01 -6.233439393433903419e-04
-5.968639067179601909e-01 -5.893816374291188653e-01 2.413694637612889271e-01 -1.832694205976989066e+00 -1.042072668715630403e-03 -2.935359031335236235e-01 -1.263783884751589648e+00 -7.506883659254500740e-01 -5.505596394057554743e-01 -1.730889405197119234e-04
-6.106367819543548903e-01 -6.570482539010020773e-01 2.042829081571646832e-01 -1.846566367299776523e+00 -1.042028833479567013e-03 -2.754575047278942646e-01 -1.353332329437664239e+00 -7.417311120824847670e-01 -2.774432264557474270e-01 8.767047212682350932e-07
-6.235905090667569484e-01 -7.288252072728312880e-01 1.687168177382709078e-01 -1.846920015372153667e+00 -1.036941185213075987e-03 -2.590745422480413285e-01 -1.435539067436583327e+00 -7.113218083778753975e-01 -7.072961447544046099e-03 1.017529653298194549e-04
-6.358443049292424876e-01 -8.043026958081664901e-01 1.354356086920040225e-01 -1.834241812636526747e+00 -1.025012826419194637e-03 -2.450759172497111726e-01 -1.509549770706703153e+00 -6.656241809253378161e-01 2.535640547125385114e-01 2.385671758776282923e-04
-6.475282944901222804e-01 -8.830383556493655028e-01 1.048586937394949126e-01 -1.809270196849213752e+00 -9.956052545336431785e-04 -2.336797912175962999e-01 -1.574713196823979811e+00 -6.115382990501820881e-01 4.994323157462602358e-01 5.881514377110299381e-04
-6.587608035327344735e-01 -9.645728607073096317e-01 7.708640185766470199e-02 -1.772904353788467224e+00 -9.276436557036591432e-04 -2.246501808522446964e-01 -1.630690101158883687e+00 -5.554458376366042671e-01 7.273168612149298884e-01 1.359231976599680272e-03
-6.696258520620808063e-01 -1.048448877092982068e+00 5.197104363515613057e-02 -1.726124883424756451e+00 -8.314678082671600294e-04 -2.173009705869276831e-01 -1.677520327713450499e+00 -5.023071644501715394e-01 9.355894072742174661e-01 1.923516948729981409e-03
-6.801514168213262934e-01 -1.134228092731973447e+00 2.920574621431558729e-02 -1.669937612827165685e+00 -7.228351353571419585e-04 -2.105112951849099634e-01 -1.715584312779825149e+00 -4.553059484168108240e-01 1.123745411951817319e+00 2.172653458200360984e-03
-6.902829078960907028e-01 -1.221507597083328678e+00 8.421267618151057760e-03 -1.605326029324285919e+00 -6.154557530743963488e-04 -2.026298214952887422e-01 -1.745590087027105719e+00 -4.156895719232905351e-01 1.292231670057596205e+00 2.147587645654912628e-03
-6.998589108543211701e-01 -1.309930756383690165e+00 -1.073083133373165313e-02 -1.533224265248099849e+00 -5.195474440314888556e-04 -1.915200591646098460e-01 -1.768463186007228405e+00 -3.830419790376541345e-01 1.442035281523721846e+00 1.918166180858149866e-03
-7.086045166414350893e-01 -1.399192708393208084e+00 -2.852425508571935359e-02 -1.454507030801654999e+00 -4.421688840724435064e-04 -1.749121157422791617e-01 -1.785239040190357951e+00 -3.558684750397540508e-01 1.574344688928896563e+00 1.547571199180907200e-03
-7.161686906788704565e-01 -1.489042337999576748e+00 -4.515374296823033290e-02 -1.369987046112364659e+00 -3.876624428123227146e-04 -1.512834807487083433e-01 -1.796992592127375055e+00 -3.325897576502195863e-01 1.690399693785809010e+00 1.090128825202416486e-03
-7.222245824959936389e-01 -1.579282838082494145e+00 -6.079825149380869986e-02 -1.280407598762751453e+00 -3.577298856863422361e-04 -1.211178363424641746e-01 -1.804810001658347929e+00 -3.128901705115673115e-01 1.791588946992265230e+00 5.986511425196101117e-04
-7.266024798496706349e-01 -1.669767078688051853e+00 -7.573663714189764196e-02 -1.186436325071875020e+00 -3.503382727954734450e-04 -8.755794707354082329e-02 -1.809684812111155061e+00 -2.987677129617787863e-01 1.879425473817529113e+00 1.478322578173762569e-04
-7.293490519515322124e-01 -1.760387949162945942e+00 -9.042086268036723939e-02 -1.088661610507887456e+00 -3.571136258753055694e-04 -5.493144203723087510e-02 -1.812417409497880882e+00 -2.936845107693919488e-01 1.955494291279749497e+00 -1.355070615966420008e-04
-7.306611894749279745e-01 -1.851063765638562009e+00 -1.054505611236324220e-01 -9.876034172338633566e-01 -3.541996690739575618e-04 -2.624275046791572225e-02 -1.813516329512321335e+00 -3.005939688653035957e-01 2.021163865480481991e+00 5.827913602696031424e-05
-7.307699065374632097e-01 -1.941724052227119079e+00 -1.215035087795763580e-01 -8.837287140555608600e-01 -2.608605011949178360e-04 -2.174341250704581868e-03 -1.813205731771141416e+00 -3.210589531188785539e-01 2.077494063566050375e+00 1.866783357580793648e-03
-7.298685412779859494e-01 -2.032296413890469999e+00 -1.393104933483537700e-01 -7.774652862361056682e-01 2.402039623678844157e-04 0.000000000000000000e+00 0.000000000000000000e+00 0.000000000000000000e+00 0.000000000000000000e+00 0.000000000000000000e+00
-7.298685412779859494e-01 -2.032296413890469999e+00 -1.393104933483537700e-01 -7.774652862361056682e-01 2.402039623678844157e-04 0.000000000000000000e+00 0.000000000000000000e+00 0.000000000000000000e+00 0.000000000000000000e+00 0.000000000000000000e+00
-7.298685412779859494e-01 -2.032296413890469999e+00 -1.393104933483537700e-01 -7.774652862361056682e-01 2.402039623678844157e-04 0.000000000000000000e+00 0.000000000000000000e+00 0.000000000000000000e+00 0.000000000000000000e+00 0.000000000000000000e+00
-7.298685412779859494e-01 -2.032296413890469999e+00 -1.393104933483537700e-01 -7.774652862361056682e-01 2.402039623678844157e-04 0.000000000000000000e+00 0.000000000000000000e+00 0.000000000000000000e+00 0.000000000000000000e+00 0.000000000000000000e+00
-7.298685412779859494e-01 -2.032296413890469999e+00 -1.393104933483537700e-01 -7.774652862361056682e-01 2.402039623678844157e-04 0.000000000000000000e+00 0.000000000000000000e+00 0.000000000000000000e+00 0.000000000000000000e+00 0.000000000000000000e+00
-7.298685412779859494e-01 -2.032296413890469999e+00 -1.393104933483537700e-01 -7.774652862361056682e-01 2.402039623678844157e-04 0.000000000000000000e+00 0.000000000000000000e+00 0.000000000000000000e+00 0.000000000000000000e+00 0.000000000000000000e+00
-7.298685412779859494e-01 -2.032296413890469999e+00 -1.393104933483537700e-01 -7.774652862361056682e-01 2.402039623678844157e-04 0.000000000000000000e+00 0.000000000000000000e+00 0.000000000000000000e+00 0.000000000000000000e+00 0.000000000000000000e+00
-7.298685412779859494e-01 -2.032296413890469999e+00 -1.393104933483537700e-01 -7.774652862361056682e-01 2.402039623678844157e-04 0.000000000000000000e+00 0.000000000000000000e+00 0.000000000000000000e+00 0.000000000000000000e+00 0.000000000000000000e+00
-7.298685412779859494e-01 -2.032296413890469999e+00 -1.393104933483537700e-01 -7.774652862361056682e-01 2.402039623678844157e-04 0.000000000000000000e+00 0.000000000000000000e+00 0.000000000000000000e+00 0.000000000000000000e+00 0.000000000000000000e+00
