-6.860587728352772752e-01 1.895248213275567417e-01 6.908308312274685781e-01 -1.351809969971434766e+00 -3.363643857212608333e-04 -9.800837770659232007e-02 -1.614142013194655445e-01 -4.074395361896501234e-03 -9.142971433652297142e-01 -1.993931686419836771e-03
-6.911016806660594813e-01 1.790904531037576242e-01 6.897153272233936816e-01 -1.402554592506653375e+00 -4.447995622132681361e-04 -1.008581566156443593e-01 -2.086873644759821012e-01 -2.231008008149711064e-02 -1.014892450704369953e+00 -2.168703529840145406e-03
-6.959037696047463140e-01 1.662175927624224281e-01 6.873873918425300600e-01 -1.455966734103774307e+00 -5.605497769098734869e-04 -9.604177877373697159e-02 -2.574572068267037550e-01 -4.655870761727340379e-02 -1.068242831942417093e+00 -2.315004293932106366e-03
-7.001177858037817003e-01 1.508695119307232047e-01 6.836586152368357983e-01 -1.509821358874844588e+00 -6.797960517243323720e-04 -8.428032398070872677e-02 -3.069616166339844132e-01 -7.457553211388483205e-02 -1.077092495421406282e+00 -2.384925496289176401e-03
-7.034427660413199446e-01 1.330495789135965057e-01 6.784771194557879248e-01 -1.562077390419760015e+00 -7.962755736561648225e-04 -6.649960475076384381e-02 -3.563986603425338684e-01 -1.036299156209564420e-01 -1.045120630898309200e+00 -2.329590438636649444e-03
-7.056332088197477814e-01 1.128013490811071023e-01 6.719350026960927424e-01 -1.610930387980767264e+00 -9.009739147607736479e-04 -4.380885556855697305e-02 -4.049645966497880112e-01 -1.308423351939045076e-01 -9.770599512201431081e-01 -2.093966822092176074e-03
-7.065060738654135308e-01 9.020749642183922834e-02 6.642568328293169122e-01 -1.654865963322170952e+00 -9.805751933837391666e-04 -1.745730091331468975e-02 -4.518770531853573691e-01 -1.535633973355154946e-01 -8.787115068280717534e-01 -1.592025572459311242e-03
-7.059438396594323040e-01 6.538699835925503023e-02 6.557732416265587005e-01 -1.692702660579247009e+00 -1.008516129891388110e-03 1.124468411962368727e-02 -4.964099612516839066e-01 -1.696718240551651213e-01 -7.567339451415225904e-01 -5.588187301529795158e-04
-7.038929764855380578e-01 3.849091766029164724e-02 6.468836167883593724e-01 -1.723616709095576294e+00 -1.015356155867309538e-03 4.101726347788382104e-02 -5.379216139792676321e-01 -1.777924967639865073e-01 -6.182809703265836898e-01 -1.368005195184305721e-04
-7.003585604197472003e-01 9.698048825000298023e-03 6.380115241568555806e-01 -1.747146983865900172e+00 -1.016235924482323041e-03 7.068832131581784251e-02 -5.758573767058269288e-01 -1.774418526300747811e-01 -4.706054954064756712e-01 -1.759537230027136481e-05
-6.953932793330248607e-01 -2.079217036168007696e-02 6.295641707826006295e-01 -1.763165416503806870e+00 -1.015357509600896789e-03 9.930562173444787422e-02 -6.098043837336074580e-01 -1.689470674850982734e-01 -3.203686527581348642e-01 1.756829762852387577e-05
-6.890842211638457115e-01 -5.276742412795112913e-02 6.218999773752118543e-01 -1.771826468057965842e+00 -1.012230045436413126e-03 1.261811633835834279e-01 -6.395050753254208908e-01 -1.532838681477755871e-01 -1.732210310831782674e-01 6.254928328967173691e-05
-6.815386186388475709e-01 -8.601145408485755262e-02 6.153093571161875053e-01 -1.773500246717454543e+00 -1.000574348952222104e-03 1.509120504999635903e-01 -6.648805991381284697e-01 -1.318124051804870356e-01 -3.347557318977376073e-02 2.331139296838221839e-04
-6.728735864028533298e-01 -1.203099689005786982e-01 6.100023076717926429e-01 -1.768713925908780293e+00 -9.650140882940796624e-04 1.733006447198855993e-01 -6.859702963144229670e-01 -1.061409888878961233e-01 9.572641617348598420e-02 7.112052131628479601e-04
-6.632074609210023564e-01 -1.554568882679911446e-01 6.061086793127220540e-01 -1.758093646819903988e+00 -9.054696485780855527e-04 1.933225096370186080e-01 -7.029383873482489831e-01 -7.787256718141256917e-02 2.124055817775252208e-01 1.190888794319882411e-03
-6.526539389683483350e-01 -1.912595358772666843e-01 6.036863872297975053e-01 -1.742316213934403279e+00 -8.259197611408631646e-04 2.110704390530805385e-01 -7.160529521855109047e-01 -4.844584165849107060e-02 3.155486577100130030e-01 1.590997748744448197e-03
-6.413170676304797979e-01 -2.275441248830848973e-01 6.027379969190963527e-01 -1.722065191164252607e+00 -7.308202647143886193e-04 2.267374267573705193e-01 -7.256917801163639270e-01 -1.896780621402412506e-02 4.050204554030146231e-01 1.901989928529490906e-03
-6.292881717210337955e-01 -2.641597393019025075e-01 6.032285284733518438e-01 -1.697998416536228072e+00 -6.240271916321657366e-04 2.405779181889209362e-01 -7.323122883763526492e-01 9.810631085108805632e-03 4.813354925604924617e-01 2.135861461644456352e-03
-6.166444605883441010e-01 -3.009805762547682617e-01 6.051019030651885178e-01 -1.670727584003330657e+00 -5.085302927179126105e-04 2.528742226537935567e-01 -7.364167390573155281e-01 3.746749183673447892e-02 5.454166506579499751e-01 2.309937978285062955e-03
-6.034485333819609165e-01 -3.379068811101965664e-01 6.082947584381557249e-01 -1.640806122056706950e+00 -3.864807530981455037e-04 2.639185441276634125e-01 -7.385260971085656490e-01 6.385710745934482235e-02 5.984292389324722405e-01 2.440990792395341703e-03
-5.897484178361316332e-01 -3.748647592194386813e-01 6.127470172396665138e-01 -1.608723244409526298e+00 -2.593881199778828167e-04 2.740023109165865001e-01 -7.391575621848419653e-01 8.904517603021687433e-02 6.416575529436134850e-01 2.541852662405253305e-03
-5.755777417140980345e-01 -4.118051457582349029e-01 6.184094640648677421e-01 -1.574901559431730380e+00 -1.282757776941058510e-04 2.834135224406713616e-01 -7.388077307759242096e-01 1.132489365040248858e-01 6.764336995559191434e-01 2.622246845675539097e-03
-5.609558043854210307e-01 -4.487021039112135679e-01 6.252493049507320544e-01 -1.539697241848499765e+00 6.564717199643993473e-06 2.924387465735391323e-01 -7.379391630595727447e-01 1.367968177172857180e-01 7.040863516646134190e-01 2.696809897874996673e-03
-5.458875754475802644e-01 -4.855504012166975136e-01 6.332546520520253575e-01 -1.503403521957239919e+00 1.471703843614669319e-04 3.013645787568160483e-01 -7.369659461096793596e-01 1.601069420258649789e-01 7.258743978251975815e-01 2.812113343236458552e-03
-5.303635286976621233e-01 -5.223625895379307993e-01 6.424380545571902745e-01 -1.466256342328303930e+00 3.044784242245836920e-04 3.104809349983638778e-01 -7.362437664246656022e-01 1.836680501032972590e-01 7.429435925787194472e-01 3.146160797262334552e-03
-5.143590126883055280e-01 -5.591659280943930277e-01 6.528395530466899466e-01 -1.428440240361873670e+00 5.250446939941430871e-04 3.200903201871319603e-01 -7.360667711292436799e-01 2.080299697899937739e-01 7.563220393286059773e-01 4.411325395391186600e-03
-4.978332028420831001e-01 -5.959991460362863425e-01 6.645293287084254041e-01 -1.390094512715353225e+00 9.986915488198512287e-04 0.000000000000000000e+00 0.000000000000000000e+00 0.000000000000000000e+00 0.000000000000000000e+00 0.000000000000000000e+00
-4.978332028420831001e-01 -5.959991460362863425e-01 6.645293287084254041e-01 -1.390094512715353225e+00 9.986915488198512287e-04 0.000000000000000000e+00 0.000000000000000000e+00 0.000000000000000000e+00 0.000000000000000000e+00 0.000000000000000000e+00
-4.978332028420831001e-01 -5.959991460362863425e-01 6.645293287084254041e-01 -1.390094512715353225e+00 9.986915488198512287e-04 0.000000000000000000e+00 0.000000000000000000e+00 0.000000000000000000e+00 0.000000000000000000e+00 0.000000000000000000e+00
-4.978332028420831001e-01 -5.959991460362863425e-01 6.645293287084254041e-01 -1.390094512715353225e+00 9.986915488198512287e-04 0.000000000000000000e+00 0.000000000000000000e+00 0.000000000000000000e+00 0.000000000000000000e+00 0.000000000000000000e+00
-4.978332028420831001e-01 -5.959991460362863425e-01 6.645293287084254041e-01 -1.390094512715353225e+00 9.986915488198512287e-04 0.000000000000000000e+00 0.000000000000000000e+00 0.000000000000000000e+00 0.000000000000000000e+00 0.000000000000000000e+00
