-1.584319677934509452e+00 -5.082828035634250341e-01 -6.306119334210222860e-01 -1.397299881682898981e+00 -9.483576683460827285e-05 -9.449807096234679182e-01 -5.328981854073101543e-01 -6.037376609846896169e-01 1.075428889160926271e+00 1.456780990409218580e-03
-1.632697622790579839e+00 -5.339897658476687736e-01 -6.595951195640912257e-01 -1.344011347875471163e+00 -4.783863054535804490e-05 -9.675588971214068579e-01 -5.141392456848753456e-01 -5.796637228613776838e-01 1.065770676148557694e+00 9.399427257850045047e-04
-1.682230648584812194e+00 -5.586463374730077369e-01 -6.878281247252285846e-01 -1.291195263930171144e+00 -2.707605635831559360e-05 -9.906605158846459869e-01 -4.931314325067795989e-01 -5.646601032227469563e-01 1.056321678906002148e+00 4.152514837408490802e-04
-1.732956210789622364e+00 -5.821648676018537083e-01 -7.157427942305127910e-01 -1.238760850051127793e+00 -3.282756423579503161e-05 -1.014511244096203857e+00 -4.703706025769199828e-01 -5.582933901056831294e-01 1.048688277580866135e+00 -1.150301575495887331e-04
-1.784922122164153580e+00 -6.044790152993180232e-01 -7.437558000725947860e-01 -1.186542318082550951e+00 -6.597671496676814199e-05 -1.039318227490623192e+00 -4.462829539492855768e-01 -5.602601168416393440e-01 1.044370639371535736e+00 -6.629830146194621264e-04
-1.838185175489510437e+00 -6.255407705822749742e-01 -7.722755694783670632e-01 -1.134300479051342014e+00 -1.304765147906568551e-04 -1.065261066507138255e+00 -4.212351056591399079e-01 -5.703953881154454342e-01 1.044836780624177397e+00 -1.289995996477773937e-03
-1.892808951512465754e+00 -6.453169010294904639e-01 -8.017095132394138624e-01 -1.081726524949220281e+00 -2.431431142795871764e-04 0.000000000000000000e+00 0.000000000000000000e+00 0.000000000000000000e+00 0.000000000000000000e+00 0.000000000000000000e+00
-1.892808951512465754e+00 -6.453169010294904639e-01 -8.017095132394138624e-01 -1.081726524949220281e+00 -2.431431142795871764e-04 0.000000000000000000e+00 0.000000000000000000e+00 0.000000000000000000e+00 0.000000000000000000e+00 0.000000000000000000e+00
-1.892808951512465754e+00 -6.453169010294904639e-01 -8.017095132394138624e-01 -1.081726524949220281e+00 -2.431431142795871764e-04 0.000000000000000000e+00 0.000000000000000000e+00 0.000000000000000000e+00 0.000000000000000000e+00 0.000000000000000000e+00
-1.892808951512465754e+00 -6.453169010294904639e-01 -8.017095132394138624e-01 -1.081726524949220281e+00 -2.431431142795871764e-04 0.000000000000000000e+00 0.000000000000000000e+00 0.000000000000000000e+00 0.000000000000000000e+00 0.000000000000000000e+00
-1.892808951512465754e+00 -6.453169010294904639e-01 -8.017095132394138624e-01 -1.081726524949220281e+00 -2.431431142795871764e-04 0.000000000000000000e+00 0.000000000000000000e+00 0.000000000000000000e+00 0.000000000000000000e+00 0.000000000000000000e+00
-1.892808951512465754e+00 -6.453169010294904639e-01 -8.017095132394138624e-01 -1.081726524949220281e+00 -2.431431142795871764e-04 0.000000000000000000e+00 0.000000000000000000e+00 0.000000000000000000e+00 0.000000000000000000e+00 0.000000000000000000e+00
-1.892808951512465754e+00 -6.453169010294904639e-01 -8.017095132394138624e-01 -1.081726524949220281e+00 -2.431431142795871764e-04 0.000000000000000000e+00 0.000000000000000000e+00 0.000000000000000000e+00 0.000000000000000000e+00 0.000000000000000000e+00
-1.892808951512465754e+00 -6.453169010294904639e-01 -8.017095132394138624e-01 -1.081726524949220281e+00 -2.431431142795871764e-04 0.000000000000000000e+00 0.000000000000000000e+00 0.000000000000000000e+00 0.000000000000000000e+00 0.000000000000000000e+00
-1.892808951512465754e+00 -6.453169010294904639e-01 -8.017095132394138624e-01 -1.081726524949220281e+00 -2.431431142795871764e-04 0.000000000000000000e+00 0.000000000000000000e+00 0.000000000000000000e+00 0.000000000000000000e+00 0.000000000000000000e+00
-1.892808951512465754e+00 -6.453169010294904639e-01 -8.017095132394138624e-01 -1.081726524949220281e+00 -2.431431142795871764e-04 0.000000000000000000e+00 0.000000000000000000e+00 0.000000000000000000e+00 0.000000000000000000e+00 0.000000000000000000e+00
-1.892808951512465754e+00 -6.453169010294904639e-01 -8.017095132394138624e-01 -1.081726524949220281e+00 -2.431431142795871764e-04 0.000000000000000000e+00 0.000000000000000000e+00 0.000000000000000000e+00 0.000000000000000000e+00 0.000000000000000000e+00
-1.892808951512465754e+00 -6.453169010294904639e-01 -8.017095132394138624e-01 -1.081726524949220281e+00 -2.431431142795871764e-04 0.000000000000000000e+00 0.000000000000000000e+00 0.000000000000000000e+00 0.000000000000000000e+00 0.000000000000000000e+00
-1.892808951512465754e+00 -6.453169010294904639e-01 -8.017095132394138624e-01 -1.081726524949220281e+00 -2.431431142795871764e-04 0.000000000000000000e+00 0.000000000000000000e+00 0.000000000000000000e+00 0.000000000000000000e+00 0.000000000000000000e+00
-1.892808951512465754e+00 -6.453169010294904639e-01 -8.017095132394138624e-01 -1.081726524949220281e+00 -2.431431142795871764e-04 0.000000000000000000e+00 0.000000000000000000e+00 0.000000000000000000e+00 0.000000000000000000e+00 0.000000000000000000e+00
-1.892808951512465754e+00 -6.453169010294904639e-01 -8.017095132394138624e-01 -1.081726524949220281e+00 -2.431431142795871764e-04 0.000000000000000000e+00 0.000000000000000000e+00 0.000000000000000000e+00 0.000000000000000000e+00 0.000000000000000000e+00
-1.892808951512465754e+00 -6.453169010294904639e-01 -8.017095132394138624e-01 -1.081726524949220281e+00 -2.431431142795871764e-04 0.000000000000000000e+00 0.000000000000000000e+00 0.000000000000000000e+00 0.000000000000000000e+00 0.000000000000000000e+00
-1.892808951512465754e+00 -6.453169010294904639e-01 -8.017095132394138624e-01 -1.081726524949220281e+00 -2.431431142795871764e-04 0.000000000000000000e+00 0.000000000000000000e+00 0.000000000000000000e+00 0.000000000000000000e+00 0.000000000000000000e+00
-1.892808951512465754e+00 -6.453169010294904639e-01 -8.017095132394138624e-01 -1.081726524949220281e+00 -2.431431142795871764e-04 0.000000000000000000e+00 0.000000000000000000e+00 0.000000000000000000e+00 0.000000000000000000e+00 0.000000000000000000e+00
-1.892808951512465754e+00 -6.453169010294904639e-01 -8.017095132394138624e-01 -1.081726524949220281e+00 -2.431431142795871764e-04 0.000000000000000000e+00 0.000000000000000000e+00 0.000000000000000000e+00 0.000000000000000000e+00 0.000000000000000000e+00
-1.892808951512465754e+00 -6.453169010294904639e-01 -8.017095132394138624e-01 -1.081726524949220281e+00 -2.431431142795871764e-04 0.000000000000000000e+00 0.000000000000000000e+00 0.000000000000000000e+00 0.000000000000000000e+00 0.000000000000000000e+00
-1.892808951512465754e+00 -6.453169010294904639e-01 -8.017095132394138624e-01 -1.081726524949220281e+00 -2.431431142795871764e-04 0.000000000000000000e+00 0.000000000000000000e+00 0.000000000000000000e+00 0.000000000000000000e+00 0.000000000000000000e+00
-1.892808951512465754e+00 -6.453169010294904639e-01 -8.017095132394138624e-01 -1.081726524949220281e+00 -2.431431142795871764e-04 0.000000000000000000e+00 0.000000000000000000e+00 0.000000000000000000e+00 0.000000000000000000e+00 0.000000000000000000e+00
-1.892808951512465754e+00 -6.453169010294904639e-01 -8.017095132394138624e-01 -1.081726524949220281e+00 -2.431431142795871764e-04 0.000000000000000000e+00 0.000000000000000000e+00 0.000000000000000000e+00 0.000000000000000000e+00 0.000000000000000000e+00
-1.892808951512465754e+00 -6.453169010294904639e-01 -8.017095132394138624e-01 -1.081726524949220281e+00 -2.431431142795871764e-04 0.000000000000000000e+00 0.000000000000000000e+00 0.000000000000000000e+00 0.000000000000000000e+00 0.000000000000000000e+00
-1.892808951512465754e+00 -6.453169010294904639e-01 -8.017095132394138624e-01 -1.081726524949220281e+00 -2.431431142795871764e-04 0.000000000000000000e+00 0.000000000000000000e+00 0.000000000000000000e+00 0.000000000000000000e+00 0.000000000000000000e+00
