-6.123134547589507148e-01 -2.315202863106100017e-01 3.181828461752201909e-01 -1.611370560309237643e+00 -4.734621186233926447e-04 -6.649112867916397995e-01 -1.846333650159202588e-01 -1.619185189326254770e+00 -5.648641102272045078e-01 -6.662384596722183312e-03
-6.455992857389539763e-01 -2.436531593284085861e-01 2.376812592308405470e-01 -1.627785235041385281e+00 -7.519155684833473373e-04 -6.657166196000648961e-01 -2.426574603559719101e-01 -1.610031738887593100e+00 -3.282934946429535428e-01 -5.569068997199095802e-03
-6.788357981529800078e-01 -2.587401084315501532e-01 1.592902958477714903e-01 -1.631868845409617963e+00 -9.398788633818502825e-04 -6.647302482805200752e-01 -3.017389820628308406e-01 -1.567819267661380911e+00 -8.167220736465205522e-02 -3.759265897970059771e-03
-7.120498791183509368e-01 -2.767365471303931401e-01 8.445373330791056121e-02 -1.623804673133966370e+00 -1.025152766529706123e-03 -6.642816193074195796e-01 -3.599287739768597949e-01 -1.496731250797218138e+00 1.612834455130321698e-01 -1.705478062957118107e-03
-7.453469929234296520e-01 -2.974943753872895114e-01 1.428976057589181892e-02 -1.604336840037650536e+00 -1.044949845694218742e-03 -6.659422761015748593e-01 -4.151565651379274802e-01 -1.403279454640374846e+00 3.893566619263172379e-01 -3.959415832902523844e-04
-7.788723906082175574e-01 -3.207673074305607552e-01 -5.046900300224733960e-02 -1.574617356670888535e+00 -1.042160100601123227e-03 -6.705079536957575526e-01 -4.654586408654252661e-01 -1.295175271562783115e+00 5.943896673352391247e-01 5.579490186190824794e-05
-8.127789678113621630e-01 -3.462283247631552374e-01 -1.094702140159204140e-01 -1.536049061948380645e+00 -1.032782964686326582e-03 -6.781315440628929991e-01 -5.092203466518893107e-01 -1.180024220273461433e+00 7.713658944501584624e-01 1.875427182959311858e-04
-8.472059561281003459e-01 -3.734953513060116359e-01 -1.626850674564239152e-01 -1.490143916635177757e+00 -1.017634076638209567e-03 -6.885397663347636588e-01 -5.453405308571280807e-01 -1.064297068810070135e+00 9.181029062640571059e-01 3.029777609623389412e-04
-8.822686892976914219e-01 -4.021599824371216991e-01 -2.103251084844421637e-01 -1.438407606264490157e+00 -9.838659633207612679e-04 -7.012546633918212979e-01 -5.732926226222009314e-01 -9.528008205603649694e-01 1.034726207413750876e+00 6.753622663489672849e-04
-9.180569377351919247e-01 -4.318135430934491037e-01 -2.527561701027767338e-01 -1.382258369254511621e+00 -9.038750622050234149e-04 -7.157649687500091673e-01 -5.930712131265482023e-01 -8.486212323666919577e-01 1.122984740199572062e+00 1.599818022314756193e-03
-9.546384186775819236e-01 -4.620684779971542255e-01 -2.904254356459777253e-01 -1.322974552128798997e+00 -8.087549851750753778e-04 -7.316296188477993123e-01 -6.050986980741027699e-01 -7.533853108640202745e-01 1.185676342514253800e+00 1.902401540598960741e-03
-9.920643048046782209e-01 -4.925753599459729570e-01 -3.238055874516332366e-01 -1.261661872347844104e+00 -7.179240522490231346e-04 -7.485177225419270552e-01 -6.101376389763741859e-01 -6.676030361131102264e-01 1.226253595619098968e+00 1.816618658521045732e-03
-1.030375206741969585e+00 -5.230346409474350144e-01 -3.533580269896915982e-01 -1.199237119300317733e+00 -6.443431903298132372e-04 -7.662180387458282782e-01 -6.091856200292419254e-01 -5.910487907611675640e-01 1.248495060950528313e+00 1.471617238384198599e-03
-1.069606889986736364e+00 -5.532033219450148698e-01 -3.795159414828874755e-01 -1.136422060634858511e+00 -5.960540134849773991e-04 -7.846336648953368131e-01 -6.033736199515967735e-01 -5.231582898639176582e-01 1.256301173309185559e+00 9.657835368967175203e-04
-1.109795354341938101e+00 -5.829003108011959755e-01 -4.026794775394252901e-01 -1.073733552153219861e+00 -5.761455540482580311e-04 -8.037692871040351683e-01 -5.939397771236220036e-01 -4.632707211307562356e-01 1.253770169632771436e+00 3.981691887343868181e-04
-1.150980761409668318e+00 -6.120014729921885444e-01 -4.232213726562965017e-01 -1.011506876568914359e+00 -5.844736416163327222e-04 -8.237081413546035735e-01 -5.820232438198505998e-01 -4.108379023374241767e-01 1.244533511686108929e+00 -1.665617513614946893e-04
-1.193210189601096038e+00 -6.404287826007810658e-01 -4.415019157492798829e-01 -9.499337482602880911e-01 -6.193122095056849451e-04 -8.445885638285549613e-01 -5.685461921718508727e-01 -3.656108618596674575e-01 1.231462566172526030e+00 -6.967713577870446751e-04
-1.236539470559627540e+00 -6.681416166606941598e-01 -4.578850258584535315e-01 -8.890863741366655804e-01 -6.781279092122374482e-04 -8.665856191706289291e-01 -5.542566811982614361e-01 -3.276622021834724729e-01 1.216947482472450437e+00 -1.176313994131049194e-03
-1.281034367037141575e+00 -6.951283353344547278e-01 -4.727556971029068800e-01 -8.289358106162764139e-01 -7.577463527610214626e-04 -8.898979295502819076e-01 -5.397343734752120259e-01 -2.974134248890664689e-01 1.203011270407784217e+00 -1.592368870975680939e-03
-1.326771335138599239e+00 -7.213979149704462523e-01 -4.865382692721907931e-01 -7.693669324830412215e-01 -8.532551825668040430e-04 -9.147393620291520699e-01 -5.253915927198303804e-01 -2.756514433856785962e-01 1.191377562664703627e+00 -1.910176596115651174e-03
-1.373837898074097730e+00 -7.469720103675078215e-01 -4.997154239511878981e-01 -7.101890845001890273e-01 -9.516143246805127678e-04 -9.413312587099688100e-01 -5.114819079412319391e-01 -2.635430935799419339e-01 1.183556959657044105e+00 -1.967182842274174497e-03
-1.422332890344841561e+00 -7.718783130174815543e-01 -5.128496478051454144e-01 -6.511387950964555582e-01 -1.003166217392038829e-03 0.000000000000000000e+00 0.000000000000000000e+00 0.000000000000000000e+00 0.000000000000000000e+00 0.000000000000000000e+00
-1.422332890344841561e+00 -7.718783130174815543e-01 -5.128496478051454144e-01 -6.511387950964555582e-01 -1.003166217392038829e-03 0.000000000000000000e+00 0.000000000000000000e+00 0.000000000000000000e+00 0.000000000000000000e+00 0.000000000000000000e+00
-1.422332890344841561e+00 -7.718783130174815543e-01 -5.128496478051454144e-01 -6.511387950964555582e-01 -1.003166217392038829e-03 0.000000000000000000e+00 0.000000000000000000e+00 0.000000000000000000e+00 0.000000000000000000e+00 0.000000000000000000e+00
-1.422332890344841561e+00 -7.718783130174815543e-01 -5.128496478051454144e-01 -6.511387950964555582e-01 -1.003166217392038829e-03 0.000000000000000000e+00 0.000000000000000000e+00 0.000000000000000000e+00 0.000000000000000000e+00 0.000000000000000000e+00
-1.422332890344841561e+00 -7.718783130174815543e-01 -5.128496478051454144e-01 -6.511387950964555582e-01 -1.003166217392038829e-03 0.000000000000000000e+00 0.000000000000000000e+00 0.000000000000000000e+00 0.000000000000000000e+00 0.000000000000000000e+00
-1.422332890344841561e+00 -7.718783130174815543e-01 -5.128496478051454144e-01 -6.511387950964555582e-01 -1.003166217392038829e-03 0.000000000000000000e+00 0.000000000000000000e+00 0.000000000000000000e+00 0.000000000000000000e+00 0.000000000000000000e+00
-1.422332890344841561e+00 -7.718783130174815543e-01 -5.128496478051454144e-01 -6.511387950964555582e-01 -1.003166217392038829e-03 0.000000000000000000e+00 0.000000000000000000e+00 0.000000000000000000e+00 0.000000000000000000e+00 0.000000000000000000e+00
-1.422332890344841561e+00 -7.718783130174815543e-01 -5.128496478051454144e-01 -6.511387950964555582e-01 -1.003166217392038829e-03 0.000000000000000000e+00 0.000000000000000000e+00 0.000000000000000000e+00 0.000000000000000000e+00 0.000000000000000000e+00
-1.422332890344841561e+00 -7.718783130174815543e-01 -5.128496478051454144e-01 -6.511387950964555582e-01 -1.003166217392038829e-03 0.000000000000000000e+00 0.000000000000000000e+00 0.000000000000000000e+00 0.000000000000000000e+00 0.000000000000000000e+00
-1.422332890344841561e+00 -7.718783130174815543e-01 -5.128496478051454144e-01 -6.511387950964555582e-01 -1.003166217392038829e-03 0.000000000000000000e+00 0.000000000000000000e+00 0.000000000000000000e+00 0.000000000000000000e+00 0.000000000000000000e+00
