3.751420100389410983e-01 4.067134358916765224e-01 3.999674078493021256e-01
3.751420100389410983e-01 4.067134358916765224e-01 3.999674078493021256e-01
3.751420100389410983e-01 4.067134358916765224e-01 3.999674078493021256e-01
3.751420100389410983e-01 4.067134358916765224e-01 3.999674078493021256e-01
3.751420100389410983e-01 4.067134358916765224e-01 3.999674078493021256e-01
3.751420100389410983e-01 4.067134358916765224e-01 3.999674078493021256e-01
3.751420100389410983e-01 4.067134358916765224e-01 3.999674078493021256e-01
3.751420100389410983e-01 4.067134358916765224e-01 3.999674078493021256e-01
3.751420100389410983e-01 4.067134358916765224e-01 3.999674078493021256e-01
3.751420100389410983e-01 4.067134358916765224e-01 3.999674078493021256e-01
3.751420100389410983e-01 4.067134358916765224e-01 3.999674078493021256e-01
3.751420100389410983e-01 4.067134358916765224e-01 3.999674078493021256e-01
3.751420100389410983e-01 4.067134358916765224e-01 3.999674078493021256e-01
3.751420100389410983e-01 4.067134358916765224e-01 3.999674078493021256e-01
3.751420100389410983e-01 4.067134358916765224e-01 3.999674078493021256e-01
3.751420100389410983e-01 4.067134358916765224e-01 3.999674078493021256e-01
3.751420100389410983e-01 4.067134358916765224e-01 3.999674078493021256e-01
3.751420100389410983e-01 4.067134358916765224e-01 3.999674078493021256e-01
3.751420100389410983e-01 4.067134358916765224e-01 3.999674078493021256e-01
3.751420100389410983e-01 4.067134358916765224e-01 3.999674078493021256e-01
3.751420100389410983e-01 4.067134358916765224e-01 3.999674078493021256e-01
3.751420100389410983e-01 4.067134358916765224e-01 3.999674078493021256e-01
3.751420100389410983e-01 4.067134358916765224e-01 3.999674078493021256e-01
3.751420100389410983e-01 4.067134358916765224e-01 3.999674078493021256e-01
3.751420100389410983e-01 4.067134358916765224e-01 3.999674078493021256e-01
3.751420100389410983e-01 4.067134358916765224e-01 3.999674078493021256e-01
3.751420100389410983e-01 4.067134358916765224e-01 3.999674078493021256e-01
3.751420100389410983e-01 4.067134358916765224e-01 3.999674078493021256e-01
3.751420100389410983e-01 4.067134358916765224e-01 3.999674078493021256e-01
3.751420100389410983e-01 4.067134358916765224e-01 3.999674078493021256e-01
