-9.018253455692476495e-01 -5.893488472367772180e-03 -1.647869104587880440e-01 -1.958574196294153191e+00 -1.062287263678907568e-03 -5.021802515439334202e-01 -6.019222926643446048e-01 -1.063756503953430910e+00 1.056475751128389540e+00 4.803478481038593313e-04
-9.279153285847434596e-01 -3.804818877215791761e-02 -2.109416344149158407e-01 -1.900158423785272221e+00 -1.038222468323289757e-03 -5.217996603099153141e-01 -6.430940059958029087e-01 -9.230944791225557111e-01 1.168315450177618287e+00 4.812959071123542177e-04
-9.549628037451666218e-01 -7.164795608812071781e-02 -2.507447537213638444e-01 -1.838137888373153173e+00 -1.006744494004634463e-03 -5.409495032084621347e-01 -6.719953463192558374e-01 -7.960623861289598535e-01 1.240410708242380533e+00 6.295594863731066330e-04
-9.829097468556545758e-01 -1.061259194188180488e-01 -2.850094189480429363e-01 -1.774226513677735984e+00 -9.481075781632994706e-04 -5.589388622097595238e-01 -6.895592666139466198e-01 -6.852933045335818374e-01 1.278227493908342893e+00 1.172738316826698766e-03
-1.011680301069791454e+00 -1.409912734349056396e-01 -3.145404865067263911e-01 -1.709805300510635062e+00 -8.679452232428608955e-04 -5.754110842827390160e-01 -6.973070803217519265e-01 -5.906213511736692068e-01 1.288424263342017095e+00 1.603247098408772369e-03
-1.041193977795533687e+00 -1.758399633821009500e-01 -3.400631922667609053e-01 -1.645924715912808090e+00 -7.806326236858411073e-04 -5.902735345148425461e-01 -6.969737989439060977e-01 -5.104541152006907279e-01 1.277611691956539897e+00 1.746251991140395981e-03
-1.071374335795470589e+00 -2.103533614121010920e-01 -3.621980963805419007e-01 -1.583341397940712048e+00 -6.975351326986389648e-04 -6.036071599987372638e-01 -6.902679606000031720e-01 -4.426980822756197975e-01 1.251666359441921506e+00 1.661949819744041766e-03
-1.102154163262927034e+00 -2.442919089820764222e-01 -3.814620297458132803e-01 -1.522562313204778750e+00 -6.255356092045456220e-04 -6.155965493491267759e-01 -6.787709513995064947e-01 -3.852786673054275912e-01 1.215581694718665950e+00 1.439990469881866856e-03
-1.133478358779277384e+00 -2.774858439177190217e-01 -3.982823274298732397e-01 -1.463889841159749627e+00 -5.679539259864049058e-04 -6.264839103270062326e-01 -6.638786987128522110e-01 -3.364059536811994100e-01 1.173449440900580454e+00 1.151633664362813458e-03
-1.165305415869588579e+00 -3.098248364650594833e-01 -4.130155568199687655e-01 -1.407463432660235769e+00 -5.256509657426652101e-04 -6.365411418062217885e-01 -6.467798509468090096e-01 -2.946645878019105158e-01 1.128528169990278718e+00 8.460592048747946721e-04
-1.197608079772271905e+00 -3.412474666749817365e-01 -4.259653521775488838e-01 -1.353297262102409526e+00 -4.979089699319352554e-04 -6.460532780536679676e-01 -6.284526041984455080e-01 -2.589959071516019784e-01 1.083323411156523086e+00 5.548399162145999618e-04
-1.230373622066280870e+00 -3.717317514815910995e-01 -4.373971988028761415e-01 -1.301310756130919177e+00 -4.830716020734273112e-04 -6.553108458801811809e-01 -6.096856961321868162e-01 -2.286369325065446267e-01 1.039730119429805422e+00 2.967473571701586123e-04
-1.263603929116686952e+00 -4.012866021002294281e-01 -4.475513583001208273e-01 -1.251352693987482168e+00 -4.790036525446467164e-04 -6.646061410081213205e-01 -5.910970123727665726e-01 -2.030831899448941602e-01 9.991612428687395298e-01 8.135899057561165183e-05
-1.297315432687425663e+00 -4.299440831157584353e-01 -4.566525204780213509e-01 -1.203221587602886000e+00 -4.834747431035116261e-04 -6.742300714147720919e-01 -5.731496203105804765e-01 -1.820232435580104724e-01 9.626221276919225689e-01 -8.942181117729813963e-05
-1.331539028968925509e+00 -4.577529523285860380e-01 -4.649167933902013106e-01 -1.156681001105081208e+00 -4.945213096931298010e-04 -6.844719256299961474e-01 -5.561773842565522763e-01 -1.652854582435988318e-01 9.308117299560936253e-01 -2.209313317923627116e-04
-1.366319966155963961e+00 -4.847731760181904215e-01 -4.725576695239685487e-01 -1.111470646552125796e+00 -5.107646224916452841e-04 -6.956187437407694851e-01 -5.404044737920877806e-01 -1.528175226753449578e-01 9.042070910591080146e-01 -3.248662559703102042e-04
-1.401717638099900798e+00 -5.110714016896288348e-01 -4.797904137404195857e-01 -1.067314175763176998e+00 -5.321172141809006910e-04 -7.079534388787351862e-01 -5.259645134287672663e-01 -1.446548843290210717e-01 8.831294157789754129e-01 -4.270518337851084080e-04
-1.437805360592572024e+00 -5.367177011636696804e-01 -4.868363391790220818e-01 -1.023921856154728971e+00 -5.615849971548883459e-04 -7.217544498534261832e-01 -5.129259894808168019e-01 -1.409185087720494223e-01 8.678463921689605343e-01 -5.893556594797524483e-04
-1.474670040536390392e+00 -5.617831040382541552e-01 -4.939260942069760296e-01 -9.809909775287591893e-01 -6.128982266883530516e-04 -7.372935988763659187e-01 -5.013080574916890519e-01 -1.417951005590793179e-01 8.586175725193964103e-01 -1.026264590669293464e-03
-1.512411691265815428e+00 -5.863378809185072482e-01 -5.013027813020202172e-01 -9.382037308182380464e-01 -7.409211849691798007e-04 0.000000000000000000e+00 0.000000000000000000e+00 0.000000000000000000e+00 0.000000000000000000e+00 0.000000000000000000e+00
-1.512411691265815428e+00 -5.863378809185072482e-01 -5.013027813020202172e-01 -9.382037308182380464e-01 -7.409211849691798007e-04 0.000000000000000000e+00 0.000000000000000000e+00 0.000000000000000000e+00 0.000000000000000000e+00 0.000000000000000000e+00
-1.512411691265815428e+00 -5.863378809185072482e-01 -5.013027813020202172e-01 -9.382037308182380464e-01 -7.409211849691798007e-04 0.000000000000000000e+00 0.000000000000000000e+00 0.000000000000000000e+00 0.000000000000000000e+00 0.000000000000000000e+00
-1.512411691265815428e+00 -5.863378809185072482e-01 -5.013027813020202172e-01 -9.382037308182380464e-01 -7.409211849691798007e-04 0.000000000000000000e+00 0.000000000000000000e+00 0.000000000000000000e+00 0.000000000000000000e+00 0.000000000000000000e+00
-1.512411691265815428e+00 -5.863378809185072482e-01 -5.013027813020202172e-01 -9.382037308182380464e-01 -7.409211849691798007e-04 0.000000000000000000e+00 0.000000000000000000e+00 0.000000000000000000e+00 0.000000000000000000e+00 0.000000000000000000e+00
-1.512411691265815428e+00 -5.863378809185072482e-01 -5.013027813020202172e-01 -9.382037308182380464e-01 -7.409211849691798007e-04 0.000000000000000000e+00 0.000000000000000000e+00 0.000000000000000000e+00 0.000000000000000000e+00 0.000000000000000000e+00
-1.512411691265815428e+00 -5.863378809185072482e-01 -5.013027813020202172e-01 -9.382037308182380464e-01 -7.409211849691798007e-04 0.000000000000000000e+00 0.000000000000000000e+00 0.000000000000000000e+00 0.000000000000000000e+00 0.000000000000000000e+00
-1.512411691265815428e+00 -5.863378809185072482e-01 -5.013027813020202172e-01 -9.382037308182380464e-01 -7.409211849691798007e-04 0.000000000000000000e+00 0.000000000000000000e+00 0.000000000000000000e+00 0.000000000000000000e+00 0.000000000000000000e+00
-1.512411691265815428e+00 -5.863378809185072482e-01 -5.013027813020202172e-01 -9.382037308182380464e-01 -7.409211849691798007e-04 0.000000000000000000e+00 0.000000000000000000e+00 0.000000000000000000e+00 0.000000000000000000e+00 0.000000000000000000e+00
-1.512411691265815428e+00 -5.863378809185072482e-01 -5.013027813020202172e-01 -9.382037308182380464e-01 -7.409211849691798007e-04 0.000000000000000000e+00 0.000000000000000000e+00 0.000000000000000000e+00 0.000000000000000000e+00 0.000000000000000000e+00
-1.512411691265815428e+00 -5.863378809185072482e-01 -5.013027813020202172e-01 -9.382037308182380464e-01 -7.409211849691798007e-04 0.000000000000000000e+00 0.000000000000000000e+00 0.000000000000000000e+00 0.000000000000000000e+00 0.000000000000000000e+00
-1.512411691265815428e+00 -5.863378809185072482e-01 -5.013027813020202172e-01 -9.382037308182380464e-01 -7.409211849691798007e-04 0.000000000000000000e+00 0.000000000000000000e+00 0.000000000000000000e+00 0.000000000000000000e+00 0.000000000000000000e+00
