-2.682475589566954421e-01 -1.859123486378838896e-01 7.119396447288124374e-01 -1.380274289269057153e+00 -6.119209704654026555e-04 -1.007046470109860675e-01 -2.612061135369466158e-01 -3.164189971255969014e-01 -5.455675464875777703e-01 -2.799136394914569174e-03
-2.726326708991707592e-01 -2.014210323241653888e-01 6.953959959380080491e-01 -1.404540612257596299e+00 -7.522441205825107762e-04 -8.770223884950661963e-02 -3.101736737256297616e-01 -3.308729758160885992e-01 -4.853264597707838690e-01 -2.806463002342162848e-03
-2.761011143537145385e-01 -2.193381135290130290e-01 6.786631685062909369e-01 -1.424367440001905516e+00 -8.796171419670172076e-04 -6.936886909087605635e-02 -3.583416240969528599e-01 -3.346565486343433538e-01 -3.965365548861823353e-01 -2.547460427690128627e-03
-2.784553518680151774e-01 -2.395755257391772031e-01 6.622717587612556578e-01 -1.438701789356139127e+00 -9.764392043765703078e-04 -4.708475028601243062e-02 -4.047482442032833694e-01 -3.278281949007063045e-01 -2.866869870846704416e-01 -1.936441248191061787e-03
-2.795658772662422686e-01 -2.619975336257501786e-01 6.467244747318160458e-01 -1.446880812427645324e+00 -1.010075127119142505e-03 -2.221050796454161064e-02 -4.484401577314598986e-01 -3.109456805887920727e-01 -1.635804614301251680e-01 -6.727184548514452377e-04
-2.793658328275870351e-01 -2.864243378869165690e-01 6.324679564636123130e-01 -1.448619098884348366e+00 -1.017847618470277054e-03 4.000888773104321200e-03 -4.885360852233278095e-01 -2.851303653640750446e-01 -3.476572913406192344e-02 -1.554498270226911021e-04
-2.778415995856421961e-01 -3.126392376202594137e-01 6.198687345558444584e-01 -1.443967628898096711e+00 -1.018168853213059083e-03 3.048466483889684595e-02 -5.242979946668564484e-01 -2.519844381553566492e-01 9.302939972503501687e-02 -6.424694855639571022e-06
-2.750208593021116754e-01 -3.403991305256571787e-01 6.091990413374843705e-01 -1.433250930518401578e+00 -1.016470066198003680e-03 5.641480567060992019e-02 -5.551978581079547448e-01 -2.133938643672007307e-01 2.143339675939014977e-01 3.397574030110892017e-05
-2.709592415774564333e-01 -3.694475805010728475e-01 6.006349650693356690e-01 -1.416988857788992862e+00 -1.014204400015447736e-03 8.123235449310509115e-02 -5.809689995083133773e-01 -1.712815253629749179e-01 3.252414545881739394e-01 4.531332365111794154e-05
-2.657263767938971011e-01 -3.995296259513233528e-01 5.942670594940190343e-01 -1.395810046250382630e+00 -1.012118290695642690e-03 1.046572956711862706e-01 -6.016409090050098829e-01 -1.273581115063329716e-01 4.235762307722040765e-01 4.172218639610055836e-05
-2.593951718528864081e-01 -4.304040135085906438e-01 5.901166978275951269e-01 -1.370380094326787201e+00 -1.010983178458618997e-03 1.266240988202140538e-01 -6.174877511453455980e-01 -8.300723332847773084e-02 5.085990384719097923e-01 2.270224474047536693e-05
-2.520329185855822995e-01 -4.618536598482031463e-01 5.881561686820387935e-01 -1.341340456281481242e+00 -1.009567122971690616e-03 1.472450653460817827e-01 -6.289929267922498290e-01 -3.921058291112620997e-02 5.807927609061201979e-01 2.832110973856918597e-05
-2.436990520243521863e-01 -4.936888707537058218e-01 5.883261225533350514e-01 -1.309287929299747022e+00 -9.954431955190713548e-04 1.666773312246020988e-01 -6.367042181100533993e-01 3.399077425925482732e-03 6.410505396346826146e-01 2.824785490523873377e-04
-2.344448225649521933e-01 -5.257482561069882765e-01 5.905486903883002681e-01 -1.274765065268067987e+00 -9.684234388318000483e-04 1.850845891880001648e-01 -6.411877070656482047e-01 4.445135669930363326e-02 6.904572806335808055e-01 5.403951337454252629e-04
-2.243125055229550635e-01 -5.578993255769270077e-01 5.947393603473659640e-01 -1.238251251154447008e+00 -9.307376757344012173e-04 2.026463408399424571e-01 -6.430213893987740681e-01 8.381339918131447408e-02 7.302762822724218061e-01 7.537152619479766183e-04
-2.133352807076420998e-01 -5.900379354946216903e-01 6.008145849792315696e-01 -1.200158071197459764e+00 -8.844774244757557012e-04 2.195444963062590793e-01 -6.427721983538929873e-01 1.215044926373131107e-01 7.618635991397451068e-01 9.252050251729094545e-04
-2.015375803479187711e-01 -6.220867562775026505e-01 6.086985150362698160e-01 -1.160831568725206653e+00 -8.311939754495034334e-04 2.359540071944666861e-01 -6.409764156576187588e-01 1.576786011407641519e-01 7.865300494450601088e-01 1.065668980525044923e-03
-1.889351549215172454e-01 -6.539934482353856326e-01 6.183291348655250985e-01 -1.120556655793095047e+00 -7.720010746026851646e-04 2.520485085280302906e-01 -6.381338391576589775e-01 1.926123965851050390e-01 8.054982586422332336e-01 1.183858016936365377e-03
-1.755344478663186936e-01 -6.857287637923165091e-01 6.296642106007216411e-01 -1.079561390538928078e+00 -7.076659392583810413e-04 2.680141411039712596e-01 -6.347063111386177514e-01 2.267015147039318501e-01 8.199053050833412515e-01 1.286702706886081382e-03
-1.613312669342726047e-01 -7.172845384614007225e-01 6.426873959038926776e-01 -1.038021314787640703e+00 -6.386746899248779610e-04 2.840636186409216668e-01 -6.311154933816851553e-01 2.604637060634202306e-01 8.308015150257460624e-01 1.379824986670062257e-03
-1.463090529908054327e-01 -7.486714146285954330e-01 6.574143347698537809e-01 -9.960650881114372357e-01 -5.654356617015810979e-04 3.004442788693432176e-01 -6.277375233438948765e-01 2.945387773192215120e-01 8.391245335240686831e-01 1.464780564465938129e-03
-1.304362960405028304e-01 -7.799166734071771856e-01 6.739002998254065568e-01 -9.537807022883790786e-01 -4.893279672773675907e-04 3.174551390060517120e-01 -6.249051755716358292e-01 3.297193011110549077e-01 8.456877164611639186e-01 1.522153888484270145e-03
-1.136626130640833454e-01 -8.110623952366883271e-01 6.922506009519036052e-01 -9.112215415959711295e-01 -4.170746210626547260e-04 3.354736595283895895e-01 -6.229144365902227198e-01 3.670060225299408563e-01 8.511832138481588705e-01 1.445066924294257076e-03
-9.591325485606780332e-02 -8.421637928594801759e-01 7.126338183133318349e-01 -8.684119401322623055e-01 -3.778900257221406468e-04 3.549871641603108419e-01 -6.220279524558365303e-01 4.076643472285645942e-01 8.561920292741755922e-01 7.836919068102816922e-04
-7.708075986400959867e-02 -8.732881266588571334e-01 7.353007087594253255e-01 -8.253507051197034317e-01 -4.926823469885772315e-04 0.000000000000000000e+00 0.000000000000000000e+00 0.000000000000000000e+00 0.000000000000000000e+00 0.000000000000000000e+00
-7.708075986400959867e-02 -8.732881266588571334e-01 7.353007087594253255e-01 -8.253507051197034317e-01 -4.926823469885772315e-04 0.000000000000000000e+00 0.000000000000000000e+00 0.000000000000000000e+00 0.000000000000000000e+00 0.000000000000000000e+00
-7.708075986400959867e-02 -8.732881266588571334e-01 7.353007087594253255e-01 -8.253507051197034317e-01 -4.926823469885772315e-04 0.000000000000000000e+00 0.000000000000000000e+00 0.000000000000000000e+00 0.000000000000000000e+00 0.000000000000000000e+00
-7.708075986400959867e-02 -8.732881266588571334e-01 7.353007087594253255e-01 -8.253507051197034317e-01 -4.926823469885772315e-04 0.000000000000000000e+00 0.000000000000000000e+00 0.000000000000000000e+00 0.000000000000000000e+00 0.000000000000000000e+00
-7.708075986400959867e-02 -8.732881266588571334e-01 7.353007087594253255e-01 -8.253507051197034317e-01 -4.926823469885772315e-04 0.000000000000000000e+00 0.000000000000000000e+00 0.000000000000000000e+00 0.000000000000000000e+00 0.000000000000000000e+00
-7.708075986400959867e-02 -8.732881266588571334e-01 7.353007087594253255e-01 -8.253507051197034317e-01 -4.926823469885772315e-04 0.000000000000000000e+00 0.000000000000000000e+00 0.000000000000000000e+00 0.000000000000000000e+00 0.000000000000000000e+00
-7.708075986400959867e-02 -8.732881266588571334e-01 7.353007087594253255e-01 -8.253507051197034317e-01 -4.926823469885772315e-04 0.000000000000000000e+00 0.000000000000000000e+00 0.000000000000000000e+00 0.000000000000000000e+00 0.000000000000000000e+00
