-1.083777697502536386e+00 -9.564443817819815452e-01 3.156361529346748407e-01 -1.278127070056075620e+00 -3.711229372255579468e-04 -4.599494071133112816e-01 -1.374181173459446237e+00 -8.237420421561755246e-01 4.714563509210609737e-01 2.669354732046098737e-04
-1.106285985664849481e+00 -1.027746166805878492e+00 2.780433130765442296e-01 -1.243300074010154743e+00 -3.164925839364928330e-04 -4.501657632462626735e-01 -1.426035700477937151e+00 -7.518567971626124447e-01 6.965399209184162110e-01 1.092607065781302711e-03
-1.128324560123743714e+00 -1.101346259754336643e+00 2.439681829313037897e-01 -1.198082989474413385e+00 -2.368555092442496961e-04 -4.407714891778850563e-01 -1.472001858969161470e+00 -6.815026029048090184e-01 9.043416907148292827e-01 1.592741493844862521e-03
-1.149881909499212096e+00 -1.176942972744827509e+00 2.131746547945365944e-01 -1.143436456852515271e+00 -1.493471571262608736e-04 -4.311469875093655313e-01 -1.511934259809815106e+00 -6.158705627353440182e-01 1.092930652437963834e+00 1.750167042359776015e-03
-1.170893302496993194e+00 -1.254236322370831713e+00 1.853178069941238404e-01 -1.080364485619246695e+00 -7.060908209523061190e-05 -4.202278599556200644e-01 -1.545866992520084526e+00 -5.571369560082549688e-01 1.261439424665372400e+00 1.574761500620605126e-03
-1.191226424374561832e+00 -1.332934843531696556e+00 1.599883456407837634e-01 -1.009877464751759657e+00 -1.566209980100915892e-05 -4.066624375513729905e-01 -1.573970423217296188e+00 -5.065892270668015396e-01 1.409740417349742980e+00 1.098939645884429005e-03
-1.210684640952550906e+00 -1.412759747465291094e+00 1.367377066687974763e-01 -9.329690265968056950e-01 3.047457270906205236e-06 -3.891643315597830832e-01 -1.596498078671890308e+00 -4.650127794397258540e-01 1.538168763099078573e+00 3.741911414383073103e-04
-1.229039218622688612e+00 -1.493446464008205021e+00 1.150712396260306497e-01 -8.506033612760268703e-01 -2.526648022378593666e-05 -3.670915534027521243e-01 -1.613734330858277000e+00 -4.333293408553365311e-01 1.647313306415576273e+00 -5.662787498938426888e-04
-1.246099675081254743e+00 -1.574742204583510441e+00 9.438877852737601049e-02 -7.637072698337066257e-01 -1.139082965881834097e-04 -3.412091291713238994e-01 -1.625914811506108171e+00 -4.136492219730927289e-01 1.737921828846405337e+00 -1.772836327287949420e-03
-1.261819074688709685e+00 -1.656395803541009792e+00 7.384122222385659795e-02 -6.731584445766408686e-01 -2.600601960295242107e-04 -3.143879921491002927e-01 -1.633071979149987030e+00 -4.109511260703882507e-01 1.810976505141314030e+00 -2.923037988826815425e-03
-1.276376997872477492e+00 -1.738139427512196855e+00 5.212695254576635295e-02 -5.797614314979905314e-01 -3.566743288402674829e-04 0.000000000000000000e+00 0.000000000000000000e+00 0.000000000000000000e+00 0.000000000000000000e+00 0.000000000000000000e+00
-1.276376997872477492e+00 -1.738139427512196855e+00 5.212695254576635295e-02 -5.797614314979905314e-01 -3.566743288402674829e-04 0.000000000000000000e+00 0.000000000000000000e+00 0.000000000000000000e+00 0.000000000000000000e+00 0.000000000000000000e+00
-1.276376997872477492e+00 -1.738139427512196855e+00 5.212695254576635295e-02 -5.797614314979905314e-01 -3.566743288402674829e-04 0.000000000000000000e+00 0.000000000000000000e+00 0.000000000000000000e+00 0.000000000000000000e+00 0.000000000000000000e+00
-1.276376997872477492e+00 -1.738139427512196855e+00 5.212695254576635295e-02 -5.797614314979905314e-01 -3.566743288402674829e-04 0.000000000000000000e+00 0.000000000000000000e+00 0.000000000000000000e+00 0.000000000000000000e+00 0.000000000000000000e+00
-1.276376997872477492e+00 -1.738139427512196855e+00 5.212695254576635295e-02 -5.797614314979905314e-01 -3.566743288402674829e-04 0.000000000000000000e+00 0.000000000000000000e+00 0.000000000000000000e+00 0.000000000000000000e+00 0.000000000000000000e+00
-1.276376997872477492e+00 -1.738139427512196855e+00 5.212695254576635295e-02 -5.797614314979905314e-01 -3.566743288402674829e-04 0.000000000000000000e+00 0.000000000000000000e+00 0.000000000000000000e+00 0.000000000000000000e+00 0.000000000000000000e+00
-1.276376997872477492e+00 -1.738139427512196855e+00 5.212695254576635295e-02 -5.797614314979905314e-01 -3.566743288402674829e-04 0.000000000000000000e+00 0.000000000000000000e+00 0.000000000000000000e+00 0.000000000000000000e+00 0.000000000000000000e+00
-1.276376997872477492e+00 -1.738139427512196855e+00 5.212695254576635295e-02 -5.797614314979905314e-01 -3.566743288402674829e-04 0.000000000000000000e+00 0.000000000000000000e+00 0.000000000000000000e+00 0.000000000000000000e+00 0.000000000000000000e+00
-1.276376997872477492e+00 -1.738139427512196855e+00 5.212695254576635295e-02 -5.797614314979905314e-01 -3.566743288402674829e-04 0.000000000000000000e+00 0.000000000000000000e+00 0.000000000000000000e+00 0.000000000000000000e+00 0.000000000000000000e+00
-1.276376997872477492e+00 -1.738139427512196855e+00 5.212695254576635295e-02 -5.797614314979905314e-01 -3.566743288402674829e-04 0.000000000000000000e+00 0.000000000000000000e+00 0.000000000000000000e+00 0.000000000000000000e+00 0.000000000000000000e+00
-1.276376997872477492e+00 -1.738139427512196855e+00 5.212695254576635295e-02 -5.797614314979905314e-01 -3.566743288402674829e-04 0.000000000000000000e+00 0.000000000000000000e+00 0.000000000000000000e+00 0.000000000000000000e+00 0.000000000000000000e+00
-1.276376997872477492e+00 -1.738139427512196855e+00 5.212695254576635295e-02 -5.797614314979905314e-01 -3.566743288402674829e-04 0.000000000000000000e+00 0.000000000000000000e+00 0.000000000000000000e+00 0.000000000000000000e+00 0.000000000000000000e+00
-1.276376997872477492e+00 -1.738139427512196855e+00 5.212695254576635295e-02 -5.797614314979905314e-01 -3.566743288402674829e-04 0.000000000000000000e+00 0.000000000000000000e+00 0.000000000000000000e+00 0.000000000000000000e+00 0.000000000000000000e+00
-1.276376997872477492e+00 -1.738139427512196855e+00 5.212695254576635295e-02 -5.797614314979905314e-01 -3.566743288402674829e-04 0.000000000000000000e+00 0.000000000000000000e+00 0.000000000000000000e+00 0.000000000000000000e+00 0.000000000000000000e+00
-1.276376997872477492e+00 -1.738139427512196855e+00 5.212695254576635295e-02 -5.797614314979905314e-01 -3.566743288402674829e-04 0.000000000000000000e+00 0.000000000000000000e+00 0.000000000000000000e+00 0.000000000000000000e+00 0.000000000000000000e+00
-1.276376997872477492e+00 -1.738139427512196855e+00 5.212695254576635295e-02 -5.797614314979905314e-01 -3.566743288402674829e-04 0.000000000000000000e+00 0.000000000000000000e+00 0.000000000000000000e+00 0.000000000000000000e+00 0.000000000000000000e+00
-1.276376997872477492e+00 -1.738139427512196855e+00 5.212695254576635295e-02 -5.797614314979905314e-01 -3.566743288402674829e-04 0.000000000000000000e+00 0.000000000000000000e+00 0.000000000000000000e+00 0.000000000000000000e+00 0.000000000000000000e+00
-1.276376997872477492e+00 -1.738139427512196855e+00 5.212695254576635295e-02 -5.797614314979905314e-01 -3.566743288402674829e-04 0.000000000000000000e+00 0.000000000000000000e+00 0.000000000000000000e+00 0.000000000000000000e+00 0.000000000000000000e+00
-1.276376997872477492e+00 -1.738139427512196855e+00 5.212695254576635295e-02 -5.797614314979905314e-01 -3.566743288402674829e-04 0.000000000000000000e+00 0.000000000000000000e+00 0.000000000000000000e+00 0.000000000000000000e+00 0.000000000000000000e+00
-1.276376997872477492e+00 -1.738139427512196855e+00 5.212695254576635295e-02 -5.797614314979905314e-01 -3.566743288402674829e-04 0.000000000000000000e+00 0.000000000000000000e+00 0.000000000000000000e+00 0.000000000000000000e+00 0.000000000000000000e+00
-1.276376997872477492e+00 -1.738139427512196855e+00 5.212695254576635295e-02 -5.797614314979905314e-01 -3.566743288402674829e-04 0.000000000000000000e+00 0.000000000000000000e+00 0.000000000000000000e+00 0.000000000000000000e+00 0.000000000000000000e+00
