5.399157408606877206e-01 1.817828101222065673e-01 4.103106560273152015e-01
5.399157408606877206e-01 1.817828101222065673e-01 4.103106560273152015e-01
5.399157408606877206e-01 1.817828101222065673e-01 4.103106560273152015e-01
5.399157408606877206e-01 1.817828101222065673e-01 4.103106560273152015e-01
5.399157408606877206e-01 1.817828101222065673e-01 4.103106560273152015e-01
5.399157408606877206e-01 1.817828101222065673e-01 4.103106560273152015e-01
5.399157408606877206e-01 1.817828101222065673e-01 4.103106560273152015e-01
5.399157408606877206e-01 1.817828101222065673e-01 4.103106560273152015e-01
5.399157408606877206e-01 1.817828101222065673e-01 4.103106560273152015e-01
5.399157408606877206e-01 1.817828101222065673e-01 4.103106560273152015e-01
5.399157408606877206e-01 1.817828101222065673e-01 4.103106560273152015e-01
5.399157408606877206e-01 1.817828101222065673e-01 4.103106560273152015e-01
5.399157408606877206e-01 1.817828101222065673e-01 4.103106560273152015e-01
5.399157408606877206e-01 1.817828101222065673e-01 4.103106560273152015e-01
5.399157408606877206e-01 1.817828101222065673e-01 4.103106560273152015e-01
5.399157408606877206e-01 1.817828101222065673e-01 4.103106560273152015e-01
5.399157408606877206e-01 1.817828101222065673e-01 4.103106560273152015e-01
5.399157408606877206e-01 1.817828101222065673e-01 4.103106560273152015e-01
5.399157408606877206e-01 1.817828101222065673e-01 4.103106560273152015e-01
5.399157408606877206e-01 1.817828101222065673e-01 4.103106560273152015e-01
5.399157408606877206e-01 1.817828101222065673e-01 4.103106560273152015e-01
5.399157408606877206e-01 1.817828101222065673e-01 4.103106560273152015e-01
5.399157408606877206e-01 1.817828101222065673e-01 4.103106560273152015e-01
5.399157408606877206e-01 1.817828101222065673e-01 4.103106560273152015e-01
5.399157408606877206e-01 1.817828101222065673e-01 4.103106560273152015e-01
5.399157408606877206e-01 1.817828101222065673e-01 4.103106560273152015e-01
5.399157408606877206e-01 1.817828101222065673e-01 4.103106560273152015e-01
5.399157408606877206e-01 1.817828101222065673e-01 4.103106560273152015e-01
5.399157408606877206e-01 1.817828101222065673e-01 4.103106560273152015e-01
5.399157408606877206e-01 1.817828101222065673e-01 4.103106560273152015e-01
