-4.492852515903633659e-01 9.076977506884376101e-02 5.477454459219136540e-01 -6.820169813997910557e-01 6.109692961706792878e-04 -8.204955405813339764e-02 -7.883149183504598034e-02 -2.297743857482097973e-01 -4.594507456154659497e-01 4.098928595386895982e-03
-4.545065822593578053e-01 8.491061805029409548e-02 5.350502259572168517e-01 -7.110435828456362906e-01 7.826368930794245062e-04 -1.044266133798893437e-01 -1.171831403709933384e-01 -2.539043992939367111e-01 -5.805320289169045855e-01 3.433351938174904801e-03
-4.607398618683133940e-01 7.688205047594412478e-02 5.221401895925458225e-01 -7.452834313185100479e-01 9.100157370781816052e-04 -1.246655921791112176e-01 -1.605713514869993308e-01 -2.582007272934208064e-01 -6.847969694574745914e-01 2.547576879975142414e-03
-4.678888909980088440e-01 6.646432287414891227e-02 5.097655359396592312e-01 -7.838425547600597065e-01 9.872003162856093916e-04 -1.429805825939094999e-01 -2.083545520359043335e-01 -2.474930730577308002e-01 -7.711824688309923959e-01 1.543691584148555295e-03
-4.758601339974473099e-01 5.347111385180402382e-02 4.984385732468364361e-01 -8.257635617899977687e-01 1.016365267681859511e-03 -1.594248599887689022e-01 -2.598641804468977412e-01 -2.265392538564555691e-01 -8.384201405987617983e-01 5.832990279250014091e-04
-4.845536503635995418e-01 3.775054061019027241e-02 4.884599310997853050e-01 -8.700275378361149725e-01 1.022443524900654242e-03 -1.738703273230440827e-01 -3.144114648322750005e-01 -1.995728429410223159e-01 -8.852795209223447426e-01 1.215651443758925540e-04
-4.938555153841102108e-01 1.918558177811588439e-02 4.799592519578066430e-01 -9.155650321747828002e-01 1.020323577552098441e-03 -1.860373004102130468e-01 -3.712991766414877048e-01 -1.700135828395729909e-01 -9.107498867733554437e-01 -4.239894697111566842e-05
-5.036337360598291957e-01 -2.306470270144689305e-03 4.729457186631628174e-01 -9.612750981608633172e-01 1.009008669765788877e-03 -1.955644135143786988e-01 -4.298410409652114739e-01 -1.402706658928763450e-01 -9.142013197216101172e-01 -2.262981557261905901e-04
-5.137384594009644090e-01 -2.677497087007620416e-02 4.673608034271701239e-01 -1.006051779835918314e+00 9.676389992379790840e-04 -2.020944668227042107e-01 -4.893700119986302832e-01 -1.116983047198539664e-01 -8.955336335010982696e-01 -8.273934105561948872e-04
-5.240054531527552628e-01 -5.423740840363742294e-02 4.631257212591402550e-01 -1.048812884038918369e+00 8.521730494666982219e-04 -2.053398750358180480e-01 -5.492487506712243617e-01 -8.470164336059687882e-02 -8.552220840600016638e-01 -2.309318995425617242e-03
-5.342617317606374039e-01 -8.468104255871966579e-02 4.601788092440015632e-01 -1.088529512939408361e+00 7.060492215544385752e-04 -2.051255721576431545e-01 -6.088726831016448848e-01 -5.893824030277369785e-02 -7.943325780098007272e-01 -2.922476558245193368e-03
-5.443321459297133513e-01 -1.180648274656462549e-01 4.585010177824132005e-01 -1.124254497887431592e+00 5.484476566589200318e-04 -2.014082833815185603e-01 -6.676756981385315592e-01 -3.355582923176739230e-02 -7.144996989604657234e-01 -3.152031297910370868e-03
-5.540456321835444120e-01 -1.543214586078367201e-01 4.581284294388185407e-01 -1.155148023549524838e+00 3.917053198678775239e-04 -1.942697250766219907e-01 -7.251326228438093047e-01 -7.451766871893011207e-03 -6.178705132418629287e-01 -3.134846735820850158e-03
-5.632404617195643226e-01 -1.933595186926963527e-01 4.591528373650021200e-01 -1.180499367541875122e+00 2.452306312018671768e-04 -1.838965907203973515e-01 -7.807612016971926527e-01 2.048815852367207382e-02 -5.070268798470044525e-01 -2.929493773320206509e-03
-5.717682825445687955e-01 -2.350654750807798510e-01 4.617127426746776009e-01 -1.199744770323106557e+00 1.162844446251215785e-04 -1.705564165000887089e-01 -8.341191277616698541e-01 5.119810619350952108e-02 -3.849080556246291529e-01 -2.578923731534911966e-03
-5.794968322354034918e-01 -2.793058392197621531e-01 4.659793179781980821e-01 -1.212480544684757522e+00 1.005152950584704905e-05 -1.545709938166932307e-01 -8.848072827796458206e-01 8.533150607040992930e-02 -2.547154872330200659e-01 -2.124658302385490534e-03
-5.863113351296401765e-01 -3.259296780156755169e-01 4.721417159495234217e-01 -1.218471217645328508e+00 -7.040147489339766966e-05 -1.362900578847336952e-01 -9.324767759182676086e-01 1.232479594265064871e-01 -1.198134592114216967e-01 -1.609060087984894374e-03
-5.921146707492709327e-01 -3.747714342137903887e-01 4.803946139401206183e-01 -1.217652711376880692e+00 -1.240146616905458705e-04 -1.160667123926159144e-01 -9.768351239622972138e-01 1.650579598119443214e-01 1.637012536895690595e-02 -1.072263735942964287e-03
-5.968264997249339565e-01 -4.256540410355768578e-01 4.909295121971904430e-01 -1.210130667029030826e+00 -1.514438211174241834e-04 -9.423657951326055993e-02 -1.017652136435729382e+00 2.106979651413966592e-01 1.504408869569982543e-01 -5.485831885375663667e-04
-6.003816696437316303e-01 -4.783920857148974415e-01 5.039302213214502668e-01 -1.196174515446640330e+00 -1.545230982565054144e-04 -7.110339837595266999e-02 -1.054760893586411896e+00 2.600141824851959216e-01 2.791230316478107154e-01 -6.158554278162445663e-05
-6.027281969077105117e-01 -5.327949186102362011e-01 5.195733918002335416e-01 -1.176208823362591804e+00 -1.358222706029922047e-04 -4.693054527957857269e-02 -1.088056657906775637e+00 3.128634095756644418e-01 3.993138416809721147e-01 3.740165530702639217e-04
-6.038248405948889452e-01 -5.886696340859285392e-01 5.380330769713108641e-01 -1.150801633305066352e+00 -9.830146932846651813e-05 -2.193287374356790720e-02 -1.117494309513846984e+00 3.691937034215468927e-01 5.081438011505107211e-01 7.504160254905136232e-04
-6.036382457563664872e-01 -6.458239452609281228e-01 5.594871377195506090e-01 -1.120648626747692278e+00 -4.504895948757556593e-05 3.731896770450254114e-03 -1.143086223499991894e+00 4.290812149647956208e-01 6.030601311474808046e-01 1.065050196817818881e-03
-6.021397403840523799e-01 -7.040688727069789321e-01 5.841241791094725633e-01 -1.086553851838751417e+00 2.038967070663194082e-05 2.997010744628165330e-02 -1.164898548921016852e+00 4.927408277984381968e-01 6.818954981788187819e-01 1.308772603884150081e-03
-5.993016180841930218e-01 -7.632213076170173416e-01 6.121502178427282725e-01 -1.049407490581393709e+00 9.150462400806189394e-05 5.676244599718735517e-02 -1.183048698200769300e+00 5.605207746651141854e-01 7.429272251471554789e-01 1.422299066028598954e-03
-5.950933174550324667e-01 -8.231057756145152560e-01 6.437939140936386195e-01 -1.010164765410514809e+00 1.479096195428798851e-04 8.416601258321133872e-02 -1.197689359949959176e+00 6.328739250182061626e-01 7.848545034175774537e-01 1.128099910696359932e-03
-5.894769086329553209e-01 -8.835559105306526329e-01 6.793092449363916652e-01 -9.698234107496959133e-01 1.119424738909250024e-04 1.123281764415423184e-01 -1.209002698322747094e+00 7.103066168550613568e-01 8.068270932163771336e-01 -7.193429130390976544e-04
-5.824020409506284190e-01 -9.444155272917322819e-01 7.189743871849882950e-01 -9.294004581392907305e-01 -3.249324234141851139e-04 0.000000000000000000e+00 0.000000000000000000e+00 0.000000000000000000e+00 0.000000000000000000e+00 0.000000000000000000e+00
-5.824020409506284190e-01 -9.444155272917322819e-01 7.189743871849882950e-01 -9.294004581392907305e-01 -3.249324234141851139e-04 0.000000000000000000e+00 0.000000000000000000e+00 0.000000000000000000e+00 0.000000000000000000e+00 0.000000000000000000e+00
-5.824020409506284190e-01 -9.444155272917322819e-01 7.189743871849882950e-01 -9.294004581392907305e-01 -3.249324234141851139e-04 0.000000000000000000e+00 0.000000000000000000e+00 0.000000000000000000e+00 0.000000000000000000e+00 0.000000000000000000e+00
-5.824020409506284190e-01 -9.444155272917322819e-01 7.189743871849882950e-01 -9.294004581392907305e-01 -3.249324234141851139e-04 0.000000000000000000e+00 0.000000000000000000e+00 0.000000000000000000e+00 0.000000000000000000e+00 0.000000000000000000e+00
