-7.925447102838933944e-01 1.198395533678215663e-01 3.953936148997568290e-01 -1.460770379076953507e+00 8.473782609499748214e-04 -9.703971160272717444e-01 -4.461633006993692696e-01 -6.778624218185020922e-01 -1.957886336348644285e+00 -3.239689952869199800e-03
-8.432615589089699215e-01 9.314718105125882608e-02 3.539580605565397220e-01 -1.551026274969691476e+00 5.714224011234043813e-04 -1.014336972501530099e+00 -5.338474463312549156e-01 -8.287110868643415840e-01 -1.805117917854757614e+00 -5.519117196531408802e-03
-8.956986266261175444e-01 6.225802805977138921e-02 3.048089451077574674e-01 -1.631070954700516884e+00 2.151804364652629489e-04 -1.048741354342952015e+00 -6.177830598297486819e-01 -9.829823089756450916e-01 -1.600893594616506599e+00 -7.124839293162829081e-03
-9.494673480652476849e-01 2.742388272596613802e-02 2.483928674232683542e-01 -1.698737588584756208e+00 -1.726409764360705627e-04 -1.075374428782601921e+00 -6.966829066761049960e-01 -1.128321553689782153e+00 -1.353332677684785823e+00 -7.756428258026669582e-03
-1.004287871722086889e+00 -1.108500774417933710e-02 1.857958508494341743e-01 -1.752308970653892572e+00 -5.375166365718445343e-04 -1.096410473136782526e+00 -7.701778094029094746e-01 -1.251940331476683266e+00 -1.071427641382725060e+00 -7.297513202715479215e-03
-1.060010277466650885e+00 -5.300509545665951783e-02 1.186520075191853929e-01 -1.790577489511913312e+00 -8.271212948794304416e-04 -1.114448114891279706e+00 -8.384017542496035036e-01 -1.342876866604975739e+00 -7.653703771604127848e-01 -5.792093166151718146e-03
-1.116629109907172346e+00 -9.807605967875486497e-02 4.893337611349907190e-02 -1.812905393451204494e+00 -1.002161507855166235e-03 -1.132376648810429876e+00 -9.014192844419067763e-01 -1.394372628113726087e+00 -4.465580787858222100e-01 -3.500804259514715428e-03
-1.174281647926664895e+00 -1.460131520755048318e-01 -2.134331349102910891e-02 -1.819257433330335516e+00 -1.056569364718948443e-03 -1.153050760389851437e+00 -9.587418479349992806e-01 -1.405533792090563505e+00 -1.270407975826218228e-01 -1.088157137275645465e-03
-1.233225486469485821e+00 -1.964719236654197121e-01 -9.041835689962088307e-02 -1.810177451832186035e+00 -1.062749015535173393e-03 -1.178876770856419842e+00 -1.009175431798297717e+00 -1.381500868171835261e+00 1.815996299629903388e-01 -1.235930163245003120e-04
-1.293801391291867109e+00 -2.490234943232646492e-01 -1.570178076520225285e-01 -1.786702998835021816e+00 -1.050614592960727239e-03 -1.211518096447623982e+00 -1.051031413156898298e+00 -1.331989015048032909e+00 4.694890599432833267e-01 2.426884514889235227e-04
-1.356393761263410047e+00 -3.031522853654614047e-01 -2.204574996100391038e-01 -1.750226339702749767e+00 -1.017231461471488794e-03 -1.251847399430858099e+00 -1.082575820843935555e+00 -1.268793839160331505e+00 7.295331826454407587e-01 6.676626297847675952e-04
-1.421400803595368467e+00 -3.582725238710771087e-01 -2.806267813724279137e-01 -1.702337696747820317e+00 -9.333646850502399540e-04 -1.300140846639168624e+00 -1.102404770112313637e+00 -1.203385635247775864e+00 9.577728590985876700e-01 1.677335528424977670e-03
-1.489218609561356654e+00 -4.137542216766072478e-01 -3.378874781675575423e-01 -1.644684593339232448e+00 -7.926101438960420163e-04 -1.356356119319763076e+00 -1.109633956110602115e+00 -1.145213935902592350e+00 1.153062068171759158e+00 2.815090823083959623e-03
-1.560236597370979528e+00 -4.689473987127014687e-01 -3.929404852842023343e-01 -1.578872054361123434e+00 -6.168489576449007975e-04 -1.420359756192459466e+00 -1.103863540721884418e+00 -1.101060142332895619e+00 1.316250779562181394e+00 3.515223725022823507e-03
-1.634838445821215291e+00 -5.231981798881738532e-01 -4.466993952234044052e-01 -1.506411347992837824e+00 -4.333878984272986241e-04 -1.492036969004714164e+00 -1.085015623509447247e+00 -1.075178198784041417e+00 1.449214127365712201e+00 3.669221184352043901e-03
-1.713401503072321752e+00 -5.758626447167836115e-01 -5.001820412623874113e-01 -1.428678922221857883e+00 -2.675492499425417706e-04 -1.571261145022129879e+00 -1.053289296572195610e+00 -1.069652920779660121e+00 1.554648515419599697e+00 3.316772969695136637e-03
-1.796291889858771196e+00 -6.263182179768522762e-01 -5.544282815554414379e-01 -1.346879466234755851e+00 -1.393080503578136647e-04 -1.657807735728990650e+00 -1.009111465201373736e+00 -1.084924805861081420e+00 1.635989119742042197e+00 2.564823991694562336e-03
-1.883855271636673656e+00 -6.739676236433228551e-01 -6.104502229029939997e-01 -1.262033183886948073e+00 -6.370704424338151947e-05 -1.751267635558049429e+00 -9.529881133294120232e-01 -1.120438826951051237e+00 1.696925646956153333e+00 1.512020122288642741e-03
-1.976402289345426055e+00 -7.182395031793420426e-01 -6.692053385626183237e-01 -1.174970846793476520e+00 -5.194766139459983676e-05 -1.850940354175046876e+00 -8.854375907203826390e-01 -1.175102313192486925e+00 1.741246741869431736e+00 2.351876569756338169e-04
-2.074188717848835406e+00 -7.585889721061959134e-01 -7.315842865525608030e-01 -1.086324699415902151e+00 -1.114147674986010509e-04 -1.955728570068183902e+00 -8.069893785370774175e-01 -1.247578959798850029e+00 1.772922947551488937e+00 -1.189342122080023741e-03
-2.177391245669417774e+00 -7.945001711175446735e-01 -7.984096223607579645e-01 -9.965076701634391076e-01 -2.407863268647985960e-04 -2.064050556411646475e+00 -7.182239802269757556e-01 -1.336506716163942565e+00 1.796340585049261085e+00 -2.587431187323950034e-03
-2.286080596624244343e+00 -8.254913722831609402e-01 -8.704475023793593058e-01 -9.056776410583882164e-01 -4.053557340620900684e-04 0.000000000000000000e+00 0.000000000000000000e+00 0.000000000000000000e+00 0.000000000000000000e+00 0.000000000000000000e+00
-2.286080596624244343e+00 -8.254913722831609402e-01 -8.704475023793593058e-01 -9.056776410583882164e-01 -4.053557340620900684e-04 0.000000000000000000e+00 0.000000000000000000e+00 0.000000000000000000e+00 0.000000000000000000e+00 0.000000000000000000e+00
-2.286080596624244343e+00 -8.254913722831609402e-01 -8.704475023793593058e-01 -9.056776410583882164e-01 -4.053557340620900684e-04 0.000000000000000000e+00 0.000000000000000000e+00 0.000000000000000000e+00 0.000000000000000000e+00 0.000000000000000000e+00
-2.286080596624244343e+00 -8.254913722831609402e-01 -8.704475023793593058e-01 -9.056776410583882164e-01 -4.053557340620900684e-04 0.000000000000000000e+00 0.000000000000000000e+00 0.000000000000000000e+00 0.000000000000000000e+00 0.000000000000000000e+00
-2.286080596624244343e+00 -8.254913722831609402e-01 -8.704475023793593058e-01 -9.056776410583882164e-01 -4.053557340620900684e-04 0.000000000000000000e+00 0.000000000000000000e+00 0.000000000000000000e+00 0.000000000000000000e+00 0.000000000000000000e+00
-2.286080596624244343e+00 -8.254913722831609402e-01 -8.704475023793593058e-01 -9.056776410583882164e-01 -4.053557340620900684e-04 0.000000000000000000e+00 0.000000000000000000e+00 0.000000000000000000e+00 0.000000000000000000e+00 0.000000000000000000e+00
-2.286080596624244343e+00 -8.254913722831609402e-01 -8.704475023793593058e-01 -9.056776410583882164e-01 -4.053557340620900684e-04 0.000000000000000000e+00 0.000000000000000000e+00 0.000000000000000000e+00 0.000000000000000000e+00 0.000000000000000000e+00
-2.286080596624244343e+00 -8.254913722831609402e-01 -8.704475023793593058e-01 -9.056776410583882164e-01 -4.053557340620900684e-04 0.000000000000000000e+00 0.000000000000000000e+00 0.000000000000000000e+00 0.000000000000000000e+00 0.000000000000000000e+00
-2.286080596624244343e+00 -8.254913722831609402e-01 -8.704475023793593058e-01 -9.056776410583882164e-01 -4.053557340620900684e-04 0.000000000000000000e+00 0.000000000000000000e+00 0.000000000000000000e+00 0.000000000000000000e+00 0.000000000000000000e+00
-2.286080596624244343e+00 -8.254913722831609402e-01 -8.704475023793593058e-01 -9.056776410583882164e-01 -4.053557340620900684e-04 0.000000000000000000e+00 0.000000000000000000e+00 0.000000000000000000e+00 0.000000000000000000e+00 0.000000000000000000e+00
