-5.864384293669313575e-01 3.511945613205176286e-01 7.282874285844226359e-01 -1.936971389331151316e+00 0.000000000000000000e+00 -2.016210527394250718e-03 -7.817054327740585035e-04 2.769443225541816031e-03 -1.583360738956773178e-03 0.000000000000000000e+00
-5.871946569426335083e-01 3.487714455972570904e-01 7.260581477058576372e-01 -1.943137137758906396e+00 -4.496809657586776639e-05 -1.512455151404400872e-02 -4.846231446521098024e-02 -4.458561757129976544e-02 -1.233149685551036129e-01 -8.993619315173552193e-04
-5.883572986843689234e-01 3.438843524183116673e-01 7.216985795926382785e-01 -1.954103211580176636e+00 -9.619832330614757666e-05 -2.325283483470839616e-02 -9.774186357890876642e-02 -8.719136226438697901e-02 -2.193214764254035054e-01 -1.024604534605596043e-03
-5.897087677093484359e-01 3.364943229742576314e-01 7.153466261583746322e-01 -1.968694368939191364e+00 -1.495201278109037249e-04 -2.702938049958991326e-02 -1.478005888810808299e-01 -1.270390686852737039e-01 -2.918231471802932298e-01 -1.066436090095122802e-03
-5.910599811649529522e-01 3.265956055627612931e-01 7.070910108535412020e-01 -1.985821159193256413e+00 -2.090564642515217459e-04 -2.702426911209081586e-02 -1.979743482299270718e-01 -1.651123060966695477e-01 -3.425358050813009925e-01 -1.190726728812360313e-03
-5.922454679507913600e-01 3.142074863335355683e-01 6.970152761079156933e-01 -2.004448924501274210e+00 -2.809363874603691496e-04 -2.370973571676777969e-02 -2.477623845845144390e-01 -2.015146949125097009e-01 -3.725553061603549265e-01 -1.437598464176947748e-03
-5.931173018490221160e-01 2.993656529561060098e-01 6.852403640435781318e-01 -2.023565207364631746e+00 -3.701103885659364173e-04 -1.743667796461570788e-02 -2.968366675485910600e-01 -2.354982412867506758e-01 -3.823256572671501208e-01 -1.783480022111345355e-03
-5.935400807020027036e-01 2.821146916162561857e-01 6.719614832053810716e-01 -2.042155988202482231e+00 -4.777667438445877242e-04 -8.455577059611077070e-03 -3.450192267969965920e-01 -2.655776167639405938e-01 -3.718156167570056403e-01 -2.153127105573026355e-03
-5.933894863804493047e-01 2.625032718485756367e-01 6.574732584290083892e-01 -2.059205038167292834e+00 -5.994802442887036320e-04 3.011886431068287046e-03 -3.922283953536112033e-01 -2.897644955274538137e-01 -3.409809992962152814e-01 -2.434270008882317721e-03
-5.925568236302626302e-01 2.405844121474516317e-01 6.421754643559983711e-01 -2.073730322294992323e+00 -7.247511866732027613e-04 1.665325500373296408e-02 -4.383771940224799879e-01 -3.059558814602014176e-01 -2.905056825539861776e-01 -2.505418847689982152e-03
-5.909586379912418197e-01 2.164216959963057574e-01 6.265511796203391270e-01 -2.084852569840766723e+00 -8.397346460080792451e-04 3.196371278041620217e-02 -4.832543230229172648e-01 -3.124856947131855467e-01 -2.224449509154877158e-01 -2.299669186697530978e-03
-5.885464503444464146e-01 1.900983586171930972e-01 6.111233417092899467e-01 -2.091870937557849253e+00 -9.310249689481408207e-04 4.824375293590800473e-02 -5.264667475822532028e-01 -3.085567582209837179e-01 -1.403673543416501801e-01 -1.825806458801231946e-03
-5.853125289663596575e-01 1.617259251418222410e-01 5.964015381977212371e-01 -2.094323241647718437e+00 -9.888306570915044759e-04 6.467842756173484975e-02 -5.674486695074170139e-01 -2.944360702313741918e-01 -4.904608179738487173e-02 -1.156113762867272019e-03
-5.812891025381531351e-01 1.314487324850821537e-01 5.828303402811899625e-01 -2.092011739028445838e+00 -1.011244533259670047e-03 8.046852856413011512e-02 -6.055438531348015241e-01 -2.714239583306250481e-01 4.623005238545249695e-02 -4.482775233633125040e-04
-5.765419053440087316e-01 9.944315900176185774e-02 5.707501059998200121e-01 -2.084992411210654151e+00 -1.015288927158802465e-03 9.494394388288712738e-02 -6.401114696664058634e-01 -2.416046856273999233e-01 1.403865563558314988e-01 -8.088787798264689870e-05
-5.711603474493096577e-01 6.591179840295635639e-02 5.603788536110185792e-01 -2.073536223407151269e+00 -1.013240953332570108e-03 1.076311578939815328e-01 -6.706272119761100825e-01 -2.074250477760292977e-01 2.291237560700551956e-01 4.095947652464686185e-05
-5.652473457321439687e-01 3.107456190801739793e-02 5.518129095301761433e-01 -2.058076132221196008e+00 -1.009228456129858311e-03 1.182600343433127671e-01 -6.967447298987791138e-01 -1.713188816168489947e-01 3.092018237191017649e-01 8.024994405423585087e-05
-5.589099413231224389e-01 -4.842020394494814250e-03 5.450454079359533521e-01 -2.039149267377629915e+00 -1.002669172451339753e-03 1.267480881804299575e-01 -7.183316460502441325e-01 -1.353500318844566008e-01 3.785372968713237585e-01 1.311856735703692653e-04
-5.522508538274516487e-01 -4.161663526610884234e-02 5.399943380447472796e-01 -2.017337243767545640e+00 -9.891540168531663332e-04 1.331817499134162752e-01 -7.354922974322806173e-01 -1.010213978241223387e-01 4.362404722016892666e-01 2.703031119634695324e-04
-5.453616102281109157e-01 -7.904436884672830232e-02 5.365326707443973664e-01 -1.993211390890149426e+00 -9.682756521883866246e-04 1.377848719868154104e-01 -7.485546716123891997e-01 -6.923334600699918018e-02 4.825170575479262314e-01 4.175672932955940106e-04
-5.383181558469569694e-01 -1.169451155496542966e-01 5.345146724337977995e-01 -1.967292171770613551e+00 -9.422397871241580507e-04 1.408690876230792866e-01 -7.580149340585199402e-01 -4.035996621199032519e-02 5.183843823907182680e-01 5.207173012845716948e-04
-5.311804336573934249e-01 -1.551670946744099777e-01 5.337905709251675734e-01 -1.940031042510805603e+00 -9.134530134525443599e-04 1.427544437912715014e-01 -7.644395824951136786e-01 -1.448203017260350778e-02 5.452225851961581826e-01 5.757354734322728393e-04
-5.239929884720657682e-01 -1.935879672970483578e-01 5.342182880736122685e-01 -1.911803533068560546e+00 -8.836322153528619258e-04 1.437489037065522168e-01 -7.684174524527673800e-01 8.554342968893832722e-03 5.645501888448998251e-01 5.964159619936488990e-04
-5.167859779897789885e-01 -2.321144308541508994e-01 5.356711826443927293e-01 -1.882908481020996172e+00 -8.536930984760427365e-04 1.441402096457365944e-01 -7.705292711420509422e-01 2.905789141560902525e-02 5.779010409512876922e-01 5.987823375363829186e-04
-5.095765000707497272e-01 -2.706805569954728319e-01 5.380421386967366715e-01 -1.853572018703986357e+00 -8.239168400259974960e-04 1.441895583805860859e-01 -7.713225228264382061e-01 4.741912104687831531e-02 5.867292463401945213e-01 5.955251690009040521e-04
-5.023703416546787537e-01 -3.092450040203592598e-01 5.412442863998454534e-01 -1.823955739327677517e+00 -7.944060263276583661e-04 1.441231683214183878e-01 -7.712889404977284480e-01 6.404295406217568043e-02 5.923255875261752568e-01 5.902162739667835738e-04
-4.951632131609650100e-01 -3.477881978046567513e-01 5.452110026934792186e-01 -1.794163675694762761e+00 -7.651593449386132192e-04 1.441425698742752060e-01 -7.708638756859491625e-01 7.933432587267565117e-02 5.958412726582972274e-01 5.849336277809019614e-04
-4.879417411550473482e-01 -3.863093838303375271e-01 5.498952377249710644e-01 -1.764249229748971581e+00 -7.359597547029471691e-04 1.444294401183527365e-01 -7.704237205136149624e-01 9.368470062983588753e-02 5.982889189158219212e-01 5.839918047133204606e-04
-4.806840930067556306e-01 -4.248236931460006027e-01 5.552689568942774656e-01 -1.734221457205602945e+00 -7.053017044328787569e-04 1.451529629658345200e-01 -7.702861863132618447e-01 1.074743833861280390e-01 6.005554508673747183e-01 6.131610054013688933e-04
-4.733602606823836267e-01 -4.633592371094819029e-01 5.613228563611543098e-01 -1.704050797058144884e+00 -6.658841247192640467e-04 1.464766464874396046e-01 -7.707108792696256705e-01 1.210779893375368704e-01 6.034132029491594551e-01 7.883515942722943122e-04
-4.659321235948368778e-01 -5.019541494139855287e-01 5.680661261771910997e-01 -1.673674552666692072e+00 -5.865364681276299995e-04 1.485627417509347015e-01 -7.718982460900728482e-01 1.348653963207349926e-01 6.075248878290551158e-01 1.586953131832681161e-03
