-5.130623272532987000e-01 -5.233002137111394392e-01 6.396434691095531644e-01 -1.373850210798989391e+00 9.193253401841911714e-04 -5.504534697661029874e-01 -2.024070541141785029e-01 -1.340610089389165260e+00 -1.065312278058091255e+00 -1.996099213685415159e-03
-5.396855034331953238e-01 -5.363546153882139400e-01 5.730130667906341291e-01 -1.420131278223114135e+00 6.662751158289613581e-04 -5.324635235979313652e-01 -2.610880335414910713e-01 -1.332608046378379596e+00 -9.256213484824966642e-01 -5.061004487104595398e-03
-5.650913513838559110e-01 -5.524042225925539507e-01 5.077354316879146845e-01 -1.458028432832368049e+00 3.834206577682008400e-04 -5.081169590132118552e-01 -3.209921440867993803e-01 -1.305552702054388448e+00 -7.579430921850764946e-01 -5.657089161215211014e-03
-5.890829294520940618e-01 -5.714322113064203013e-01 4.447139391775070116e-01 -1.486749838548061975e+00 1.257305112869502276e-04 -4.798315613647641253e-01 -3.805597742773264569e-01 -1.260429850208153235e+00 -5.744281143138776358e-01 -5.153802929625012248e-03
-6.115630089235976063e-01 -5.933517442619096194e-01 3.847631734352627841e-01 -1.506049174244749489e+00 -7.731007049905042148e-05 -4.496015894300716131e-01 -4.383906591097872507e-01 -1.199015314844884994e+00 -3.859867139337515018e-01 -4.060811635720013198e-03
-6.325123745885058435e-01 -6.180131642566406569e-01 3.285545311493194287e-01 -1.516133859389659833e+00 -2.112801091656876080e-04 -4.189873132981650206e-01 -4.932283998946201953e-01 -1.124172845718867331e+00 -2.016937028982067615e-01 -2.679400773332743513e-03
-6.519676598322945438e-01 -6.452122552554526713e-01 2.765719839127828150e-01 -1.517557713414604992e+00 -2.731439069228186337e-04 -3.891057048757735615e-01 -5.439818199762401774e-01 -1.039650944730731830e+00 -2.847708049890240734e-02 -1.237275955142620081e-03
-6.700005713161230059e-01 -6.747009986927563485e-01 2.290909418884995996e-01 -1.511110575014857682e+00 -2.684444119281736529e-04 -3.606582296765699081e-01 -5.897748687460732109e-01 -9.496208404856643082e-01 1.289427679949445293e-01 9.398989989289961537e-05
-6.866991910799417065e-01 -7.062028731238376711e-01 1.861858025618929602e-01 -1.497708361310802649e+00 -2.079405453235933746e-04 -3.339723952763732906e-01 -6.300374886216273396e-01 -8.581027865321326775e-01 2.680442740810999869e-01 1.210077332091605458e-03
-7.021543395202671789e-01 -7.394294950000981359e-01 1.477591574089060777e-01 -1.478301968287021095e+00 -1.046630784034370467e-04 -3.091029688065083936e-01 -6.645324375252098514e-01 -7.685329030597376487e-01 3.881278604756302486e-01 2.065549338403126559e-03
-7.164516385525386832e-01 -7.740960567318143637e-01 1.135813432975950193e-01 -1.453809728660331535e+00 2.849976864153220386e-05 -2.859459806454291431e-01 -6.933312346343255550e-01 -6.835562822262211125e-01 4.898447925337922615e-01 2.663256940899385011e-03
-7.296682863655475915e-01 -8.099340555129617147e-01 8.333241058314916350e-02 -1.425074303630828654e+00 1.803053020021473728e-04 -2.643329562601782201e-01 -7.167599756229471319e-01 -6.049786542889171725e-01 5.747085005900582910e-01 3.036110667212303486e-03
-7.418731338487861704e-01 -8.467007893353157844e-01 5.664018899017186914e-02 -1.392839175760722803e+00 3.418282263463433279e-04 -2.440969496647721060e-01 -7.353346764470807262e-01 -5.338444318595458871e-01 6.447025574021174599e-01 3.230458486883919320e-03
-7.531284586807601711e-01 -8.841854960254362794e-01 3.311179582932334553e-02 -1.357739748827144100e+00 5.063855983434945810e-04 -2.251064966394789035e-01 -7.496941338024100121e-01 -4.705678632169705278e-01 7.019885386715738473e-01 3.291147439943023761e-03
-7.634951869708171968e-01 -9.222097322546138898e-01 1.235070829656309543e-02 -1.320311696207802310e+00 6.685999485857814029e-04 -2.073345658011414017e-01 -7.604847245835515412e-01 -4.152217506552049464e-01 7.485610523868343469e-01 3.244287004845736438e-03
-7.730386019057798874e-01 -9.606268130500296154e-01 -6.033928704936328963e-03 -1.280998717023843492e+00 8.219271932446475717e-04 -1.908682986992537856e-01 -7.683416159083149566e-01 -3.676927400299884741e-01 7.862595836791775872e-01 3.066544893177322942e-03
-7.818357831635622812e-01 -9.993189833006466127e-01 -2.242724143888226787e-02 -1.240164288941303372e+00 9.501049219023053726e-04 -1.759436251556475428e-01 -7.738434050123389474e-01 -3.278662546789187782e-01 8.166885616508017254e-01 2.563554573153156886e-03
-7.899831789437469221e-01 -1.038195577282854387e+00 -3.721268582127666008e-02 -1.198097176762921379e+00 9.940770567874669845e-04 -1.629479156036934828e-01 -7.775318796441559321e-01 -2.957088876478878858e-01 8.413422435676419786e-01 8.794426977032322387e-04
-7.976060255518315767e-01 -1.077189490304954145e+00 -5.078268175750261237e-02 -1.155020896352787485e+00 1.003764179548711491e-03 -1.524569321616940643e-01 -7.798782604419958187e-01 -2.713999187245190181e-01 8.615256082026778728e-01 1.937424552248893624e-04
-8.048696702687130333e-01 -1.116253164896415351e+00 -6.355479185686363497e-02 -1.111102498980881315e+00 1.003678301259089758e-03 -1.452728943376301873e-01 -7.812734918292231212e-01 -2.554422019872203409e-01 8.783679474381237418e-01 -1.717565792435537435e-06
-8.119934794573936410e-01 -1.155354402384065615e+00 -7.599456116581879139e-02 -1.066459731963919522e+00 9.963529207886853614e-04 -1.424761837736127912e-01 -7.820247497530059544e-01 -2.487953861791032395e-01 8.928553403392353038e-01 -1.465076094080889995e-04
-8.192686011852130523e-01 -1.194471741243180229e+00 -8.864670977796000606e-02 -1.021167957764857137e+00 9.721879645059591573e-04 -1.455024345563890598e-01 -7.823467771822931738e-01 -2.530429722428243489e-01 9.058354839812465809e-01 -4.832991256545248393e-04
-8.270811819693795197e-01 -1.233589411476160302e+00 -1.021780527089808099e-01 -9.752657656960018739e-01 9.347886328327626284e-04 0.000000000000000000e+00 0.000000000000000000e+00 0.000000000000000000e+00 0.000000000000000000e+00 0.000000000000000000e+00
-8.270811819693795197e-01 -1.233589411476160302e+00 -1.021780527089808099e-01 -9.752657656960018739e-01 9.347886328327626284e-04 0.000000000000000000e+00 0.000000000000000000e+00 0.000000000000000000e+00 0.000000000000000000e+00 0.000000000000000000e+00
-8.270811819693795197e-01 -1.233589411476160302e+00 -1.021780527089808099e-01 -9.752657656960018739e-01 9.347886328327626284e-04 0.000000000000000000e+00 0.000000000000000000e+00 0.000000000000000000e+00 0.000000000000000000e+00 0.000000000000000000e+00
-8.270811819693795197e-01 -1.233589411476160302e+00 -1.021780527089808099e-01 -9.752657656960018739e-01 9.347886328327626284e-04 0.000000000000000000e+00 0.000000000000000000e+00 0.000000000000000000e+00 0.000000000000000000e+00 0.000000000000000000e+00
-8.270811819693795197e-01 -1.233589411476160302e+00 -1.021780527089808099e-01 -9.752657656960018739e-01 9.347886328327626284e-04 0.000000000000000000e+00 0.000000000000000000e+00 0.000000000000000000e+00 0.000000000000000000e+00 0.000000000000000000e+00
-8.270811819693795197e-01 -1.233589411476160302e+00 -1.021780527089808099e-01 -9.752657656960018739e-01 9.347886328327626284e-04 0.000000000000000000e+00 0.000000000000000000e+00 0.000000000000000000e+00 0.000000000000000000e+00 0.000000000000000000e+00
-8.270811819693795197e-01 -1.233589411476160302e+00 -1.021780527089808099e-01 -9.752657656960018739e-01 9.347886328327626284e-04 0.000000000000000000e+00 0.000000000000000000e+00 0.000000000000000000e+00 0.000000000000000000e+00 0.000000000000000000e+00
-8.270811819693795197e-01 -1.233589411476160302e+00 -1.021780527089808099e-01 -9.752657656960018739e-01 9.347886328327626284e-04 0.000000000000000000e+00 0.000000000000000000e+00 0.000000000000000000e+00 0.000000000000000000e+00 0.000000000000000000e+00
-8.270811819693795197e-01 -1.233589411476160302e+00 -1.021780527089808099e-01 -9.752657656960018739e-01 9.347886328327626284e-04 0.000000000000000000e+00 0.000000000000000000e+00 0.000000000000000000e+00 0.000000000000000000e+00 0.000000000000000000e+00
