-7.650695277867674005e-01 4.141794161208849356e-01 5.490926316820372161e-02 -1.538518009586733903e+00 2.309499443281672450e-05 -5.811939323581014616e-01 9.959851388655016624e-02 -1.009689775049154914e+00 -1.480921242336593169e+00 -8.721122718903838791e-03
-7.948974805007151812e-01 4.145294696763022202e-01 6.052579554930416494e-03 -1.598246854384886895e+00 -4.037517041834479798e-04 -5.965590542789560580e-01 7.001071108345427452e-03 -9.771336722654661022e-01 -1.194576895963060270e+00 -8.536933972325294953e-03
-8.253720179500104726e-01 4.102444541372922693e-01 -4.018878930333433241e-02 -1.642745195624459198e+00 -7.449277525921880506e-04 -6.094907489859068273e-01 -8.570031078019928195e-02 -9.248273771652949504e-01 -8.899668247914468422e-01 -6.823520968174801200e-03
-8.564241395581330130e-01 4.014972038488246464e-01 -8.276684927828711902e-02 -1.672069422807336725e+00 -9.576799918505619858e-04 -6.210424321624498090e-01 -1.749450057693519300e-01 -8.515611994990556211e-01 -5.864845436575513160e-01 -4.255044785167478270e-03
-8.880143416040398030e-01 3.885939776105163390e-01 -1.207526087391102565e-01 -1.687013304274296521e+00 -1.038259803983883301e-03 -6.318040409181366890e-01 -2.580645247661662589e-01 -7.597151892164626386e-01 -2.988776293391969818e-01 -1.611596242666427613e-03
-9.201093696531515986e-01 3.719358855719519519e-01 -1.534761919712029354e-01 -1.688879573697053216e+00 -1.050580382554433187e-03 -6.419005609822354685e-01 -3.331618407712878538e-01 -6.544716646418538009e-01 -3.732538845513388992e-02 -2.464115714109961931e-04
-9.526656200488552440e-01 3.519830056461267231e-01 -1.805932836523256313e-01 -1.679273286925993647e+00 -1.039161398557661735e-03 -6.511250079140730174e-01 -3.990575985165043527e-01 -5.423418336224539171e-01 1.921257354211929058e-01 2.283796799354283441e-04
-9.856226503239909897e-01 3.292200235278019971e-01 -2.020756095634837768e-01 -1.659925662476999131e+00 -1.010170354613500795e-03 -6.591406055027144717e-01 -4.552596423664940772e-01 -4.296465182231627433e-01 3.869524889798902079e-01 5.798208788832198788e-04
-1.018905783936986609e+00 3.041256956363118658e-01 -2.181484158577357835e-01 -1.632556437154726092e+00 -9.427949295831767641e-04 -6.656626722599136015e-01 -5.018865578298026264e-01 -3.214561258850402448e-01 5.473845064454608833e-01 1.347508500606479313e-03
-1.052433982446077110e+00 2.771487503802569363e-01 -2.292060426675794349e-01 -1.598777458357649950e+00 -8.367793836782105735e-04 -6.705639701818111309e-01 -5.395389051210985887e-01 -2.211525361968733061e-01 6.755795759415215151e-01 2.120310918099323812e-03
-1.086128811577736109e+00 2.486914089967738883e-01 -2.357310135013215291e-01 -1.560034062977024627e+00 -7.072246973320511559e-04 -6.738965826331806408e-01 -5.691468276696607376e-01 -1.304994166748417173e-01 7.748679076125084553e-01 2.591093726923187918e-03
-1.119921738359569208e+00 2.191001490268532637e-01 -2.382307202495283216e-01 -1.517576769132369607e+00 -5.688309463080706277e-04 -6.758585356366615393e-01 -5.918251993984127157e-01 -4.999413496413601665e-02 8.491458768931010592e-01 2.767875020479610565e-03
-1.153758666978774272e+00 1.886623846382960157e-01 -2.371955432818463605e-01 -1.472454601150090747e+00 -4.324962974129419177e-04 -6.767385723841031764e-01 -6.087552877711450705e-01 2.070353935363901388e-02 9.024433596455758710e-01 2.726692977902574200e-03
-1.187601813785924776e+00 1.576074534603512378e-01 -2.330759399323104053e-01 -1.425522216008729082e+00 -3.052220635752491903e-04 -6.768629361430081870e-01 -6.210986235588953353e-01 8.239206699071881246e-02 9.386477028272347534e-01 2.545484676753854980e-03
-1.221429593218514187e+00 1.261104323138923233e-01 -2.262734885545627794e-01 -1.377454756813080161e+00 -1.908611943095160830e-04 -6.765555886517897743e-01 -6.299404229291782897e-01 1.360490275549527395e-01 9.613491839129779670e-01 2.287217385314662364e-03
-1.255235287709888015e+00 9.429759931914914739e-02 -2.171407399528261228e-01 -1.328766188482942479e+00 -9.102584265536023335e-05 -6.761138898274785536e-01 -6.362566598948635743e-01 1.826549720347329098e-01 9.737713666027535409e-01 1.996707033083116884e-03
-1.289025139068261883e+00 6.225266763508752882e-02 -2.059856890688552822e-01 -1.279828380793045950e+00 -6.093978578448970259e-06 -6.757970271674755836e-01 -6.408986336812322326e-01 2.231010176794168687e-01 9.787561537979325710e-01 1.698637281538225045e-03
-1.322816293433192625e+00 3.002317392602867757e-02 -1.930778894043627403e-01 -1.230889305891649244e+00 6.310745651671659110e-05 -6.758230872986168425e-01 -6.445898741811770805e-01 2.581559932898506715e-01 9.787814980279360144e-01 1.384028701903311119e-03
-1.356634842783692285e+00 -2.373400435878754433e-03 -1.786542820885297089e-01 -1.182089467627507995e+00 1.104003533723661587e-04 -6.763709870099928745e-01 -6.479314872381485291e-01 2.884721463166606270e-01 9.759967652828234197e-01 9.458579371129911904e-04
-1.390514064500658398e+00 -3.494405772985271358e-02 -1.629235673033273546e-01 -1.133476175708562295e+00 1.058887288363245989e-04 -6.775844343393230274e-01 -6.514131458794791829e-01 3.146142957040471422e-01 9.722658383789136716e-01 -9.023249072083092646e-05
-1.424492876270110564e+00 -6.771544739419929626e-02 -1.460683954483334435e-01 -1.085015611043501860e+00 -7.705836420734358465e-05 0.000000000000000000e+00 0.000000000000000000e+00 0.000000000000000000e+00 0.000000000000000000e+00 0.000000000000000000e+00
-1.424492876270110564e+00 -6.771544739419929626e-02 -1.460683954483334435e-01 -1.085015611043501860e+00 -7.705836420734358465e-05 0.000000000000000000e+00 0.000000000000000000e+00 0.000000000000000000e+00 0.000000000000000000e+00 0.000000000000000000e+00
-1.424492876270110564e+00 -6.771544739419929626e-02 -1.460683954483334435e-01 -1.085015611043501860e+00 -7.705836420734358465e-05 0.000000000000000000e+00 0.000000000000000000e+00 0.000000000000000000e+00 0.000000000000000000e+00 0.000000000000000000e+00
-1.424492876270110564e+00 -6.771544739419929626e-02 -1.460683954483334435e-01 -1.085015611043501860e+00 -7.705836420734358465e-05 0.000000000000000000e+00 0.000000000000000000e+00 0.000000000000000000e+00 0.000000000000000000e+00 0.000000000000000000e+00
-1.424492876270110564e+00 -6.771544739419929626e-02 -1.460683954483334435e-01 -1.085015611043501860e+00 -7.705836420734358465e-05 0.000000000000000000e+00 0.000000000000000000e+00 0.000000000000000000e+00 0.000000000000000000e+00 0.000000000000000000e+00
-1.424492876270110564e+00 -6.771544739419929626e-02 -1.460683954483334435e-01 -1.085015611043501860e+00 -7.705836420734358465e-05 0.000000000000000000e+00 0.000000000000000000e+00 0.000000000000000000e+00 0.000000000000000000e+00 0.000000000000000000e+00
-1.424492876270110564e+00 -6.771544739419929626e-02 -1.460683954483334435e-01 -1.085015611043501860e+00 -7.705836420734358465e-05 0.000000000000000000e+00 0.000000000000000000e+00 0.000000000000000000e+00 0.000000000000000000e+00 0.000000000000000000e+00
-1.424492876270110564e+00 -6.771544739419929626e-02 -1.460683954483334435e-01 -1.085015611043501860e+00 -7.705836420734358465e-05 0.000000000000000000e+00 0.000000000000000000e+00 0.000000000000000000e+00 0.000000000000000000e+00 0.000000000000000000e+00
-1.424492876270110564e+00 -6.771544739419929626e-02 -1.460683954483334435e-01 -1.085015611043501860e+00 -7.705836420734358465e-05 0.000000000000000000e+00 0.000000000000000000e+00 0.000000000000000000e+00 0.000000000000000000e+00 0.000000000000000000e+00
-1.424492876270110564e+00 -6.771544739419929626e-02 -1.460683954483334435e-01 -1.085015611043501860e+00 -7.705836420734358465e-05 0.000000000000000000e+00 0.000000000000000000e+00 0.000000000000000000e+00 0.000000000000000000e+00 0.000000000000000000e+00
-1.424492876270110564e+00 -6.771544739419929626e-02 -1.460683954483334435e-01 -1.085015611043501860e+00 -7.705836420734358465e-05 0.000000000000000000e+00 0.000000000000000000e+00 0.000000000000000000e+00 0.000000000000000000e+00 0.000000000000000000e+00
