-3.168541450512404878e-01 -3.464019940977239309e-01 5.619545151086244861e-01 -9.604447171106951231e-01 0.000000000000000000e+00 -8.178655361468990977e-04 -2.115266299791674319e-04 9.138040126455823295e-04 -7.116681711826621654e-04 0.000000000000000000e+00
-3.176128347595184587e-01 -3.476070052532730936e-01 5.691868419460103246e-01 -9.786457845677286604e-01 -1.764822043413225038e-04 -1.517379416555995897e-02 -2.410022311098300798e-02 1.446465367477174080e-01 -3.640213491406712465e-01 -3.529644086826449426e-03
-3.186777010321801828e-01 -3.501247755281433616e-01 5.822989918236615159e-01 -1.011686670672306887e+00 -4.106628271926615961e-04 -2.129732545323419213e-02 -5.035540549740488009e-02 2.622429975530229940e-01 -6.608177220915651962e-01 -4.683612457026781195e-03
-3.196214845498391299e-01 -3.540867412853253571e-01 5.997966156361467238e-01 -1.056255729506053953e+00 -6.443154420676161422e-04 -1.887567035317892772e-02 -7.923931514364007667e-02 3.499524762497044361e-01 -8.913811766749419885e-01 -4.673052297499090922e-03
-3.199895485873704981e-01 -3.596359558737229345e-01 6.202910643806504032e-01 -1.109037620651536216e+00 -8.413901210101093963e-04 -7.361280750627917022e-03 -1.109842917679513818e-01 4.098889748900735319e-01 -1.055637822909643475e+00 -3.941493578849865516e-03
-3.193046517283533725e-01 -3.669150912503664763e-01 6.426799177597597446e-01 -1.166747938149307329e+00 -9.757439398709876225e-04 1.369793718034257625e-02 -1.455827075328711140e-01 4.477770675821857171e-01 -1.154206349955422040e+00 -2.687076377217563657e-03
-3.170889580420665488e-01 -3.760454729733395118e-01 6.662178984968868400e-01 -1.226232051158516967e+00 -1.018043903369087377e-03 4.431387372573664801e-02 -1.826076344594611545e-01 4.707596147425418542e-01 -1.189682260184192986e+00 -8.459992699619948726e-04
-3.128934207940891610e-01 -3.871043249629529948e-01 6.904951253553281987e-01 -1.284583516369861345e+00 -1.024498634685954606e-03 8.391074495954828349e-02 -2.211770397922691034e-01 4.855445371688275058e-01 -1.167029304226887776e+00 -1.290946263373434887e-04
-3.063276388209721368e-01 -4.001055071375916317e-01 7.153629581988237840e-01 -1.339261948536916158e+00 -1.021990793320939287e-03 1.313156394623399004e-01 -2.600236434927724605e-01 4.973566568699114288e-01 -1.093568643341096713e+00 5.015682730030832266e-05
-2.970836684493839974e-01 -4.149884962120908294e-01 7.408412416598585404e-01 -1.388184495578674404e+00 -1.018268767856564698e-03 1.848794074317630654e-01 -2.976597814899842875e-01 5.095656692206942395e-01 -9.784509408351639292e-01 7.444050928749052886e-05
-2.849514623960888171e-01 -4.316164824715523207e-01 7.670280282596159127e-01 -1.429781403498495473e+00 -1.014204456823179648e-03 2.426441210659034953e-01 -3.325597251892301598e-01 5.237357319951484458e-01 -8.319381583964216009e-01 8.128622066769954752e-05
-2.698258347626024678e-01 -4.497826398089315170e-01 7.940252513258967415e-01 -1.463015445047003649e+00 -1.006314107731884734e-03 3.025125526697272083e-01 -3.633231467475838139e-01 5.399444613256167980e-01 -6.646808309701652817e-01 1.578069818258989298e-04
-2.517056232167143026e-01 -4.692229499834108530e-01 8.218851903894704991e-01 -1.487365236623766185e+00 -9.817251768702137029e-04 3.624042309177633037e-01 -3.888062034895861663e-01 5.571987812714740418e-01 -4.869958315352512779e-01 4.917786172334187881e-04
-2.306864086407367787e-01 -4.896334167963408701e-01 8.505788844118943315e-01 -1.502776517885759722e+00 -9.145165104559699028e-04 4.203842915195505348e-01 -4.082093362586001750e-01 5.738738804484762035e-01 -3.082256252398707375e-01 1.344173328284876436e-03
-2.069489490744990667e-01 -5.106889832095812265e-01 8.799854930039345824e-01 -1.509592430238867689e+00 -8.288990318309362362e-04 4.747491913247545159e-01 -4.211113282648067946e-01 5.881321718408060173e-01 -1.363182470621584208e-01 1.712349572500673550e-03
-1.807447743379935190e-01 -5.320621012331134825e-01 9.098983858434979144e-01 -1.508471483720158934e+00 -7.349470153311343746e-04 5.240834947301110658e-01 -4.274623604706448421e-01 5.982578567912665291e-01 2.241893037417314050e-02 1.879040329996036580e-03
-1.523775817828467716e-01 -5.534405940121470691e-01 9.400468546145372972e-01 -1.500293555429427439e+00 -6.385177052915207282e-04 5.673438511029349485e-01 -4.275698555806715651e-01 6.029693754207869905e-01 1.635585658146304633e-01 1.928586200792272495e-03
-1.221774302066618717e-01 -5.745446723318393678e-01 9.701334280562262657e-01 -1.486050061926073251e+00 -5.437393110185895781e-04 6.040030315236979419e-01 -4.220815663938461415e-01 6.017314688337793704e-01 2.848698700670850292e-01 1.895567885458622351e-03
-9.045639028522217684e-02 -5.951456086567693538e-01 9.999028409473166290e-01 -1.466694616692234332e+00 -4.511074386065929017e-04 6.344207984287938418e-01 -4.120187264986000519e-01 5.953882578218080424e-01 3.871089046767778319e-01 1.852637448239933746e-03
-5.748561750978153223e-02 -6.150686729895560312e-01 1.029178328654688945e+00 -1.443078879473685072e+00 -3.573106639382967083e-04 6.594154555088128644e-01 -3.984612866557344923e-01 5.855097541474457712e-01 4.723147443709860838e-01 1.875935493365924302e-03
-2.349564951972762245e-02 -6.341871346032103007e-01 1.057849830510959377e+00 -1.415949313722471903e+00 -2.589483414881313937e-04 6.797993598010781957e-01 -3.823692322730851134e-01 5.734300371254087425e-01 5.425913150242630545e-01 1.967246449003306509e-03
1.132350856940582406e-02 -6.524164906919569518e-01 1.085866676532280195e+00 -1.385948630731013820e+00 -1.534451310391990691e-04 6.963831617826689024e-01 -3.645871217749333537e-01 5.603369204264175840e-01 6.000136598291597734e-01 2.110064208978646057e-03
4.682267528901182946e-02 -6.697090476815509286e-01 1.113233097407160255e+00 -1.353618338495548024e+00 -3.896850822210876249e-05 7.099833343921201356e-01 -3.458511397918792585e-01 5.473284174976005279e-01 6.466058447093147032e-01 2.289532456341805862e-03
8.289299194213425870e-02 -6.860488914201365862e-01 1.140004681482910343e+00 -1.319405636193425879e+00 8.540898867857471164e-05 7.214063330624483905e-01 -3.267968747717123756e-01 5.354316815150004238e-01 6.842540460424432203e-01 2.487549938013669266e-03
1.194653915974791258e-01 -7.014471876452924581e-01 1.166287789833696520e+00 -1.283672572824142710e+00 2.197903062523695280e-04 7.314479931068973428e-01 -3.079659245031174941e-01 5.256621670157213266e-01 7.146612673856612696e-01 2.687626351475895948e-03
1.565095480106852288e-01 -7.159376290481346272e-01 1.192239735175677273e+00 -1.246706104210507648e+00 3.635691329515189363e-04 7.408831282641222815e-01 -2.898088280568430486e-01 5.190389068396161765e-01 7.393293722727033446e-01 2.875576533982988382e-03
1.940320435607257310e-01 -7.295719255300797679e-01 1.218068336341775248e+00 -1.208728100432219232e+00 5.155175521265821428e-04 7.504499110008097107e-01 -2.726859296389033682e-01 5.165720233219589508e-01 7.595600755657666570e-01 3.038968383501264130e-03
2.320744006661789594e-01 -7.424155548523323489e-01 1.244032708583286073e+00 -1.169905495971666154e+00 6.733210258682759998e-04 7.608471421090646780e-01 -2.568725864450513985e-01 5.192874448302159385e-01 7.764520892110605699e-01 3.156069474833876707e-03
2.707111032675317830e-01 -7.545437510797905478e-01 1.270444830735457442e+00 -1.130359926069889553e+00 8.309743726810086151e-04 7.727340520270569169e-01 -2.425639245491645613e-01 5.282424430434262685e-01 7.909113980355325646e-01 3.153066936254651873e-03
3.100482144314877231e-01 -7.660378081032922504e-01 1.297673423949295080e+00 -1.090176918582349108e+00 9.674677093396511027e-04 7.867422232791189129e-01 -2.298811404700335514e-01 5.445718642767529705e-01 8.036601497508103487e-01 2.729866733172848885e-03
