-7.511929714970565497e-01 6.457570262944339196e-03 -8.489619670216334152e-03 -1.275092262285769662e+00 -9.651624939533829566e-04 -2.793679275741056678e-01 -4.162808157351677862e-01 -3.945004846901920548e-01 4.110850494211756856e-01 -6.159250921050387880e-04
-7.652643202093657449e-01 -1.556894876733754679e-02 -2.523159159189881928e-02 -1.250803892645044657e+00 -9.739688023792699833e-04 -2.814269742461847912e-01 -4.405303806056377058e-01 -3.348394384336496610e-01 4.857673928145016529e-01 -1.761261685177406967e-04
-7.794462327781653821e-01 -3.859679356931601524e-02 -3.914362389222415806e-02 -1.223413094800306355e+00 -9.678973416529092037e-04 -2.836382513759931889e-01 -4.605568960395694522e-01 -2.782406460065066645e-01 5.478159568947660318e-01 1.214292145272160791e-04
-7.937427676929497133e-01 -6.243646950953263275e-02 -5.041627195338529294e-02 -1.193494111441857575e+00 -9.530573989954942973e-04 -2.859306982956868470e-01 -4.767935188043322947e-01 -2.254529612232226976e-01 5.983796671689750601e-01 2.967988531482988876e-04
-8.081559954616165387e-01 -8.692348827165455316e-02 -5.926379099888823970e-02 -1.161550898265559351e+00 -9.343016844340344164e-04 -2.882645553733362842e-01 -4.897403752424384082e-01 -1.769503809100589076e-01 6.388642635259664804e-01 3.751142912291983772e-04
-8.226876007290329085e-01 -1.119189077706933544e-01 -6.591453906605326818e-02 -1.128013771038239188e+00 -9.153047705370407792e-04 -2.906321053483265082e-01 -4.999083899807760800e-01 -1.330149613433005140e-01 6.707425445464044733e-01 3.799382779398726350e-04
-8.373402391703996805e-01 -1.373082976378917630e-01 -7.060466121799152672e-02 -1.093240800827865566e+00 -8.987315028135733821e-04 -2.930527688273360520e-01 -5.077877973439680614e-01 -9.380244303876528189e-02 6.954594042074738747e-01 3.314653544693485390e-04
-8.521186069860736678e-01 -1.629996956174485090e-01 -7.357450481021401978e-02 -1.057522046074141020e+00 -8.865183188602068862e-04 -2.955673563134795789e-01 -5.138279595911346975e-01 -5.939687184444987500e-02 7.143750950744914840e-01 2.442636790673294832e-04
-8.670301721190382116e-01 -1.889212642390652730e-01 -7.506695950057783173e-02 -1.021084050083846950e+00 -8.802318372602550324e-04 -2.982313026592902094e-01 -5.184313724323353911e-01 -2.984909380727616968e-02 7.287599198058819505e-01 1.257296319990377814e-04
-8.820856746811145399e-01 -2.150184709533436433e-01 -7.532719238607081536e-02 -9.840956446942253910e-01 -8.820602239183598144e-04 -3.011100512415256225e-01 -5.219441342855675181e-01 -5.204657709859807774e-03 7.397681077924307402e-01 -3.656773316209528820e-05
-8.972993743324872984e-01 -2.412511508138976690e-01 -7.460344228062437688e-02 -9.466736967726495644e-01 -8.980314338844457142e-04 -3.042739930274549476e-01 -5.246535972110806245e-01 1.447500210892884234e-02 7.484389584315174204e-01 -3.194241993217188623e-04
-9.126890139179320016e-01 -2.675908260962069907e-01 -7.314869913767242660e-02 -9.088873388012045362e-01 -9.500969211289349466e-04 -3.077927917088941201e-01 -5.267935056461869880e-01 2.909486285903906122e-02 7.557271594289013406e-01 -1.041309744889784214e-03
-9.282756783981350734e-01 -2.940180698849892971e-01 -7.122305265458189760e-02 -8.707621177088469278e-01 -1.124598633462770177e-03 0.000000000000000000e+00 0.000000000000000000e+00 0.000000000000000000e+00 0.000000000000000000e+00 0.000000000000000000e+00
-9.282756783981350734e-01 -2.940180698849892971e-01 -7.122305265458189760e-02 -8.707621177088469278e-01 -1.124598633462770177e-03 0.000000000000000000e+00 0.000000000000000000e+00 0.000000000000000000e+00 0.000000000000000000e+00 0.000000000000000000e+00
-9.282756783981350734e-01 -2.940180698849892971e-01 -7.122305265458189760e-02 -8.707621177088469278e-01 -1.124598633462770177e-03 0.000000000000000000e+00 0.000000000000000000e+00 0.000000000000000000e+00 0.000000000000000000e+00 0.000000000000000000e+00
-9.282756783981350734e-01 -2.940180698849892971e-01 -7.122305265458189760e-02 -8.707621177088469278e-01 -1.124598633462770177e-03 0.000000000000000000e+00 0.000000000000000000e+00 0.000000000000000000e+00 0.000000000000000000e+00 0.000000000000000000e+00
-9.282756783981350734e-01 -2.940180698849892971e-01 -7.122305265458189760e-02 -8.707621177088469278e-01 -1.124598633462770177e-03 0.000000000000000000e+00 0.000000000000000000e+00 0.000000000000000000e+00 0.000000000000000000e+00 0.000000000000000000e+00
-9.282756783981350734e-01 -2.940180698849892971e-01 -7.122305265458189760e-02 -8.707621177088469278e-01 -1.124598633462770177e-03 0.000000000000000000e+00 0.000000000000000000e+00 0.000000000000000000e+00 0.000000000000000000e+00 0.000000000000000000e+00
-9.282756783981350734e-01 -2.940180698849892971e-01 -7.122305265458189760e-02 -8.707621177088469278e-01 -1.124598633462770177e-03 0.000000000000000000e+00 0.000000000000000000e+00 0.000000000000000000e+00 0.000000000000000000e+00 0.000000000000000000e+00
-9.282756783981350734e-01 -2.940180698849892971e-01 -7.122305265458189760e-02 -8.707621177088469278e-01 -1.124598633462770177e-03 0.000000000000000000e+00 0.000000000000000000e+00 0.000000000000000000e+00 0.000000000000000000e+00 0.000000000000000000e+00
-9.282756783981350734e-01 -2.940180698849892971e-01 -7.122305265458189760e-02 -8.707621177088469278e-01 -1.124598633462770177e-03 0.000000000000000000e+00 0.000000000000000000e+00 0.000000000000000000e+00 0.000000000000000000e+00 0.000000000000000000e+00
-9.282756783981350734e-01 -2.940180698849892971e-01 -7.122305265458189760e-02 -8.707621177088469278e-01 -1.124598633462770177e-03 0.000000000000000000e+00 0.000000000000000000e+00 0.000000000000000000e+00 0.000000000000000000e+00 0.000000000000000000e+00
-9.282756783981350734e-01 -2.940180698849892971e-01 -7.122305265458189760e-02 -8.707621177088469278e-01 -1.124598633462770177e-03 0.000000000000000000e+00 0.000000000000000000e+00 0.000000000000000000e+00 0.000000000000000000e+00 0.000000000000000000e+00
-9.282756783981350734e-01 -2.940180698849892971e-01 -7.122305265458189760e-02 -8.707621177088469278e-01 -1.124598633462770177e-03 0.000000000000000000e+00 0.000000000000000000e+00 0.000000000000000000e+00 0.000000000000000000e+00 0.000000000000000000e+00
-9.282756783981350734e-01 -2.940180698849892971e-01 -7.122305265458189760e-02 -8.707621177088469278e-01 -1.124598633462770177e-03 0.000000000000000000e+00 0.000000000000000000e+00 0.000000000000000000e+00 0.000000000000000000e+00 0.000000000000000000e+00
-9.282756783981350734e-01 -2.940180698849892971e-01 -7.122305265458189760e-02 -8.707621177088469278e-01 -1.124598633462770177e-03 0.000000000000000000e+00 0.000000000000000000e+00 0.000000000000000000e+00 0.000000000000000000e+00 0.000000000000000000e+00
-9.282756783981350734e-01 -2.940180698849892971e-01 -7.122305265458189760e-02 -8.707621177088469278e-01 -1.124598633462770177e-03 0.000000000000000000e+00 0.000000000000000000e+00 0.000000000000000000e+00 0.000000000000000000e+00 0.000000000000000000e+00
-9.282756783981350734e-01 -2.940180698849892971e-01 -7.122305265458189760e-02 -8.707621177088469278e-01 -1.124598633462770177e-03 0.000000000000000000e+00 0.000000000000000000e+00 0.000000000000000000e+00 0.000000000000000000e+00 0.000000000000000000e+00
-9.282756783981350734e-01 -2.940180698849892971e-01 -7.122305265458189760e-02 -8.707621177088469278e-01 -1.124598633462770177e-03 0.000000000000000000e+00 0.000000000000000000e+00 0.000000000000000000e+00 0.000000000000000000e+00 0.000000000000000000e+00
-9.282756783981350734e-01 -2.940180698849892971e-01 -7.122305265458189760e-02 -8.707621177088469278e-01 -1.124598633462770177e-03 0.000000000000000000e+00 0.000000000000000000e+00 0.000000000000000000e+00 0.000000000000000000e+00 0.000000000000000000e+00
-9.282756783981350734e-01 -2.940180698849892971e-01 -7.122305265458189760e-02 -8.707621177088469278e-01 -1.124598633462770177e-03 0.000000000000000000e+00 0.000000000000000000e+00 0.000000000000000000e+00 0.000000000000000000e+00 0.000000000000000000e+00
