-1.244299991537724415e+00 -3.189275811103133296e-01 -3.258097540667284076e-01 -1.727698899996159776e+00 -1.016525946280227247e-03 -9.034190652739735317e-01 -3.512689562253461517e-01 -1.075168572690371693e+00 6.067386421935495600e-01 2.065809712973872914e-04
-1.290835868603347647e+00 -3.378861091147355444e-01 -3.748197357762395598e-01 -1.691292446582571607e+00 -9.835787230606718098e-04 -9.307175413124625374e-01 -3.791705600884438532e-01 -9.801996341902228238e-01 7.281290682717619367e-01 6.589444643911084249e-04
-1.338779972736997337e+00 -3.578087486542793072e-01 -4.193377352323778284e-01 -1.650186623147520848e+00 -9.197683255224246152e-04 -9.588820826729945734e-01 -3.984527907908748112e-01 -8.903599891227647056e-01 8.221164687010162897e-01 1.276207950764943460e-03
-1.388142835408154419e+00 -3.782737674907941106e-01 -4.597541644982208742e-01 -1.605628935954235281e+00 -8.363721682109641949e-04 -9.872572534231397468e-01 -4.093003767302961782e-01 -8.083285853168609147e-01 8.911537438657111121e-01 1.667923146229209272e-03
-1.438909157283481344e+00 -3.988889088473910327e-01 -4.965285777428168346e-01 -1.558691090528382395e+00 -7.473684042750354225e-04 -1.015326437506537838e+00 -4.123028271319387206e-01 -7.354882648919190968e-01 9.387569085170572869e-01 1.780075278718575450e-03
-1.491045327573565116e+00 -4.193039738893877821e-01 -5.301433374296771195e-01 -1.510242844252861705e+00 -6.648081068081082784e-04 -1.042723405801674774e+00 -4.083013008399349886e-01 -6.722951937372065867e-01 9.689649255104120229e-01 1.651205949338543097e-03
-1.544506028466176240e+00 -4.392163462038146671e-01 -5.610759680645049929e-01 -1.460948686339184732e+00 -5.980465022797452207e-04 -1.069214017852222698e+00 -3.982474462885379762e-01 -6.186526126965570249e-01 9.858831582735412269e-01 1.335232090567260504e-03
-1.599239082066391537e+00 -4.583718181878988496e-01 -5.897849553596792305e-01 -1.411277751632517230e+00 -5.539342364675203280e-04 -1.094661072004306179e+00 -3.831094396816833170e-01 -5.741797459034840845e-01 9.934186941333520426e-01 8.822453162444972036e-04
-1.655188622464014880e+00 -4.765635776704760240e-01 -6.167017079022713011e-01 -1.361517738133384281e+00 -5.369633077010664514e-04 -1.118990807952465083e+00 -3.638351896515437667e-01 -5.383350508518405242e-01 9.952002699826604237e-01 3.394185753290781832e-04
-1.712297172330392803e+00 -4.936294909944917153e-01 -6.422272535486519551e-01 -1.311792253640058137e+00 -5.506999883195222304e-04 -1.142170997327557780e+00 -3.413182664803143251e-01 -5.105109129276134139e-01 9.945096898665226615e-01 -2.747336123691157973e-04
-1.770506433324472439e+00 -5.094484692531167092e-01 -6.667300771182292918e-01 -1.262079275465261219e+00 -6.019501308013115899e-04 -1.164185219881593403e+00 -3.163795651725009317e-01 -4.900564713915468440e-01 9.942595634959370265e-01 -1.025002849635787625e-03
-1.829757259622877941e+00 -5.239366657755742951e-01 -6.905437293900381635e-01 -1.212228920456667414e+00 -7.164511355804719815e-04 -1.185016525968111800e+00 -2.897639304491522183e-01 -4.762730454361780441e-01 9.970071001718754378e-01 -2.290020095583207398e-03
-1.889989271953478323e+00 -5.370440977738091259e-01 -7.139650466818205921e-01 -1.161977565642859922e+00 -1.000291534519519299e-03 0.000000000000000000e+00 0.000000000000000000e+00 0.000000000000000000e+00 0.000000000000000000e+00 0.000000000000000000e+00
-1.889989271953478323e+00 -5.370440977738091259e-01 -7.139650466818205921e-01 -1.161977565642859922e+00 -1.000291534519519299e-03 0.000000000000000000e+00 0.000000000000000000e+00 0.000000000000000000e+00 0.000000000000000000e+00 0.000000000000000000e+00
-1.889989271953478323e+00 -5.370440977738091259e-01 -7.139650466818205921e-01 -1.161977565642859922e+00 -1.000291534519519299e-03 0.000000000000000000e+00 0.000000000000000000e+00 0.000000000000000000e+00 0.000000000000000000e+00 0.000000000000000000e+00
-1.889989271953478323e+00 -5.370440977738091259e-01 -7.139650466818205921e-01 -1.161977565642859922e+00 -1.000291534519519299e-03 0.000000000000000000e+00 0.000000000000000000e+00 0.000000000000000000e+00 0.000000000000000000e+00 0.000000000000000000e+00
-1.889989271953478323e+00 -5.370440977738091259e-01 -7.139650466818205921e-01 -1.161977565642859922e+00 -1.000291534519519299e-03 0.000000000000000000e+00 0.000000000000000000e+00 0.000000000000000000e+00 0.000000000000000000e+00 0.000000000000000000e+00
-1.889989271953478323e+00 -5.370440977738091259e-01 -7.139650466818205921e-01 -1.161977565642859922e+00 -1.000291534519519299e-03 0.000000000000000000e+00 0.000000000000000000e+00 0.000000000000000000e+00 0.000000000000000000e+00 0.000000000000000000e+00
-1.889989271953478323e+00 -5.370440977738091259e-01 -7.139650466818205921e-01 -1.161977565642859922e+00 -1.000291534519519299e-03 0.000000000000000000e+00 0.000000000000000000e+00 0.000000000000000000e+00 0.000000000000000000e+00 0.000000000000000000e+00
-1.889989271953478323e+00 -5.370440977738091259e-01 -7.139650466818205921e-01 -1.161977565642859922e+00 -1.000291534519519299e-03 0.000000000000000000e+00 0.000000000000000000e+00 0.000000000000000000e+00 0.000000000000000000e+00 0.000000000000000000e+00
-1.889989271953478323e+00 -5.370440977738091259e-01 -7.139650466818205921e-01 -1.161977565642859922e+00 -1.000291534519519299e-03 0.000000000000000000e+00 0.000000000000000000e+00 0.000000000000000000e+00 0.000000000000000000e+00 0.000000000000000000e+00
-1.889989271953478323e+00 -5.370440977738091259e-01 -7.139650466818205921e-01 -1.161977565642859922e+00 -1.000291534519519299e-03 0.000000000000000000e+00 0.000000000000000000e+00 0.000000000000000000e+00 0.000000000000000000e+00 0.000000000000000000e+00
-1.889989271953478323e+00 -5.370440977738091259e-01 -7.139650466818205921e-01 -1.161977565642859922e+00 -1.000291534519519299e-03 0.000000000000000000e+00 0.000000000000000000e+00 0.000000000000000000e+00 0.000000000000000000e+00 0.000000000000000000e+00
-1.889989271953478323e+00 -5.370440977738091259e-01 -7.139650466818205921e-01 -1.161977565642859922e+00 -1.000291534519519299e-03 0.000000000000000000e+00 0.000000000000000000e+00 0.000000000000000000e+00 0.000000000000000000e+00 0.000000000000000000e+00
-1.889989271953478323e+00 -5.370440977738091259e-01 -7.139650466818205921e-01 -1.161977565642859922e+00 -1.000291534519519299e-03 0.000000000000000000e+00 0.000000000000000000e+00 0.000000000000000000e+00 0.000000000000000000e+00 0.000000000000000000e+00
-1.889989271953478323e+00 -5.370440977738091259e-01 -7.139650466818205921e-01 -1.161977565642859922e+00 -1.000291534519519299e-03 0.000000000000000000e+00 0.000000000000000000e+00 0.000000000000000000e+00 0.000000000000000000e+00 0.000000000000000000e+00
-1.889989271953478323e+00 -5.370440977738091259e-01 -7.139650466818205921e-01 -1.161977565642859922e+00 -1.000291534519519299e-03 0.000000000000000000e+00 0.000000000000000000e+00 0.000000000000000000e+00 0.000000000000000000e+00 0.000000000000000000e+00
-1.889989271953478323e+00 -5.370440977738091259e-01 -7.139650466818205921e-01 -1.161977565642859922e+00 -1.000291534519519299e-03 0.000000000000000000e+00 0.000000000000000000e+00 0.000000000000000000e+00 0.000000000000000000e+00 0.000000000000000000e+00
-1.889989271953478323e+00 -5.370440977738091259e-01 -7.139650466818205921e-01 -1.161977565642859922e+00 -1.000291534519519299e-03 0.000000000000000000e+00 0.000000000000000000e+00 0.000000000000000000e+00 0.000000000000000000e+00 0.000000000000000000e+00
-1.889989271953478323e+00 -5.370440977738091259e-01 -7.139650466818205921e-01 -1.161977565642859922e+00 -1.000291534519519299e-03 0.000000000000000000e+00 0.000000000000000000e+00 0.000000000000000000e+00 0.000000000000000000e+00 0.000000000000000000e+00
-1.889989271953478323e+00 -5.370440977738091259e-01 -7.139650466818205921e-01 -1.161977565642859922e+00 -1.000291534519519299e-03 0.000000000000000000e+00 0.000000000000000000e+00 0.000000000000000000e+00 0.000000000000000000e+00 0.000000000000000000e+00
