-1.261819074688709685e+00 -1.656395803541009792e+00 7.384122222385659795e-02 -6.731584445766408686e-01 -2.600601960295242107e-04 -3.143879921491002927e-01 -1.633071979149987030e+00 -4.109511260703882507e-01 1.810976505141314030e+00 -2.923037988826815425e-03
-1.276376997872477492e+00 -1.738139427512196855e+00 5.212695254576635295e-02 -5.797614314979905314e-01 -3.566743288402674829e-04 0.000000000000000000e+00 0.000000000000000000e+00 0.000000000000000000e+00 0.000000000000000000e+00 0.000000000000000000e+00
-1.276376997872477492e+00 -1.738139427512196855e+00 5.212695254576635295e-02 -5.797614314979905314e-01 -3.566743288402674829e-04 0.000000000000000000e+00 0.000000000000000000e+00 0.000000000000000000e+00 0.000000000000000000e+00 0.000000000000000000e+00
-1.276376997872477492e+00 -1.738139427512196855e+00 5.212695254576635295e-02 -5.797614314979905314e-01 -3.566743288402674829e-04 0.000000000000000000e+00 0.000000000000000000e+00 0.000000000000000000e+00 0.000000000000000000e+00 0.000000000000000000e+00
-1.276376997872477492e+00 -1.738139427512196855e+00 5.212695254576635295e-02 -5.797614314979905314e-01 -3.566743288402674829e-04 0.000000000000000000e+00 0.000000000000000000e+00 0.000000000000000000e+00 0.000000000000000000e+00 0.000000000000000000e+00
-1.276376997872477492e+00 -1.738139427512196855e+00 5.212695254576635295e-02 -5.797614314979905314e-01 -3.566743288402674829e-04 0.000000000000000000e+00 0.000000000000000000e+00 0.000000000000000000e+00 0.000000000000000000e+00 0.000000000000000000e+00
-1.276376997872477492e+00 -1.738139427512196855e+00 5.212695254576635295e-02 -5.797614314979905314e-01 -3.566743288402674829e-04 0.000000000000000000e+00 0.000000000000000000e+00 0.000000000000000000e+00 0.000000000000000000e+00 0.000000000000000000e+00
-1.276376997872477492e+00 -1.738139427512196855e+00 5.212695254576635295e-02 -5.797614314979905314e-01 -3.566743288402674829e-04 0.000000000000000000e+00 0.000000000000000000e+00 0.000000000000000000e+00 0.000000000000000000e+00 0.000000000000000000e+00
-1.276376997872477492e+00 -1.738139427512196855e+00 5.212695254576635295e-02 -5.797614314979905314e-01 -3.566743288402674829e-04 0.000000000000000000e+00 0.000000000000000000e+00 0.000000000000000000e+00 0.000000000000000000e+00 0.000000000000000000e+00
-1.276376997872477492e+00 -1.738139427512196855e+00 5.212695254576635295e-02 -5.797614314979905314e-01 -3.566743288402674829e-04 0.000000000000000000e+00 0.000000000000000000e+00 0.000000000000000000e+00 0.000000000000000000e+00 0.000000000000000000e+00
-1.276376997872477492e+00 -1.738139427512196855e+00 5.212695254576635295e-02 -5.797614314979905314e-01 -3.566743288402674829e-04 0.000000000000000000e+00 0.000000000000000000e+00 0.000000000000000000e+00 0.000000000000000000e+00 0.000000000000000000e+00
-1.276376997872477492e+00 -1.738139427512196855e+00 5.212695254576635295e-02 -5.797614314979905314e-01 -3.566743288402674829e-04 0.000000000000000000e+00 0.000000000000000000e+00 0.000000000000000000e+00 0.000000000000000000e+00 0.000000000000000000e+00
-1.276376997872477492e+00 -1.738139427512196855e+00 5.212695254576635295e-02 -5.797614314979905314e-01 -3.566743288402674829e-04 0.000000000000000000e+00 0.000000000000000000e+00 0.000000000000000000e+00 0.000000000000000000e+00 0.000000000000000000e+00
-1.276376997872477492e+00 -1.738139427512196855e+00 5.212695254576635295e-02 -5.797614314979905314e-01 -3.566743288402674829e-04 0.000000000000000000e+00 0.000000000000000000e+00 0.000000000000000000e+00 0.000000000000000000e+00 0.000000000000000000e+00
-1.276376997872477492e+00 -1.738139427512196855e+00 5.212695254576635295e-02 -5.797614314979905314e-01 -3.566743288402674829e-04 0.000000000000000000e+00 0.000000000000000000e+00 0.000000000000000000e+00 0.000000000000000000e+00 0.000000000000000000e+00
-1.276376997872477492e+00 -1.738139427512196855e+00 5.212695254576635295e-02 -5.797614314979905314e-01 -3.566743288402674829e-04 0.000000000000000000e+00 0.000000000000000000e+00 0.000000000000000000e+00 0.000000000000000000e+00 0.000000000000000000e+00
-1.276376997872477492e+00 -1.738139427512196855e+00 5.212695254576635295e-02 -5.797614314979905314e-01 -3.566743288402674829e-04 0.000000000000000000e+00 0.000000000000000000e+00 0.000000000000000000e+00 0.000000000000000000e+00 0.000000000000000000e+00
-1.276376997872477492e+00 -1.738139427512196855e+00 5.212695254576635295e-02 -5.797614314979905314e-01 -3.566743288402674829e-04 0.000000000000000000e+00 0.000000000000000000e+00 0.000000000000000000e+00 0.000000000000000000e+00 0.000000000000000000e+00
-1.276376997872477492e+00 -1.738139427512196855e+00 5.212695254576635295e-02 -5.797614314979905314e-01 -3.566743288402674829e-04 0.000000000000000000e+00 0.000000000000000000e+00 0.000000000000000000e+00 0.000000000000000000e+00 0.000000000000000000e+00
-1.276376997872477492e+00 -1.738139427512196855e+00 5.212695254576635295e-02 -5.797614314979905314e-01 -3.566743288402674829e-04 0.000000000000000000e+00 0.000000000000000000e+00 0.000000000000000000e+00 0.000000000000000000e+00 0.000000000000000000e+00
-1.276376997872477492e+00 -1.738139427512196855e+00 5.212695254576635295e-02 -5.797614314979905314e-01 -3.566743288402674829e-04 0.000000000000000000e+00 0.000000000000000000e+00 0.000000000000000000e+00 0.000000000000000000e+00 0.000000000000000000e+00
-1.276376997872477492e+00 -1.738139427512196855e+00 5.212695254576635295e-02 -5.797614314979905314e-01 -3.566743288402674829e-04 0.000000000000000000e+00 0.000000000000000000e+00 0.000000000000000000e+00 0.000000000000000000e+00 0.000000000000000000e+00
-1.276376997872477492e+00 -1.738139427512196855e+00 5.212695254576635295e-02 -5.797614314979905314e-01 -3.566743288402674829e-04 0.000000000000000000e+00 0.000000000000000000e+00 0.000000000000000000e+00 0.000000000000000000e+00 0.000000000000000000e+00
-1.276376997872477492e+00 -1.738139427512196855e+00 5.212695254576635295e-02 -5.797614314979905314e-01 -3.566743288402674829e-04 0.000000000000000000e+00 0.000000000000000000e+00 0.000000000000000000e+00 0.000000000000000000e+00 0.000000000000000000e+00
-1.276376997872477492e+00 -1.738139427512196855e+00 5.212695254576635295e-02 -5.797614314979905314e-01 -3.566743288402674829e-04 0.000000000000000000e+00 0.000000000000000000e+00 0.000000000000000000e+00 0.000000000000000000e+00 0.000000000000000000e+00
-1.276376997872477492e+00 -1.738139427512196855e+00 5.212695254576635295e-02 -5.797614314979905314e-01 -3.566743288402674829e-04 0.000000000000000000e+00 0.000000000000000000e+00 0.000000000000000000e+00 0.000000000000000000e+00 0.000000000000000000e+00
-1.276376997872477492e+00 -1.738139427512196855e+00 5.212695254576635295e-02 -5.797614314979905314e-01 -3.566743288402674829e-04 0.000000000000000000e+00 0.000000000000000000e+00 0.000000000000000000e+00 0.000000000000000000e+00 0.000000000000000000e+00
-1.276376997872477492e+00 -1.738139427512196855e+00 5.212695254576635295e-02 -5.797614314979905314e-01 -3.566743288402674829e-04 0.000000000000000000e+00 0.000000000000000000e+00 0.000000000000000000e+00 0.000000000000000000e+00 0.000000000000000000e+00
-1.276376997872477492e+00 -1.738139427512196855e+00 5.212695254576635295e-02 -5.797614314979905314e-01 -3.566743288402674829e-04 0.000000000000000000e+00 0.000000000000000000e+00 0.000000000000000000e+00 0.000000000000000000e+00 0.000000000000000000e+00
-1.276376997872477492e+00 -1.738139427512196855e+00 5.212695254576635295e-02 -5.797614314979905314e-01 -3.566743288402674829e-04 0.000000000000000000e+00 0.000000000000000000e+00 0.000000000000000000e+00 0.000000000000000000e+00 0.000000000000000000e+00
-1.276376997872477492e+00 -1.738139427512196855e+00 5.212695254576635295e-02 -5.797614314979905314e-01 -3.566743288402674829e-04 0.000000000000000000e+00 0.000000000000000000e+00 0.000000000000000000e+00 0.000000000000000000e+00 0.000000000000000000e+00
