-9.802923794827043125e-01 -1.723697533835900408e+00 -1.865325402659683551e-01 -1.026405915549435166e+00 6.220612749527035419e-04 1.529826689857701483e-01 -1.855564966378072889e+00 -2.762982316901254620e-01 2.092776410604780590e+00 -5.941442150537851728e-05
-9.719766114298447057e-01 -1.816127708317250455e+00 -2.019134198385274248e-01 -9.201392606654417161e-01 6.644648431537290454e-04 1.663153610571919128e-01 -1.848603489627001828e+00 -3.076175914511813936e-01 2.125333097679869887e+00 8.480713640205100705e-04
-9.636683358071685968e-01 -1.908282107250154347e+00 -2.202400336917547108e-01 -8.120858027719594086e-01 1.000130466474657845e-03 0.000000000000000000e+00 0.000000000000000000e+00 0.000000000000000000e+00 0.000000000000000000e+00 0.000000000000000000e+00
-9.636683358071685968e-01 -1.908282107250154347e+00 -2.202400336917547108e-01 -8.120858027719594086e-01 1.000130466474657845e-03 0.000000000000000000e+00 0.000000000000000000e+00 0.000000000000000000e+00 0.000000000000000000e+00 0.000000000000000000e+00
-9.636683358071685968e-01 -1.908282107250154347e+00 -2.202400336917547108e-01 -8.120858027719594086e-01 1.000130466474657845e-03 0.000000000000000000e+00 0.000000000000000000e+00 0.000000000000000000e+00 0.000000000000000000e+00 0.000000000000000000e+00
-9.636683358071685968e-01 -1.908282107250154347e+00 -2.202400336917547108e-01 -8.120858027719594086e-01 1.000130466474657845e-03 0.000000000000000000e+00 0.000000000000000000e+00 0.000000000000000000e+00 0.000000000000000000e+00 0.000000000000000000e+00
-9.636683358071685968e-01 -1.908282107250154347e+00 -2.202400336917547108e-01 -8.120858027719594086e-01 1.000130466474657845e-03 0.000000000000000000e+00 0.000000000000000000e+00 0.000000000000000000e+00 0.000000000000000000e+00 0.000000000000000000e+00
-9.636683358071685968e-01 -1.908282107250154347e+00 -2.202400336917547108e-01 -8.120858027719594086e-01 1.000130466474657845e-03 0.000000000000000000e+00 0.000000000000000000e+00 0.000000000000000000e+00 0.000000000000000000e+00 0.000000000000000000e+00
-9.636683358071685968e-01 -1.908282107250154347e+00 -2.202400336917547108e-01 -8.120858027719594086e-01 1.000130466474657845e-03 0.000000000000000000e+00 0.000000000000000000e+00 0.000000000000000000e+00 0.000000000000000000e+00 0.000000000000000000e+00
-9.636683358071685968e-01 -1.908282107250154347e+00 -2.202400336917547108e-01 -8.120858027719594086e-01 1.000130466474657845e-03 0.000000000000000000e+00 0.000000000000000000e+00 0.000000000000000000e+00 0.000000000000000000e+00 0.000000000000000000e+00
-9.636683358071685968e-01 -1.908282107250154347e+00 -2.202400336917547108e-01 -8.120858027719594086e-01 1.000130466474657845e-03 0.000000000000000000e+00 0.000000000000000000e+00 0.000000000000000000e+00 0.000000000000000000e+00 0.000000000000000000e+00
-9.636683358071685968e-01 -1.908282107250154347e+00 -2.202400336917547108e-01 -8.120858027719594086e-01 1.000130466474657845e-03 0.000000000000000000e+00 0.000000000000000000e+00 0.000000000000000000e+00 0.000000000000000000e+00 0.000000000000000000e+00
-9.636683358071685968e-01 -1.908282107250154347e+00 -2.202400336917547108e-01 -8.120858027719594086e-01 1.000130466474657845e-03 0.000000000000000000e+00 0.000000000000000000e+00 0.000000000000000000e+00 0.000000000000000000e+00 0.000000000000000000e+00
-9.636683358071685968e-01 -1.908282107250154347e+00 -2.202400336917547108e-01 -8.120858027719594086e-01 1.000130466474657845e-03 0.000000000000000000e+00 0.000000000000000000e+00 0.000000000000000000e+00 0.000000000000000000e+00 0.000000000000000000e+00
-9.636683358071685968e-01 -1.908282107250154347e+00 -2.202400336917547108e-01 -8.120858027719594086e-01 1.000130466474657845e-03 0.000000000000000000e+00 0.000000000000000000e+00 0.000000000000000000e+00 0.000000000000000000e+00 0.000000000000000000e+00
-9.636683358071685968e-01 -1.908282107250154347e+00 -2.202400336917547108e-01 -8.120858027719594086e-01 1.000130466474657845e-03 0.000000000000000000e+00 0.000000000000000000e+00 0.000000000000000000e+00 0.000000000000000000e+00 0.000000000000000000e+00
-9.636683358071685968e-01 -1.908282107250154347e+00 -2.202400336917547108e-01 -8.120858027719594086e-01 1.000130466474657845e-03 0.000000000000000000e+00 0.000000000000000000e+00 0.000000000000000000e+00 0.000000000000000000e+00 0.000000000000000000e+00
-9.636683358071685968e-01 -1.908282107250154347e+00 -2.202400336917547108e-01 -8.120858027719594086e-01 1.000130466474657845e-03 0.000000000000000000e+00 0.000000000000000000e+00 0.000000000000000000e+00 0.000000000000000000e+00 0.000000000000000000e+00
-9.636683358071685968e-01 -1.908282107250154347e+00 -2.202400336917547108e-01 -8.120858027719594086e-01 1.000130466474657845e-03 0.000000000000000000e+00 0.000000000000000000e+00 0.000000000000000000e+00 0.000000000000000000e+00 0.000000000000000000e+00
-9.636683358071685968e-01 -1.908282107250154347e+00 -2.202400336917547108e-01 -8.120858027719594086e-01 1.000130466474657845e-03 0.000000000000000000e+00 0.000000000000000000e+00 0.000000000000000000e+00 0.000000000000000000e+00 0.000000000000000000e+00
-9.636683358071685968e-01 -1.908282107250154347e+00 -2.202400336917547108e-01 -8.120858027719594086e-01 1.000130466474657845e-03 0.000000000000000000e+00 0.000000000000000000e+00 0.000000000000000000e+00 0.000000000000000000e+00 0.000000000000000000e+00
-9.636683358071685968e-01 -1.908282107250154347e+00 -2.202400336917547108e-01 -8.120858027719594086e-01 1.000130466474657845e-03 0.000000000000000000e+00 0.000000000000000000e+00 0.000000000000000000e+00 0.000000000000000000e+00 0.000000000000000000e+00
-9.636683358071685968e-01 -1.908282107250154347e+00 -2.202400336917547108e-01 -8.120858027719594086e-01 1.000130466474657845e-03 0.000000000000000000e+00 0.000000000000000000e+00 0.000000000000000000e+00 0.000000000000000000e+00 0.000000000000000000e+00
-9.636683358071685968e-01 -1.908282107250154347e+00 -2.202400336917547108e-01 -8.120858027719594086e-01 1.000130466474657845e-03 0.000000000000000000e+00 0.000000000000000000e+00 0.000000000000000000e+00 0.000000000000000000e+00 0.000000000000000000e+00
-9.636683358071685968e-01 -1.908282107250154347e+00 -2.202400336917547108e-01 -8.120858027719594086e-01 1.000130466474657845e-03 0.000000000000000000e+00 0.000000000000000000e+00 0.000000000000000000e+00 0.000000000000000000e+00 0.000000000000000000e+00
-9.636683358071685968e-01 -1.908282107250154347e+00 -2.202400336917547108e-01 -8.120858027719594086e-01 1.000130466474657845e-03 0.000000000000000000e+00 0.000000000000000000e+00 0.000000000000000000e+00 0.000000000000000000e+00 0.000000000000000000e+00
-9.636683358071685968e-01 -1.908282107250154347e+00 -2.202400336917547108e-01 -8.120858027719594086e-01 1.000130466474657845e-03 0.000000000000000000e+00 0.000000000000000000e+00 0.000000000000000000e+00 0.000000000000000000e+00 0.000000000000000000e+00
-9.636683358071685968e-01 -1.908282107250154347e+00 -2.202400336917547108e-01 -8.120858027719594086e-01 1.000130466474657845e-03 0.000000000000000000e+00 0.000000000000000000e+00 0.000000000000000000e+00 0.000000000000000000e+00 0.000000000000000000e+00
-9.636683358071685968e-01 -1.908282107250154347e+00 -2.202400336917547108e-01 -8.120858027719594086e-01 1.000130466474657845e-03 0.000000000000000000e+00 0.000000000000000000e+00 0.000000000000000000e+00 0.000000000000000000e+00 0.000000000000000000e+00
-9.636683358071685968e-01 -1.908282107250154347e+00 -2.202400336917547108e-01 -8.120858027719594086e-01 1.000130466474657845e-03 0.000000000000000000e+00 0.000000000000000000e+00 0.000000000000000000e+00 0.000000000000000000e+00 0.000000000000000000e+00
-9.636683358071685968e-01 -1.908282107250154347e+00 -2.202400336917547108e-01 -8.120858027719594086e-01 1.000130466474657845e-03 0.000000000000000000e+00 0.000000000000000000e+00 0.000000000000000000e+00 0.000000000000000000e+00 0.000000000000000000e+00
