-7.945166137237468229e-01 -4.441495788645916099e-01 4.195697182949564841e-01 -1.572219364195953872e+00 -6.597715605533057814e-04 -4.336437847456431349e-01 -7.024352038300710754e-01 -9.113955169557931280e-01 -6.580155162050307371e-01 -5.257995311886923089e-03
-8.152536457308746654e-01 -4.822872467597169588e-01 3.751474283449253155e-01 -1.594113777552349065e+00 -8.612206333276834803e-04 -4.147406401425561273e-01 -7.627533579025070898e-01 -8.884457990006232597e-01 -4.378882671279055727e-01 -4.028981455487553112e-03
-8.350173020996890516e-01 -5.233077892755408911e-01 3.327360868263528060e-01 -1.604885761100451225e+00 -9.857978998112492276e-04 -3.952731273762866704e-01 -8.204108503164775357e-01 -8.482268303714504132e-01 -2.154396709620448602e-01 -2.491545329671314944e-03
-8.538415208292030600e-01 -5.670364427168974597e-01 2.930392387897904904e-01 -1.604802548680368091e+00 -1.022061440553355188e-03 -3.764843745902800021e-01 -8.745730688271304842e-01 -7.939369607312459776e-01 1.664248401664680799e-03 -7.252708148421207254e-04
-8.718116445709301887e-01 -6.132557899897074227e-01 2.565337043906104619e-01 -1.594449448550705695e+00 -1.024872984953374309e-03 -3.594024748345429621e-01 -9.243869454561994825e-01 -7.301106879836003483e-01 2.070620025932457531e-01 -5.623088800038209770e-05
-8.890509013957006434e-01 -6.617117545379711530e-01 2.234470968052875706e-01 -1.574646751368785180e+00 -1.019229378735261220e-03 -3.447851364954093722e-01 -9.691192909652757148e-01 -6.617321517064579384e-01 3.960539436384112877e-01 1.128721243622620514e-04
-9.057095034449303972e-01 -7.121234562718248284e-01 1.937697884608447774e-01 -1.546369240152494440e+00 -1.011777346815476673e-03 -3.331720409845949638e-01 -1.008234034677074176e+00 -5.935461668888559750e-01 5.655502243258142547e-01 1.490406383956901755e-04
-9.219563928262541896e-01 -7.641973882080965730e-01 1.672929090391662155e-01 -1.510666795918361283e+00 -1.000127768613738371e-03 -3.249377876264762377e-01 -1.041478638725434003e+00 -5.295375884335715710e-01 7.140488846826643643e-01 2.329915640347643619e-04
-9.379749437800862788e-01 -8.176427761934648153e-01 1.436566971626812572e-01 -1.468593966592599553e+00 -9.705098237055676631e-04 -3.203710190766414501e-01 -1.068907759707363736e+00 -4.727242375296991650e-01 8.414565865152329183e-01 5.923588981634135119e-04
-9.539618247330836631e-01 -8.721865313204835157e-01 1.223980096303460552e-01 -1.421148475289848223e+00 -8.967285569853930939e-04 -3.197376190599479640e-01 -1.090875102540374009e+00 -4.251737506467039851e-01 9.489098260550249408e-01 1.475625334403490516e-03
-9.701310882805868063e-01 -9.275839980457764034e-01 1.029834582651456693e-01 -1.369228230153098247e+00 -8.203903026654236997e-04 -3.233852709500619205e-01 -1.107949334505858419e+00 -3.882910273040075522e-01 1.038404902735000856e+00 1.526765086399387234e-03
-9.867257580874899681e-01 -9.836220762853372657e-01 8.481943489814186554e-02 -1.313615091512811306e+00 -7.567343371984641470e-04 -3.318933961380636233e-01 -1.120761564791216580e+00 -3.632804673400759632e-01 1.112262772805736599e+00 1.273119309339190838e-03
-1.004037005954668160e+00 -1.040115758648805677e+00 6.723980146770722199e-02 -1.254980052729778306e+00 -7.138268490825084916e-04 -3.462249573435656758e-01 -1.129873647269368453e+00 -3.515926686086928155e-01 1.172700775660659334e+00 8.581497623191140832e-04
-1.022429873862059413e+00 -1.096902110108593842e+00 4.947391930956095835e-02 -1.193892409401655197e+00 -6.980432283982016895e-04 -3.678573581478232768e-01 -1.135727029195761739e+00 -3.553176431629253007e-01 1.221752866562460849e+00 3.156724136861364764e-04
-1.042378357444448511e+00 -1.153832420636268674e+00 3.059035328285980224e-02 -1.130828568244518495e+00 -7.158787316495959221e-04 -3.989696716477799665e-01 -1.138606210553497089e+00 -3.776713205340230806e-01 1.261276823142733150e+00 -3.567100650278853032e-04
-1.064514539780366587e+00 -1.210761400683216138e+00 9.407373630621034682e-03 -1.066183441462141168e+00 -7.736745612752556761e-04 0.000000000000000000e+00 0.000000000000000000e+00 0.000000000000000000e+00 0.000000000000000000e+00 0.000000000000000000e+00
-1.064514539780366587e+00 -1.210761400683216138e+00 9.407373630621034682e-03 -1.066183441462141168e+00 -7.736745612752556761e-04 0.000000000000000000e+00 0.000000000000000000e+00 0.000000000000000000e+00 0.000000000000000000e+00 0.000000000000000000e+00
-1.064514539780366587e+00 -1.210761400683216138e+00 9.407373630621034682e-03 -1.066183441462141168e+00 -7.736745612752556761e-04 0.000000000000000000e+00 0.000000000000000000e+00 0.000000000000000000e+00 0.000000000000000000e+00 0.000000000000000000e+00
-1.064514539780366587e+00 -1.210761400683216138e+00 9.407373630621034682e-03 -1.066183441462141168e+00 -7.736745612752556761e-04 0.000000000000000000e+00 0.000000000000000000e+00 0.000000000000000000e+00 0.000000000000000000e+00 0.000000000000000000e+00
-1.064514539780366587e+00 -1.210761400683216138e+00 9.407373630621034682e-03 -1.066183441462141168e+00 -7.736745612752556761e-04 0.000000000000000000e+00 0.000000000000000000e+00 0.000000000000000000e+00 0.000000000000000000e+00 0.000000000000000000e+00
-1.064514539780366587e+00 -1.210761400683216138e+00 9.407373630621034682e-03 -1.066183441462141168e+00 -7.736745612752556761e-04 0.000000000000000000e+00 0.000000000000000000e+00 0.000000000000000000e+00 0.000000000000000000e+00 0.000000000000000000e+00
-1.064514539780366587e+00 -1.210761400683216138e+00 9.407373630621034682e-03 -1.066183441462141168e+00 -7.736745612752556761e-04 0.000000000000000000e+00 0.000000000000000000e+00 0.000000000000000000e+00 0.000000000000000000e+00 0.000000000000000000e+00
-1.064514539780366587e+00 -1.210761400683216138e+00 9.407373630621034682e-03 -1.066183441462141168e+00 -7.736745612752556761e-04 0.000000000000000000e+00 0.000000000000000000e+00 0.000000000000000000e+00 0.000000000000000000e+00 0.000000000000000000e+00
-1.064514539780366587e+00 -1.210761400683216138e+00 9.407373630621034682e-03 -1.066183441462141168e+00 -7.736745612752556761e-04 0.000000000000000000e+00 0.000000000000000000e+00 0.000000000000000000e+00 0.000000000000000000e+00 0.000000000000000000e+00
-1.064514539780366587e+00 -1.210761400683216138e+00 9.407373630621034682e-03 -1.066183441462141168e+00 -7.736745612752556761e-04 0.000000000000000000e+00 0.000000000000000000e+00 0.000000000000000000e+00 0.000000000000000000e+00 0.000000000000000000e+00
-1.064514539780366587e+00 -1.210761400683216138e+00 9.407373630621034682e-03 -1.066183441462141168e+00 -7.736745612752556761e-04 0.000000000000000000e+00 0.000000000000000000e+00 0.000000000000000000e+00 0.000000000000000000e+00 0.000000000000000000e+00
-1.064514539780366587e+00 -1.210761400683216138e+00 9.407373630621034682e-03 -1.066183441462141168e+00 -7.736745612752556761e-04 0.000000000000000000e+00 0.000000000000000000e+00 0.000000000000000000e+00 0.000000000000000000e+00 0.000000000000000000e+00
-1.064514539780366587e+00 -1.210761400683216138e+00 9.407373630621034682e-03 -1.066183441462141168e+00 -7.736745612752556761e-04 0.000000000000000000e+00 0.000000000000000000e+00 0.000000000000000000e+00 0.000000000000000000e+00 0.000000000000000000e+00
-1.064514539780366587e+00 -1.210761400683216138e+00 9.407373630621034682e-03 -1.066183441462141168e+00 -7.736745612752556761e-04 0.000000000000000000e+00 0.000000000000000000e+00 0.000000000000000000e+00 0.000000000000000000e+00 0.000000000000000000e+00
-1.064514539780366587e+00 -1.210761400683216138e+00 9.407373630621034682e-03 -1.066183441462141168e+00 -7.736745612752556761e-04 0.000000000000000000e+00 0.000000000000000000e+00 0.000000000000000000e+00 0.000000000000000000e+00 0.000000000000000000e+00
-1.064514539780366587e+00 -1.210761400683216138e+00 9.407373630621034682e-03 -1.066183441462141168e+00 -7.736745612752556761e-04 0.000000000000000000e+00 0.000000000000000000e+00 0.000000000000000000e+00 0.000000000000000000e+00 0.000000000000000000e+00
