-4.707785374336188045e-01 -8.500852086675639852e-01 7.078388886964940285e-01 -9.519129626733197069e-01 -6.203034712275189199e-04 3.650987938834046598e-01 -7.323281918897247555e-01 3.196699146012484949e-01 7.206770393297062816e-01 9.411159758369487538e-04
-4.502334589431544742e-01 -8.868964005151478425e-01 7.269495064806852369e-01 -9.125975534953769674e-01 -5.512562013432362141e-04 4.109015698092862157e-01 -7.362238369516765912e-01 3.822123556838249447e-01 7.863081835588546786e-01 1.380945397685653681e-03
-4.273596905574904570e-01 -9.237699281490634462e-01 7.492908900820623996e-01 -8.706053051375926000e-01 -4.600503981539788502e-04 4.574753677132804008e-01 -7.374705526783129628e-01 4.468276720275428104e-01 8.398449671556869056e-01 1.824116063785147278e-03
-4.020998845199566518e-01 -9.605978855385084447e-01 7.750192562405741059e-01 -8.265171857353118545e-01 -3.462729283615478002e-04 5.051961207506765472e-01 -7.365591477889006367e-01 5.145673231702350137e-01 8.817623880456157970e-01 2.275549395848621217e-03
-3.743642681660001026e-01 -9.972990487846840058e-01 8.043751685201215862e-01 -7.808826254111920218e-01 -2.118223676592307704e-04 5.547123270791306515e-01 -7.340232649235108875e-01 5.871182455909504938e-01 9.126912064823970994e-01 2.689011214046340380e-03
-3.440091984746562748e-01 -1.033821721078358236e+00 8.377310335218693949e-01 -7.342142764843468949e-01 -7.250258933575847581e-05 6.071013938268770005e-01 -7.304534458734848190e-01 6.671173000349552851e-01 9.333669785369018701e-01 2.786395566469445674e-03
-3.108025761122426567e-01 -1.070147973815709586e+00 8.756661292183252066e-01 -6.869857266445078547e-01 -7.166165569154542888e-06 6.641324472482723618e-01 -7.265250547470279985e-01 7.587019139291151237e-01 9.445709967967818033e-01 1.306728475332078658e-03
-2.743682632637814978e-01 -1.106299520027925087e+00 9.190848190007138152e-01 -6.396325705544164686e-01 -3.580265849041622175e-04 0.000000000000000000e+00 0.000000000000000000e+00 0.000000000000000000e+00 0.000000000000000000e+00 0.000000000000000000e+00
-2.743682632637814978e-01 -1.106299520027925087e+00 9.190848190007138152e-01 -6.396325705544164686e-01 -3.580265849041622175e-04 0.000000000000000000e+00 0.000000000000000000e+00 0.000000000000000000e+00 0.000000000000000000e+00 0.000000000000000000e+00
-2.743682632637814978e-01 -1.106299520027925087e+00 9.190848190007138152e-01 -6.396325705544164686e-01 -3.580265849041622175e-04 0.000000000000000000e+00 0.000000000000000000e+00 0.000000000000000000e+00 0.000000000000000000e+00 0.000000000000000000e+00
-2.743682632637814978e-01 -1.106299520027925087e+00 9.190848190007138152e-01 -6.396325705544164686e-01 -3.580265849041622175e-04 0.000000000000000000e+00 0.000000000000000000e+00 0.000000000000000000e+00 0.000000000000000000e+00 0.000000000000000000e+00
-2.743682632637814978e-01 -1.106299520027925087e+00 9.190848190007138152e-01 -6.396325705544164686e-01 -3.580265849041622175e-04 0.000000000000000000e+00 0.000000000000000000e+00 0.000000000000000000e+00 0.000000000000000000e+00 0.000000000000000000e+00
-2.743682632637814978e-01 -1.106299520027925087e+00 9.190848190007138152e-01 -6.396325705544164686e-01 -3.580265849041622175e-04 0.000000000000000000e+00 0.000000000000000000e+00 0.000000000000000000e+00 0.000000000000000000e+00 0.000000000000000000e+00
-2.743682632637814978e-01 -1.106299520027925087e+00 9.190848190007138152e-01 -6.396325705544164686e-01 -3.580265849041622175e-04 0.000000000000000000e+00 0.000000000000000000e+00 0.000000000000000000e+00 0.000000000000000000e+00 0.000000000000000000e+00
-2.743682632637814978e-01 -1.106299520027925087e+00 9.190848190007138152e-01 -6.396325705544164686e-01 -3.580265849041622175e-04 0.000000000000000000e+00 0.000000000000000000e+00 0.000000000000000000e+00 0.000000000000000000e+00 0.000000000000000000e+00
-2.743682632637814978e-01 -1.106299520027925087e+00 9.190848190007138152e-01 -6.396325705544164686e-01 -3.580265849041622175e-04 0.000000000000000000e+00 0.000000000000000000e+00 0.000000000000000000e+00 0.000000000000000000e+00 0.000000000000000000e+00
-2.743682632637814978e-01 -1.106299520027925087e+00 9.190848190007138152e-01 -6.396325705544164686e-01 -3.580265849041622175e-04 0.000000000000000000e+00 0.000000000000000000e+00 0.000000000000000000e+00 0.000000000000000000e+00 0.000000000000000000e+00
-2.743682632637814978e-01 -1.106299520027925087e+00 9.190848190007138152e-01 -6.396325705544164686e-01 -3.580265849041622175e-04 0.000000000000000000e+00 0.000000000000000000e+00 0.000000000000000000e+00 0.000000000000000000e+00 0.000000000000000000e+00
-2.743682632637814978e-01 -1.106299520027925087e+00 9.190848190007138152e-01 -6.396325705544164686e-01 -3.580265849041622175e-04 0.000000000000000000e+00 0.000000000000000000e+00 0.000000000000000000e+00 0.000000000000000000e+00 0.000000000000000000e+00
-2.743682632637814978e-01 -1.106299520027925087e+00 9.190848190007138152e-01 -6.396325705544164686e-01 -3.580265849041622175e-04 0.000000000000000000e+00 0.000000000000000000e+00 0.000000000000000000e+00 0.000000000000000000e+00 0.000000000000000000e+00
-2.743682632637814978e-01 -1.106299520027925087e+00 9.190848190007138152e-01 -6.396325705544164686e-01 -3.580265849041622175e-04 0.000000000000000000e+00 0.000000000000000000e+00 0.000000000000000000e+00 0.000000000000000000e+00 0.000000000000000000e+00
-2.743682632637814978e-01 -1.106299520027925087e+00 9.190848190007138152e-01 -6.396325705544164686e-01 -3.580265849041622175e-04 0.000000000000000000e+00 0.000000000000000000e+00 0.000000000000000000e+00 0.000000000000000000e+00 0.000000000000000000e+00
-2.743682632637814978e-01 -1.106299520027925087e+00 9.190848190007138152e-01 -6.396325705544164686e-01 -3.580265849041622175e-04 0.000000000000000000e+00 0.000000000000000000e+00 0.000000000000000000e+00 0.000000000000000000e+00 0.000000000000000000e+00
-2.743682632637814978e-01 -1.106299520027925087e+00 9.190848190007138152e-01 -6.396325705544164686e-01 -3.580265849041622175e-04 0.000000000000000000e+00 0.000000000000000000e+00 0.000000000000000000e+00 0.000000000000000000e+00 0.000000000000000000e+00
-2.743682632637814978e-01 -1.106299520027925087e+00 9.190848190007138152e-01 -6.396325705544164686e-01 -3.580265849041622175e-04 0.000000000000000000e+00 0.000000000000000000e+00 0.000000000000000000e+00 0.000000000000000000e+00 0.000000000000000000e+00
-2.743682632637814978e-01 -1.106299520027925087e+00 9.190848190007138152e-01 -6.396325705544164686e-01 -3.580265849041622175e-04 0.000000000000000000e+00 0.000000000000000000e+00 0.000000000000000000e+00 0.000000000000000000e+00 0.000000000000000000e+00
-2.743682632637814978e-01 -1.106299520027925087e+00 9.190848190007138152e-01 -6.396325705544164686e-01 -3.580265849041622175e-04 0.000000000000000000e+00 0.000000000000000000e+00 0.000000000000000000e+00 0.000000000000000000e+00 0.000000000000000000e+00
-2.743682632637814978e-01 -1.106299520027925087e+00 9.190848190007138152e-01 -6.396325705544164686e-01 -3.580265849041622175e-04 0.000000000000000000e+00 0.000000000000000000e+00 0.000000000000000000e+00 0.000000000000000000e+00 0.000000000000000000e+00
-2.743682632637814978e-01 -1.106299520027925087e+00 9.190848190007138152e-01 -6.396325705544164686e-01 -3.580265849041622175e-04 0.000000000000000000e+00 0.000000000000000000e+00 0.000000000000000000e+00 0.000000000000000000e+00 0.000000000000000000e+00
-2.743682632637814978e-01 -1.106299520027925087e+00 9.190848190007138152e-01 -6.396325705544164686e-01 -3.580265849041622175e-04 0.000000000000000000e+00 0.000000000000000000e+00 0.000000000000000000e+00 0.000000000000000000e+00 0.000000000000000000e+00
-2.743682632637814978e-01 -1.106299520027925087e+00 9.190848190007138152e-01 -6.396325705544164686e-01 -3.580265849041622175e-04 0.000000000000000000e+00 0.000000000000000000e+00 0.000000000000000000e+00 0.000000000000000000e+00 0.000000000000000000e+00
