-8.750921280008863157e-01 8.582397796482285623e-02 -1.194010127619215267e-01 -1.568065918988238661e+00 6.541048188685473757e-04 -3.096888623436695465e-01 -3.547836660825363087e-01 -1.912828061141745584e-02 5.375945815571898656e-01 3.383067612667249417e-03
-8.907072528886268437e-01 6.840322487298942933e-02 -1.186995455062958837e-01 -1.543038549827242090e+00 8.126674606235967640e-04 -3.123024977548108372e-01 -3.484150618366686492e-01 1.402934511251283795e-02 5.005473832199318629e-01 3.171252835100986031e-03
-9.064272388386844792e-01 5.128945595441890271e-02 -1.166351644463794190e-01 -1.519707610824697408e+00 9.459094335970107126e-04 -3.143997190011522669e-01 -3.422753783714104769e-01 4.128762119832930788e-02 4.666187800508926342e-01 2.664839459468278972e-03
-9.222314707505918641e-01 3.445307973635486354e-02 -1.134791890250542862e-01 -1.497865051035305095e+00 9.912186909287565729e-04 -3.160846382381468089e-01 -3.367275243612806723e-01 6.311950842650272675e-02 4.368511957878452590e-01 9.061851466349167723e-04
-9.381041633668012469e-01 1.784959379065668636e-02 -1.094802744575356923e-01 -1.477260070312145679e+00 1.001111198206940502e-03 -3.174538523241876020e-01 -3.320697189139635297e-01 7.997829135037173853e-02 4.120996144631904889e-01 1.978501455636799905e-04
-9.540339670041944053e-01 1.422341154498216881e-03 -1.048651686934798377e-01 -1.457606621151680049e+00 1.003143822129752907e-03 -3.185960727478636123e-01 -3.285450527231693618e-01 9.230211528111718911e-02 3.930689832093114955e-01 4.065247845625019466e-05
-9.700134086441641879e-01 -1.489520816122959918e-02 -9.983936825162377515e-02 -1.438589254161255715e+00 1.005052188107439766e-03 -3.195888327993951505e-01 -3.263509863145562795e-01 1.005160088371211957e-01 3.803473398084849522e-01 3.816731955373665072e-05
-9.860382495214976561e-01 -3.117761990028137739e-02 -9.458785669738907498e-02 -1.419867293068447722e+00 9.999974258039340778e-04 0.000000000000000000e+00 0.000000000000000000e+00 0.000000000000000000e+00 0.000000000000000000e+00 0.000000000000000000e+00
-9.860382495214976561e-01 -3.117761990028137739e-02 -9.458785669738907498e-02 -1.419867293068447722e+00 9.999974258039340778e-04 0.000000000000000000e+00 0.000000000000000000e+00 0.000000000000000000e+00 0.000000000000000000e+00 0.000000000000000000e+00
-9.860382495214976561e-01 -3.117761990028137739e-02 -9.458785669738907498e-02 -1.419867293068447722e+00 9.999974258039340778e-04 0.000000000000000000e+00 0.000000000000000000e+00 0.000000000000000000e+00 0.000000000000000000e+00 0.000000000000000000e+00
-9.860382495214976561e-01 -3.117761990028137739e-02 -9.458785669738907498e-02 -1.419867293068447722e+00 9.999974258039340778e-04 0.000000000000000000e+00 0.000000000000000000e+00 0.000000000000000000e+00 0.000000000000000000e+00 0.000000000000000000e+00
-9.860382495214976561e-01 -3.117761990028137739e-02 -9.458785669738907498e-02 -1.419867293068447722e+00 9.999974258039340778e-04 0.000000000000000000e+00 0.000000000000000000e+00 0.000000000000000000e+00 0.000000000000000000e+00 0.000000000000000000e+00
-9.860382495214976561e-01 -3.117761990028137739e-02 -9.458785669738907498e-02 -1.419867293068447722e+00 9.999974258039340778e-04 0.000000000000000000e+00 0.000000000000000000e+00 0.000000000000000000e+00 0.000000000000000000e+00 0.000000000000000000e+00
-9.860382495214976561e-01 -3.117761990028137739e-02 -9.458785669738907498e-02 -1.419867293068447722e+00 9.999974258039340778e-04 0.000000000000000000e+00 0.000000000000000000e+00 0.000000000000000000e+00 0.000000000000000000e+00 0.000000000000000000e+00
-9.860382495214976561e-01 -3.117761990028137739e-02 -9.458785669738907498e-02 -1.419867293068447722e+00 9.999974258039340778e-04 0.000000000000000000e+00 0.000000000000000000e+00 0.000000000000000000e+00 0.000000000000000000e+00 0.000000000000000000e+00
-9.860382495214976561e-01 -3.117761990028137739e-02 -9.458785669738907498e-02 -1.419867293068447722e+00 9.999974258039340778e-04 0.000000000000000000e+00 0.000000000000000000e+00 0.000000000000000000e+00 0.000000000000000000e+00 0.000000000000000000e+00
-9.860382495214976561e-01 -3.117761990028137739e-02 -9.458785669738907498e-02 -1.419867293068447722e+00 9.999974258039340778e-04 0.000000000000000000e+00 0.000000000000000000e+00 0.000000000000000000e+00 0.000000000000000000e+00 0.000000000000000000e+00
-9.860382495214976561e-01 -3.117761990028137739e-02 -9.458785669738907498e-02 -1.419867293068447722e+00 9.999974258039340778e-04 0.000000000000000000e+00 0.000000000000000000e+00 0.000000000000000000e+00 0.000000000000000000e+00 0.000000000000000000e+00
-9.860382495214976561e-01 -3.117761990028137739e-02 -9.458785669738907498e-02 -1.419867293068447722e+00 9.999974258039340778e-04 0.000000000000000000e+00 0.000000000000000000e+00 0.000000000000000000e+00 0.000000000000000000e+00 0.000000000000000000e+00
-9.860382495214976561e-01 -3.117761990028137739e-02 -9.458785669738907498e-02 -1.419867293068447722e+00 9.999974258039340778e-04 0.000000000000000000e+00 0.000000000000000000e+00 0.000000000000000000e+00 0.000000000000000000e+00 0.000000000000000000e+00
-9.860382495214976561e-01 -3.117761990028137739e-02 -9.458785669738907498e-02 -1.419867293068447722e+00 9.999974258039340778e-04 0.000000000000000000e+00 0.000000000000000000e+00 0.000000000000000000e+00 0.000000000000000000e+00 0.000000000000000000e+00
-9.860382495214976561e-01 -3.117761990028137739e-02 -9.458785669738907498e-02 -1.419867293068447722e+00 9.999974258039340778e-04 0.000000000000000000e+00 0.000000000000000000e+00 0.000000000000000000e+00 0.000000000000000000e+00 0.000000000000000000e+00
-9.860382495214976561e-01 -3.117761990028137739e-02 -9.458785669738907498e-02 -1.419867293068447722e+00 9.999974258039340778e-04 0.000000000000000000e+00 0.000000000000000000e+00 0.000000000000000000e+00 0.000000000000000000e+00 0.000000000000000000e+00
-9.860382495214976561e-01 -3.117761990028137739e-02 -9.458785669738907498e-02 -1.419867293068447722e+00 9.999974258039340778e-04 0.000000000000000000e+00 0.000000000000000000e+00 0.000000000000000000e+00 0.000000000000000000e+00 0.000000000000000000e+00
-9.860382495214976561e-01 -3.117761990028137739e-02 -9.458785669738907498e-02 -1.419867293068447722e+00 9.999974258039340778e-04 0.000000000000000000e+00 0.000000000000000000e+00 0.000000000000000000e+00 0.000000000000000000e+00 0.000000000000000000e+00
-9.860382495214976561e-01 -3.117761990028137739e-02 -9.458785669738907498e-02 -1.419867293068447722e+00 9.999974258039340778e-04 0.000000000000000000e+00 0.000000000000000000e+00 0.000000000000000000e+00 0.000000000000000000e+00 0.000000000000000000e+00
-9.860382495214976561e-01 -3.117761990028137739e-02 -9.458785669738907498e-02 -1.419867293068447722e+00 9.999974258039340778e-04 0.000000000000000000e+00 0.000000000000000000e+00 0.000000000000000000e+00 0.000000000000000000e+00 0.000000000000000000e+00
-9.860382495214976561e-01 -3.117761990028137739e-02 -9.458785669738907498e-02 -1.419867293068447722e+00 9.999974258039340778e-04 0.000000000000000000e+00 0.000000000000000000e+00 0.000000000000000000e+00 0.000000000000000000e+00 0.000000000000000000e+00
-9.860382495214976561e-01 -3.117761990028137739e-02 -9.458785669738907498e-02 -1.419867293068447722e+00 9.999974258039340778e-04 0.000000000000000000e+00 0.000000000000000000e+00 0.000000000000000000e+00 0.000000000000000000e+00 0.000000000000000000e+00
-9.860382495214976561e-01 -3.117761990028137739e-02 -9.458785669738907498e-02 -1.419867293068447722e+00 9.999974258039340778e-04 0.000000000000000000e+00 0.000000000000000000e+00 0.000000000000000000e+00 0.000000000000000000e+00 0.000000000000000000e+00
-9.860382495214976561e-01 -3.117761990028137739e-02 -9.458785669738907498e-02 -1.419867293068447722e+00 9.999974258039340778e-04 0.000000000000000000e+00 0.000000000000000000e+00 0.000000000000000000e+00 0.000000000000000000e+00 0.000000000000000000e+00
