-7.641322714263505400e-01 -4.055692797273559580e-01 7.344478603263375760e-01 -2.049739650085594889e+00 -1.054133730487594092e-03 6.700927838272041637e-01 -1.112861235486601430e+00 -3.289906117440863920e-01 -3.212040585778376811e-01 8.908793035760658352e-05
-7.244859628944256835e-01 -4.633253295565796237e-01 7.257100337301284343e-01 -2.050178495256838485e+00 -1.044746539440834926e-03 7.929261706384976849e-01 -1.155120996584473092e+00 -1.747565319241833615e-01 -8.776903424872306569e-03 1.877438209351845041e-04
-6.785639304469687216e-01 -5.225886393257094253e-01 7.259173898046220597e-01 -2.036272138850751201e+00 -1.033003018271217441e-03 9.184406489491387937e-01 -1.185266195382595811e+00 4.147121489871979927e-03 2.781271281217444491e-01 2.348704233923500214e-04
-6.262098465343773901e-01 -5.826522252398672608e-01 7.357377985704751655e-01 -2.009666153154442636e+00 -1.020985456498186769e-03 1.047081678251827519e+00 -1.201271718283156043e+00 1.964081753170620337e-01 5.321197139261730769e-01 2.403512354606154996e-04
-5.672359405477563898e-01 -6.427367892073557742e-01 7.553896099512691364e-01 -1.972205516528715119e+00 -1.007712257872205161e-03 1.179478119732419561e+00 -1.201691279349770936e+00 3.930362276158790857e-01 7.492127325145517824e-01 2.654639725196314653e-04
-5.014318920104579025e-01 -7.020303929921796193e-01 7.847937694779056894e-01 -1.925789958940731683e+00 -9.861097872179034815e-04 1.316080970745969081e+00 -1.185872075696476013e+00 5.880831905327307263e-01 9.283111517596676077e-01 4.320494130860325533e-04
-4.285907972320352477e-01 -7.597266690009537582e-01 8.237041256455848171e-01 -1.872268010986458231e+00 -9.513766589325736321e-04 1.456821895568452652e+00 -1.153925520175482333e+00 7.782071233535815535e-01 1.070438959085468600e+00 6.946625657065978558e-04
-3.485484262562517088e-01 -8.150541862948964544e-01 8.717869796769399660e-01 -1.813372251318127182e+00 -9.043413226188848613e-04 1.600847419515670778e+00 -1.106550345878854591e+00 9.616570806271033112e-01 1.177915193366622981e+00 9.407067262737742229e-04
-2.612291036053040472e-01 -8.672959781261513346e-01 9.286486538368408095e-01 -1.750684440826517863e+00 -8.428966658674298673e-04 1.746386453018952567e+00 -1.044835836625096492e+00 1.137233483198017314e+00 1.253756209832187940e+00 1.228893135029099012e-03
-1.666885417717705320e-01 -9.158024984207058239e-01 9.938267157917753947e-01 -1.685607752960666339e+00 -7.616940146481796306e-04 1.890811236670669970e+00 -9.701304058910904526e-01 1.303561239098691926e+00 1.301533757317031581e+00 1.624053024385003650e-03
-6.514182236282393956e-02 -9.600012374832113116e-01 1.066770866145444696e+00 -1.619332407767711590e+00 -6.535401944426868668e-04 2.030934388178931904e+00 -8.839747812501090873e-01 1.458883007073388249e+00 1.325506903859095864e+00 2.163076404109855709e-03
4.303387475551946617e-02 -9.994047682991390458e-01 1.146838534883193761e+00 -1.552794715977090956e+00 -5.110285401971864216e-04 2.163513942366867671e+00 -7.880706163185551283e-01 1.601353374754979964e+00 1.330753835812412467e+00 2.850233084910010206e-03
1.573313143851010620e-01 -1.033618542589726186e+00 1.233329164428746294e+00 -1.486633289402440550e+00 -3.281529514776045618e-04 2.285948792591631307e+00 -6.842754858117433558e-01 1.729812590911051107e+00 1.323228531493010118e+00 3.657511774391637195e-03
2.771838368379320183e-01 -1.062347620455451391e+00 1.325573107071401635e+00 -1.421151915186666947e+00 -1.017137488129386510e-04 2.397050449056619126e+00 -5.745815573145049981e-01 1.844878852853105489e+00 1.309627484315471158e+00 4.528784053293318651e-03
4.020691998954114554e-01 -1.085398467122730581e+00 1.423077768130411425e+00 -1.356302265724902645e+00 1.676283498593464784e-04 2.497707261149588742e+00 -4.610169333455828022e-01 1.950093221180194902e+00 1.296992989235285165e+00 5.386841973445702370e-03
5.316288437001417400e-01 -1.102669229578624233e+00 1.525714311475289131e+00 -1.291700015276431079e+00 4.727899967662361081e-04 2.591192876094605690e+00 -3.454152491178751894e-01 2.052730866897552353e+00 1.292045008969429976e+00 6.103232938137792378e-03
6.657778702597428877e-01 -1.114121561845217379e+00 1.633916767167929551e+00 -1.226677770270996559e+00 7.869003893740011317e-04 2.682980531192023399e+00 -2.290466453318643625e-01 2.164049113852807515e+00 1.300444900108692403e+00 6.282207852155300039e-03
8.047855758161129858e-01 -1.119728300985317615e+00 1.748873832449906685e+00 -1.160364090429200301e+00 1.000556102653721345e-03 0.000000000000000000e+00 0.000000000000000000e+00 0.000000000000000000e+00 0.000000000000000000e+00 0.000000000000000000e+00
8.047855758161129858e-01 -1.119728300985317615e+00 1.748873832449906685e+00 -1.160364090429200301e+00 1.000556102653721345e-03 0.000000000000000000e+00 0.000000000000000000e+00 0.000000000000000000e+00 0.000000000000000000e+00 0.000000000000000000e+00
8.047855758161129858e-01 -1.119728300985317615e+00 1.748873832449906685e+00 -1.160364090429200301e+00 1.000556102653721345e-03 0.000000000000000000e+00 0.000000000000000000e+00 0.000000000000000000e+00 0.000000000000000000e+00 0.000000000000000000e+00
8.047855758161129858e-01 -1.119728300985317615e+00 1.748873832449906685e+00 -1.160364090429200301e+00 1.000556102653721345e-03 0.000000000000000000e+00 0.000000000000000000e+00 0.000000000000000000e+00 0.000000000000000000e+00 0.000000000000000000e+00
8.047855758161129858e-01 -1.119728300985317615e+00 1.748873832449906685e+00 -1.160364090429200301e+00 1.000556102653721345e-03 0.000000000000000000e+00 0.000000000000000000e+00 0.000000000000000000e+00 0.000000000000000000e+00 0.000000000000000000e+00
8.047855758161129858e-01 -1.119728300985317615e+00 1.748873832449906685e+00 -1.160364090429200301e+00 1.000556102653721345e-03 0.000000000000000000e+00 0.000000000000000000e+00 0.000000000000000000e+00 0.000000000000000000e+00 0.000000000000000000e+00
8.047855758161129858e-01 -1.119728300985317615e+00 1.748873832449906685e+00 -1.160364090429200301e+00 1.000556102653721345e-03 0.000000000000000000e+00 0.000000000000000000e+00 0.000000000000000000e+00 0.000000000000000000e+00 0.000000000000000000e+00
8.047855758161129858e-01 -1.119728300985317615e+00 1.748873832449906685e+00 -1.160364090429200301e+00 1.000556102653721345e-03 0.000000000000000000e+00 0.000000000000000000e+00 0.000000000000000000e+00 0.000000000000000000e+00 0.000000000000000000e+00
8.047855758161129858e-01 -1.119728300985317615e+00 1.748873832449906685e+00 -1.160364090429200301e+00 1.000556102653721345e-03 0.000000000000000000e+00 0.000000000000000000e+00 0.000000000000000000e+00 0.000000000000000000e+00 0.000000000000000000e+00
8.047855758161129858e-01 -1.119728300985317615e+00 1.748873832449906685e+00 -1.160364090429200301e+00 1.000556102653721345e-03 0.000000000000000000e+00 0.000000000000000000e+00 0.000000000000000000e+00 0.000000000000000000e+00 0.000000000000000000e+00
8.047855758161129858e-01 -1.119728300985317615e+00 1.748873832449906685e+00 -1.160364090429200301e+00 1.000556102653721345e-03 0.000000000000000000e+00 0.000000000000000000e+00 0.000000000000000000e+00 0.000000000000000000e+00 0.000000000000000000e+00
8.047855758161129858e-01 -1.119728300985317615e+00 1.748873832449906685e+00 -1.160364090429200301e+00 1.000556102653721345e-03 0.000000000000000000e+00 0.000000000000000000e+00 0.000000000000000000e+00 0.000000000000000000e+00 0.000000000000000000e+00
8.047855758161129858e-01 -1.119728300985317615e+00 1.748873832449906685e+00 -1.160364090429200301e+00 1.000556102653721345e-03 0.000000000000000000e+00 0.000000000000000000e+00 0.000000000000000000e+00 0.000000000000000000e+00 0.000000000000000000e+00
8.047855758161129858e-01 -1.119728300985317615e+00 1.748873832449906685e+00 -1.160364090429200301e+00 1.000556102653721345e-03 0.000000000000000000e+00 0.000000000000000000e+00 0.000000000000000000e+00 0.000000000000000000e+00 0.000000000000000000e+00
