-7.740608993673294691e-01 -7.037184527835548264e-01 8.576177879859723241e-01 -1.263317578004962360e+00 9.089337874535125591e-04 -1.796687047215290711e-01 -1.500947669437393106e+00 -1.001437717081685441e-01 -6.988543270077418601e-01 -1.599311536144577264e-03
-7.841093401221829184e-01 -7.823232071964175693e-01 8.488209173256838769e-01 -1.296984319089646842e+00 7.817781995381390585e-04 -2.009688150970687648e-01 -1.572095088257254414e+00 -1.759374132057683060e-01 -6.733348216936899666e-01 -2.543111758307470445e-03
-7.951362216191738552e-01 -8.642372429125709798e-01 8.360449183556571962e-01 -1.327842729991851156e+00 6.185830603913406063e-04 -2.205376299398197903e-01 -1.638280714323068654e+00 -2.555199794005343361e-01 -6.171682180440877241e-01 -3.263902782935967743e-03
-8.070746710053494644e-01 -9.491627493348601119e-01 8.192702112636823797e-01 -1.354465692226043183e+00 4.318504778658854328e-04 -2.387689877235123492e-01 -1.698510128445782419e+00 -3.354941418394971619e-01 -5.324592446838405380e-01 -3.734651650509103905e-03
-8.199065859737970641e-01 -1.036753434407695407e+00 7.985959103447208829e-01 -1.375642524464513183e+00 2.329789782593057873e-04 -2.566382993689530490e-01 -1.751813701456705452e+00 -4.134860183792305466e-01 -4.235366447693992842e-01 -3.977429992131593234e-03
-8.336919564788134451e-01 -1.126620059329238144e+00 7.741589961894972394e-01 -1.390433106122524576e+00 3.051603624129996337e-05 -2.757074101003276212e-01 -1.797332498430852743e+00 -4.887382831044723708e-01 -2.958116331602295146e-01 -4.049258840360115720e-03
-8.486088849121024014e-01 -1.218336271894681078e+00 7.460229320053566315e-01 -1.398176268684420354e+00 -1.707681948794426770e-04 -2.983385686657789582e-01 -1.834324251308858234e+00 -5.627212836828127118e-01 -1.548632512379156112e-01 -4.025684622414852157e-03
-8.649960865159047607e-01 -1.311446582060059596e+00 7.140646014210698667e-01 -1.398455587316562276e+00 -3.757787036833087858e-04 -3.277440320760462988e-01 -1.862206203307570807e+00 -6.391666116857364077e-01 -5.586372642839537717e-03 -4.100210176077322827e-03
-8.834065941491912044e-01 -1.405470467827330872e+00 6.778449669441478642e-01 -1.391041662741208329e+00 -6.154103213729467461e-04 -3.682101526657288737e-01 -1.880477715345426626e+00 -7.243926895384408260e-01 1.482784915070780307e-01 -4.792632353792759640e-03
-9.046478181585637657e-01 -1.499904713931454747e+00 6.364888733093500006e-01 -1.375802768391802600e+00 -1.005652492322478032e-03 0.000000000000000000e+00 0.000000000000000000e+00 0.000000000000000000e+00 0.000000000000000000e+00 0.000000000000000000e+00
-9.046478181585637657e-01 -1.499904713931454747e+00 6.364888733093500006e-01 -1.375802768391802600e+00 -1.005652492322478032e-03 0.000000000000000000e+00 0.000000000000000000e+00 0.000000000000000000e+00 0.000000000000000000e+00 0.000000000000000000e+00
-9.046478181585637657e-01 -1.499904713931454747e+00 6.364888733093500006e-01 -1.375802768391802600e+00 -1.005652492322478032e-03 0.000000000000000000e+00 0.000000000000000000e+00 0.000000000000000000e+00 0.000000000000000000e+00 0.000000000000000000e+00
-9.046478181585637657e-01 -1.499904713931454747e+00 6.364888733093500006e-01 -1.375802768391802600e+00 -1.005652492322478032e-03 0.000000000000000000e+00 0.000000000000000000e+00 0.000000000000000000e+00 0.000000000000000000e+00 0.000000000000000000e+00
-9.046478181585637657e-01 -1.499904713931454747e+00 6.364888733093500006e-01 -1.375802768391802600e+00 -1.005652492322478032e-03 0.000000000000000000e+00 0.000000000000000000e+00 0.000000000000000000e+00 0.000000000000000000e+00 0.000000000000000000e+00
-9.046478181585637657e-01 -1.499904713931454747e+00 6.364888733093500006e-01 -1.375802768391802600e+00 -1.005652492322478032e-03 0.000000000000000000e+00 0.000000000000000000e+00 0.000000000000000000e+00 0.000000000000000000e+00 0.000000000000000000e+00
-9.046478181585637657e-01 -1.499904713931454747e+00 6.364888733093500006e-01 -1.375802768391802600e+00 -1.005652492322478032e-03 0.000000000000000000e+00 0.000000000000000000e+00 0.000000000000000000e+00 0.000000000000000000e+00 0.000000000000000000e+00
-9.046478181585637657e-01 -1.499904713931454747e+00 6.364888733093500006e-01 -1.375802768391802600e+00 -1.005652492322478032e-03 0.000000000000000000e+00 0.000000000000000000e+00 0.000000000000000000e+00 0.000000000000000000e+00 0.000000000000000000e+00
-9.046478181585637657e-01 -1.499904713931454747e+00 6.364888733093500006e-01 -1.375802768391802600e+00 -1.005652492322478032e-03 0.000000000000000000e+00 0.000000000000000000e+00 0.000000000000000000e+00 0.000000000000000000e+00 0.000000000000000000e+00
-9.046478181585637657e-01 -1.499904713931454747e+00 6.364888733093500006e-01 -1.375802768391802600e+00 -1.005652492322478032e-03 0.000000000000000000e+00 0.000000000000000000e+00 0.000000000000000000e+00 0.000000000000000000e+00 0.000000000000000000e+00
-9.046478181585637657e-01 -1.499904713931454747e+00 6.364888733093500006e-01 -1.375802768391802600e+00 -1.005652492322478032e-03 0.000000000000000000e+00 0.000000000000000000e+00 0.000000000000000000e+00 0.000000000000000000e+00 0.000000000000000000e+00
-9.046478181585637657e-01 -1.499904713931454747e+00 6.364888733093500006e-01 -1.375802768391802600e+00 -1.005652492322478032e-03 0.000000000000000000e+00 0.000000000000000000e+00 0.000000000000000000e+00 0.000000000000000000e+00 0.000000000000000000e+00
-9.046478181585637657e-01 -1.499904713931454747e+00 6.364888733093500006e-01 -1.375802768391802600e+00 -1.005652492322478032e-03 0.000000000000000000e+00 0.000000000000000000e+00 0.000000000000000000e+00 0.000000000000000000e+00 0.000000000000000000e+00
-9.046478181585637657e-01 -1.499904713931454747e+00 6.364888733093500006e-01 -1.375802768391802600e+00 -1.005652492322478032e-03 0.000000000000000000e+00 0.000000000000000000e+00 0.000000000000000000e+00 0.000000000000000000e+00 0.000000000000000000e+00
-9.046478181585637657e-01 -1.499904713931454747e+00 6.364888733093500006e-01 -1.375802768391802600e+00 -1.005652492322478032e-03 0.000000000000000000e+00 0.000000000000000000e+00 0.000000000000000000e+00 0.000000000000000000e+00 0.000000000000000000e+00
-9.046478181585637657e-01 -1.499904713931454747e+00 6.364888733093500006e-01 -1.375802768391802600e+00 -1.005652492322478032e-03 0.000000000000000000e+00 0.000000000000000000e+00 0.000000000000000000e+00 0.000000000000000000e+00 0.000000000000000000e+00
-9.046478181585637657e-01 -1.499904713931454747e+00 6.364888733093500006e-01 -1.375802768391802600e+00 -1.005652492322478032e-03 0.000000000000000000e+00 0.000000000000000000e+00 0.000000000000000000e+00 0.000000000000000000e+00 0.000000000000000000e+00
-9.046478181585637657e-01 -1.499904713931454747e+00 6.364888733093500006e-01 -1.375802768391802600e+00 -1.005652492322478032e-03 0.000000000000000000e+00 0.000000000000000000e+00 0.000000000000000000e+00 0.000000000000000000e+00 0.000000000000000000e+00
-9.046478181585637657e-01 -1.499904713931454747e+00 6.364888733093500006e-01 -1.375802768391802600e+00 -1.005652492322478032e-03 0.000000000000000000e+00 0.000000000000000000e+00 0.000000000000000000e+00 0.000000000000000000e+00 0.000000000000000000e+00
-9.046478181585637657e-01 -1.499904713931454747e+00 6.364888733093500006e-01 -1.375802768391802600e+00 -1.005652492322478032e-03 0.000000000000000000e+00 0.000000000000000000e+00 0.000000000000000000e+00 0.000000000000000000e+00 0.000000000000000000e+00
-9.046478181585637657e-01 -1.499904713931454747e+00 6.364888733093500006e-01 -1.375802768391802600e+00 -1.005652492322478032e-03 0.000000000000000000e+00 0.000000000000000000e+00 0.000000000000000000e+00 0.000000000000000000e+00 0.000000000000000000e+00
-9.046478181585637657e-01 -1.499904713931454747e+00 6.364888733093500006e-01 -1.375802768391802600e+00 -1.005652492322478032e-03 0.000000000000000000e+00 0.000000000000000000e+00 0.000000000000000000e+00 0.000000000000000000e+00 0.000000000000000000e+00
