-6.589825333405019414e-01 -4.174003534435328233e-01 -1.432804149051453979e-01 -1.077377229276227366e+00 -6.235903265553882375e-04 -4.321481422332295041e-01 -5.920527518787194188e-01 -2.638230382165298593e-01 1.031864884315010666e+00 1.347393241772050412e-03
-6.810738402810402325e-01 -4.468034395635676059e-01 -1.535383440432991908e-01 -1.027179278583360666e+00 -5.755945554456662599e-04 -4.418261388107651566e-01 -5.880617224006952082e-01 -2.051585827630760805e-01 1.003959013857333993e+00 9.599154221944395521e-04
-7.036545171013086630e-01 -4.759152815952613635e-01 -1.611421148778675316e-01 -9.786043830193117410e-01 -5.461860156758680928e-04 -4.516135364053686096e-01 -5.822368406338754854e-01 -1.520754166913666217e-01 9.714979112809793982e-01 5.881707953959631249e-04
-7.267306973753547839e-01 -5.046882781792897399e-01 -1.663775398743737588e-01 -9.317309984563534320e-01 -5.337960137665910673e-04 -4.615236054809229160e-01 -5.754599316805664166e-01 -1.047084999301247654e-01 9.374676912591651812e-01 2.478000381855398598e-04
-7.503119482522110362e-01 -5.331121182867823993e-01 -1.695458197521566568e-01 -8.865054207351643623e-01 -5.370574583693912352e-04 -4.716250175371256570e-01 -5.684768021498527446e-01 -6.336559755565818186e-02 9.045115544237819494e-01 -6.522889205600341253e-05
-7.744135572432871983e-01 -5.612083870969641897e-01 -1.709714988577825667e-01 -8.427514295796185717e-01 -5.560271431515384282e-04 -4.820321798215226328e-01 -5.619253762036356958e-01 -2.851358211251806690e-02 8.750798231109164771e-01 -3.793936956429428851e-04
-7.990587150142424155e-01 -5.890246277014122844e-01 -1.710079594667238412e-01 -8.001828385516598363e-01 -5.978243633376169926e-04 -4.929031554191040110e-01 -5.563248120889618953e-01 -7.292121788255619130e-04 8.513718205591742638e-01 -8.359444037215706374e-04
-8.242806077751247962e-01 -6.166269362912633056e-01 -1.700433742405950965e-01 -7.584212554850181531e-01 -6.973304998636301088e-04 -5.044378552176473907e-01 -5.520461717970197579e-01 1.929170452257471247e-02 8.352316613328329975e-01 -1.990122730520262322e-03
-8.501240875219991944e-01 -6.440930201158845403e-01 -1.685025291395175484e-01 -7.170143863916351723e-01 -1.001407981941665514e-03 0.000000000000000000e+00 0.000000000000000000e+00 0.000000000000000000e+00 0.000000000000000000e+00 0.000000000000000000e+00
-8.501240875219991944e-01 -6.440930201158845403e-01 -1.685025291395175484e-01 -7.170143863916351723e-01 -1.001407981941665514e-03 0.000000000000000000e+00 0.000000000000000000e+00 0.000000000000000000e+00 0.000000000000000000e+00 0.000000000000000000e+00
-8.501240875219991944e-01 -6.440930201158845403e-01 -1.685025291395175484e-01 -7.170143863916351723e-01 -1.001407981941665514e-03 0.000000000000000000e+00 0.000000000000000000e+00 0.000000000000000000e+00 0.000000000000000000e+00 0.000000000000000000e+00
-8.501240875219991944e-01 -6.440930201158845403e-01 -1.685025291395175484e-01 -7.170143863916351723e-01 -1.001407981941665514e-03 0.000000000000000000e+00 0.000000000000000000e+00 0.000000000000000000e+00 0.000000000000000000e+00 0.000000000000000000e+00
-8.501240875219991944e-01 -6.440930201158845403e-01 -1.685025291395175484e-01 -7.170143863916351723e-01 -1.001407981941665514e-03 0.000000000000000000e+00 0.000000000000000000e+00 0.000000000000000000e+00 0.000000000000000000e+00 0.000000000000000000e+00
-8.501240875219991944e-01 -6.440930201158845403e-01 -1.685025291395175484e-01 -7.170143863916351723e-01 -1.001407981941665514e-03 0.000000000000000000e+00 0.000000000000000000e+00 0.000000000000000000e+00 0.000000000000000000e+00 0.000000000000000000e+00
-8.501240875219991944e-01 -6.440930201158845403e-01 -1.685025291395175484e-01 -7.170143863916351723e-01 -1.001407981941665514e-03 0.000000000000000000e+00 0.000000000000000000e+00 0.000000000000000000e+00 0.000000000000000000e+00 0.000000000000000000e+00
-8.501240875219991944e-01 -6.440930201158845403e-01 -1.685025291395175484e-01 -7.170143863916351723e-01 -1.001407981941665514e-03 0.000000000000000000e+00 0.000000000000000000e+00 0.000000000000000000e+00 0.000000000000000000e+00 0.000000000000000000e+00
-8.501240875219991944e-01 -6.440930201158845403e-01 -1.685025291395175484e-01 -7.170143863916351723e-01 -1.001407981941665514e-03 0.000000000000000000e+00 0.000000000000000000e+00 0.000000000000000000e+00 0.000000000000000000e+00 0.000000000000000000e+00
-8.501240875219991944e-01 -6.440930201158845403e-01 -1.685025291395175484e-01 -7.170143863916351723e-01 -1.001407981941665514e-03 0.000000000000000000e+00 0.000000000000000000e+00 0.000000000000000000e+00 0.000000000000000000e+00 0.000000000000000000e+00
-8.501240875219991944e-01 -6.440930201158845403e-01 -1.685025291395175484e-01 -7.170143863916351723e-01 -1.001407981941665514e-03 0.000000000000000000e+00 0.000000000000000000e+00 0.000000000000000000e+00 0.000000000000000000e+00 0.000000000000000000e+00
-8.501240875219991944e-01 -6.440930201158845403e-01 -1.685025291395175484e-01 -7.170143863916351723e-01 -1.001407981941665514e-03 0.000000000000000000e+00 0.000000000000000000e+00 0.000000000000000000e+00 0.000000000000000000e+00 0.000000000000000000e+00
-8.501240875219991944e-01 -6.440930201158845403e-01 -1.685025291395175484e-01 -7.170143863916351723e-01 -1.001407981941665514e-03 0.000000000000000000e+00 0.000000000000000000e+00 0.000000000000000000e+00 0.000000000000000000e+00 0.000000000000000000e+00
-8.501240875219991944e-01 -6.440930201158845403e-01 -1.685025291395175484e-01 -7.170143863916351723e-01 -1.001407981941665514e-03 0.000000000000000000e+00 0.000000000000000000e+00 0.000000000000000000e+00 0.000000000000000000e+00 0.000000000000000000e+00
-8.501240875219991944e-01 -6.440930201158845403e-01 -1.685025291395175484e-01 -7.170143863916351723e-01 -1.001407981941665514e-03 0.000000000000000000e+00 0.000000000000000000e+00 0.000000000000000000e+00 0.000000000000000000e+00 0.000000000000000000e+00
-8.501240875219991944e-01 -6.440930201158845403e-01 -1.685025291395175484e-01 -7.170143863916351723e-01 -1.001407981941665514e-03 0.000000000000000000e+00 0.000000000000000000e+00 0.000000000000000000e+00 0.000000000000000000e+00 0.000000000000000000e+00
-8.501240875219991944e-01 -6.440930201158845403e-01 -1.685025291395175484e-01 -7.170143863916351723e-01 -1.001407981941665514e-03 0.000000000000000000e+00 0.000000000000000000e+00 0.000000000000000000e+00 0.000000000000000000e+00 0.000000000000000000e+00
-8.501240875219991944e-01 -6.440930201158845403e-01 -1.685025291395175484e-01 -7.170143863916351723e-01 -1.001407981941665514e-03 0.000000000000000000e+00 0.000000000000000000e+00 0.000000000000000000e+00 0.000000000000000000e+00 0.000000000000000000e+00
-8.501240875219991944e-01 -6.440930201158845403e-01 -1.685025291395175484e-01 -7.170143863916351723e-01 -1.001407981941665514e-03 0.000000000000000000e+00 0.000000000000000000e+00 0.000000000000000000e+00 0.000000000000000000e+00 0.000000000000000000e+00
-8.501240875219991944e-01 -6.440930201158845403e-01 -1.685025291395175484e-01 -7.170143863916351723e-01 -1.001407981941665514e-03 0.000000000000000000e+00 0.000000000000000000e+00 0.000000000000000000e+00 0.000000000000000000e+00 0.000000000000000000e+00
-8.501240875219991944e-01 -6.440930201158845403e-01 -1.685025291395175484e-01 -7.170143863916351723e-01 -1.001407981941665514e-03 0.000000000000000000e+00 0.000000000000000000e+00 0.000000000000000000e+00 0.000000000000000000e+00 0.000000000000000000e+00
-8.501240875219991944e-01 -6.440930201158845403e-01 -1.685025291395175484e-01 -7.170143863916351723e-01 -1.001407981941665514e-03 0.000000000000000000e+00 0.000000000000000000e+00 0.000000000000000000e+00 0.000000000000000000e+00 0.000000000000000000e+00
-8.501240875219991944e-01 -6.440930201158845403e-01 -1.685025291395175484e-01 -7.170143863916351723e-01 -1.001407981941665514e-03 0.000000000000000000e+00 0.000000000000000000e+00 0.000000000000000000e+00 0.000000000000000000e+00 0.000000000000000000e+00
