-9.251690050312255664e-01 -1.321907456349048937e+00 6.346136340240746132e-02 -1.443744992536817984e+00 2.080556560058516768e-04 -9.167705413247406732e-03 -1.873909891140735917e+00 -5.240751818151256902e-01 1.368818754500165324e+00 3.922408701245438077e-03
-9.235517488387137153e-01 -1.416704977819176037e+00 4.077101123122860160e-02 -1.369549499685349003e+00 3.699809725046316255e-04 3.234512385023612796e-02 -1.895950429402541104e+00 -4.538070434235771389e-01 1.483909857029380497e+00 3.238506329975597998e-03
-9.199595695759973379e-01 -1.512322026482104675e+00 2.092430818375303966e-02 -1.290495785473162238e+00 4.970911518260654610e-04 7.184358525432787967e-02 -1.912340973258574328e+00 -3.969340609495111694e-01 1.581074284243733530e+00 2.542203586428677144e-03
-9.149529601298727055e-01 -1.608504125945828589e+00 2.788527205037607398e-03 -1.207392540839238526e+00 6.336292269373363555e-04 1.001321889224926487e-01 -1.923641989274478714e+00 -3.627156195743087008e-01 1.662064892678472239e+00 2.730761502225417456e-03
-9.095265650640492749e-01 -1.705010808610445627e+00 -1.530434354992862150e-02 -1.120926874205070423e+00 9.984624239591545491e-04 0.000000000000000000e+00 0.000000000000000000e+00 0.000000000000000000e+00 0.000000000000000000e+00 0.000000000000000000e+00
-9.095265650640492749e-01 -1.705010808610445627e+00 -1.530434354992862150e-02 -1.120926874205070423e+00 9.984624239591545491e-04 0.000000000000000000e+00 0.000000000000000000e+00 0.000000000000000000e+00 0.000000000000000000e+00 0.000000000000000000e+00
-9.095265650640492749e-01 -1.705010808610445627e+00 -1.530434354992862150e-02 -1.120926874205070423e+00 9.984624239591545491e-04 0.000000000000000000e+00 0.000000000000000000e+00 0.000000000000000000e+00 0.000000000000000000e+00 0.000000000000000000e+00
-9.095265650640492749e-01 -1.705010808610445627e+00 -1.530434354992862150e-02 -1.120926874205070423e+00 9.984624239591545491e-04 0.000000000000000000e+00 0.000000000000000000e+00 0.000000000000000000e+00 0.000000000000000000e+00 0.000000000000000000e+00
-9.095265650640492749e-01 -1.705010808610445627e+00 -1.530434354992862150e-02 -1.120926874205070423e+00 9.984624239591545491e-04 0.000000000000000000e+00 0.000000000000000000e+00 0.000000000000000000e+00 0.000000000000000000e+00 0.000000000000000000e+00
-9.095265650640492749e-01 -1.705010808610445627e+00 -1.530434354992862150e-02 -1.120926874205070423e+00 9.984624239591545491e-04 0.000000000000000000e+00 0.000000000000000000e+00 0.000000000000000000e+00 0.000000000000000000e+00 0.000000000000000000e+00
-9.095265650640492749e-01 -1.705010808610445627e+00 -1.530434354992862150e-02 -1.120926874205070423e+00 9.984624239591545491e-04 0.000000000000000000e+00 0.000000000000000000e+00 0.000000000000000000e+00 0.000000000000000000e+00 0.000000000000000000e+00
-9.095265650640492749e-01 -1.705010808610445627e+00 -1.530434354992862150e-02 -1.120926874205070423e+00 9.984624239591545491e-04 0.000000000000000000e+00 0.000000000000000000e+00 0.000000000000000000e+00 0.000000000000000000e+00 0.000000000000000000e+00
-9.095265650640492749e-01 -1.705010808610445627e+00 -1.530434354992862150e-02 -1.120926874205070423e+00 9.984624239591545491e-04 0.000000000000000000e+00 0.000000000000000000e+00 0.000000000000000000e+00 0.000000000000000000e+00 0.000000000000000000e+00
-9.095265650640492749e-01 -1.705010808610445627e+00 -1.530434354992862150e-02 -1.120926874205070423e+00 9.984624239591545491e-04 0.000000000000000000e+00 0.000000000000000000e+00 0.000000000000000000e+00 0.000000000000000000e+00 0.000000000000000000e+00
-9.095265650640492749e-01 -1.705010808610445627e+00 -1.530434354992862150e-02 -1.120926874205070423e+00 9.984624239591545491e-04 0.000000000000000000e+00 0.000000000000000000e+00 0.000000000000000000e+00 0.000000000000000000e+00 0.000000000000000000e+00
-9.095265650640492749e-01 -1.705010808610445627e+00 -1.530434354992862150e-02 -1.120926874205070423e+00 9.984624239591545491e-04 0.000000000000000000e+00 0.000000000000000000e+00 0.000000000000000000e+00 0.000000000000000000e+00 0.000000000000000000e+00
-9.095265650640492749e-01 -1.705010808610445627e+00 -1.530434354992862150e-02 -1.120926874205070423e+00 9.984624239591545491e-04 0.000000000000000000e+00 0.000000000000000000e+00 0.000000000000000000e+00 0.000000000000000000e+00 0.000000000000000000e+00
-9.095265650640492749e-01 -1.705010808610445627e+00 -1.530434354992862150e-02 -1.120926874205070423e+00 9.984624239591545491e-04 0.000000000000000000e+00 0.000000000000000000e+00 0.000000000000000000e+00 0.000000000000000000e+00 0.000000000000000000e+00
-9.095265650640492749e-01 -1.705010808610445627e+00 -1.530434354992862150e-02 -1.120926874205070423e+00 9.984624239591545491e-04 0.000000000000000000e+00 0.000000000000000000e+00 0.000000000000000000e+00 0.000000000000000000e+00 0.000000000000000000e+00
-9.095265650640492749e-01 -1.705010808610445627e+00 -1.530434354992862150e-02 -1.120926874205070423e+00 9.984624239591545491e-04 0.000000000000000000e+00 0.000000000000000000e+00 0.000000000000000000e+00 0.000000000000000000e+00 0.000000000000000000e+00
-9.095265650640492749e-01 -1.705010808610445627e+00 -1.530434354992862150e-02 -1.120926874205070423e+00 9.984624239591545491e-04 0.000000000000000000e+00 0.000000000000000000e+00 0.000000000000000000e+00 0.000000000000000000e+00 0.000000000000000000e+00
-9.095265650640492749e-01 -1.705010808610445627e+00 -1.530434354992862150e-02 -1.120926874205070423e+00 9.984624239591545491e-04 0.000000000000000000e+00 0.000000000000000000e+00 0.000000000000000000e+00 0.000000000000000000e+00 0.000000000000000000e+00
-9.095265650640492749e-01 -1.705010808610445627e+00 -1.530434354992862150e-02 -1.120926874205070423e+00 9.984624239591545491e-04 0.000000000000000000e+00 0.000000000000000000e+00 0.000000000000000000e+00 0.000000000000000000e+00 0.000000000000000000e+00
-9.095265650640492749e-01 -1.705010808610445627e+00 -1.530434354992862150e-02 -1.120926874205070423e+00 9.984624239591545491e-04 0.000000000000000000e+00 0.000000000000000000e+00 0.000000000000000000e+00 0.000000000000000000e+00 0.000000000000000000e+00
-9.095265650640492749e-01 -1.705010808610445627e+00 -1.530434354992862150e-02 -1.120926874205070423e+00 9.984624239591545491e-04 0.000000000000000000e+00 0.000000000000000000e+00 0.000000000000000000e+00 0.000000000000000000e+00 0.000000000000000000e+00
-9.095265650640492749e-01 -1.705010808610445627e+00 -1.530434354992862150e-02 -1.120926874205070423e+00 9.984624239591545491e-04 0.000000000000000000e+00 0.000000000000000000e+00 0.000000000000000000e+00 0.000000000000000000e+00 0.000000000000000000e+00
-9.095265650640492749e-01 -1.705010808610445627e+00 -1.530434354992862150e-02 -1.120926874205070423e+00 9.984624239591545491e-04 0.000000000000000000e+00 0.000000000000000000e+00 0.000000000000000000e+00 0.000000000000000000e+00 0.000000000000000000e+00
-9.095265650640492749e-01 -1.705010808610445627e+00 -1.530434354992862150e-02 -1.120926874205070423e+00 9.984624239591545491e-04 0.000000000000000000e+00 0.000000000000000000e+00 0.000000000000000000e+00 0.000000000000000000e+00 0.000000000000000000e+00
-9.095265650640492749e-01 -1.705010808610445627e+00 -1.530434354992862150e-02 -1.120926874205070423e+00 9.984624239591545491e-04 0.000000000000000000e+00 0.000000000000000000e+00 0.000000000000000000e+00 0.000000000000000000e+00 0.000000000000000000e+00
-9.095265650640492749e-01 -1.705010808610445627e+00 -1.530434354992862150e-02 -1.120926874205070423e+00 9.984624239591545491e-04 0.000000000000000000e+00 0.000000000000000000e+00 0.000000000000000000e+00 0.000000000000000000e+00 0.000000000000000000e+00
-9.095265650640492749e-01 -1.705010808610445627e+00 -1.530434354992862150e-02 -1.120926874205070423e+00 9.984624239591545491e-04 0.000000000000000000e+00 0.000000000000000000e+00 0.000000000000000000e+00 0.000000000000000000e+00 0.000000000000000000e+00
