-3.554739407719266775e-01 -3.902215601976196657e-01 4.555652389968262717e-01 -1.481125117393446544e+00 -2.397191148357082980e-04 -2.614474565675566908e-01 -8.046462752337268931e-01 -1.040659594762413320e+00 -7.642653032275863456e-01 -4.746692808660828676e-03
-3.681785150913087223e-01 -4.351230801724845776e-01 4.019346292475614035e-01 -1.512045024054700537e+00 -4.820146182246133311e-04 -2.540914863876406748e-01 -8.980303994972982373e-01 -1.072612194985296918e+00 -6.183981332250788610e-01 -4.845910067778100988e-03
-3.803460304799831104e-01 -4.846719750539578153e-01 3.476687152560297700e-01 -1.534278461089986889e+00 -7.028742225230728098e-04 -2.433503077734881781e-01 -9.909778976294644215e-01 -1.085318279830632227e+00 -4.446687407057285935e-01 -4.417192085969188706e-03
-3.918477701222252696e-01 -5.388120107816521953e-01 2.938086010225111067e-01 -1.546781000719073207e+00 -8.783100556127693657e-04 -2.300347928448434054e-01 -1.082800714553888266e+00 -1.077202284670373711e+00 -2.500507925817275767e-01 -3.508716661793932420e-03
-4.025929922543221018e-01 -5.974443928787592784e-01 2.413851829918192138e-01 -1.548880004262778387e+00 -9.895287162887667336e-04 -2.149044426419366438e-01 -1.172647641942141439e+00 -1.048468360613837635e+00 -4.198007087410171589e-02 -2.224373213519947358e-03
-4.125202193538562434e-01 -6.604190393360211964e-01 1.913215256986123269e-01 -1.540266288401856976e+00 -1.023049116577247038e-03 -1.985445419906827214e-01 -1.259492929145237916e+00 -1.001273145864137737e+00 1.722743172184262317e-01 -6.704080057696069558e-04
-4.215810302592721270e-01 -7.275319461565800117e-01 1.443537288373865080e-01 -1.520945451270623527e+00 -1.021538736966595608e-03 -1.812162181083181445e-01 -1.342258136411176972e+00 -9.393559372245160466e-01 3.864167426246701287e-01 3.020759221302642475e-05
-4.297199829682858407e-01 -7.985270742652592624e-01 1.009857920841759071e-01 -1.491175135213986813e+00 -9.909728898988470064e-04 -1.627790541802739688e-01 -1.419902562173585014e+00 -8.673587350642120164e-01 5.954063211327350613e-01 6.113169413549714984e-04
-4.368515304702602076e-01 -8.731047221276203585e-01 6.148610810917536085e-02 -1.451392722793940715e+00 -9.041581690577750073e-04 -1.426309500394869478e-01 -1.491552957247221478e+00 -7.899936795000109813e-01 7.956482484009237410e-01 1.736294416821439982e-03
-4.428373164919120475e-01 -9.509332511183142822e-01 2.591714598331255892e-02 -1.402149393414342748e+00 -7.801475143780268497e-04 -1.197157204330363128e-01 -1.556570579813878918e+00 -7.113792425172560385e-01 9.848665875919579982e-01 2.480213093594964453e-03
-4.474623905995055995e-01 -1.031663491017446699e+00 -5.804058173416656863e-03 -1.344056095227845526e+00 -6.363940284720686485e-04 -9.250148215187065093e-02 -1.614604797982646112e+00 -6.344240831345844267e-01 1.161865963729943996e+00 2.875069718119162721e-03
-4.504141746845357064e-01 -1.114940689222458037e+00 -3.383101666539722885e-02 -1.277754244916803339e+00 -4.884552139259066639e-04 -5.903568170060265879e-02 -1.665543964100226759e+00 -5.605391698396113842e-01 1.326037006220842418e+00 2.958776290923240126e-03
-4.512705167682941054e-01 -1.200415437465710777e+00 -5.831051265021357233e-02 -1.203898645306006321e+00 -3.492498904236424691e-04 -1.712684167516827227e-02 -1.709494964865056588e+00 -4.895899196963267586e-01 1.477111992215940361e+00 2.784106470045283679e-03
-4.495175740706521261e-01 -1.287752565671916649e+00 -7.932510148278974771e-02 -1.123152182636656171e+00 -2.289327082161801686e-04 3.505885395283982880e-02 -1.746742564124117658e+00 -4.202917766515235631e-01 1.614929253387004104e+00 2.406343644149246119e-03
-4.446337506772347070e-01 -1.376641289313446981e+00 -9.689035923721826815e-02 -1.036178494720924714e+00 -1.349650682057364887e-04 9.767646786834807693e-02 -1.777774472830607078e+00 -3.513051550885704089e-01 1.739473758314630691e+00 1.879352800208873705e-03
-4.362774926682912446e-01 -1.466806489990037266e+00 -1.110565173642069636e-01 -9.436316009042067243e-01 -7.228857476239055073e-05 1.671251601788691366e-01 -1.803304013531806360e+00 -2.833231625397739650e-01 1.850937876334360466e+00 1.253529868866918705e-03
-4.245536973692356497e-01 -1.558017328766728493e+00 -1.221350430730940295e-01 -8.461438231245739239e-01 -4.316347191413370642e-05 2.344759059811122315e-01 -1.824216775533824553e+00 -2.215705141777412346e-01 1.949755555592656009e+00 5.825020569651369676e-04
-4.101858609845067116e-01 -1.650082080799704753e+00 -1.309463466975203938e-01 -7.443235051257012236e-01 -4.574948389307063786e-05 2.873567276945787063e-01 -1.841295040659523430e+00 -1.762260724885270358e-01 2.036406359977453562e+00 -5.172023957873868316e-05
-3.943560321378479783e-01 -1.742820681826197537e+00 -1.388551276173757842e-01 -6.387741557249189128e-01 -7.080396543298140882e-05 3.165965769331750002e-01 -1.854772020529854570e+00 -1.581756183971080587e-01 2.110986988015647103e+00 -5.010896307982154463e-04
-3.782488453525387206e-01 -1.836026227882985307e+00 -1.475115581677686472e-01 -5.301220395504038230e-01 -8.541510723730820704e-05 3.221437357061848195e-01 -1.864110921135754051e+00 -1.731286110078572860e-01 2.173042323490301797e+00 -2.922228360865359101e-04
-3.626697768943670241e-01 -1.929437437535178157e+00 -1.585580854832847886e-01 -4.190276279645248070e-01 5.146100281848019122e-05 0.000000000000000000e+00 0.000000000000000000e+00 0.000000000000000000e+00 0.000000000000000000e+00 0.000000000000000000e+00
-3.626697768943670241e-01 -1.929437437535178157e+00 -1.585580854832847886e-01 -4.190276279645248070e-01 5.146100281848019122e-05 0.000000000000000000e+00 0.000000000000000000e+00 0.000000000000000000e+00 0.000000000000000000e+00 0.000000000000000000e+00
-3.626697768943670241e-01 -1.929437437535178157e+00 -1.585580854832847886e-01 -4.190276279645248070e-01 5.146100281848019122e-05 0.000000000000000000e+00 0.000000000000000000e+00 0.000000000000000000e+00 0.000000000000000000e+00 0.000000000000000000e+00
-3.626697768943670241e-01 -1.929437437535178157e+00 -1.585580854832847886e-01 -4.190276279645248070e-01 5.146100281848019122e-05 0.000000000000000000e+00 0.000000000000000000e+00 0.000000000000000000e+00 0.000000000000000000e+00 0.000000000000000000e+00
-3.626697768943670241e-01 -1.929437437535178157e+00 -1.585580854832847886e-01 -4.190276279645248070e-01 5.146100281848019122e-05 0.000000000000000000e+00 0.000000000000000000e+00 0.000000000000000000e+00 0.000000000000000000e+00 0.000000000000000000e+00
-3.626697768943670241e-01 -1.929437437535178157e+00 -1.585580854832847886e-01 -4.190276279645248070e-01 5.146100281848019122e-05 0.000000000000000000e+00 0.000000000000000000e+00 0.000000000000000000e+00 0.000000000000000000e+00 0.000000000000000000e+00
-3.626697768943670241e-01 -1.929437437535178157e+00 -1.585580854832847886e-01 -4.190276279645248070e-01 5.146100281848019122e-05 0.000000000000000000e+00 0.000000000000000000e+00 0.000000000000000000e+00 0.000000000000000000e+00 0.000000000000000000e+00
-3.626697768943670241e-01 -1.929437437535178157e+00 -1.585580854832847886e-01 -4.190276279645248070e-01 5.146100281848019122e-05 0.000000000000000000e+00 0.000000000000000000e+00 0.000000000000000000e+00 0.000000000000000000e+00 0.000000000000000000e+00
-3.626697768943670241e-01 -1.929437437535178157e+00 -1.585580854832847886e-01 -4.190276279645248070e-01 5.146100281848019122e-05 0.000000000000000000e+00 0.000000000000000000e+00 0.000000000000000000e+00 0.000000000000000000e+00 0.000000000000000000e+00
-3.626697768943670241e-01 -1.929437437535178157e+00 -1.585580854832847886e-01 -4.190276279645248070e-01 5.146100281848019122e-05 0.000000000000000000e+00 0.000000000000000000e+00 0.000000000000000000e+00 0.000000000000000000e+00 0.000000000000000000e+00
-3.626697768943670241e-01 -1.929437437535178157e+00 -1.585580854832847886e-01 -4.190276279645248070e-01 5.146100281848019122e-05 0.000000000000000000e+00 0.000000000000000000e+00 0.000000000000000000e+00 0.000000000000000000e+00 0.000000000000000000e+00
