-8.880438853328695425e-02 -6.798757380920005255e-01 8.386229939687743773e-01 -1.495765277693780426e+00 -9.942885705298439274e-04 1.449939183734432646e+00 -9.481559735502718134e-01 8.594088285520946613e-01 6.908356687834098508e-01 3.354984830365367594e-04
-8.415669638137959763e-03 -7.259762476814720644e-01 8.904655843708099150e-01 -1.451501105168287786e+00 -9.464805847856960818e-04 1.607774377902979834e+00 -9.220101917894311105e-01 1.036851808040710310e+00 8.852834505098523543e-01 9.561597148829575638e-04
7.997059512795368086e-02 -7.698739847000315439e-01 9.509879434624313177e-01 -1.398650311349869169e+00 -8.701495279078027244e-04 1.767725295321832757e+00 -8.779547403711901454e-01 1.210447181832427832e+00 1.057015876368374352e+00 1.526621137557866281e-03
1.763032035677517262e-01 -8.106725691194476280e-01 1.019841205257609795e+00 -1.338441359674729325e+00 -7.604790475834353417e-04 1.926652168795960574e+00 -8.159716883883224581e-01 1.377065235903571105e+00 1.204179033502797092e+00 2.193409606487348520e-03
2.803396321253440737e-01 -8.475042451079604078e-01 1.096517578790283443e+00 -1.272110313365536705e+00 -6.076589840136463515e-04 2.080728571151847284e+00 -7.366335197702551518e-01 1.533527470653472058e+00 1.326620926183851967e+00 3.056401271395778503e-03
3.916286295395632888e-01 -8.795647049584635058e-01 1.180359516302669887e+00 -1.200805125060891543e+00 -3.991708283859771796e-04 2.225779948284384080e+00 -6.412091970100621818e-01 1.676838750247728438e+00 1.426103766092902791e+00 4.169763112553383222e-03
5.095214441062441146e-01 -9.061535807943172927e-01 1.270607089468903217e+00 -1.125491888729918788e+00 -1.226869759510855690e-04 2.357856291333614962e+00 -5.317775167170756268e-01 1.804951463324668381e+00 1.506264726619456429e+00 5.529677048697832428e-03
6.332229926225674266e-01 -9.267169447877833255e-01 1.366517025661869056e+00 -1.046884093089752277e+00 2.291126118904402917e-04 2.474030970326465795e+00 -4.112672798693214893e-01 1.918198723859317667e+00 1.572155912803329780e+00 7.035991756830516780e-03
7.618882522268453084e-01 -9.408812184126067457e-01 1.467579164868912267e+00 -9.654185730831900125e-01 6.442532052949275553e-04 2.573305192085557636e+00 -2.832854724964688486e-01 2.021242784140865112e+00 1.629310400131245951e+00 8.302811868089746139e-03
8.947563551129712467e-01 -9.484606824997499075e-01 1.573833939600078002e+00 -8.812942204836551330e-01 1.034409324968894265e-03 2.657362057722518767e+00 -1.515892817428632078e-01 2.125095494623312486e+00 1.682487051990698479e+00 7.803122393479332460e-03
1.031301650113060520e+00 -9.494162917328704543e-01 1.686272277588015678e+00 -7.945649765311088020e-01 9.998437300464710180e-04 0.000000000000000000e+00 0.000000000000000000e+00 0.000000000000000000e+00 0.000000000000000000e+00 0.000000000000000000e+00
1.031301650113060520e+00 -9.494162917328704543e-01 1.686272277588015678e+00 -7.945649765311088020e-01 9.998437300464710180e-04 0.000000000000000000e+00 0.000000000000000000e+00 0.000000000000000000e+00 0.000000000000000000e+00 0.000000000000000000e+00
1.031301650113060520e+00 -9.494162917328704543e-01 1.686272277588015678e+00 -7.945649765311088020e-01 9.998437300464710180e-04 0.000000000000000000e+00 0.000000000000000000e+00 0.000000000000000000e+00 0.000000000000000000e+00 0.000000000000000000e+00
1.031301650113060520e+00 -9.494162917328704543e-01 1.686272277588015678e+00 -7.945649765311088020e-01 9.998437300464710180e-04 0.000000000000000000e+00 0.000000000000000000e+00 0.000000000000000000e+00 0.000000000000000000e+00 0.000000000000000000e+00
1.031301650113060520e+00 -9.494162917328704543e-01 1.686272277588015678e+00 -7.945649765311088020e-01 9.998437300464710180e-04 0.000000000000000000e+00 0.000000000000000000e+00 0.000000000000000000e+00 0.000000000000000000e+00 0.000000000000000000e+00
1.031301650113060520e+00 -9.494162917328704543e-01 1.686272277588015678e+00 -7.945649765311088020e-01 9.998437300464710180e-04 0.000000000000000000e+00 0.000000000000000000e+00 0.000000000000000000e+00 0.000000000000000000e+00 0.000000000000000000e+00
1.031301650113060520e+00 -9.494162917328704543e-01 1.686272277588015678e+00 -7.945649765311088020e-01 9.998437300464710180e-04 0.000000000000000000e+00 0.000000000000000000e+00 0.000000000000000000e+00 0.000000000000000000e+00 0.000000000000000000e+00
1.031301650113060520e+00 -9.494162917328704543e-01 1.686272277588015678e+00 -7.945649765311088020e-01 9.998437300464710180e-04 0.000000000000000000e+00 0.000000000000000000e+00 0.000000000000000000e+00 0.000000000000000000e+00 0.000000000000000000e+00
1.031301650113060520e+00 -9.494162917328704543e-01 1.686272277588015678e+00 -7.945649765311088020e-01 9.998437300464710180e-04 0.000000000000000000e+00 0.000000000000000000e+00 0.000000000000000000e+00 0.000000000000000000e+00 0.000000000000000000e+00
1.031301650113060520e+00 -9.494162917328704543e-01 1.686272277588015678e+00 -7.945649765311088020e-01 9.998437300464710180e-04 0.000000000000000000e+00 0.000000000000000000e+00 0.000000000000000000e+00 0.000000000000000000e+00 0.000000000000000000e+00
1.031301650113060520e+00 -9.494162917328704543e-01 1.686272277588015678e+00 -7.945649765311088020e-01 9.998437300464710180e-04 0.000000000000000000e+00 0.000000000000000000e+00 0.000000000000000000e+00 0.000000000000000000e+00 0.000000000000000000e+00
1.031301650113060520e+00 -9.494162917328704543e-01 1.686272277588015678e+00 -7.945649765311088020e-01 9.998437300464710180e-04 0.000000000000000000e+00 0.000000000000000000e+00 0.000000000000000000e+00 0.000000000000000000e+00 0.000000000000000000e+00
1.031301650113060520e+00 -9.494162917328704543e-01 1.686272277588015678e+00 -7.945649765311088020e-01 9.998437300464710180e-04 0.000000000000000000e+00 0.000000000000000000e+00 0.000000000000000000e+00 0.000000000000000000e+00 0.000000000000000000e+00
1.031301650113060520e+00 -9.494162917328704543e-01 1.686272277588015678e+00 -7.945649765311088020e-01 9.998437300464710180e-04 0.000000000000000000e+00 0.000000000000000000e+00 0.000000000000000000e+00 0.000000000000000000e+00 0.000000000000000000e+00
1.031301650113060520e+00 -9.494162917328704543e-01 1.686272277588015678e+00 -7.945649765311088020e-01 9.998437300464710180e-04 0.000000000000000000e+00 0.000000000000000000e+00 0.000000000000000000e+00 0.000000000000000000e+00 0.000000000000000000e+00
1.031301650113060520e+00 -9.494162917328704543e-01 1.686272277588015678e+00 -7.945649765311088020e-01 9.998437300464710180e-04 0.000000000000000000e+00 0.000000000000000000e+00 0.000000000000000000e+00 0.000000000000000000e+00 0.000000000000000000e+00
1.031301650113060520e+00 -9.494162917328704543e-01 1.686272277588015678e+00 -7.945649765311088020e-01 9.998437300464710180e-04 0.000000000000000000e+00 0.000000000000000000e+00 0.000000000000000000e+00 0.000000000000000000e+00 0.000000000000000000e+00
1.031301650113060520e+00 -9.494162917328704543e-01 1.686272277588015678e+00 -7.945649765311088020e-01 9.998437300464710180e-04 0.000000000000000000e+00 0.000000000000000000e+00 0.000000000000000000e+00 0.000000000000000000e+00 0.000000000000000000e+00
1.031301650113060520e+00 -9.494162917328704543e-01 1.686272277588015678e+00 -7.945649765311088020e-01 9.998437300464710180e-04 0.000000000000000000e+00 0.000000000000000000e+00 0.000000000000000000e+00 0.000000000000000000e+00 0.000000000000000000e+00
1.031301650113060520e+00 -9.494162917328704543e-01 1.686272277588015678e+00 -7.945649765311088020e-01 9.998437300464710180e-04 0.000000000000000000e+00 0.000000000000000000e+00 0.000000000000000000e+00 0.000000000000000000e+00 0.000000000000000000e+00
1.031301650113060520e+00 -9.494162917328704543e-01 1.686272277588015678e+00 -7.945649765311088020e-01 9.998437300464710180e-04 0.000000000000000000e+00 0.000000000000000000e+00 0.000000000000000000e+00 0.000000000000000000e+00 0.000000000000000000e+00
