-1.910539069097446863e+00 -5.997667146146501427e-01 -5.009310267441476894e-01 -6.305206510055382241e-01 3.617320544217459983e-04 -1.905579890743807514e+00 -2.608397308881406640e-01 1.604473288342060378e-01 1.174755815391917091e+00 -9.126309289761515330e-04
-2.006612518273759971e+00 -6.113077404773552548e-01 -4.858305546842800471e-01 -5.724297219694243211e-01 3.000509958045737306e-04 -1.921468983526264385e+00 -2.308205172541011319e-01 3.020094411973528459e-01 1.161818580722277838e+00 -1.233621172343445354e-03
-2.102935337215864564e+00 -6.214090875715014839e-01 -4.632735630222843404e-01 -5.155343469289559444e-01 7.018196773181305747e-05 -1.926456378842095418e+00 -2.020269418829246655e-01 4.511398332399135791e-01 1.137907500809368422e+00 -4.597380561455212920e-03
-2.198907901866213876e+00 -6.301669751939799058e-01 -4.327935840324453887e-01 -4.603240278212027414e-01 -1.003190875034155102e-03 0.000000000000000000e+00 0.000000000000000000e+00 0.000000000000000000e+00 0.000000000000000000e+00 0.000000000000000000e+00
-2.198907901866213876e+00 -6.301669751939799058e-01 -4.327935840324453887e-01 -4.603240278212027414e-01 -1.003190875034155102e-03 0.000000000000000000e+00 0.000000000000000000e+00 0.000000000000000000e+00 0.000000000000000000e+00 0.000000000000000000e+00
-2.198907901866213876e+00 -6.301669751939799058e-01 -4.327935840324453887e-01 -4.603240278212027414e-01 -1.003190875034155102e-03 0.000000000000000000e+00 0.000000000000000000e+00 0.000000000000000000e+00 0.000000000000000000e+00 0.000000000000000000e+00
-2.198907901866213876e+00 -6.301669751939799058e-01 -4.327935840324453887e-01 -4.603240278212027414e-01 -1.003190875034155102e-03 0.000000000000000000e+00 0.000000000000000000e+00 0.000000000000000000e+00 0.000000000000000000e+00 0.000000000000000000e+00
-2.198907901866213876e+00 -6.301669751939799058e-01 -4.327935840324453887e-01 -4.603240278212027414e-01 -1.003190875034155102e-03 0.000000000000000000e+00 0.000000000000000000e+00 0.000000000000000000e+00 0.000000000000000000e+00 0.000000000000000000e+00
-2.198907901866213876e+00 -6.301669751939799058e-01 -4.327935840324453887e-01 -4.603240278212027414e-01 -1.003190875034155102e-03 0.000000000000000000e+00 0.000000000000000000e+00 0.000000000000000000e+00 0.000000000000000000e+00 0.000000000000000000e+00
-2.198907901866213876e+00 -6.301669751939799058e-01 -4.327935840324453887e-01 -4.603240278212027414e-01 -1.003190875034155102e-03 0.000000000000000000e+00 0.000000000000000000e+00 0.000000000000000000e+00 0.000000000000000000e+00 0.000000000000000000e+00
-2.198907901866213876e+00 -6.301669751939799058e-01 -4.327935840324453887e-01 -4.603240278212027414e-01 -1.003190875034155102e-03 0.000000000000000000e+00 0.000000000000000000e+00 0.000000000000000000e+00 0.000000000000000000e+00 0.000000000000000000e+00
-2.198907901866213876e+00 -6.301669751939799058e-01 -4.327935840324453887e-01 -4.603240278212027414e-01 -1.003190875034155102e-03 0.000000000000000000e+00 0.000000000000000000e+00 0.000000000000000000e+00 0.000000000000000000e+00 0.000000000000000000e+00
-2.198907901866213876e+00 -6.301669751939799058e-01 -4.327935840324453887e-01 -4.603240278212027414e-01 -1.003190875034155102e-03 0.000000000000000000e+00 0.000000000000000000e+00 0.000000000000000000e+00 0.000000000000000000e+00 0.000000000000000000e+00
-2.198907901866213876e+00 -6.301669751939799058e-01 -4.327935840324453887e-01 -4.603240278212027414e-01 -1.003190875034155102e-03 0.000000000000000000e+00 0.000000000000000000e+00 0.000000000000000000e+00 0.000000000000000000e+00 0.000000000000000000e+00
-2.198907901866213876e+00 -6.301669751939799058e-01 -4.327935840324453887e-01 -4.603240278212027414e-01 -1.003190875034155102e-03 0.000000000000000000e+00 0.000000000000000000e+00 0.000000000000000000e+00 0.000000000000000000e+00 0.000000000000000000e+00
-2.198907901866213876e+00 -6.301669751939799058e-01 -4.327935840324453887e-01 -4.603240278212027414e-01 -1.003190875034155102e-03 0.000000000000000000e+00 0.000000000000000000e+00 0.000000000000000000e+00 0.000000000000000000e+00 0.000000000000000000e+00
-2.198907901866213876e+00 -6.301669751939799058e-01 -4.327935840324453887e-01 -4.603240278212027414e-01 -1.003190875034155102e-03 0.000000000000000000e+00 0.000000000000000000e+00 0.000000000000000000e+00 0.000000000000000000e+00 0.000000000000000000e+00
-2.198907901866213876e+00 -6.301669751939799058e-01 -4.327935840324453887e-01 -4.603240278212027414e-01 -1.003190875034155102e-03 0.000000000000000000e+00 0.000000000000000000e+00 0.000000000000000000e+00 0.000000000000000000e+00 0.000000000000000000e+00
-2.198907901866213876e+00 -6.301669751939799058e-01 -4.327935840324453887e-01 -4.603240278212027414e-01 -1.003190875034155102e-03 0.000000000000000000e+00 0.000000000000000000e+00 0.000000000000000000e+00 0.000000000000000000e+00 0.000000000000000000e+00
-2.198907901866213876e+00 -6.301669751939799058e-01 -4.327935840324453887e-01 -4.603240278212027414e-01 -1.003190875034155102e-03 0.000000000000000000e+00 0.000000000000000000e+00 0.000000000000000000e+00 0.000000000000000000e+00 0.000000000000000000e+00
-2.198907901866213876e+00 -6.301669751939799058e-01 -4.327935840324453887e-01 -4.603240278212027414e-01 -1.003190875034155102e-03 0.000000000000000000e+00 0.000000000000000000e+00 0.000000000000000000e+00 0.000000000000000000e+00 0.000000000000000000e+00
-2.198907901866213876e+00 -6.301669751939799058e-01 -4.327935840324453887e-01 -4.603240278212027414e-01 -1.003190875034155102e-03 0.000000000000000000e+00 0.000000000000000000e+00 0.000000000000000000e+00 0.000000000000000000e+00 0.000000000000000000e+00
-2.198907901866213876e+00 -6.301669751939799058e-01 -4.327935840324453887e-01 -4.603240278212027414e-01 -1.003190875034155102e-03 0.000000000000000000e+00 0.000000000000000000e+00 0.000000000000000000e+00 0.000000000000000000e+00 0.000000000000000000e+00
-2.198907901866213876e+00 -6.301669751939799058e-01 -4.327935840324453887e-01 -4.603240278212027414e-01 -1.003190875034155102e-03 0.000000000000000000e+00 0.000000000000000000e+00 0.000000000000000000e+00 0.000000000000000000e+00 0.000000000000000000e+00
-2.198907901866213876e+00 -6.301669751939799058e-01 -4.327935840324453887e-01 -4.603240278212027414e-01 -1.003190875034155102e-03 0.000000000000000000e+00 0.000000000000000000e+00 0.000000000000000000e+00 0.000000000000000000e+00 0.000000000000000000e+00
-2.198907901866213876e+00 -6.301669751939799058e-01 -4.327935840324453887e-01 -4.603240278212027414e-01 -1.003190875034155102e-03 0.000000000000000000e+00 0.000000000000000000e+00 0.000000000000000000e+00 0.000000000000000000e+00 0.000000000000000000e+00
-2.198907901866213876e+00 -6.301669751939799058e-01 -4.327935840324453887e-01 -4.603240278212027414e-01 -1.003190875034155102e-03 0.000000000000000000e+00 0.000000000000000000e+00 0.000000000000000000e+00 0.000000000000000000e+00 0.000000000000000000e+00
-2.198907901866213876e+00 -6.301669751939799058e-01 -4.327935840324453887e-01 -4.603240278212027414e-01 -1.003190875034155102e-03 0.000000000000000000e+00 0.000000000000000000e+00 0.000000000000000000e+00 0.000000000000000000e+00 0.000000000000000000e+00
-2.198907901866213876e+00 -6.301669751939799058e-01 -4.327935840324453887e-01 -4.603240278212027414e-01 -1.003190875034155102e-03 0.000000000000000000e+00 0.000000000000000000e+00 0.000000000000000000e+00 0.000000000000000000e+00 0.000000000000000000e+00
-2.198907901866213876e+00 -6.301669751939799058e-01 -4.327935840324453887e-01 -4.603240278212027414e-01 -1.003190875034155102e-03 0.000000000000000000e+00 0.000000000000000000e+00 0.000000000000000000e+00 0.000000000000000000e+00 0.000000000000000000e+00
-2.198907901866213876e+00 -6.301669751939799058e-01 -4.327935840324453887e-01 -4.603240278212027414e-01 -1.003190875034155102e-03 0.000000000000000000e+00 0.000000000000000000e+00 0.000000000000000000e+00 0.000000000000000000e+00 0.000000000000000000e+00
