-6.786326537435862782e-01 1.089409209038503523e-01 7.582400449332312720e-01 -1.224355282475837470e+00 -3.372873099367876314e-04 1.144604335482044544e-01 -2.018680577403534349e-01 1.514583019731584046e-01 -8.300670709007595960e-01 -2.792152869973666893e-03
-6.702533189261359325e-01 9.535515121901047553e-02 7.674871852969076258e-01 -1.273533751652958568e+00 -4.862837483994439857e-04 1.675866963490069694e-01 -2.717153936967976469e-01 1.849428072735269657e-01 -9.835693835424216269e-01 -2.979928769253127087e-03
-6.588507552026683367e-01 7.824487093756443690e-02 7.780721292354365604e-01 -1.327395924997013310e+00 -6.348861397731372707e-04 2.280512744693512228e-01 -3.422056056289207171e-01 2.116988787705787745e-01 -1.077243466881097067e+00 -2.972047827473865266e-03
-6.440688721874157086e-01 5.761897905350091970e-02 7.898025994851775033e-01 -1.383023319001829066e+00 -7.721107183095623355e-04 2.956376603050535623e-01 -4.125178376812703163e-01 2.346094049948181381e-01 -1.112547880096313335e+00 -2.744491570728500428e-03
-6.255795958852776728e-01 3.354457754391136637e-02 8.026351455530011947e-01 -1.437632573962480231e+00 -8.857963098436213555e-04 3.697855260427611590e-01 -4.814880301917909833e-01 2.566509213564736047e-01 -1.092185099213021315e+00 -2.273711830681181267e-03
-6.031022372085712568e-01 6.158766342652232523e-03 8.166581211529529982e-01 -1.488654386557569875e+00 -9.651583401346475839e-04 4.495471735341276531e-01 -5.477162240251826075e-01 2.804595119990355712e-01 -1.020436251901791547e+00 -1.587240605820524784e-03
-5.764207298261425638e-01 -2.432587494902792996e-02 8.320581540324265557e-01 -1.533817610669025111e+00 -1.005117951841997615e-03 5.336301476485736384e-01 -6.096928258336032913e-01 3.080006575894720378e-01 -9.032644822291040487e-01 -7.991922341470020274e-04
-5.453963958407684887e-01 -5.762072889912000367e-02 8.490727796259512905e-01 -1.571230401053341996e+00 -1.014597242151983256e-03 6.204866797074815032e-01 -6.658970790018414743e-01 3.402925118704945295e-01 -7.482558076863378149e-01 -1.895858061997120593e-04
-5.099736657468082468e-01 -9.336535642043441996e-02 8.679384150083255811e-01 -1.599443005571679066e+00 -1.012870154572843373e-03 7.084546018792053923e-01 -7.148925504262885200e-01 3.773127076474860342e-01 -5.642520903667430643e-01 3.454175158279555887e-05
-4.701775744833302517e-01 -1.311364048683980876e-01 8.888452427271211764e-01 -1.617478870436197091e+00 -1.008302627119097086e-03 7.959218252695600127e-01 -7.554209689592731314e-01 4.181365543759117398e-01 -3.607172972903610608e-01 9.135054907492400761e-05
-4.261046559977026416e-01 -1.704603767833264283e-01 9.119070074740653897e-01 -1.624830988413339838e+00 -1.003794451859326775e-03 8.814583697125517592e-01 -7.864794382985667021e-01 4.612352949388842660e-01 -1.470423595428552166e-01 9.016350519540499721e-05
-3.779078279866059376e-01 -2.108303848075041842e-01 9.371514567979490895e-01 -1.621417221756872307e+00 -1.000256515985007474e-03 9.639365602219339690e-01 -8.074001604835552293e-01 5.048889864776743286e-01 6.827533312935182841e-02 7.075871748638619700e-05
-3.257781437272905811e-01 -2.517251410329937045e-01 9.645281044631388578e-01 -1.607501317283809072e+00 -9.979623071245653874e-04 1.042593685186306685e+00 -8.178951245097898504e-01 5.475329533037944785e-01 2.783180894612636846e-01 4.588417720884153711e-05
-2.699281622086650567e-01 -2.926268451206749388e-01 9.939292028771389287e-01 -1.583604476639776770e+00 -9.985519979919025256e-04 1.116999630372510488e+00 -8.180340817536249087e-01 5.880219682800018610e-01 4.779368128806468774e-01 -1.179381734674191752e-05
-2.105793537787248870e-01 -3.330358108503364556e-01 1.025216159863563625e+00 -1.550424077571197268e+00 -1.001433107837246868e-03 1.186976168598803394e+00 -8.081793145932305578e-01 6.257391397284920442e-01 6.636079813715881626e-01 -5.762219690688514341e-05
-1.479518627962163602e-01 -3.724822883447544974e-01 1.058243603960064450e+00 -1.508756721546815838e+00 -1.004755484667262458e-03 1.252549819650170759e+00 -7.889295498883606150e-01 6.605488819300159298e-01 8.333471204876289340e-01 -6.644753660031250616e-05
-8.225708508716790546e-02 -4.105350941586851654e-01 1.092875599085510796e+00 -1.459431749773065112e+00 -1.005507683981760004e-03 1.313895554180968928e+00 -7.610561162786129152e-01 6.926399025089289285e-01 9.864994354750126204e-01 -1.504398628994938842e-05
-1.369588452139366974e-02 -4.468065823624198241e-01 1.128985579526019745e+00 -1.403264214307844870e+00 -9.947422588443210426e-04 1.371224011315484770e+00 -7.254297640746930620e-01 7.221996088101790834e-01 1.123350709304404171e+00 2.153085027487806143e-04
5.753654010511936867e-02 -4.809547833103560155e-01 1.166441954482441146e+00 -1.341031988269799413e+00 -9.566173748852951084e-04 1.424648492530260713e+00 -6.829640189587240506e-01 7.491274991284264662e-01 1.244644520760906925e+00 7.624976791805179255e-04
1.312451974301749313e-01 -5.126856463681295217e-01 1.205093535836715635e+00 -1.273460870987751736e+00 -8.832084266621978864e-04 1.474173146501110976e+00 -6.346172611554707910e-01 7.730316270854920013e-01 1.351422345640955536e+00 1.468178964461944007e-03
2.072328227455709215e-01 -5.417566120443644273e-01 1.244764497867261399e+00 -1.201212598790419639e+00 -7.699120218787812138e-04 1.519752506307920026e+00 -5.814193135246985555e-01 7.934192406109149553e-01 1.444965443946641726e+00 2.265928095668332583e-03
2.853008375527307239e-01 -5.679816102734804861e-01 1.285262575089457737e+00 -1.124879736264464025e+00 -6.139062558951084887e-04 1.561360296143196269e+00 -5.244999645823211765e-01 8.099615444439253187e-01 1.526657250519112941e+00 3.120115319673454502e-03
3.652541411370441859e-01 -5.912371642578071462e-01 1.326401199330384140e+00 -1.044986779512077746e+00 -4.135947850651600002e-04 1.599066071686269019e+00 -4.651110796865333685e-01 8.227724848185300477e-01 1.597859135047723589e+00 4.006229416598968904e-03
4.469111186993373619e-01 -6.114688818752020971e-01 1.368039850660045298e+00 -9.619947930966495919e-01 -1.684420907712499299e-04 1.633139551245862853e+00 -4.046343523478984072e-01 8.327730265932243858e-01 1.659839728308563744e+00 4.903053885878200756e-03
5.301192611947129762e-01 -6.286965179217994804e-01 1.410145917396815829e+00 -8.763086467221172793e-01 1.205442164197992262e-04 1.664162849907511621e+00 -3.445527209319469431e-01 8.421213347354126189e-01 1.713722927490645143e+00 5.779726143820982688e-03
6.147769296591851784e-01 -6.430150447036118155e-01 1.452883686105557626e+00 -7.882862315802831032e-01 4.472443681691001490e-04 1.693153369289445154e+00 -2.863705356362475918e-01 8.547553741748350475e-01 1.760448302836683299e+00 6.534003034986017588e-03
7.008611695200969161e-01 -6.545880584295202809e-01 1.496736629404231023e+00 -6.982504741536663673e-01 7.828295818895865052e-04 1.721684797218234086e+00 -2.314602745181695564e-01 8.770588659734689374e-01 1.800715148532333609e+00 6.711704274409724738e-03
7.884621634396689061e-01 -6.636278897145094779e-01 1.542669502870225084e+00 -6.065009268124705866e-01 1.000582032312992854e-03 0.000000000000000000e+00 0.000000000000000000e+00 0.000000000000000000e+00 0.000000000000000000e+00 0.000000000000000000e+00
7.884621634396689061e-01 -6.636278897145094779e-01 1.542669502870225084e+00 -6.065009268124705866e-01 1.000582032312992854e-03 0.000000000000000000e+00 0.000000000000000000e+00 0.000000000000000000e+00 0.000000000000000000e+00 0.000000000000000000e+00
7.884621634396689061e-01 -6.636278897145094779e-01 1.542669502870225084e+00 -6.065009268124705866e-01 1.000582032312992854e-03 0.000000000000000000e+00 0.000000000000000000e+00 0.000000000000000000e+00 0.000000000000000000e+00 0.000000000000000000e+00
7.884621634396689061e-01 -6.636278897145094779e-01 1.542669502870225084e+00 -6.065009268124705866e-01 1.000582032312992854e-03 0.000000000000000000e+00 0.000000000000000000e+00 0.000000000000000000e+00 0.000000000000000000e+00 0.000000000000000000e+00
