-4.451060165006752167e-01 -3.299263858917499403e-01 1.934295661167301672e+00 -1.718014945145310834e-01 0.000000000000000000e+00 -2.302970985664856696e-04 -2.658316841435762190e-04 4.469500076219941331e-03 8.833082377804335472e-05 0.000000000000000000e+00
-4.618438420446484560e-01 -3.392895047458605595e-01 1.877179312773663122e+00 -2.002757924983636084e-01 2.786059899320129018e-04 -3.347565108794642308e-01 -1.872623770822121336e-01 -1.142326967872770327e+00 -5.694859596766506105e-01 5.572119798640257603e-03
-4.925807796562295393e-01 -3.552556918063622393e-01 1.777064026494364679e+00 -2.548595321269210290e-01 5.879115047454526715e-04 -6.147387522316219988e-01 -3.193237412100337624e-01 -2.002305725585969753e+00 -1.091674792571148522e+00 6.186110296268794093e-03
-5.344470328725361430e-01 -3.736249490402525075e-01 1.648871963949879893e+00 -3.333716955329884546e-01 9.156290931320550715e-04 -8.373250643261329618e-01 -3.673851446778053642e-01 -2.563841250889694390e+00 -1.570243268121348068e+00 6.554351767732048001e-03
-5.835613601356316460e-01 -3.910257110791809931e-01 1.508544668536492273e+00 -4.332571290482863935e-01 1.154930103529996834e-03 -9.822865452619093940e-01 -3.480152407785698232e-01 -2.806545908267752409e+00 -1.997708670305959000e+00 4.786020207958834385e-03
-6.355284991336935807e-01 -4.065437577342441156e-01 1.370687480266389313e+00 -5.506091788738385340e-01 1.276131782033066786e-03 -1.039342779961238694e+00 -3.103609331012623929e-01 -2.757143765402060520e+00 -2.347040996511042366e+00 2.424033570061397309e-03
-6.868446404457136945e-01 -4.216972290020399305e-01 1.244692203814457221e+00 -6.795495808876170774e-01 1.291863832212037213e-03 -1.026322826240402719e+00 -3.030694253559164664e-01 -2.519905529038640957e+00 -2.578808040275571756e+00 3.146410035794106920e-04
-7.356990560989901118e-01 -4.389410688614835410e-01 1.133150672976551476e+00 -8.128830360287787604e-01 1.237129607759049257e-03 -9.770883130655273474e-01 -3.448767971888717643e-01 -2.230830616758114893e+00 -2.666669102823233217e+00 -1.094684489059757817e-03
-7.816063251495412034e-01 -4.602414869692839638e-01 1.033890591855012975e+00 -9.435778672872093820e-01 1.139849600959592273e-03 -9.181453810110228320e-01 -4.260083621560082912e-01 -1.985201622430767809e+00 -2.613896625168611987e+00 -1.945600135989137940e-03
-8.246581204600740289e-01 -4.866256055242577094e-01 9.431575427936824685e-01 -1.065830924280344538e+00 9.690817071563040007e-04 -8.610359062106563988e-01 -5.276823710994743566e-01 -1.814660981226610126e+00 -2.445061139862702237e+00 -3.415357876065765012e-03
-8.650560768296360337e-01 -5.183820460688371989e-01 8.576832982925488569e-01 -1.175328051729888745e+00 6.382174890967649925e-04 -8.079591273912390959e-01 -6.351288108915904562e-01 -1.709484890022672010e+00 -2.189942548990882365e+00 -6.617284361190779729e-03
-9.029544025969284959e-01 -5.553863450784526368e-01 7.754309734935223020e-01 -1.269081147544408150e+00 2.150528574344050801e-04 -7.579665153458499116e-01 -7.400859801923083126e-01 -1.645046495980529766e+00 -1.875061916290388986e+00 -8.463292633247196731e-03
-9.384487929498710468e-01 -5.973390986863786889e-01 6.956120479384183541e-01 -1.345197490551385711e+00 -2.169747631907012150e-04 -7.098878070588506839e-01 -8.390550721585219307e-01 -1.596378511102079401e+00 -1.522326860139549876e+00 -8.640552412502125468e-03
-9.716099685997564572e-01 -6.438974813044515688e-01 6.184096299127658236e-01 -1.402702870625940124e+00 -5.898042284769222567e-04 -6.632235129977084309e-01 -9.311676523614584866e-01 -1.544048360513051055e+00 -1.150107601491086706e+00 -7.456589305724419317e-03
-1.002521774711028879e+00 -6.947282851496101586e-01 5.446032003817378175e-01 -1.441411888638914451e+00 -8.581799990809455079e-04 -6.182361222254491029e-01 -1.016616076903170685e+00 -1.476128590620559011e+00 -7.741803602594874434e-01 -5.367515412080464156e-03
-1.031307681529204379e+00 -7.495123203742879436e-01 4.751886633561145934e-01 -1.461807569934090223e+00 -1.003020897793350163e-03 -5.757181363635104354e-01 -1.095680704493555035e+00 -1.388290740512464261e+00 -4.079136259035147094e-01 -2.896817974248092238e-03
-1.058138318502171993e+00 -8.079274123783348749e-01 4.110619899706675628e-01 -1.464904037307796614e+00 -1.039239622135611652e-03 -5.366127394593539490e-01 -1.168301840080938847e+00 -1.282533467708940833e+00 -6.192934747412659480e-02 -7.243744868452284789e-04
-1.083221547747907243e+00 -8.696302812493823531e-01 3.528119921791938451e-01 -1.452093071253148349e+00 -1.032254940028126547e-03 -5.016645849147065572e-01 -1.234057377420950230e+00 -1.164999955829474132e+00 2.562193210929634146e-01 1.396936421497030735e-04
-1.106780939747676440e+00 -9.342498505920397989e-01 3.006373613443647508e-01 -1.424987482457936272e+00 -9.995716075686224625e-04 -4.711878399953828844e-01 -1.292391386853149360e+00 -1.043492616696582109e+00 5.421117759042417550e-01 6.536666491900807200e-04
-1.129031793330387057e+00 -1.001394119900685942e+00 2.543655782348881456e-01 -1.385281110488340017e+00 -9.238892114714516816e-04 -4.450170716542139471e-01 -1.342885386172923745e+00 -9.254356621895325485e-01 7.941274393919242058e-01 1.513647921943414749e-03
-1.150159371715035572e+00 -1.070666975801700671e+00 2.135350994865080343e-01 -1.334634115680294553e+00 -8.235212916604933014e-04 -4.225515676929695874e-01 -1.385457118020293699e+00 -8.166095749676020032e-01 1.012939896160907960e+00 2.007358396219167170e-03
-1.170301268717991006e+00 -1.141687770361954568e+00 1.775007940253663374e-01 -1.274592428548374734e+00 -7.200890286142987932e-04 -4.028379400591072246e-01 -1.420415891205078607e+00 -7.206861092228341592e-01 1.200833742638394375e+00 2.068645260923890599e-03
-1.189528912106833314e+00 -1.214110241148163016e+00 1.455413125891020509e-01 -1.206535074164750920e+00 -6.309329604913216328e-04 -3.845528677768458303e-01 -1.448449415724168299e+00 -6.391896287252857300e-01 1.361147087672476941e+00 1.783121362459542990e-03
-1.207834356739607262e+00 -1.287632348062468957e+00 1.169403522299461706e-01 -1.131660666163640139e+00 -5.683716892471392043e-04 -3.661088926554809664e-01 -1.470442138286117917e+00 -5.720192071831177172e-01 1.497488160022214299e+00 1.251225424883648787e-03
-1.225124587297802936e+00 -1.361999347968483987e+00 9.103697808232855126e-02 -1.050992483059696614e+00 -5.404512226392301378e-04 -3.458046111639129783e-01 -1.487339998120300155e+00 -5.180674829523523872e-01 1.613363662078872274e+00 5.584093321581805715e-04
-1.241236782004963013e+00 -1.436999047237791149e+00 6.723633187902952613e-02 -9.654076816829514351e-01 -5.526332084535403102e-04 -3.222438941432016479e-01 -1.499993985386142148e+00 -4.760129240659803918e-01 1.711696027534903575e+00 -2.436397162862030154e-04
-1.255979746582965628e+00 -1.512454811638052288e+00 4.498149954773569131e-02 -8.756646844515132422e-01 -6.087596159183126122e-04 -2.948592915600500852e-01 -1.509115288005222322e+00 -4.450966466258766130e-01 1.794859944628764081e+00 -1.122528149295444954e-03
-1.269201453520708567e+00 -1.588216266007538291e+00 2.368262083918977814e-02 -7.824249521846177169e-01 -7.105255611640048496e-04 -2.644341387548578837e-01 -1.515229087389720730e+00 -4.259775741709183050e-01 1.864794645337910950e+00 -2.035318904913844748e-03
-1.280860585684050479e+00 -1.664146223821424186e+00 2.612392996398288370e-03 -6.862705355130764850e-01 -8.536987514519331875e-04 -2.331826432668386018e-01 -1.518599156277716578e+00 -4.214045568558297261e-01 1.923088333430823305e+00 -2.863463805758567193e-03
-1.291071413178685789e+00 -1.740102635189554103e+00 -1.922205064604381314e-02 -5.877150550844119081e-01 -1.005764187852172323e-03 -2.042165498927056566e-01 -1.519128227362596562e+00 -4.366888728488420024e-01 1.971109608573291538e+00 -3.041308728004783139e-03
-1.300106772063404525e+00 -1.815913167847748699e+00 -4.323639220915145853e-02 -4.872100281011220169e-01 -1.000417083284994976e-03 -1.807071776943725561e-01 -1.516210653163889477e+00 -4.802868312621528246e-01 2.010100539665797381e+00 1.069420913435469370e-04
