-4.353539805184774014e-01 -6.798494177846585718e-01 5.600393867844577489e-01 -1.682381381047960645e+00 -1.015650836733234235e-03 -2.802475935562154241e-01 -1.142522620211057882e+00 7.071317202287574766e-02 -3.835667369121820158e-01 -2.365878391819987422e-05
-4.491178810505330743e-01 -7.391859489778396242e-01 5.625336021314248924e-01 -1.693520022760443222e+00 -1.016257813485010051e-03 -2.752780106411132910e-01 -1.186730623863621714e+00 4.988430693934317595e-02 -2.227728342496501091e-01 -1.213953503551654919e-05
-4.626533218766288313e-01 -8.005332677255085905e-01 5.645002552555803410e-01 -1.696381985051721220e+00 -1.016250219293609539e-03 -2.707088165219146414e-01 -1.226946374953378438e+00 3.933306248310842329e-02 -5.723924582556039198e-02 1.518838280096455580e-07
-4.760172930329803487e-01 -8.636936672646645663e-01 5.664128570889926939e-01 -1.690979831853698157e+00 -1.015086741944043209e-03 -2.672794231270301801e-01 -1.263207990783118850e+00 3.825203666824792542e-02 1.080430639604609000e-01 2.326954699132845273e-05
-4.893091019634640548e-01 -9.284714637855520092e-01 5.686617318270991150e-01 -1.677562578923551539e+00 -1.011107335488261759e-03 -2.658361786096739565e-01 -1.295555930417748636e+00 4.497749476212833941e-02 2.683450586029315632e-01 7.958812911562686558e-05
-5.026777142928803288e-01 -9.946727983977861065e-01 5.715214486511703829e-01 -1.656594740010729039e+00 -9.988314548782866679e-04 -2.673722465883264232e-01 -1.324026692244681280e+00 5.719433648142503712e-02 4.193567782564489033e-01 2.455176121995037656e-04
-5.163263988621160649e-01 -1.062107289061432258e+00 5.751362400773017969e-01 -1.628719383021999034e+00 -9.668831324370839560e-04 -2.729736913847141122e-01 -1.348689813272922366e+00 7.229582852262883552e-02 5.575071397746009794e-01 6.389664488240545627e-04
-5.305088047080698255e-01 -1.130592337559029215e+00 5.795285683199842275e-01 -1.594702923395766136e+00 -9.182004384395326020e-04 -2.836481169190760987e-01 -1.369700969951938907e+00 8.784656485364880640e-02 6.803291925246586214e-01 9.736538799510276220e-04
-5.455051126176638787e-01 -1.199960442500823898e+00 5.846408566435664644e-01 -1.555363066716886289e+00 -8.581603484996021790e-04 -2.999261581918813979e-01 -1.387362098835891677e+00 1.022457664716455439e-01 7.867971335775948427e-01 1.200801798798608027e-03
-5.615635077445594314e-01 -1.270068985646892079e+00 5.904213931101522927e-01 -1.511486205783114878e+00 -7.910379253483193138e-04 -3.211679025379114427e-01 -1.402170862921362060e+00 1.156107293317176626e-01 8.775372186754260007e-01 1.342448463025656437e-03
-5.788423051681297338e-01 -1.340799713172280860e+00 5.968910647430746286e-01 -1.463798949754721468e+00 -7.208361020484016111e-04 -3.455759484714061580e-01 -1.414614550507774071e+00 1.293934326584468830e-01 9.537451205678670885e-01 1.404036465998354053e-03
-5.973515087612599750e-01 -1.412056796133105196e+00 6.041969364830125366e-01 -1.412956986753874045e+00 -6.528294957953450529e-04 -3.701840718626052129e-01 -1.425141659216487167e+00 1.461174347987575506e-01 1.016839260016946245e+00 1.360132125061131163e-03
-6.168827210140658268e-01 -1.483765833913603949e+00 6.126853221509467318e-01 -1.359553501902532435e+00 -5.962386041046577019e-04 -3.906242450561164814e-01 -1.434180755609976154e+00 1.697677133586847908e-01 1.068069697026833076e+00 1.131817833813746803e-03
-6.369439944634552875e-01 -1.555873303278556330e+00 6.229865066918617300e-01 -1.304159562798469008e+00 -5.775286518414856317e-04 -4.012254689877893798e-01 -1.442149387299048069e+00 2.060236908182991600e-01 1.107878782081267222e+00 3.741990452634407546e-04
-6.567538754043453775e-01 -1.628345528075049398e+00 6.360538686105534634e-01 -1.247393531109900700e+00 -6.968198689283984157e-04 0.000000000000000000e+00 0.000000000000000000e+00 0.000000000000000000e+00 0.000000000000000000e+00 0.000000000000000000e+00
-6.567538754043453775e-01 -1.628345528075049398e+00 6.360538686105534634e-01 -1.247393531109900700e+00 -6.968198689283984157e-04 0.000000000000000000e+00 0.000000000000000000e+00 0.000000000000000000e+00 0.000000000000000000e+00 0.000000000000000000e+00
-6.567538754043453775e-01 -1.628345528075049398e+00 6.360538686105534634e-01 -1.247393531109900700e+00 -6.968198689283984157e-04 0.000000000000000000e+00 0.000000000000000000e+00 0.000000000000000000e+00 0.000000000000000000e+00 0.000000000000000000e+00
-6.567538754043453775e-01 -1.628345528075049398e+00 6.360538686105534634e-01 -1.247393531109900700e+00 -6.968198689283984157e-04 0.000000000000000000e+00 0.000000000000000000e+00 0.000000000000000000e+00 0.000000000000000000e+00 0.000000000000000000e+00
-6.567538754043453775e-01 -1.628345528075049398e+00 6.360538686105534634e-01 -1.247393531109900700e+00 -6.968198689283984157e-04 0.000000000000000000e+00 0.000000000000000000e+00 0.000000000000000000e+00 0.000000000000000000e+00 0.000000000000000000e+00
-6.567538754043453775e-01 -1.628345528075049398e+00 6.360538686105534634e-01 -1.247393531109900700e+00 -6.968198689283984157e-04 0.000000000000000000e+00 0.000000000000000000e+00 0.000000000000000000e+00 0.000000000000000000e+00 0.000000000000000000e+00
-6.567538754043453775e-01 -1.628345528075049398e+00 6.360538686105534634e-01 -1.247393531109900700e+00 -6.968198689283984157e-04 0.000000000000000000e+00 0.000000000000000000e+00 0.000000000000000000e+00 0.000000000000000000e+00 0.000000000000000000e+00
-6.567538754043453775e-01 -1.628345528075049398e+00 6.360538686105534634e-01 -1.247393531109900700e+00 -6.968198689283984157e-04 0.000000000000000000e+00 0.000000000000000000e+00 0.000000000000000000e+00 0.000000000000000000e+00 0.000000000000000000e+00
-6.567538754043453775e-01 -1.628345528075049398e+00 6.360538686105534634e-01 -1.247393531109900700e+00 -6.968198689283984157e-04 0.000000000000000000e+00 0.000000000000000000e+00 0.000000000000000000e+00 0.000000000000000000e+00 0.000000000000000000e+00
-6.567538754043453775e-01 -1.628345528075049398e+00 6.360538686105534634e-01 -1.247393531109900700e+00 -6.968198689283984157e-04 0.000000000000000000e+00 0.000000000000000000e+00 0.000000000000000000e+00 0.000000000000000000e+00 0.000000000000000000e+00
-6.567538754043453775e-01 -1.628345528075049398e+00 6.360538686105534634e-01 -1.247393531109900700e+00 -6.968198689283984157e-04 0.000000000000000000e+00 0.000000000000000000e+00 0.000000000000000000e+00 0.000000000000000000e+00 0.000000000000000000e+00
-6.567538754043453775e-01 -1.628345528075049398e+00 6.360538686105534634e-01 -1.247393531109900700e+00 -6.968198689283984157e-04 0.000000000000000000e+00 0.000000000000000000e+00 0.000000000000000000e+00 0.000000000000000000e+00 0.000000000000000000e+00
-6.567538754043453775e-01 -1.628345528075049398e+00 6.360538686105534634e-01 -1.247393531109900700e+00 -6.968198689283984157e-04 0.000000000000000000e+00 0.000000000000000000e+00 0.000000000000000000e+00 0.000000000000000000e+00 0.000000000000000000e+00
-6.567538754043453775e-01 -1.628345528075049398e+00 6.360538686105534634e-01 -1.247393531109900700e+00 -6.968198689283984157e-04 0.000000000000000000e+00 0.000000000000000000e+00 0.000000000000000000e+00 0.000000000000000000e+00 0.000000000000000000e+00
-6.567538754043453775e-01 -1.628345528075049398e+00 6.360538686105534634e-01 -1.247393531109900700e+00 -6.968198689283984157e-04 0.000000000000000000e+00 0.000000000000000000e+00 0.000000000000000000e+00 0.000000000000000000e+00 0.000000000000000000e+00
-6.567538754043453775e-01 -1.628345528075049398e+00 6.360538686105534634e-01 -1.247393531109900700e+00 -6.968198689283984157e-04 0.000000000000000000e+00 0.000000000000000000e+00 0.000000000000000000e+00 0.000000000000000000e+00 0.000000000000000000e+00
-6.567538754043453775e-01 -1.628345528075049398e+00 6.360538686105534634e-01 -1.247393531109900700e+00 -6.968198689283984157e-04 0.000000000000000000e+00 0.000000000000000000e+00 0.000000000000000000e+00 0.000000000000000000e+00 0.000000000000000000e+00
