-5.021693709301661146e-01 -2.747550835738060693e-01 6.469579860874601351e-01 -2.272768054074172372e+00 -1.048490563098099628e-03 1.152729633835827716e+00 -1.383128938113997952e+00 -1.767876126116157132e-01 -2.574795184438207762e-01 5.914149867944118759e-04
-4.357726951260494364e-01 -3.474174218146935389e-01 6.507962970228228228e-01 -2.263761287720513327e+00 -1.004857115244487190e-03 1.327933516082333121e+00 -1.453246764817749392e+00 7.676621870725378050e-02 1.801353270731802514e-01 8.726689570722498488e-04
-3.604256908734326803e-01 -4.222515942085398599e-01 6.682112375459552389e-01 -2.235186199391805406e+00 -9.402452128459389338e-04 1.506940085052335565e+00 -1.496683447876925754e+00 3.482988104626472126e-01 5.715017665741610742e-01 1.292238047970965115e-03
-2.757430675151569810e-01 -4.976838654450722599e-01 6.992508131350689826e-01 -2.189744769611150055e+00 -8.867457437330049591e-04 1.693652467165513542e+00 -1.508645424730647333e+00 6.207915117822743190e-01 9.088285956131068044e-01 1.069989382258679927e-03
-1.811806462179521016e-01 -5.720092997479355734e-01 7.435347564788822305e-01 -2.130221037714374877e+00 -8.707304840678582866e-04 1.891248425944096923e+00 -1.486508686057266937e+00 8.856788668762654027e-01 1.190474637935504232e+00 3.203051933029338848e-04
-7.613009659069969182e-02 -6.434874506444507869e-01 8.005643163721477551e-01 -2.059279233473803927e+00 -8.964800829402811170e-04 2.101010992545047973e+00 -1.429563017930304492e+00 1.140591197865309603e+00 1.418836084811415654e+00 -5.149919774484570424e-04
3.994065942812258241e-02 -7.104078213883657789e-01 8.698371665581804413e-01 -1.979352839709168421e+00 -9.484218231555860846e-04 2.321415120376445262e+00 -1.338407414878299395e+00 1.385457003720654168e+00 1.598527875292711897e+00 -1.038834804306098484e-03
1.673102908390523558e-01 -7.711285462436201499e-01 9.507771667968248908e-01 -1.892587593438202820e+00 -9.999523208743120624e-04 2.547392628218595245e+00 -1.214414497105087642e+00 1.618800004772888324e+00 1.735304925419310473e+00 -1.030609954374518038e-03
3.058065238521875950e-01 -8.241023163045201327e-01 1.042539263442766817e+00 -1.800794778649000172e+00 -1.027221570079262696e-03 2.769924660262704563e+00 -1.059475401217999879e+00 1.835241932918836749e+00 1.835856295784053405e+00 -5.453849840990141872e-04
4.546231106785827425e-01 -8.679060264758694521e-01 1.143772633490791613e+00 -1.705379363926588177e+00 -1.040877963590134065e-03 2.976331736527902727e+00 -8.760742034269856093e-01 2.024667400960495023e+00 1.908308294448239018e+00 -2.731278702174259128e-04
6.122057188922213067e-01 -9.012886503958590367e-01 1.252437490822605026e+00 -1.607233779250414996e+00 -1.038528020900853031e-03 3.151652164272771728e+00 -6.676524783997909163e-01 2.173297146636266497e+00 1.962911693523464729e+00 4.699885378562024610e-05
7.762665709093261590e-01 -9.232451932012152307e-01 1.365771966041275709e+00 -1.506632284644630060e+00 -9.914595488075034387e-04 3.281217040342095714e+00 -4.391308561071246563e-01 2.266689504373411435e+00 2.012029892115700491e+00 9.413694418669927080e-04
9.439650071711999102e-01 -9.331096994971568304e-01 1.480475465886155195e+00 -1.403202631670172007e+00 -8.380720722025428084e-04 3.353968725237474136e+00 -1.972901259188328815e-01 2.294069996897591057e+00 2.068593059489161945e+00 3.067749532099213038e-03
1.112238027296310827e+00 -9.306405611801658040e-01 1.593098811771933354e+00 -1.296048546455407680e+00 -5.741400859242405978e-04 3.365460402502219672e+00 4.938276633981938946e-02 2.252466917715564509e+00 2.143081704295287881e+00 5.278639725566042912e-03
1.278202943429427751e+00 -9.160614937366513555e-01 1.700537302051625677e+00 -1.184024544319153049e+00 -2.175780031321448895e-04 3.319298322662338929e+00 2.915813488702891920e-01 2.148769805593846449e+00 2.240480042725094378e+00 7.131241655841913732e-03
1.439521594398392335e+00 -8.900348467506009609e-01 1.800477947222917985e+00 -1.066069739090380608e+00 2.037451948314969322e-04 3.226373019379292106e+00 5.205329397210088915e-01 1.998812903425847276e+00 2.359096104575451047e+00 8.426463959272836868e-03
1.594634835811307827e+00 -8.535707862251048494e-01 1.891695828601092533e+00 -9.414746883436801994e-01 6.496125462468515036e-04 3.102264828258311180e+00 7.292812105099216735e-01 1.824357627563493400e+00 2.491901014934007730e+00 8.917347028307091861e-03
1.742831471423349265e+00 -8.078938169775852218e-01 1.974190628229029798e+00 -8.100098256855077228e-01 1.026120735972269179e-03 2.963932712240829215e+00 9.135393849503915531e-01 1.649895992558745306e+00 2.629297253163448644e+00 7.530163794508352645e-03
1.884170478562705808e+00 -7.542853754295832935e-01 2.049232607639055015e+00 -6.719261458007305121e-01 1.001079991108150833e-03 0.000000000000000000e+00 0.000000000000000000e+00 0.000000000000000000e+00 0.000000000000000000e+00 0.000000000000000000e+00
1.884170478562705808e+00 -7.542853754295832935e-01 2.049232607639055015e+00 -6.719261458007305121e-01 1.001079991108150833e-03 0.000000000000000000e+00 0.000000000000000000e+00 0.000000000000000000e+00 0.000000000000000000e+00 0.000000000000000000e+00
1.884170478562705808e+00 -7.542853754295832935e-01 2.049232607639055015e+00 -6.719261458007305121e-01 1.001079991108150833e-03 0.000000000000000000e+00 0.000000000000000000e+00 0.000000000000000000e+00 0.000000000000000000e+00 0.000000000000000000e+00
1.884170478562705808e+00 -7.542853754295832935e-01 2.049232607639055015e+00 -6.719261458007305121e-01 1.001079991108150833e-03 0.000000000000000000e+00 0.000000000000000000e+00 0.000000000000000000e+00 0.000000000000000000e+00 0.000000000000000000e+00
1.884170478562705808e+00 -7.542853754295832935e-01 2.049232607639055015e+00 -6.719261458007305121e-01 1.001079991108150833e-03 0.000000000000000000e+00 0.000000000000000000e+00 0.000000000000000000e+00 0.000000000000000000e+00 0.000000000000000000e+00
1.884170478562705808e+00 -7.542853754295832935e-01 2.049232607639055015e+00 -6.719261458007305121e-01 1.001079991108150833e-03 0.000000000000000000e+00 0.000000000000000000e+00 0.000000000000000000e+00 0.000000000000000000e+00 0.000000000000000000e+00
1.884170478562705808e+00 -7.542853754295832935e-01 2.049232607639055015e+00 -6.719261458007305121e-01 1.001079991108150833e-03 0.000000000000000000e+00 0.000000000000000000e+00 0.000000000000000000e+00 0.000000000000000000e+00 0.000000000000000000e+00
1.884170478562705808e+00 -7.542853754295832935e-01 2.049232607639055015e+00 -6.719261458007305121e-01 1.001079991108150833e-03 0.000000000000000000e+00 0.000000000000000000e+00 0.000000000000000000e+00 0.000000000000000000e+00 0.000000000000000000e+00
1.884170478562705808e+00 -7.542853754295832935e-01 2.049232607639055015e+00 -6.719261458007305121e-01 1.001079991108150833e-03 0.000000000000000000e+00 0.000000000000000000e+00 0.000000000000000000e+00 0.000000000000000000e+00 0.000000000000000000e+00
1.884170478562705808e+00 -7.542853754295832935e-01 2.049232607639055015e+00 -6.719261458007305121e-01 1.001079991108150833e-03 0.000000000000000000e+00 0.000000000000000000e+00 0.000000000000000000e+00 0.000000000000000000e+00 0.000000000000000000e+00
1.884170478562705808e+00 -7.542853754295832935e-01 2.049232607639055015e+00 -6.719261458007305121e-01 1.001079991108150833e-03 0.000000000000000000e+00 0.000000000000000000e+00 0.000000000000000000e+00 0.000000000000000000e+00 0.000000000000000000e+00
1.884170478562705808e+00 -7.542853754295832935e-01 2.049232607639055015e+00 -6.719261458007305121e-01 1.001079991108150833e-03 0.000000000000000000e+00 0.000000000000000000e+00 0.000000000000000000e+00 0.000000000000000000e+00 0.000000000000000000e+00
1.884170478562705808e+00 -7.542853754295832935e-01 2.049232607639055015e+00 -6.719261458007305121e-01 1.001079991108150833e-03 0.000000000000000000e+00 0.000000000000000000e+00 0.000000000000000000e+00 0.000000000000000000e+00 0.000000000000000000e+00
