-3.129200727415991645e-01 -1.532649977856946344e-01 4.199800654983909531e-01 -1.105443463001174242e+00 3.570455740258417872e-04 1.891028413689536253e-02 -1.499194227785768663e-01 -2.457042914595222727e-02 9.212866129985390617e-02 2.505304576198818991e-03
-3.118748458310939276e-01 -1.634443597101560286e-01 4.191404777347877975e-01 -1.100235792142046476e+00 4.776336543619891131e-04 2.090453821010509680e-02 -2.035872384892281339e-01 -1.679175527206334950e-02 1.041534171825532346e-01 2.411761606722946736e-03
-3.108493325693924558e-01 -1.763707655688241394e-01 4.190568696809747196e-01 -1.094947532106138155e+00 5.923751521993594719e-04 2.051026523402923671e-02 -2.585281171733622152e-01 -1.672161076261623885e-03 1.057652007181642262e-01 2.294829956747407394e-03
-3.099654313383254367e-01 -1.920920338736289423e-01 4.200703091814144696e-01 -1.090125725328506823e+00 6.999095589303012087e-04 1.767802462134034427e-02 -3.144253660960958374e-01 2.026879000879459533e-02 9.643613555262713077e-02 2.150688134618835602e-03
-3.093456012936146027e-01 -2.106413547933747021e-01 4.224881643010826582e-01 -1.086337387600882165e+00 7.978368912150969562e-04 1.239660089421623299e-02 -3.709864183949151961e-01 4.835710239336424299e-02 7.576675455249315405e-02 1.958546645695914083e-03
-3.091106804360747029e-01 -2.320385230474882876e-01 4.265719017257514900e-01 -1.084159927357041697e+00 8.825068063949939893e-04 4.698417150798401415e-03 -4.279433650822718760e-01 8.167474849337713616e-02 4.354920487680966762e-02 1.693398303597941097e-03
-3.093774306831642007e-01 -2.562912740416866675e-01 4.325211049443884459e-01 -1.084167328250427609e+00 9.491287993108769644e-04 -5.335004941790183128e-03 -4.850550198839678195e-01 1.189840643727387015e-01 -1.480178677163851431e-04 1.332439858317659934e-03
-3.102556952888437802e-01 -2.833968636239299621e-01 4.404544319247659656e-01 -1.086910165260398964e+00 9.926792152598258069e-04 -1.756529211359106335e-02 -5.421117916448653373e-01 1.586665396075505052e-01 -5.485674019942675395e-02 8.710083189789785858e-04
-3.118452684803041386e-01 -3.133437214051146835e-01 4.503896197968031423e-01 -1.092889511258620772e+00 1.011173007425383852e-03 -3.179146382920666064e-02 -5.989371556236945393e-01 1.987037574407440332e-01 -1.195869199644362668e-01 3.698758433111592721e-04
-3.142325287671195455e-01 -3.461132825922642597e-01 4.622261995066062057e-01 -1.102525017313984890e+00 1.017228388284123182e-03 -4.774520573630805509e-02 -6.553912237429911913e-01 2.367315941960617398e-01 -1.927101211072826115e-01 1.211076171747868806e-04
-3.174864467619616937e-01 -3.816825895386895540e-01 4.757356471541446807e-01 -1.116115572018523849e+00 1.018824845308385560e-03 -6.507835989684258859e-02 -7.113861389285056624e-01 2.701889529507698340e-01 -2.718110940907799700e-01 3.192914048524608849e-05
-3.216534357985189607e-01 -4.200279478540023814e-01 4.905641541471994493e-01 -1.133792705631111231e+00 1.016025930330874232e-03 -8.333978073114489682e-02 -7.669071663062564381e-01 2.965701398610952055e-01 -3.535426722517465148e-01 -5.597829955022786894e-05
-3.267507317462442495e-01 -4.611293580670565162e-01 5.062527650780436206e-01 -1.155470693535411097e+00 1.000062744771867788e-03 -1.019459189545058597e-01 -8.220282042610822515e-01 3.137722186168832028e-01 -4.335597580859954503e-01 -3.192637111801301629e-04
-3.327591970473675609e-01 -5.049740201028903863e-01 5.222762099737222607e-01 -1.180805657947527676e+00 9.498425941678894811e-04 -1.201693060224662407e-01 -8.768932407166774023e-01 3.204688979135717486e-01 -5.066992882423324573e-01 -1.004403012079565713e-03
-3.396166756581674440e-01 -5.515576264735376766e-01 5.380980665591753587e-01 -1.209176340516241011e+00 8.661789896196850271e-04 -1.371495722159978836e-01 -9.316721274129455832e-01 3.164371317090612368e-01 -5.674136513742660259e-01 -1.673272090964089513e-03
-3.472185862135110934e-01 -6.008771898572056180e-01 5.532266914433858762e-01 -1.239721714205195280e+00 7.563652120881114499e-04 -1.520382111068731001e-01 -9.863912676733596063e-01 3.025724976842113501e-01 -6.109074737790841647e-01 -2.196275550631471112e-03
-3.554227295583561874e-01 -6.529207323169966548e-01 5.672642770680664803e-01 -1.271411105491515148e+00 6.291335462909828638e-04 -1.640828668969020743e-01 -1.040870849195820735e+00 2.807517124936115827e-01 -6.337878257263953596e-01 -2.544633315942571722e-03
-3.640567006766660119e-01 -7.076565952488282907e-01 5.799414607648130104e-01 -1.303131066283224726e+00 4.929552011471878808e-04 -1.726794223661967387e-01 -1.094717258636632939e+00 2.535436739349313795e-01 -6.343992158341911214e-01 -2.723566902875899226e-03
-3.729281110742177496e-01 -7.650228545581375661e-01 5.911328810827757296e-01 -1.333785087885082321e+00 3.550834134808041357e-04 -1.774282079510349497e-01 -1.147325186186184620e+00 2.238284063592551332e-01 -6.130804320371533445e-01 -2.757435753327675335e-03
-3.818353501139146178e-01 -8.249193282125001359e-01 6.008525688806510834e-01 -1.362387136958697509e+00 2.212203205448229164e-04 -1.781447807939371686e-01 -1.197929473087252061e+00 1.943937559575073248e-01 -5.720409814723034225e-01 -2.677261858719624278e-03
-3.905779650538811487e-01 -8.872029420585310078e-01 6.092312667861895514e-01 -1.388138515212362423e+00 9.544832899290736443e-05 -1.748522987993310351e-01 -1.245672276920617882e+00 1.675739581107687781e-01 -5.150275650732978328e-01 -2.515439831038311039e-03
-3.989671958336814539e-01 -9.516861602435241485e-01 6.164785510712622596e-01 -1.410483022977093492e+00 -1.971383128972777445e-05 -1.677846155960061314e-01 -1.289664363699862148e+00 1.449456857014539413e-01 -4.468901552946197286e-01 -2.303243205652702724e-03
-4.068378736980405863e-01 -1.018138112946925133e+00 6.228342243884443796e-01 -1.429139036519035066e+00 -1.235454843988092013e-04 -1.574135572871827871e-01 -1.329039054068018588e+00 1.271134663436422063e-01 -3.731202708388337008e-01 -2.076633062181628808e-03
-4.140640482334519978e-01 -1.086288176465770805e+00 6.285112675061219623e-01 -1.444106122466884079e+00 -2.177137884525666032e-04 -1.445234907082278419e-01 -1.363001270376913432e+00 1.135408623535506256e-01 -2.993417189569800296e-01 -1.883366081075147930e-03
-4.205840650417792537e-01 -1.155831028028143193e+00 6.336283251718168863e-01 -1.455648412010767334e+00 -3.079071416116220105e-04 -1.304003361665449501e-01 -1.390857031247449083e+00 1.023411533138990637e-01 -2.308457908776634926e-01 -1.803867063181107929e-03
-4.264425032701799623e-01 -1.226432543673524389e+00 6.381278598336751484e-01 -1.464257551128008927e+00 -4.102587791911335865e-04 -1.171687645680141998e-01 -1.412030312907625262e+00 8.999069323716515911e-02 -1.721827823448298656e-01 -2.047032751590231736e-03
-4.318515628729095446e-01 -1.297737282834682926e+00 6.416820013131593337e-01 -1.470589470318610426e+00 -5.772166309322373070e-04 -1.081811920545919653e-01 -1.426094783223172513e+00 7.108282958968450971e-02 -1.266383838120304639e-01 -3.339157034822074627e-03
-4.372689633190724456e-01 -1.369377767622633302e+00 6.435919454090300862e-01 -1.475368585727047988e+00 -1.002053227878850483e-03 0.000000000000000000e+00 0.000000000000000000e+00 0.000000000000000000e+00 0.000000000000000000e+00 0.000000000000000000e+00
-4.372689633190724456e-01 -1.369377767622633302e+00 6.435919454090300862e-01 -1.475368585727047988e+00 -1.002053227878850483e-03 0.000000000000000000e+00 0.000000000000000000e+00 0.000000000000000000e+00 0.000000000000000000e+00 0.000000000000000000e+00
-4.372689633190724456e-01 -1.369377767622633302e+00 6.435919454090300862e-01 -1.475368585727047988e+00 -1.002053227878850483e-03 0.000000000000000000e+00 0.000000000000000000e+00 0.000000000000000000e+00 0.000000000000000000e+00 0.000000000000000000e+00
-4.372689633190724456e-01 -1.369377767622633302e+00 6.435919454090300862e-01 -1.475368585727047988e+00 -1.002053227878850483e-03 0.000000000000000000e+00 0.000000000000000000e+00 0.000000000000000000e+00 0.000000000000000000e+00 0.000000000000000000e+00
