9.927875776499559546e-01 -8.196464782358241496e-01 1.427805553182168730e+00 -9.677979253665992543e-01 -4.772757910483823836e-04 2.375637259392906930e+00 -8.751795735502193585e-03 1.134518929695666589e+00 1.892227025152323439e+00 4.640611711585721985e-03
1.110542131636075291e+00 -8.136877885500354290e-01 1.478404473981723921e+00 -8.708409389813643875e-01 -2.025799162866687045e-04 2.355091079722386294e+00 1.191737937157738569e-01 1.011978415991103164e+00 1.939139727704697336e+00 5.493917495234273800e-03
1.226467902761929407e+00 -8.018792746647480651e-01 1.521682581022332226e+00 -7.713599170562148721e-01 9.284533844993548635e-05 2.318515422517082758e+00 2.361702777057463898e-01 8.655621408121668692e-01 1.989620438502989641e+00 5.908505094732084684e-03
1.340012600660843045e+00 -7.849396171686461310e-01 1.556856427229319273e+00 -6.692437239448366659e-01 3.829872470431405535e-04 2.270893957978273203e+00 3.387931499220393494e-01 7.034769241397391681e-01 2.042323862227563680e+00 5.802838171864101342e-03
1.450871462694921288e+00 -7.637156838634675537e-01 1.583598694267717599e+00 -5.644737337777583353e-01 6.396467393866379697e-04 2.217177240681563077e+00 4.244786661035707676e-01 5.348453407679680804e-01 2.095399803341567502e+00 5.133189846869948107e-03
1.558951798677691958e+00 -7.391301267333153513e-01 1.602048417158245863e+00 -4.571258197904229936e-01 8.402587309149656819e-04 2.161606719655415176e+00 4.917111426030449928e-01 3.689944578105638362e-01 2.146958279746706388e+00 4.012239830566554678e-03
1.664312764643705700e+00 -7.121202389020557799e-01 1.612776672942793477e+00 -3.473576195184486792e-01 1.002313639446105343e-03 0.000000000000000000e+00 0.000000000000000000e+00 0.000000000000000000e+00 0.000000000000000000e+00 0.000000000000000000e+00
1.664312764643705700e+00 -7.121202389020557799e-01 1.612776672942793477e+00 -3.473576195184486792e-01 1.002313639446105343e-03 0.000000000000000000e+00 0.000000000000000000e+00 0.000000000000000000e+00 0.000000000000000000e+00 0.000000000000000000e+00
1.664312764643705700e+00 -7.121202389020557799e-01 1.612776672942793477e+00 -3.473576195184486792e-01 1.002313639446105343e-03 0.000000000000000000e+00 0.000000000000000000e+00 0.000000000000000000e+00 0.000000000000000000e+00 0.000000000000000000e+00
1.664312764643705700e+00 -7.121202389020557799e-01 1.612776672942793477e+00 -3.473576195184486792e-01 1.002313639446105343e-03 0.000000000000000000e+00 0.000000000000000000e+00 0.000000000000000000e+00 0.000000000000000000e+00 0.000000000000000000e+00
1.664312764643705700e+00 -7.121202389020557799e-01 1.612776672942793477e+00 -3.473576195184486792e-01 1.002313639446105343e-03 0.000000000000000000e+00 0.000000000000000000e+00 0.000000000000000000e+00 0.000000000000000000e+00 0.000000000000000000e+00
1.664312764643705700e+00 -7.121202389020557799e-01 1.612776672942793477e+00 -3.473576195184486792e-01 1.002313639446105343e-03 0.000000000000000000e+00 0.000000000000000000e+00 0.000000000000000000e+00 0.000000000000000000e+00 0.000000000000000000e+00
1.664312764643705700e+00 -7.121202389020557799e-01 1.612776672942793477e+00 -3.473576195184486792e-01 1.002313639446105343e-03 0.000000000000000000e+00 0.000000000000000000e+00 0.000000000000000000e+00 0.000000000000000000e+00 0.000000000000000000e+00
1.664312764643705700e+00 -7.121202389020557799e-01 1.612776672942793477e+00 -3.473576195184486792e-01 1.002313639446105343e-03 0.000000000000000000e+00 0.000000000000000000e+00 0.000000000000000000e+00 0.000000000000000000e+00 0.000000000000000000e+00
1.664312764643705700e+00 -7.121202389020557799e-01 1.612776672942793477e+00 -3.473576195184486792e-01 1.002313639446105343e-03 0.000000000000000000e+00 0.000000000000000000e+00 0.000000000000000000e+00 0.000000000000000000e+00 0.000000000000000000e+00
1.664312764643705700e+00 -7.121202389020557799e-01 1.612776672942793477e+00 -3.473576195184486792e-01 1.002313639446105343e-03 0.000000000000000000e+00 0.000000000000000000e+00 0.000000000000000000e+00 0.000000000000000000e+00 0.000000000000000000e+00
1.664312764643705700e+00 -7.121202389020557799e-01 1.612776672942793477e+00 -3.473576195184486792e-01 1.002313639446105343e-03 0.000000000000000000e+00 0.000000000000000000e+00 0.000000000000000000e+00 0.000000000000000000e+00 0.000000000000000000e+00
1.664312764643705700e+00 -7.121202389020557799e-01 1.612776672942793477e+00 -3.473576195184486792e-01 1.002313639446105343e-03 0.000000000000000000e+00 0.000000000000000000e+00 0.000000000000000000e+00 0.000000000000000000e+00 0.000000000000000000e+00
1.664312764643705700e+00 -7.121202389020557799e-01 1.612776672942793477e+00 -3.473576195184486792e-01 1.002313639446105343e-03 0.000000000000000000e+00 0.000000000000000000e+00 0.000000000000000000e+00 0.000000000000000000e+00 0.000000000000000000e+00
1.664312764643705700e+00 -7.121202389020557799e-01 1.612776672942793477e+00 -3.473576195184486792e-01 1.002313639446105343e-03 0.000000000000000000e+00 0.000000000000000000e+00 0.000000000000000000e+00 0.000000000000000000e+00 0.000000000000000000e+00
1.664312764643705700e+00 -7.121202389020557799e-01 1.612776672942793477e+00 -3.473576195184486792e-01 1.002313639446105343e-03 0.000000000000000000e+00 0.000000000000000000e+00 0.000000000000000000e+00 0.000000000000000000e+00 0.000000000000000000e+00
1.664312764643705700e+00 -7.121202389020557799e-01 1.612776672942793477e+00 -3.473576195184486792e-01 1.002313639446105343e-03 0.000000000000000000e+00 0.000000000000000000e+00 0.000000000000000000e+00 0.000000000000000000e+00 0.000000000000000000e+00
1.664312764643705700e+00 -7.121202389020557799e-01 1.612776672942793477e+00 -3.473576195184486792e-01 1.002313639446105343e-03 0.000000000000000000e+00 0.000000000000000000e+00 0.000000000000000000e+00 0.000000000000000000e+00 0.000000000000000000e+00
1.664312764643705700e+00 -7.121202389020557799e-01 1.612776672942793477e+00 -3.473576195184486792e-01 1.002313639446105343e-03 0.000000000000000000e+00 0.000000000000000000e+00 0.000000000000000000e+00 0.000000000000000000e+00 0.000000000000000000e+00
1.664312764643705700e+00 -7.121202389020557799e-01 1.612776672942793477e+00 -3.473576195184486792e-01 1.002313639446105343e-03 0.000000000000000000e+00 0.000000000000000000e+00 0.000000000000000000e+00 0.000000000000000000e+00 0.000000000000000000e+00
1.664312764643705700e+00 -7.121202389020557799e-01 1.612776672942793477e+00 -3.473576195184486792e-01 1.002313639446105343e-03 0.000000000000000000e+00 0.000000000000000000e+00 0.000000000000000000e+00 0.000000000000000000e+00 0.000000000000000000e+00
1.664312764643705700e+00 -7.121202389020557799e-01 1.612776672942793477e+00 -3.473576195184486792e-01 1.002313639446105343e-03 0.000000000000000000e+00 0.000000000000000000e+00 0.000000000000000000e+00 0.000000000000000000e+00 0.000000000000000000e+00
1.664312764643705700e+00 -7.121202389020557799e-01 1.612776672942793477e+00 -3.473576195184486792e-01 1.002313639446105343e-03 0.000000000000000000e+00 0.000000000000000000e+00 0.000000000000000000e+00 0.000000000000000000e+00 0.000000000000000000e+00
1.664312764643705700e+00 -7.121202389020557799e-01 1.612776672942793477e+00 -3.473576195184486792e-01 1.002313639446105343e-03 0.000000000000000000e+00 0.000000000000000000e+00 0.000000000000000000e+00 0.000000000000000000e+00 0.000000000000000000e+00
1.664312764643705700e+00 -7.121202389020557799e-01 1.612776672942793477e+00 -3.473576195184486792e-01 1.002313639446105343e-03 0.000000000000000000e+00 0.000000000000000000e+00 0.000000000000000000e+00 0.000000000000000000e+00 0.000000000000000000e+00
1.664312764643705700e+00 -7.121202389020557799e-01 1.612776672942793477e+00 -3.473576195184486792e-01 1.002313639446105343e-03 0.000000000000000000e+00 0.000000000000000000e+00 0.000000000000000000e+00 0.000000000000000000e+00 0.000000000000000000e+00
