-9.735898260309464036e-02 -9.612911916385241673e-01 1.101961391110422683e+00 -1.003848197577644097e+00 2.913399500785736991e-04 6.573869133410149557e-01 -4.946242127569099312e-01 6.583517308574369231e-01 5.518440185488844296e-01 1.898112959303269176e-04
-6.244596442599747305e-02 -9.857911870603490723e-01 1.138064937144944500e+00 -9.758260756409297132e-01 5.926817940710461265e-05 0.000000000000000000e+00 0.000000000000000000e+00 0.000000000000000000e+00 0.000000000000000000e+00 0.000000000000000000e+00
-6.244596442599747305e-02 -9.857911870603490723e-01 1.138064937144944500e+00 -9.758260756409297132e-01 5.926817940710461265e-05 0.000000000000000000e+00 0.000000000000000000e+00 0.000000000000000000e+00 0.000000000000000000e+00 0.000000000000000000e+00
-6.244596442599747305e-02 -9.857911870603490723e-01 1.138064937144944500e+00 -9.758260756409297132e-01 5.926817940710461265e-05 0.000000000000000000e+00 0.000000000000000000e+00 0.000000000000000000e+00 0.000000000000000000e+00 0.000000000000000000e+00
-6.244596442599747305e-02 -9.857911870603490723e-01 1.138064937144944500e+00 -9.758260756409297132e-01 5.926817940710461265e-05 0.000000000000000000e+00 0.000000000000000000e+00 0.000000000000000000e+00 0.000000000000000000e+00 0.000000000000000000e+00
-6.244596442599747305e-02 -9.857911870603490723e-01 1.138064937144944500e+00 -9.758260756409297132e-01 5.926817940710461265e-05 0.000000000000000000e+00 0.000000000000000000e+00 0.000000000000000000e+00 0.000000000000000000e+00 0.000000000000000000e+00
-6.244596442599747305e-02 -9.857911870603490723e-01 1.138064937144944500e+00 -9.758260756409297132e-01 5.926817940710461265e-05 0.000000000000000000e+00 0.000000000000000000e+00 0.000000000000000000e+00 0.000000000000000000e+00 0.000000000000000000e+00
-6.244596442599747305e-02 -9.857911870603490723e-01 1.138064937144944500e+00 -9.758260756409297132e-01 5.926817940710461265e-05 0.000000000000000000e+00 0.000000000000000000e+00 0.000000000000000000e+00 0.000000000000000000e+00 0.000000000000000000e+00
-6.244596442599747305e-02 -9.857911870603490723e-01 1.138064937144944500e+00 -9.758260756409297132e-01 5.926817940710461265e-05 0.000000000000000000e+00 0.000000000000000000e+00 0.000000000000000000e+00 0.000000000000000000e+00 0.000000000000000000e+00
-6.244596442599747305e-02 -9.857911870603490723e-01 1.138064937144944500e+00 -9.758260756409297132e-01 5.926817940710461265e-05 0.000000000000000000e+00 0.000000000000000000e+00 0.000000000000000000e+00 0.000000000000000000e+00 0.000000000000000000e+00
-6.244596442599747305e-02 -9.857911870603490723e-01 1.138064937144944500e+00 -9.758260756409297132e-01 5.926817940710461265e-05 0.000000000000000000e+00 0.000000000000000000e+00 0.000000000000000000e+00 0.000000000000000000e+00 0.000000000000000000e+00
-6.244596442599747305e-02 -9.857911870603490723e-01 1.138064937144944500e+00 -9.758260756409297132e-01 5.926817940710461265e-05 0.000000000000000000e+00 0.000000000000000000e+00 0.000000000000000000e+00 0.000000000000000000e+00 0.000000000000000000e+00
-6.244596442599747305e-02 -9.857911870603490723e-01 1.138064937144944500e+00 -9.758260756409297132e-01 5.926817940710461265e-05 0.000000000000000000e+00 0.000000000000000000e+00 0.000000000000000000e+00 0.000000000000000000e+00 0.000000000000000000e+00
-6.244596442599747305e-02 -9.857911870603490723e-01 1.138064937144944500e+00 -9.758260756409297132e-01 5.926817940710461265e-05 0.000000000000000000e+00 0.000000000000000000e+00 0.000000000000000000e+00 0.000000000000000000e+00 0.000000000000000000e+00
-6.244596442599747305e-02 -9.857911870603490723e-01 1.138064937144944500e+00 -9.758260756409297132e-01 5.926817940710461265e-05 0.000000000000000000e+00 0.000000000000000000e+00 0.000000000000000000e+00 0.000000000000000000e+00 0.000000000000000000e+00
-6.244596442599747305e-02 -9.857911870603490723e-01 1.138064937144944500e+00 -9.758260756409297132e-01 5.926817940710461265e-05 0.000000000000000000e+00 0.000000000000000000e+00 0.000000000000000000e+00 0.000000000000000000e+00 0.000000000000000000e+00
-6.244596442599747305e-02 -9.857911870603490723e-01 1.138064937144944500e+00 -9.758260756409297132e-01 5.926817940710461265e-05 0.000000000000000000e+00 0.000000000000000000e+00 0.000000000000000000e+00 0.000000000000000000e+00 0.000000000000000000e+00
-6.244596442599747305e-02 -9.857911870603490723e-01 1.138064937144944500e+00 -9.758260756409297132e-01 5.926817940710461265e-05 0.000000000000000000e+00 0.000000000000000000e+00 0.000000000000000000e+00 0.000000000000000000e+00 0.000000000000000000e+00
-6.244596442599747305e-02 -9.857911870603490723e-01 1.138064937144944500e+00 -9.758260756409297132e-01 5.926817940710461265e-05 0.000000000000000000e+00 0.000000000000000000e+00 0.000000000000000000e+00 0.000000000000000000e+00 0.000000000000000000e+00
-6.244596442599747305e-02 -9.857911870603490723e-01 1.138064937144944500e+00 -9.758260756409297132e-01 5.926817940710461265e-05 0.000000000000000000e+00 0.000000000000000000e+00 0.000000000000000000e+00 0.000000000000000000e+00 0.000000000000000000e+00
-6.244596442599747305e-02 -9.857911870603490723e-01 1.138064937144944500e+00 -9.758260756409297132e-01 5.926817940710461265e-05 0.000000000000000000e+00 0.000000000000000000e+00 0.000000000000000000e+00 0.000000000000000000e+00 0.000000000000000000e+00
-6.244596442599747305e-02 -9.857911870603490723e-01 1.138064937144944500e+00 -9.758260756409297132e-01 5.926817940710461265e-05 0.000000000000000000e+00 0.000000000000000000e+00 0.000000000000000000e+00 0.000000000000000000e+00 0.000000000000000000e+00
-6.244596442599747305e-02 -9.857911870603490723e-01 1.138064937144944500e+00 -9.758260756409297132e-01 5.926817940710461265e-05 0.000000000000000000e+00 0.000000000000000000e+00 0.000000000000000000e+00 0.000000000000000000e+00 0.000000000000000000e+00
-6.244596442599747305e-02 -9.857911870603490723e-01 1.138064937144944500e+00 -9.758260756409297132e-01 5.926817940710461265e-05 0.000000000000000000e+00 0.000000000000000000e+00 0.000000000000000000e+00 0.000000000000000000e+00 0.000000000000000000e+00
-6.244596442599747305e-02 -9.857911870603490723e-01 1.138064937144944500e+00 -9.758260756409297132e-01 5.926817940710461265e-05 0.000000000000000000e+00 0.000000000000000000e+00 0.000000000000000000e+00 0.000000000000000000e+00 0.000000000000000000e+00
-6.244596442599747305e-02 -9.857911870603490723e-01 1.138064937144944500e+00 -9.758260756409297132e-01 5.926817940710461265e-05 0.000000000000000000e+00 0.000000000000000000e+00 0.000000000000000000e+00 0.000000000000000000e+00 0.000000000000000000e+00
-6.244596442599747305e-02 -9.857911870603490723e-01 1.138064937144944500e+00 -9.758260756409297132e-01 5.926817940710461265e-05 0.000000000000000000e+00 0.000000000000000000e+00 0.000000000000000000e+00 0.000000000000000000e+00 0.000000000000000000e+00
-6.244596442599747305e-02 -9.857911870603490723e-01 1.138064937144944500e+00 -9.758260756409297132e-01 5.926817940710461265e-05 0.000000000000000000e+00 0.000000000000000000e+00 0.000000000000000000e+00 0.000000000000000000e+00 0.000000000000000000e+00
-6.244596442599747305e-02 -9.857911870603490723e-01 1.138064937144944500e+00 -9.758260756409297132e-01 5.926817940710461265e-05 0.000000000000000000e+00 0.000000000000000000e+00 0.000000000000000000e+00 0.000000000000000000e+00 0.000000000000000000e+00
-6.244596442599747305e-02 -9.857911870603490723e-01 1.138064937144944500e+00 -9.758260756409297132e-01 5.926817940710461265e-05 0.000000000000000000e+00 0.000000000000000000e+00 0.000000000000000000e+00 0.000000000000000000e+00 0.000000000000000000e+00
-6.244596442599747305e-02 -9.857911870603490723e-01 1.138064937144944500e+00 -9.758260756409297132e-01 5.926817940710461265e-05 0.000000000000000000e+00 0.000000000000000000e+00 0.000000000000000000e+00 0.000000000000000000e+00 0.000000000000000000e+00
