-1.121286674739529143e+00 -1.125150017484899262e-01 6.730714455199765522e-03 -1.626275498366461569e+00 -1.062126191228479274e-03 -3.813671056680681959e-01 -2.213160119716111318e-01 -1.273588530846149203e+00 -8.325844227653309559e-01 -8.782038172582304174e-04
-1.138945716592432600e+00 -1.280328810701196196e-01 -5.023145300356404025e-02 -1.651824265387934254e+00 -1.057961732392916770e-03 -3.531808370580706846e-01 -3.103575864325937017e-01 -1.139243349175276254e+00 -5.109753404294514745e-01 8.328917671124812759e-05
-1.155494175615412900e+00 -1.474048104391169900e-01 -1.002929966681434526e-01 -1.663446098554472119e+00 -1.033709682998753101e-03 -3.309691804596048281e-01 -3.874385873799471858e-01 -1.001230873291587997e+00 -2.324366633307562435e-01 4.850409878832731819e-04
-1.171184646690423659e+00 -1.700239491042393469e-01 -1.435777711250533772e-01 -1.663346562038569454e+00 -9.734722440168765492e-04 -3.138094215002142917e-01 -4.523827733024471387e-01 -8.656954891381981598e-01 1.990730318053218761e-03 1.204748779637531244e-03
-1.186216177291836704e+00 -1.953024553644614469e-01 -1.804830886438232584e-01 -1.653628096046352747e+00 -8.247243547369364266e-04 -3.006306120282597472e-01 -5.055701252044420002e-01 -7.381063503753977351e-01 1.943693198443320613e-01 2.974957785598800718e-03
-1.200737919880478843e+00 -2.226948304355129138e-01 -2.116014776349133542e-01 -1.636195336882974916e+00 -6.336554312308386935e-04 -2.904348517728435053e-01 -5.478475014210292260e-01 -6.223677798218016921e-01 3.486551832675566232e-01 3.821378470121954227e-03
-1.214859450829565368e+00 -2.517144907631090334e-01 -2.376350248305802992e-01 -1.612707099876602435e+00 -4.277873668713086169e-04 -2.824306189817313295e-01 -5.803932065519225025e-01 -5.206709439133385686e-01 4.697647401274516188e-01 4.117361287190601966e-03
-1.228663247019147198e+00 -2.819424920146959557e-01 -2.593220977358362545e-01 -1.584563861213022617e+00 -2.248084219332264014e-04 -2.760759237916374786e-01 -6.045600250317378910e-01 -4.337414581051193263e-01 5.628647732715944541e-01 4.059578898761644419e-03
-1.242216196588740162e+00 -3.130300402146006800e-01 -2.773850710039216794e-01 -1.552915573638070423e+00 -3.558156323895861665e-05 -2.710589913918612370e-01 -6.217509639980944858e-01 -3.612594653617082763e-01 6.329657514990451039e-01 3.784537173885355477e-03
-1.255578909750419303e+00 -3.446960582016451169e-01 -2.924995777450394296e-01 -1.518682157365280005e+00 1.340270818449545835e-04 -2.672542632335838109e-01 -6.333203597408889607e-01 -3.022901348223549500e-01 6.846683254558099119e-01 3.392172901678263894e-03
-1.268812698143918949e+00 -3.767218215175514584e-01 -3.052810970348075470e-01 -1.482579094186764257e+00 2.816461293061627621e-04 -2.646757678699926952e-01 -6.405152663181266082e-01 -2.556303857953627912e-01 7.220612635703150817e-01 2.952380949224164223e-03
-1.281984560990890865e+00 -4.089438831685728304e-01 -3.162836871626135138e-01 -1.445144570075820312e+00 4.071858274100359520e-04 -2.634372569394365371e-01 -6.444412330204269956e-01 -2.200518025561191415e-01 7.486904822188774622e-01 2.510793962077463581e-03
-1.295170643163556568e+00 -4.412459844155594557e-01 -3.260063194239420925e-01 -1.406766749753161516e+00 5.120062995745918756e-04 -2.637216434533125042e-01 -6.460420249397328396e-01 -1.944526452265719629e-01 7.675564064531746888e-01 2.096409443291118689e-03
-1.308458648456754192e+00 -4.735510478862494654e-01 -3.349030081845814077e-01 -1.367708436202837330e+00 5.990023976212292996e-04 -2.657601058639503799e-01 -6.461012694137997503e-01 -1.779337752127863048e-01 7.811662710064852799e-01 1.739921960932748046e-03
-1.321949640709811247e+00 -5.058131640903374970e-01 -3.433953430740939727e-01 -1.328130014393102964e+00 6.752110829976593065e-04 -2.698198450611407617e-01 -6.452423240817598549e-01 -1.698466977902516328e-01 7.915684361946866421e-01 1.524173707528598837e-03
-1.335759539069833357e+00 -5.380099542909829724e-01 -3.518861860317011869e-01 -1.288109808129120681e+00 7.642098094869922628e-04 -2.761979672004429287e-01 -6.439358040129097294e-01 -1.698168591521446169e-01 8.004041252796458839e-01 1.779974529786659560e-03
-1.350020432133576032e+00 -5.701360371614579980e-01 -3.607724748291257222e-01 -1.247660423343023073e+00 9.572451001011079725e-04 0.000000000000000000e+00 0.000000000000000000e+00 0.000000000000000000e+00 0.000000000000000000e+00 0.000000000000000000e+00
-1.350020432133576032e+00 -5.701360371614579980e-01 -3.607724748291257222e-01 -1.247660423343023073e+00 9.572451001011079725e-04 0.000000000000000000e+00 0.000000000000000000e+00 0.000000000000000000e+00 0.000000000000000000e+00 0.000000000000000000e+00
-1.350020432133576032e+00 -5.701360371614579980e-01 -3.607724748291257222e-01 -1.247660423343023073e+00 9.572451001011079725e-04 0.000000000000000000e+00 0.000000000000000000e+00 0.000000000000000000e+00 0.000000000000000000e+00 0.000000000000000000e+00
-1.350020432133576032e+00 -5.701360371614579980e-01 -3.607724748291257222e-01 -1.247660423343023073e+00 9.572451001011079725e-04 0.000000000000000000e+00 0.000000000000000000e+00 0.000000000000000000e+00 0.000000000000000000e+00 0.000000000000000000e+00
-1.350020432133576032e+00 -5.701360371614579980e-01 -3.607724748291257222e-01 -1.247660423343023073e+00 9.572451001011079725e-04 0.000000000000000000e+00 0.000000000000000000e+00 0.000000000000000000e+00 0.000000000000000000e+00 0.000000000000000000e+00
-1.350020432133576032e+00 -5.701360371614579980e-01 -3.607724748291257222e-01 -1.247660423343023073e+00 9.572451001011079725e-04 0.000000000000000000e+00 0.000000000000000000e+00 0.000000000000000000e+00 0.000000000000000000e+00 0.000000000000000000e+00
-1.350020432133576032e+00 -5.701360371614579980e-01 -3.607724748291257222e-01 -1.247660423343023073e+00 9.572451001011079725e-04 0.000000000000000000e+00 0.000000000000000000e+00 0.000000000000000000e+00 0.000000000000000000e+00 0.000000000000000000e+00
-1.350020432133576032e+00 -5.701360371614579980e-01 -3.607724748291257222e-01 -1.247660423343023073e+00 9.572451001011079725e-04 0.000000000000000000e+00 0.000000000000000000e+00 0.000000000000000000e+00 0.000000000000000000e+00 0.000000000000000000e+00
-1.350020432133576032e+00 -5.701360371614579980e-01 -3.607724748291257222e-01 -1.247660423343023073e+00 9.572451001011079725e-04 0.000000000000000000e+00 0.000000000000000000e+00 0.000000000000000000e+00 0.000000000000000000e+00 0.000000000000000000e+00
-1.350020432133576032e+00 -5.701360371614579980e-01 -3.607724748291257222e-01 -1.247660423343023073e+00 9.572451001011079725e-04 0.000000000000000000e+00 0.000000000000000000e+00 0.000000000000000000e+00 0.000000000000000000e+00 0.000000000000000000e+00
-1.350020432133576032e+00 -5.701360371614579980e-01 -3.607724748291257222e-01 -1.247660423343023073e+00 9.572451001011079725e-04 0.000000000000000000e+00 0.000000000000000000e+00 0.000000000000000000e+00 0.000000000000000000e+00 0.000000000000000000e+00
-1.350020432133576032e+00 -5.701360371614579980e-01 -3.607724748291257222e-01 -1.247660423343023073e+00 9.572451001011079725e-04 0.000000000000000000e+00 0.000000000000000000e+00 0.000000000000000000e+00 0.000000000000000000e+00 0.000000000000000000e+00
-1.350020432133576032e+00 -5.701360371614579980e-01 -3.607724748291257222e-01 -1.247660423343023073e+00 9.572451001011079725e-04 0.000000000000000000e+00 0.000000000000000000e+00 0.000000000000000000e+00 0.000000000000000000e+00 0.000000000000000000e+00
-1.350020432133576032e+00 -5.701360371614579980e-01 -3.607724748291257222e-01 -1.247660423343023073e+00 9.572451001011079725e-04 0.000000000000000000e+00 0.000000000000000000e+00 0.000000000000000000e+00 0.000000000000000000e+00 0.000000000000000000e+00
-1.350020432133576032e+00 -5.701360371614579980e-01 -3.607724748291257222e-01 -1.247660423343023073e+00 9.572451001011079725e-04 0.000000000000000000e+00 0.000000000000000000e+00 0.000000000000000000e+00 0.000000000000000000e+00 0.000000000000000000e+00
