-8.427551159575794593e-01 -1.952746412004104259e+00 -3.416540961401012821e-02 -1.003454845288858088e+00 7.863253741623442731e-04 1.781859088415280526e-02 -1.590025201331375815e+00 -2.410514804340389006e-01 1.835371603680136854e+00 -1.420740686299867828e-03
-8.413220121581466149e-01 -2.031916038119605084e+00 -4.705943040649678000e-02 -9.103379150902830563e-01 7.283909359936511672e-04 2.866207598865688072e-02 -1.583392522310020478e+00 -2.578804158497329801e-01 1.862338603971501527e+00 -1.158688763373861251e-03
-8.393412427488149419e-01 -2.110849247063073530e+00 -6.109071112597912884e-02 -8.157811165223718408e-01 7.325753264390649734e-04 3.961538818663336986e-02 -1.578664178869366053e+00 -2.806256143896468935e-01 1.891135971358223866e+00 8.368780890827634024e-05
-8.367894352071177932e-01 -2.189637377996272782e+00 -7.659649108653894534e-02 -7.196810286826927916e-01 1.000837768251298596e-03 0.000000000000000000e+00 0.000000000000000000e+00 0.000000000000000000e+00 0.000000000000000000e+00 0.000000000000000000e+00
-8.367894352071177932e-01 -2.189637377996272782e+00 -7.659649108653894534e-02 -7.196810286826927916e-01 1.000837768251298596e-03 0.000000000000000000e+00 0.000000000000000000e+00 0.000000000000000000e+00 0.000000000000000000e+00 0.000000000000000000e+00
-8.367894352071177932e-01 -2.189637377996272782e+00 -7.659649108653894534e-02 -7.196810286826927916e-01 1.000837768251298596e-03 0.000000000000000000e+00 0.000000000000000000e+00 0.000000000000000000e+00 0.000000000000000000e+00 0.000000000000000000e+00
-8.367894352071177932e-01 -2.189637377996272782e+00 -7.659649108653894534e-02 -7.196810286826927916e-01 1.000837768251298596e-03 0.000000000000000000e+00 0.000000000000000000e+00 0.000000000000000000e+00 0.000000000000000000e+00 0.000000000000000000e+00
-8.367894352071177932e-01 -2.189637377996272782e+00 -7.659649108653894534e-02 -7.196810286826927916e-01 1.000837768251298596e-03 0.000000000000000000e+00 0.000000000000000000e+00 0.000000000000000000e+00 0.000000000000000000e+00 0.000000000000000000e+00
-8.367894352071177932e-01 -2.189637377996272782e+00 -7.659649108653894534e-02 -7.196810286826927916e-01 1.000837768251298596e-03 0.000000000000000000e+00 0.000000000000000000e+00 0.000000000000000000e+00 0.000000000000000000e+00 0.000000000000000000e+00
-8.367894352071177932e-01 -2.189637377996272782e+00 -7.659649108653894534e-02 -7.196810286826927916e-01 1.000837768251298596e-03 0.000000000000000000e+00 0.000000000000000000e+00 0.000000000000000000e+00 0.000000000000000000e+00 0.000000000000000000e+00
-8.367894352071177932e-01 -2.189637377996272782e+00 -7.659649108653894534e-02 -7.196810286826927916e-01 1.000837768251298596e-03 0.000000000000000000e+00 0.000000000000000000e+00 0.000000000000000000e+00 0.000000000000000000e+00 0.000000000000000000e+00
-8.367894352071177932e-01 -2.189637377996272782e+00 -7.659649108653894534e-02 -7.196810286826927916e-01 1.000837768251298596e-03 0.000000000000000000e+00 0.000000000000000000e+00 0.000000000000000000e+00 0.000000000000000000e+00 0.000000000000000000e+00
-8.367894352071177932e-01 -2.189637377996272782e+00 -7.659649108653894534e-02 -7.196810286826927916e-01 1.000837768251298596e-03 0.000000000000000000e+00 0.000000000000000000e+00 0.000000000000000000e+00 0.000000000000000000e+00 0.000000000000000000e+00
-8.367894352071177932e-01 -2.189637377996272782e+00 -7.659649108653894534e-02 -7.196810286826927916e-01 1.000837768251298596e-03 0.000000000000000000e+00 0.000000000000000000e+00 0.000000000000000000e+00 0.000000000000000000e+00 0.000000000000000000e+00
-8.367894352071177932e-01 -2.189637377996272782e+00 -7.659649108653894534e-02 -7.196810286826927916e-01 1.000837768251298596e-03 0.000000000000000000e+00 0.000000000000000000e+00 0.000000000000000000e+00 0.000000000000000000e+00 0.000000000000000000e+00
-8.367894352071177932e-01 -2.189637377996272782e+00 -7.659649108653894534e-02 -7.196810286826927916e-01 1.000837768251298596e-03 0.000000000000000000e+00 0.000000000000000000e+00 0.000000000000000000e+00 0.000000000000000000e+00 0.000000000000000000e+00
-8.367894352071177932e-01 -2.189637377996272782e+00 -7.659649108653894534e-02 -7.196810286826927916e-01 1.000837768251298596e-03 0.000000000000000000e+00 0.000000000000000000e+00 0.000000000000000000e+00 0.000000000000000000e+00 0.000000000000000000e+00
-8.367894352071177932e-01 -2.189637377996272782e+00 -7.659649108653894534e-02 -7.196810286826927916e-01 1.000837768251298596e-03 0.000000000000000000e+00 0.000000000000000000e+00 0.000000000000000000e+00 0.000000000000000000e+00 0.000000000000000000e+00
-8.367894352071177932e-01 -2.189637377996272782e+00 -7.659649108653894534e-02 -7.196810286826927916e-01 1.000837768251298596e-03 0.000000000000000000e+00 0.000000000000000000e+00 0.000000000000000000e+00 0.000000000000000000e+00 0.000000000000000000e+00
-8.367894352071177932e-01 -2.189637377996272782e+00 -7.659649108653894534e-02 -7.196810286826927916e-01 1.000837768251298596e-03 0.000000000000000000e+00 0.000000000000000000e+00 0.000000000000000000e+00 0.000000000000000000e+00 0.000000000000000000e+00
-8.367894352071177932e-01 -2.189637377996272782e+00 -7.659649108653894534e-02 -7.196810286826927916e-01 1.000837768251298596e-03 0.000000000000000000e+00 0.000000000000000000e+00 0.000000000000000000e+00 0.000000000000000000e+00 0.000000000000000000e+00
-8.367894352071177932e-01 -2.189637377996272782e+00 -7.659649108653894534e-02 -7.196810286826927916e-01 1.000837768251298596e-03 0.000000000000000000e+00 0.000000000000000000e+00 0.000000000000000000e+00 0.000000000000000000e+00 0.000000000000000000e+00
-8.367894352071177932e-01 -2.189637377996272782e+00 -7.659649108653894534e-02 -7.196810286826927916e-01 1.000837768251298596e-03 0.000000000000000000e+00 0.000000000000000000e+00 0.000000000000000000e+00 0.000000000000000000e+00 0.000000000000000000e+00
-8.367894352071177932e-01 -2.189637377996272782e+00 -7.659649108653894534e-02 -7.196810286826927916e-01 1.000837768251298596e-03 0.000000000000000000e+00 0.000000000000000000e+00 0.000000000000000000e+00 0.000000000000000000e+00 0.000000000000000000e+00
-8.367894352071177932e-01 -2.189637377996272782e+00 -7.659649108653894534e-02 -7.196810286826927916e-01 1.000837768251298596e-03 0.000000000000000000e+00 0.000000000000000000e+00 0.000000000000000000e+00 0.000000000000000000e+00 0.000000000000000000e+00
-8.367894352071177932e-01 -2.189637377996272782e+00 -7.659649108653894534e-02 -7.196810286826927916e-01 1.000837768251298596e-03 0.000000000000000000e+00 0.000000000000000000e+00 0.000000000000000000e+00 0.000000000000000000e+00 0.000000000000000000e+00
-8.367894352071177932e-01 -2.189637377996272782e+00 -7.659649108653894534e-02 -7.196810286826927916e-01 1.000837768251298596e-03 0.000000000000000000e+00 0.000000000000000000e+00 0.000000000000000000e+00 0.000000000000000000e+00 0.000000000000000000e+00
-8.367894352071177932e-01 -2.189637377996272782e+00 -7.659649108653894534e-02 -7.196810286826927916e-01 1.000837768251298596e-03 0.000000000000000000e+00 0.000000000000000000e+00 0.000000000000000000e+00 0.000000000000000000e+00 0.000000000000000000e+00
-8.367894352071177932e-01 -2.189637377996272782e+00 -7.659649108653894534e-02 -7.196810286826927916e-01 1.000837768251298596e-03 0.000000000000000000e+00 0.000000000000000000e+00 0.000000000000000000e+00 0.000000000000000000e+00 0.000000000000000000e+00
-8.367894352071177932e-01 -2.189637377996272782e+00 -7.659649108653894534e-02 -7.196810286826927916e-01 1.000837768251298596e-03 0.000000000000000000e+00 0.000000000000000000e+00 0.000000000000000000e+00 0.000000000000000000e+00 0.000000000000000000e+00
-8.367894352071177932e-01 -2.189637377996272782e+00 -7.659649108653894534e-02 -7.196810286826927916e-01 1.000837768251298596e-03 0.000000000000000000e+00 0.000000000000000000e+00 0.000000000000000000e+00 0.000000000000000000e+00 0.000000000000000000e+00
