-9.539618247330836631e-01 -8.721865313204835157e-01 1.223980096303460552e-01 -1.421148475289848223e+00 -8.967285569853930939e-04 -3.197376190599479640e-01 -1.090875102540374009e+00 -4.251737506467039851e-01 9.489098260550249408e-01 1.475625334403490516e-03
-9.701310882805868063e-01 -9.275839980457764034e-01 1.029834582651456693e-01 -1.369228230153098247e+00 -8.203903026654236997e-04 -3.233852709500619205e-01 -1.107949334505858419e+00 -3.882910273040075522e-01 1.038404902735000856e+00 1.526765086399387234e-03
-9.867257580874899681e-01 -9.836220762853372657e-01 8.481943489814186554e-02 -1.313615091512811306e+00 -7.567343371984641470e-04 -3.318933961380636233e-01 -1.120761564791216580e+00 -3.632804673400759632e-01 1.112262772805736599e+00 1.273119309339190838e-03
-1.004037005954668160e+00 -1.040115758648805677e+00 6.723980146770722199e-02 -1.254980052729778306e+00 -7.138268490825084916e-04 -3.462249573435656758e-01 -1.129873647269368453e+00 -3.515926686086928155e-01 1.172700775660659334e+00 8.581497623191140832e-04
-1.022429873862059413e+00 -1.096902110108593842e+00 4.947391930956095835e-02 -1.193892409401655197e+00 -6.980432283982016895e-04 -3.678573581478232768e-01 -1.135727029195761739e+00 -3.553176431629253007e-01 1.221752866562460849e+00 3.156724136861364764e-04
-1.042378357444448511e+00 -1.153832420636268674e+00 3.059035328285980224e-02 -1.130828568244518495e+00 -7.158787316495959221e-04 -3.989696716477799665e-01 -1.138606210553497089e+00 -3.776713205340230806e-01 1.261276823142733150e+00 -3.567100650278853032e-04
-1.064514539780366587e+00 -1.210761400683216138e+00 9.407373630621034682e-03 -1.066183441462141168e+00 -7.736745612752556761e-04 0.000000000000000000e+00 0.000000000000000000e+00 0.000000000000000000e+00 0.000000000000000000e+00 0.000000000000000000e+00
-1.064514539780366587e+00 -1.210761400683216138e+00 9.407373630621034682e-03 -1.066183441462141168e+00 -7.736745612752556761e-04 0.000000000000000000e+00 0.000000000000000000e+00 0.000000000000000000e+00 0.000000000000000000e+00 0.000000000000000000e+00
-1.064514539780366587e+00 -1.210761400683216138e+00 9.407373630621034682e-03 -1.066183441462141168e+00 -7.736745612752556761e-04 0.000000000000000000e+00 0.000000000000000000e+00 0.000000000000000000e+00 0.000000000000000000e+00 0.000000000000000000e+00
-1.064514539780366587e+00 -1.210761400683216138e+00 9.407373630621034682e-03 -1.066183441462141168e+00 -7.736745612752556761e-04 0.000000000000000000e+00 0.000000000000000000e+00 0.000000000000000000e+00 0.000000000000000000e+00 0.000000000000000000e+00
-1.064514539780366587e+00 -1.210761400683216138e+00 9.407373630621034682e-03 -1.066183441462141168e+00 -7.736745612752556761e-04 0.000000000000000000e+00 0.000000000000000000e+00 0.000000000000000000e+00 0.000000000000000000e+00 0.000000000000000000e+00
-1.064514539780366587e+00 -1.210761400683216138e+00 9.407373630621034682e-03 -1.066183441462141168e+00 -7.736745612752556761e-04 0.000000000000000000e+00 0.000000000000000000e+00 0.000000000000000000e+00 0.000000000000000000e+00 0.000000000000000000e+00
-1.064514539780366587e+00 -1.210761400683216138e+00 9.407373630621034682e-03 -1.066183441462141168e+00 -7.736745612752556761e-04 0.000000000000000000e+00 0.000000000000000000e+00 0.000000000000000000e+00 0.000000000000000000e+00 0.000000000000000000e+00
-1.064514539780366587e+00 -1.210761400683216138e+00 9.407373630621034682e-03 -1.066183441462141168e+00 -7.736745612752556761e-04 0.000000000000000000e+00 0.000000000000000000e+00 0.000000000000000000e+00 0.000000000000000000e+00 0.000000000000000000e+00
-1.064514539780366587e+00 -1.210761400683216138e+00 9.407373630621034682e-03 -1.066183441462141168e+00 -7.736745612752556761e-04 0.000000000000000000e+00 0.000000000000000000e+00 0.000000000000000000e+00 0.000000000000000000e+00 0.000000000000000000e+00
-1.064514539780366587e+00 -1.210761400683216138e+00 9.407373630621034682e-03 -1.066183441462141168e+00 -7.736745612752556761e-04 0.000000000000000000e+00 0.000000000000000000e+00 0.000000000000000000e+00 0.000000000000000000e+00 0.000000000000000000e+00
-1.064514539780366587e+00 -1.210761400683216138e+00 9.407373630621034682e-03 -1.066183441462141168e+00 -7.736745612752556761e-04 0.000000000000000000e+00 0.000000000000000000e+00 0.000000000000000000e+00 0.000000000000000000e+00 0.000000000000000000e+00
-1.064514539780366587e+00 -1.210761400683216138e+00 9.407373630621034682e-03 -1.066183441462141168e+00 -7.736745612752556761e-04 0.000000000000000000e+00 0.000000000000000000e+00 0.000000000000000000e+00 0.000000000000000000e+00 0.000000000000000000e+00
-1.064514539780366587e+00 -1.210761400683216138e+00 9.407373630621034682e-03 -1.066183441462141168e+00 -7.736745612752556761e-04 0.000000000000000000e+00 0.000000000000000000e+00 0.000000000000000000e+00 0.000000000000000000e+00 0.000000000000000000e+00
-1.064514539780366587e+00 -1.210761400683216138e+00 9.407373630621034682e-03 -1.066183441462141168e+00 -7.736745612752556761e-04 0.000000000000000000e+00 0.000000000000000000e+00 0.000000000000000000e+00 0.000000000000000000e+00 0.000000000000000000e+00
-1.064514539780366587e+00 -1.210761400683216138e+00 9.407373630621034682e-03 -1.066183441462141168e+00 -7.736745612752556761e-04 0.000000000000000000e+00 0.000000000000000000e+00 0.000000000000000000e+00 0.000000000000000000e+00 0.000000000000000000e+00
-1.064514539780366587e+00 -1.210761400683216138e+00 9.407373630621034682e-03 -1.066183441462141168e+00 -7.736745612752556761e-04 0.000000000000000000e+00 0.000000000000000000e+00 0.000000000000000000e+00 0.000000000000000000e+00 0.000000000000000000e+00
-1.064514539780366587e+00 -1.210761400683216138e+00 9.407373630621034682e-03 -1.066183441462141168e+00 -7.736745612752556761e-04 0.000000000000000000e+00 0.000000000000000000e+00 0.000000000000000000e+00 0.000000000000000000e+00 0.000000000000000000e+00
-1.064514539780366587e+00 -1.210761400683216138e+00 9.407373630621034682e-03 -1.066183441462141168e+00 -7.736745612752556761e-04 0.000000000000000000e+00 0.000000000000000000e+00 0.000000000000000000e+00 0.000000000000000000e+00 0.000000000000000000e+00
-1.064514539780366587e+00 -1.210761400683216138e+00 9.407373630621034682e-03 -1.066183441462141168e+00 -7.736745612752556761e-04 0.000000000000000000e+00 0.000000000000000000e+00 0.000000000000000000e+00 0.000000000000000000e+00 0.000000000000000000e+00
-1.064514539780366587e+00 -1.210761400683216138e+00 9.407373630621034682e-03 -1.066183441462141168e+00 -7.736745612752556761e-04 0.000000000000000000e+00 0.000000000000000000e+00 0.000000000000000000e+00 0.000000000000000000e+00 0.000000000000000000e+00
-1.064514539780366587e+00 -1.210761400683216138e+00 9.407373630621034682e-03 -1.066183441462141168e+00 -7.736745612752556761e-04 0.000000000000000000e+00 0.000000000000000000e+00 0.000000000000000000e+00 0.000000000000000000e+00 0.000000000000000000e+00
-1.064514539780366587e+00 -1.210761400683216138e+00 9.407373630621034682e-03 -1.066183441462141168e+00 -7.736745612752556761e-04 0.000000000000000000e+00 0.000000000000000000e+00 0.000000000000000000e+00 0.000000000000000000e+00 0.000000000000000000e+00
-1.064514539780366587e+00 -1.210761400683216138e+00 9.407373630621034682e-03 -1.066183441462141168e+00 -7.736745612752556761e-04 0.000000000000000000e+00 0.000000000000000000e+00 0.000000000000000000e+00 0.000000000000000000e+00 0.000000000000000000e+00
-1.064514539780366587e+00 -1.210761400683216138e+00 9.407373630621034682e-03 -1.066183441462141168e+00 -7.736745612752556761e-04 0.000000000000000000e+00 0.000000000000000000e+00 0.000000000000000000e+00 0.000000000000000000e+00 0.000000000000000000e+00
-1.064514539780366587e+00 -1.210761400683216138e+00 9.407373630621034682e-03 -1.066183441462141168e+00 -7.736745612752556761e-04 0.000000000000000000e+00 0.000000000000000000e+00 0.000000000000000000e+00 0.000000000000000000e+00 0.000000000000000000e+00
