-6.841706964369054234e-01 -6.611074384106979500e-03 7.677465288886112793e-01 -1.085848593000050988e+00 3.662429005880982039e-04 -1.635556705677150280e-01 -1.304225864299556059e-02 -1.974945200045471194e-01 -7.074712348629126346e-01 4.143510108545313785e-03
-6.956404899431338773e-01 -8.205739621002022463e-03 7.540000935606605559e-01 -1.135393709330084544e+00 5.718202411735423020e-04 -2.293958701245701892e-01 -3.189330473790086273e-02 -2.749287065590144685e-01 -9.909023266006729003e-01 4.111546811708882178e-03
-7.099009570379490874e-01 -1.111074570899063182e-02 7.367797657808691225e-01 -1.196787277731054866e+00 7.448221135445236285e-04 -2.852093418963036475e-01 -5.810012175977219417e-02 -3.444065555958291669e-01 -1.227871368019408216e+00 3.460037447419625229e-03
-7.264668417244627419e-01 -1.565338867714812995e-02 7.162355058892484472e-01 -1.267679870039229106e+00 8.618493990985373479e-04 -3.313176937302739211e-01 -9.085285936314993482e-02 -4.108851978324130072e-01 -1.417851846163486362e+00 2.340545711080274822e-03
-7.448596065496736474e-01 -2.211706901977944506e-02 6.923179203853406793e-01 -1.345659436147847332e+00 9.041295853484045564e-04 -3.678552965042191647e-01 -1.292736068526263160e-01 -4.783517100781543574e-01 -1.559591322172365402e+00 8.456037249973435196e-04
-7.645965782312988956e-01 -3.074164370232191842e-02 6.648653795248116172e-01 -1.428222059717770609e+00 8.582081199604170950e-04 -3.947394336325056874e-01 -1.724914936508494534e-01 -5.490508172105804663e-01 -1.651252471398465760e+00 -9.184293077597490123e-04
-7.851890347809301618e-01 -4.172069800664352651e-02 6.336988463405004435e-01 -1.512788275404739924e+00 7.196248122839296602e-04 -4.118491309926255450e-01 -2.195810860864321756e-01 -6.233306636862241401e-01 -1.691324313739384078e+00 -2.771666153529747829e-03
-8.061488704103547676e-01 -5.520069917418329863e-02 5.987213917843167144e-01 -1.596758408303567522e+00 4.959099717329789117e-04 -4.191967125884917267e-01 -2.696000233507953592e-01 -6.995490911236755815e-01 -1.679402657976552637e+00 -4.474296811019013234e-03
-8.270043895099110642e-01 -7.128343025072816919e-02 5.600144716633358444e-01 -1.677608759924664739e+00 2.064100028274148133e-04 -4.171103819911263222e-01 -3.216546215308975221e-01 -7.741384024196180658e-01 -1.617007032421942769e+00 -5.789999378111282402e-03
-8.473207525803542195e-01 -9.003414356120069406e-02 5.179214609498103972e-01 -1.753005987172260527e+00 -1.200830623770287220e-04 -4.063272614088632162e-01 -3.750142662094504975e-01 -8.418602142705099434e-01 -1.507944544951914656e+00 -6.529861304088870055e-03
-8.667219203231356639e-01 -1.114929304318134917e-01 4.730961183338920906e-01 -1.820919642626528834e+00 -4.486457245285397689e-04 -3.880233548556289436e-01 -4.291757374122557867e-01 -8.965068523183655769e-01 -1.358273109085366359e+00 -6.571253243030220938e-03
-8.849115702397962746e-01 -1.356842273459955284e-01 4.264976649121224317e-01 -1.879719435364738844e+00 -7.411882414537581841e-04 -3.637929983332113260e-01 -4.838259382836404554e-01 -9.319690684353933996e-01 -1.175995854764200432e+00 -5.850850338504368087e-03
-9.016896324813096220e-01 -1.626191703822471857e-01 3.793219229690735772e-01 -1.928245073460467696e+00 -9.555551417000839260e-04 -3.355612448302665030e-01 -5.386988607250330352e-01 -9.435148388609769787e-01 -9.705127619145765827e-01 -4.287338004926515705e-03
-9.169607712054550497e-01 -1.922876547322174834e-01 3.328740158382088588e-01 -1.965842794329033305e+00 -1.028122656734029158e-03 -3.054227744829078328e-01 -5.933696869994060652e-01 -9.289581426172948131e-01 -7.519544173713101909e-01 -1.451350300678904207e-03
-9.307314841962109897e-01 -2.246419500011751780e-01 2.884076033741135303e-01 -1.992364373784416109e+00 -1.042343141775608443e-03 -2.754142598151196886e-01 -6.470859053791538917e-01 -8.893282492819062357e-01 -5.304315891076554212e-01 -2.844097008315841797e-04
-9.430947001519285333e-01 -2.595787030669234885e-01 2.469707013415199381e-01 -2.008127409019248688e+00 -1.039214816401725196e-03 -2.472643191143502339e-01 -6.987350613149662104e-01 -8.287380406518715104e-01 -3.152607046966526827e-01 6.256650747766612838e-05
-9.542048650882386518e-01 -2.969288126435851716e-01 2.092972459753664471e-01 -2.013836479431538429e+00 -1.031531272162913545e-03 -2.222032987262022585e-01 -7.470021915332334395e-01 -7.534691073230699310e-01 -1.141814082457967006e-01 1.536708847762333551e-04
-9.642495094863876570e-01 -3.364611957514690999e-01 1.757679787932702187e-01 -2.010473028337672829e+00 -1.022911739080800296e-03 -2.008928879629807152e-01 -7.906476621576782327e-01 -6.705853436419244584e-01 6.726902187731320648e-02 1.723906616422670379e-04
-9.734249103413745718e-01 -3.778987847461485750e-01 1.464348985781437351e-01 -1.999175407040312935e+00 -1.013445692766700313e-03 -1.835080170997387405e-01 -8.287517798935899460e-01 -5.866616043025298932e-01 2.259524259471965280e-01 1.893209262820015506e-04
-9.819196877874022400e-01 -4.209420278518449798e-01 1.210884318599640963e-01 -1.981125606658020288e+00 -9.956048062365156770e-04 -1.698955489205538349e-01 -8.608648621139277646e-01 -5.069293343635926652e-01 3.609960076458547107e-01 3.568177306036913110e-04
-9.899074796900788620e-01 -4.652921881654884517e-01 9.933890690636876242e-02 -1.957461035781694614e+00 -9.410353728934001908e-04 -1.597558380535313849e-01 -8.870032062728689937e-01 -4.349904990719067888e-01 4.732914175265131584e-01 1.091388666862309073e-03
-9.975464992940077380e-01 -5.106697446040883159e-01 8.069266040849749910e-02 -1.929217487997640257e+00 -7.956620259168788178e-04 -1.527803920785769931e-01 -9.075511287719963960e-01 -3.729249299574252108e-01 5.648709556810860288e-01 2.907466939530427459e-03
-1.004983319467089187e+00 -5.568261636835103445e-01 6.461136798091923761e-02 -1.897300558453855812e+00 -6.355631186100328331e-04 -1.487364034616278918e-01 -9.231283815884396837e-01 -3.216258485515652854e-01 6.383385908756874505e-01 3.201978146136919261e-03
-1.012358293665669207e+00 -6.035501233635536256e-01 5.055225527457546386e-02 -1.862475424883770492e+00 -4.832032823378894790e-04 -1.474994839715997041e-01 -9.344791936008645106e-01 -2.811822541268754194e-01 6.965026714017075182e-01 3.047196725442866214e-03
-1.019811747020581416e+00 -6.506693472734990102e-01 3.799043099953049174e-02 -1.825368461622251193e+00 -3.455154566593494013e-04 -1.490690670982419697e-01 -9.423844781989083597e-01 -2.512364855008993869e-01 7.421392652303865356e-01 2.753756513570800903e-03
-1.027490764300905912e+00 -6.980488782480428478e-01 2.642616784009827607e-02 -1.786476943830893394e+00 -2.232578961363224633e-04 -1.535803456064902817e-01 -9.475906194908764180e-01 -2.312852631886442856e-01 7.778303558271552065e-01 2.445151210460538328e-03
-1.035556762511660178e+00 -7.455870303072105187e-01 1.538079201343720871e-02 -1.746182414401250549e+00 -1.107982533504102364e-04 -1.613199642150847657e-01 -9.507630411833521977e-01 -2.209075165332213264e-01 8.058905885928556723e-01 2.249192855718244646e-03
-1.044194176656420670e+00 -7.932100028428827887e-01 4.384734232642793425e-03 -1.704765206528054300e+00 1.626709934620878899e-05 -1.727482828952114635e-01 -9.524594507134451771e-01 -2.199211556158882919e-01 8.283441574639238691e-01 2.541307053932380725e-03
-1.053620356062229924e+00 -8.408659380983052323e-01 -7.039057148647909559e-03 -1.662418253538603841e+00 2.556965489236274992e-04 0.000000000000000000e+00 0.000000000000000000e+00 0.000000000000000000e+00 0.000000000000000000e+00 0.000000000000000000e+00
-1.053620356062229924e+00 -8.408659380983052323e-01 -7.039057148647909559e-03 -1.662418253538603841e+00 2.556965489236274992e-04 0.000000000000000000e+00 0.000000000000000000e+00 0.000000000000000000e+00 0.000000000000000000e+00 0.000000000000000000e+00
-1.053620356062229924e+00 -8.408659380983052323e-01 -7.039057148647909559e-03 -1.662418253538603841e+00 2.556965489236274992e-04 0.000000000000000000e+00 0.000000000000000000e+00 0.000000000000000000e+00 0.000000000000000000e+00 0.000000000000000000e+00
