-9.902336940980670521e-01 -1.331252921232121800e+00 -1.264682388607355767e-01 -9.878384431769153817e-01 -3.085907393791013724e-04 -1.472333199827260963e-01 -9.927636085805331412e-01 -3.151477206620807991e-01 1.120644540764605956e+00 1.064468717133943212e-03
-9.980008693698368960e-01 -1.380621303483829276e+00 -1.436767306407587264e-01 -9.315128990118393126e-01 -2.137378183100158624e-04 -1.553435054353975997e-01 -9.873676450341491995e-01 -3.441698356004627146e-01 1.126510883301520938e+00 1.897058421381710202e-03
-1.006624598976402662e+00 -1.429802870309289320e+00 -1.630937282014729706e-01 -8.746836480279078785e-01 9.432738084922081927e-05 0.000000000000000000e+00 0.000000000000000000e+00 0.000000000000000000e+00 0.000000000000000000e+00 0.000000000000000000e+00
-1.006624598976402662e+00 -1.429802870309289320e+00 -1.630937282014729706e-01 -8.746836480279078785e-01 9.432738084922081927e-05 0.000000000000000000e+00 0.000000000000000000e+00 0.000000000000000000e+00 0.000000000000000000e+00 0.000000000000000000e+00
-1.006624598976402662e+00 -1.429802870309289320e+00 -1.630937282014729706e-01 -8.746836480279078785e-01 9.432738084922081927e-05 0.000000000000000000e+00 0.000000000000000000e+00 0.000000000000000000e+00 0.000000000000000000e+00 0.000000000000000000e+00
-1.006624598976402662e+00 -1.429802870309289320e+00 -1.630937282014729706e-01 -8.746836480279078785e-01 9.432738084922081927e-05 0.000000000000000000e+00 0.000000000000000000e+00 0.000000000000000000e+00 0.000000000000000000e+00 0.000000000000000000e+00
-1.006624598976402662e+00 -1.429802870309289320e+00 -1.630937282014729706e-01 -8.746836480279078785e-01 9.432738084922081927e-05 0.000000000000000000e+00 0.000000000000000000e+00 0.000000000000000000e+00 0.000000000000000000e+00 0.000000000000000000e+00
-1.006624598976402662e+00 -1.429802870309289320e+00 -1.630937282014729706e-01 -8.746836480279078785e-01 9.432738084922081927e-05 0.000000000000000000e+00 0.000000000000000000e+00 0.000000000000000000e+00 0.000000000000000000e+00 0.000000000000000000e+00
-1.006624598976402662e+00 -1.429802870309289320e+00 -1.630937282014729706e-01 -8.746836480279078785e-01 9.432738084922081927e-05 0.000000000000000000e+00 0.000000000000000000e+00 0.000000000000000000e+00 0.000000000000000000e+00 0.000000000000000000e+00
-1.006624598976402662e+00 -1.429802870309289320e+00 -1.630937282014729706e-01 -8.746836480279078785e-01 9.432738084922081927e-05 0.000000000000000000e+00 0.000000000000000000e+00 0.000000000000000000e+00 0.000000000000000000e+00 0.000000000000000000e+00
-1.006624598976402662e+00 -1.429802870309289320e+00 -1.630937282014729706e-01 -8.746836480279078785e-01 9.432738084922081927e-05 0.000000000000000000e+00 0.000000000000000000e+00 0.000000000000000000e+00 0.000000000000000000e+00 0.000000000000000000e+00
-1.006624598976402662e+00 -1.429802870309289320e+00 -1.630937282014729706e-01 -8.746836480279078785e-01 9.432738084922081927e-05 0.000000000000000000e+00 0.000000000000000000e+00 0.000000000000000000e+00 0.000000000000000000e+00 0.000000000000000000e+00
-1.006624598976402662e+00 -1.429802870309289320e+00 -1.630937282014729706e-01 -8.746836480279078785e-01 9.432738084922081927e-05 0.000000000000000000e+00 0.000000000000000000e+00 0.000000000000000000e+00 0.000000000000000000e+00 0.000000000000000000e+00
-1.006624598976402662e+00 -1.429802870309289320e+00 -1.630937282014729706e-01 -8.746836480279078785e-01 9.432738084922081927e-05 0.000000000000000000e+00 0.000000000000000000e+00 0.000000000000000000e+00 0.000000000000000000e+00 0.000000000000000000e+00
-1.006624598976402662e+00 -1.429802870309289320e+00 -1.630937282014729706e-01 -8.746836480279078785e-01 9.432738084922081927e-05 0.000000000000000000e+00 0.000000000000000000e+00 0.000000000000000000e+00 0.000000000000000000e+00 0.000000000000000000e+00
-1.006624598976402662e+00 -1.429802870309289320e+00 -1.630937282014729706e-01 -8.746836480279078785e-01 9.432738084922081927e-05 0.000000000000000000e+00 0.000000000000000000e+00 0.000000000000000000e+00 0.000000000000000000e+00 0.000000000000000000e+00
-1.006624598976402662e+00 -1.429802870309289320e+00 -1.630937282014729706e-01 -8.746836480279078785e-01 9.432738084922081927e-05 0.000000000000000000e+00 0.000000000000000000e+00 0.000000000000000000e+00 0.000000000000000000e+00 0.000000000000000000e+00
-1.006624598976402662e+00 -1.429802870309289320e+00 -1.630937282014729706e-01 -8.746836480279078785e-01 9.432738084922081927e-05 0.000000000000000000e+00 0.000000000000000000e+00 0.000000000000000000e+00 0.000000000000000000e+00 0.000000000000000000e+00
-1.006624598976402662e+00 -1.429802870309289320e+00 -1.630937282014729706e-01 -8.746836480279078785e-01 9.432738084922081927e-05 0.000000000000000000e+00 0.000000000000000000e+00 0.000000000000000000e+00 0.000000000000000000e+00 0.000000000000000000e+00
-1.006624598976402662e+00 -1.429802870309289320e+00 -1.630937282014729706e-01 -8.746836480279078785e-01 9.432738084922081927e-05 0.000000000000000000e+00 0.000000000000000000e+00 0.000000000000000000e+00 0.000000000000000000e+00 0.000000000000000000e+00
-1.006624598976402662e+00 -1.429802870309289320e+00 -1.630937282014729706e-01 -8.746836480279078785e-01 9.432738084922081927e-05 0.000000000000000000e+00 0.000000000000000000e+00 0.000000000000000000e+00 0.000000000000000000e+00 0.000000000000000000e+00
-1.006624598976402662e+00 -1.429802870309289320e+00 -1.630937282014729706e-01 -8.746836480279078785e-01 9.432738084922081927e-05 0.000000000000000000e+00 0.000000000000000000e+00 0.000000000000000000e+00 0.000000000000000000e+00 0.000000000000000000e+00
-1.006624598976402662e+00 -1.429802870309289320e+00 -1.630937282014729706e-01 -8.746836480279078785e-01 9.432738084922081927e-05 0.000000000000000000e+00 0.000000000000000000e+00 0.000000000000000000e+00 0.000000000000000000e+00 0.000000000000000000e+00
-1.006624598976402662e+00 -1.429802870309289320e+00 -1.630937282014729706e-01 -8.746836480279078785e-01 9.432738084922081927e-05 0.000000000000000000e+00 0.000000000000000000e+00 0.000000000000000000e+00 0.000000000000000000e+00 0.000000000000000000e+00
-1.006624598976402662e+00 -1.429802870309289320e+00 -1.630937282014729706e-01 -8.746836480279078785e-01 9.432738084922081927e-05 0.000000000000000000e+00 0.000000000000000000e+00 0.000000000000000000e+00 0.000000000000000000e+00 0.000000000000000000e+00
-1.006624598976402662e+00 -1.429802870309289320e+00 -1.630937282014729706e-01 -8.746836480279078785e-01 9.432738084922081927e-05 0.000000000000000000e+00 0.000000000000000000e+00 0.000000000000000000e+00 0.000000000000000000e+00 0.000000000000000000e+00
-1.006624598976402662e+00 -1.429802870309289320e+00 -1.630937282014729706e-01 -8.746836480279078785e-01 9.432738084922081927e-05 0.000000000000000000e+00 0.000000000000000000e+00 0.000000000000000000e+00 0.000000000000000000e+00 0.000000000000000000e+00
-1.006624598976402662e+00 -1.429802870309289320e+00 -1.630937282014729706e-01 -8.746836480279078785e-01 9.432738084922081927e-05 0.000000000000000000e+00 0.000000000000000000e+00 0.000000000000000000e+00 0.000000000000000000e+00 0.000000000000000000e+00
-1.006624598976402662e+00 -1.429802870309289320e+00 -1.630937282014729706e-01 -8.746836480279078785e-01 9.432738084922081927e-05 0.000000000000000000e+00 0.000000000000000000e+00 0.000000000000000000e+00 0.000000000000000000e+00 0.000000000000000000e+00
-1.006624598976402662e+00 -1.429802870309289320e+00 -1.630937282014729706e-01 -8.746836480279078785e-01 9.432738084922081927e-05 0.000000000000000000e+00 0.000000000000000000e+00 0.000000000000000000e+00 0.000000000000000000e+00 0.000000000000000000e+00
-1.006624598976402662e+00 -1.429802870309289320e+00 -1.630937282014729706e-01 -8.746836480279078785e-01 9.432738084922081927e-05 0.000000000000000000e+00 0.000000000000000000e+00 0.000000000000000000e+00 0.000000000000000000e+00 0.000000000000000000e+00
