4.834775089813616589e-01 -2.206380990394441466e-01 1.324790968096953847e-01
4.834775089813616589e-01 -2.206380990394441466e-01 1.324790968096953847e-01
4.834775089813616589e-01 -2.206380990394441466e-01 1.324790968096953847e-01
4.834775089813616589e-01 -2.206380990394441466e-01 1.324790968096953847e-01
4.834775089813616589e-01 -2.206380990394441466e-01 1.324790968096953847e-01
4.834775089813616589e-01 -2.206380990394441466e-01 1.324790968096953847e-01
4.834775089813616589e-01 -2.206380990394441466e-01 1.324790968096953847e-01
4.834775089813616589e-01 -2.206380990394441466e-01 1.324790968096953847e-01
4.834775089813616589e-01 -2.206380990394441466e-01 1.324790968096953847e-01
4.834775089813616589e-01 -2.206380990394441466e-01 1.324790968096953847e-01
4.834775089813616589e-01 -2.206380990394441466e-01 1.324790968096953847e-01
4.834775089813616589e-01 -2.206380990394441466e-01 1.324790968096953847e-01
4.834775089813616589e-01 -2.206380990394441466e-01 1.324790968096953847e-01
4.834775089813616589e-01 -2.206380990394441466e-01 1.324790968096953847e-01
4.834775089813616589e-01 -2.206380990394441466e-01 1.324790968096953847e-01
4.834775089813616589e-01 -2.206380990394441466e-01 1.324790968096953847e-01
4.834775089813616589e-01 -2.206380990394441466e-01 1.324790968096953847e-01
4.834775089813616589e-01 -2.206380990394441466e-01 1.324790968096953847e-01
4.834775089813616589e-01 -2.206380990394441466e-01 1.324790968096953847e-01
4.834775089813616589e-01 -2.206380990394441466e-01 1.324790968096953847e-01
4.834775089813616589e-01 -2.206380990394441466e-01 1.324790968096953847e-01
4.834775089813616589e-01 -2.206380990394441466e-01 1.324790968096953847e-01
4.834775089813616589e-01 -2.206380990394441466e-01 1.324790968096953847e-01
4.834775089813616589e-01 -2.206380990394441466e-01 1.324790968096953847e-01
4.834775089813616589e-01 -2.206380990394441466e-01 1.324790968096953847e-01
4.834775089813616589e-01 -2.206380990394441466e-01 1.324790968096953847e-01
4.834775089813616589e-01 -2.206380990394441466e-01 1.324790968096953847e-01
4.834775089813616589e-01 -2.206380990394441466e-01 1.324790968096953847e-01
4.834775089813616589e-01 -2.206380990394441466e-01 1.324790968096953847e-01
4.834775089813616589e-01 -2.206380990394441466e-01 1.324790968096953847e-01
