-8.298207379744125811e-01 -1.302152089196084273e+00 6.588699193792425801e-02 -1.702105978300482825e+00 2.036507502166669909e-04 -8.956390545149814364e-02 -1.668912660550161409e+00 -3.292472852420577634e-01 1.604241791066293388e+00 4.338431787396563981e-03
-8.340201105531082071e-01 -1.385339641173460201e+00 5.081595832826595049e-02 -1.619752921344244312e+00 4.158440284861924206e-04 -8.398745157391175609e-02 -1.663751039547518795e+00 -3.014206721931662059e-01 1.647061139124769147e+00 4.243865565390509027e-03
-8.376755316429312925e-01 -1.468090233696457414e+00 3.695156001721979638e-02 -1.535637839939530735e+00 6.173816947859528002e-04 -7.310842179646073746e-02 -1.655011850459942924e+00 -2.772879662209230545e-01 1.682301628094273083e+00 4.030753325995207158e-03
-8.405533706820808026e-01 -1.550292214580201389e+00 2.413520308405479181e-02 -1.450035705823843335e+00 7.995565760901732731e-04 -5.755678078298977207e-02 -1.644039617674880827e+00 -2.563271386633000359e-01 1.712042682313748676e+00 3.643497626084410326e-03
-8.425329667765896202e-01 -1.631893308480100613e+00 1.215246649135682394e-02 -1.363129113720263463e+00 9.418667747139938817e-04 -3.959192189017711472e-02 -1.632021877997984260e+00 -2.396547318539593574e-01 1.738131842071597211e+00 2.846203972476412606e-03
-8.436338117286482641e-01 -1.712890828161101275e+00 6.959346966305263171e-04 -1.275016349409755945e+00 9.713889010717886938e-04 -2.201689904117391447e-02 -1.619950393620011475e+00 -2.291306358945259802e-01 1.762255286210149263e+00 5.904425271558975431e-04
-8.439651393097064025e-01 -1.793320409573144980e+00 -1.060299313229106331e-02 -1.185723572992813057e+00 9.252392105941289503e-04 -6.626551621162558511e-03 -1.608591628240873206e+00 -2.259785565784317718e-01 1.785855528338855525e+00 -9.229938095531948702e-04
-8.436460455017871229e-01 -1.873245151937535491e+00 -2.211283559230818596e-02 -1.095223425472864998e+00 8.573624084773376428e-04 6.381876158384891876e-03 -1.598494847287811549e+00 -2.301968492003424738e-01 1.810002950398961863e+00 -1.357536042335827017e-03
-8.427551159575794593e-01 -1.952746412004104259e+00 -3.416540961401012821e-02 -1.003454845288858088e+00 7.863253741623442731e-04 1.781859088415280526e-02 -1.590025201331375815e+00 -2.410514804340389006e-01 1.835371603680136854e+00 -1.420740686299867828e-03
-8.413220121581466149e-01 -2.031916038119605084e+00 -4.705943040649678000e-02 -9.103379150902830563e-01 7.283909359936511672e-04 2.866207598865688072e-02 -1.583392522310020478e+00 -2.578804158497329801e-01 1.862338603971501527e+00 -1.158688763373861251e-03
-8.393412427488149419e-01 -2.110849247063073530e+00 -6.109071112597912884e-02 -8.157811165223718408e-01 7.325753264390649734e-04 3.961538818663336986e-02 -1.578664178869366053e+00 -2.806256143896468935e-01 1.891135971358223866e+00 8.368780890827634024e-05
-8.367894352071177932e-01 -2.189637377996272782e+00 -7.659649108653894534e-02 -7.196810286826927916e-01 1.000837768251298596e-03 0.000000000000000000e+00 0.000000000000000000e+00 0.000000000000000000e+00 0.000000000000000000e+00 0.000000000000000000e+00
-8.367894352071177932e-01 -2.189637377996272782e+00 -7.659649108653894534e-02 -7.196810286826927916e-01 1.000837768251298596e-03 0.000000000000000000e+00 0.000000000000000000e+00 0.000000000000000000e+00 0.000000000000000000e+00 0.000000000000000000e+00
-8.367894352071177932e-01 -2.189637377996272782e+00 -7.659649108653894534e-02 -7.196810286826927916e-01 1.000837768251298596e-03 0.000000000000000000e+00 0.000000000000000000e+00 0.000000000000000000e+00 0.000000000000000000e+00 0.000000000000000000e+00
-8.367894352071177932e-01 -2.189637377996272782e+00 -7.659649108653894534e-02 -7.196810286826927916e-01 1.000837768251298596e-03 0.000000000000000000e+00 0.000000000000000000e+00 0.000000000000000000e+00 0.000000000000000000e+00 0.000000000000000000e+00
-8.367894352071177932e-01 -2.189637377996272782e+00 -7.659649108653894534e-02 -7.196810286826927916e-01 1.000837768251298596e-03 0.000000000000000000e+00 0.000000000000000000e+00 0.000000000000000000e+00 0.000000000000000000e+00 0.000000000000000000e+00
-8.367894352071177932e-01 -2.189637377996272782e+00 -7.659649108653894534e-02 -7.196810286826927916e-01 1.000837768251298596e-03 0.000000000000000000e+00 0.000000000000000000e+00 0.000000000000000000e+00 0.000000000000000000e+00 0.000000000000000000e+00
-8.367894352071177932e-01 -2.189637377996272782e+00 -7.659649108653894534e-02 -7.196810286826927916e-01 1.000837768251298596e-03 0.000000000000000000e+00 0.000000000000000000e+00 0.000000000000000000e+00 0.000000000000000000e+00 0.000000000000000000e+00
-8.367894352071177932e-01 -2.189637377996272782e+00 -7.659649108653894534e-02 -7.196810286826927916e-01 1.000837768251298596e-03 0.000000000000000000e+00 0.000000000000000000e+00 0.000000000000000000e+00 0.000000000000000000e+00 0.000000000000000000e+00
-8.367894352071177932e-01 -2.189637377996272782e+00 -7.659649108653894534e-02 -7.196810286826927916e-01 1.000837768251298596e-03 0.000000000000000000e+00 0.000000000000000000e+00 0.000000000000000000e+00 0.000000000000000000e+00 0.000000000000000000e+00
-8.367894352071177932e-01 -2.189637377996272782e+00 -7.659649108653894534e-02 -7.196810286826927916e-01 1.000837768251298596e-03 0.000000000000000000e+00 0.000000000000000000e+00 0.000000000000000000e+00 0.000000000000000000e+00 0.000000000000000000e+00
-8.367894352071177932e-01 -2.189637377996272782e+00 -7.659649108653894534e-02 -7.196810286826927916e-01 1.000837768251298596e-03 0.000000000000000000e+00 0.000000000000000000e+00 0.000000000000000000e+00 0.000000000000000000e+00 0.000000000000000000e+00
-8.367894352071177932e-01 -2.189637377996272782e+00 -7.659649108653894534e-02 -7.196810286826927916e-01 1.000837768251298596e-03 0.000000000000000000e+00 0.000000000000000000e+00 0.000000000000000000e+00 0.000000000000000000e+00 0.000000000000000000e+00
-8.367894352071177932e-01 -2.189637377996272782e+00 -7.659649108653894534e-02 -7.196810286826927916e-01 1.000837768251298596e-03 0.000000000000000000e+00 0.000000000000000000e+00 0.000000000000000000e+00 0.000000000000000000e+00 0.000000000000000000e+00
-8.367894352071177932e-01 -2.189637377996272782e+00 -7.659649108653894534e-02 -7.196810286826927916e-01 1.000837768251298596e-03 0.000000000000000000e+00 0.000000000000000000e+00 0.000000000000000000e+00 0.000000000000000000e+00 0.000000000000000000e+00
-8.367894352071177932e-01 -2.189637377996272782e+00 -7.659649108653894534e-02 -7.196810286826927916e-01 1.000837768251298596e-03 0.000000000000000000e+00 0.000000000000000000e+00 0.000000000000000000e+00 0.000000000000000000e+00 0.000000000000000000e+00
-8.367894352071177932e-01 -2.189637377996272782e+00 -7.659649108653894534e-02 -7.196810286826927916e-01 1.000837768251298596e-03 0.000000000000000000e+00 0.000000000000000000e+00 0.000000000000000000e+00 0.000000000000000000e+00 0.000000000000000000e+00
-8.367894352071177932e-01 -2.189637377996272782e+00 -7.659649108653894534e-02 -7.196810286826927916e-01 1.000837768251298596e-03 0.000000000000000000e+00 0.000000000000000000e+00 0.000000000000000000e+00 0.000000000000000000e+00 0.000000000000000000e+00
-8.367894352071177932e-01 -2.189637377996272782e+00 -7.659649108653894534e-02 -7.196810286826927916e-01 1.000837768251298596e-03 0.000000000000000000e+00 0.000000000000000000e+00 0.000000000000000000e+00 0.000000000000000000e+00 0.000000000000000000e+00
-8.367894352071177932e-01 -2.189637377996272782e+00 -7.659649108653894534e-02 -7.196810286826927916e-01 1.000837768251298596e-03 0.000000000000000000e+00 0.000000000000000000e+00 0.000000000000000000e+00 0.000000000000000000e+00 0.000000000000000000e+00
-8.367894352071177932e-01 -2.189637377996272782e+00 -7.659649108653894534e-02 -7.196810286826927916e-01 1.000837768251298596e-03 0.000000000000000000e+00 0.000000000000000000e+00 0.000000000000000000e+00 0.000000000000000000e+00 0.000000000000000000e+00
