-7.846545715793971087e-01 -4.029400057534394258e-02 3.220769769216454970e-01 -1.560024499041728463e+00 -4.214441678295323748e-05 -7.140841982987511383e-01 -9.148773647413438459e-01 -8.054221402561296816e-01 -1.488836917448038033e+00 -7.035683219108039045e-03
-8.206241091604422611e-01 -9.051821559044045951e-02 2.765100930985789907e-01 -1.622959152514570125e+00 -3.864973450339234933e-04 -7.193907516209036013e-01 -1.004484300301930144e+00 -9.113376764613299041e-01 -1.258693069456834346e+00 -6.887058565019405117e-03
-8.567328142593375606e-01 -1.449384941487343870e-01 2.265655960743714337e-01 -1.672948163143322953e+00 -6.828856859753265011e-04 -7.221741019779051030e-01 -1.088405571165878216e+00 -9.988899404841506957e-01 -9.997802125750545610e-01 -5.927766818828059288e-03
-8.929620989120684582e-01 -2.032745102405604798e-01 1.734886974959521100e-01 -1.708953861735197588e+00 -8.978496968123978643e-04 -7.245856930546168417e-01 -1.166720321836522078e+00 -1.061537971568386363e+00 -7.201139718374910403e-01 -4.299280216741425964e-03
-9.294057520748691958e-01 -2.652464354589582629e-01 1.186749308506975520e-01 -1.730376049200202937e+00 -1.013066339565840690e-03 -7.288730632560144196e-01 -1.239438504367955662e+00 -1.096275332905091160e+00 -4.284437493001063690e-01 -2.304332855068858248e-03
-9.662676616781887828e-01 -3.305582031214902017e-01 6.345931791561162938e-02 -1.737070519026866711e+00 -1.045375504125019587e-03 -7.372381920663919619e-01 -1.306235353250638997e+00 -1.104312258701718674e+00 -1.338893965332748626e-01 -6.461832911835796792e-04
-1.003851670290096587e+00 -3.988760272378825134e-01 8.915556584977828158e-03 -1.729340987398987117e+00 -1.043014725026162898e-03 -7.516801722381546425e-01 -1.366356482327846900e+00 -1.090875226612675997e+00 1.545906325575936435e-01 4.721558197713464355e-05
-1.042546974136349558e+00 -4.698094451468780020e-01 -4.429451634841933411e-02 -1.707911169085570169e+00 -1.013189746074905258e-03 -7.739060769250599714e-01 -1.418668358179909328e+00 -1.064201458667943356e+00 4.285963662683399678e-01 5.964995790251527040e-04
-1.082815278374525736e+00 -5.428995133210616775e-01 -9.600354755859127898e-02 -1.673886100872647109e+00 -9.289241916735378529e-04 -8.053660847635223385e-01 -1.461801363483674621e+00 -1.034180624203438814e+00 6.805013642584597511e-01 1.685311088027348532e-03
-1.125180562707535303e+00 -6.176235408315202680e-01 -1.465404326242195632e-01 -1.628677279677072542e+00 -7.885443081436361136e-04 -8.473056866601893500e-01 -1.494480550209172032e+00 -1.010737701312565573e+00 9.041764239114904456e-01 2.807597670598033918e-03
-1.170219963703219568e+00 -6.934294694954964422e-01 -1.966655476864013763e-01 -1.573821049282214224e+00 -6.126052132263911949e-04 -9.007880199136840682e-01 -1.516118573279523707e+00 -1.002502301243636040e+00 1.097124607897167703e+00 3.518781898344899243e-03
-1.218567041839837994e+00 -7.697624601346491069e-01 -2.474948822382914693e-01 -1.510856623921119635e+00 -4.231688270796151070e-04 -9.669415627323677542e-01 -1.526659812783052184e+00 -1.016586691037801859e+00 1.259288507221889786e+00 3.788727722935520889e-03
-1.270922701733048887e+00 -8.460808796383163521e-01 -3.004459032636910276e-01 -1.441259999846166595e+00 -2.389315589907173006e-04 -1.047113197864217193e+00 -1.526368390073345571e+00 -1.059020420507991611e+00 1.391932481499061680e+00 3.684745361777955804e-03
-1.328069912255152696e+00 -9.218620788676918920e-01 -3.572216624294786702e-01 -1.366424697971942326e+00 -7.521520506616880247e-05 -1.142944210442076836e+00 -1.515623984587510797e+00 -1.135515183315752408e+00 1.496706037484485385e+00 3.274327078490969420e-03
-1.390890420998303290e+00 -9.966007592387868819e-01 -4.198376664952607196e-01 -1.287679159527143513e+00 5.503002322725916631e-05 -1.256410174863012541e+00 -1.494773607421900019e+00 -1.252320081315641209e+00 1.574910768895975366e+00 2.604904565868559375e-03
-1.460385023949675842e+00 -1.069804479200202163e+00 -4.906907073463665503e-01 -1.206331765764860009e+00 1.429709298007901758e-04 -1.389892059027451943e+00 -1.464074399228303625e+00 -1.417060817022116836e+00 1.626947875245667863e+00 1.758818131470620081e-03
-1.537705306113811954e+00 -1.140992682817645765e+00 -5.726701346416341876e-01 -1.123735463443784832e+00 1.992256814391542405e-04 -1.546405643282722231e+00 -1.423764072348869814e+00 -1.639588545905353634e+00 1.651926046421502425e+00 1.125095032767281077e-03
-1.624217044003597676e+00 -1.209708328512643760e+00 -6.693211087480941401e-01 -1.041363320813725180e+00 3.243199268265810819e-04 -1.730234757795716005e+00 -1.374312913899959021e+00 -1.933019482129198385e+00 1.647442852601193941e+00 2.501884907748536287e-03
-1.721636131232967548e+00 -1.275555409900865911e+00 -7.850908637520002120e-01 -9.608854491577829560e-01 1.000205350001797614e-03 0.000000000000000000e+00 0.000000000000000000e+00 0.000000000000000000e+00 0.000000000000000000e+00 0.000000000000000000e+00
-1.721636131232967548e+00 -1.275555409900865911e+00 -7.850908637520002120e-01 -9.608854491577829560e-01 1.000205350001797614e-03 0.000000000000000000e+00 0.000000000000000000e+00 0.000000000000000000e+00 0.000000000000000000e+00 0.000000000000000000e+00
-1.721636131232967548e+00 -1.275555409900865911e+00 -7.850908637520002120e-01 -9.608854491577829560e-01 1.000205350001797614e-03 0.000000000000000000e+00 0.000000000000000000e+00 0.000000000000000000e+00 0.000000000000000000e+00 0.000000000000000000e+00
-1.721636131232967548e+00 -1.275555409900865911e+00 -7.850908637520002120e-01 -9.608854491577829560e-01 1.000205350001797614e-03 0.000000000000000000e+00 0.000000000000000000e+00 0.000000000000000000e+00 0.000000000000000000e+00 0.000000000000000000e+00
-1.721636131232967548e+00 -1.275555409900865911e+00 -7.850908637520002120e-01 -9.608854491577829560e-01 1.000205350001797614e-03 0.000000000000000000e+00 0.000000000000000000e+00 0.000000000000000000e+00 0.000000000000000000e+00 0.000000000000000000e+00
-1.721636131232967548e+00 -1.275555409900865911e+00 -7.850908637520002120e-01 -9.608854491577829560e-01 1.000205350001797614e-03 0.000000000000000000e+00 0.000000000000000000e+00 0.000000000000000000e+00 0.000000000000000000e+00 0.000000000000000000e+00
-1.721636131232967548e+00 -1.275555409900865911e+00 -7.850908637520002120e-01 -9.608854491577829560e-01 1.000205350001797614e-03 0.000000000000000000e+00 0.000000000000000000e+00 0.000000000000000000e+00 0.000000000000000000e+00 0.000000000000000000e+00
-1.721636131232967548e+00 -1.275555409900865911e+00 -7.850908637520002120e-01 -9.608854491577829560e-01 1.000205350001797614e-03 0.000000000000000000e+00 0.000000000000000000e+00 0.000000000000000000e+00 0.000000000000000000e+00 0.000000000000000000e+00
-1.721636131232967548e+00 -1.275555409900865911e+00 -7.850908637520002120e-01 -9.608854491577829560e-01 1.000205350001797614e-03 0.000000000000000000e+00 0.000000000000000000e+00 0.000000000000000000e+00 0.000000000000000000e+00 0.000000000000000000e+00
-1.721636131232967548e+00 -1.275555409900865911e+00 -7.850908637520002120e-01 -9.608854491577829560e-01 1.000205350001797614e-03 0.000000000000000000e+00 0.000000000000000000e+00 0.000000000000000000e+00 0.000000000000000000e+00 0.000000000000000000e+00
-1.721636131232967548e+00 -1.275555409900865911e+00 -7.850908637520002120e-01 -9.608854491577829560e-01 1.000205350001797614e-03 0.000000000000000000e+00 0.000000000000000000e+00 0.000000000000000000e+00 0.000000000000000000e+00 0.000000000000000000e+00
-1.721636131232967548e+00 -1.275555409900865911e+00 -7.850908637520002120e-01 -9.608854491577829560e-01 1.000205350001797614e-03 0.000000000000000000e+00 0.000000000000000000e+00 0.000000000000000000e+00 0.000000000000000000e+00 0.000000000000000000e+00
-1.721636131232967548e+00 -1.275555409900865911e+00 -7.850908637520002120e-01 -9.608854491577829560e-01 1.000205350001797614e-03 0.000000000000000000e+00 0.000000000000000000e+00 0.000000000000000000e+00 0.000000000000000000e+00 0.000000000000000000e+00
