-1.494689578539784236e+00 -7.041275734989052015e-01 -3.047172578421401129e-02 -4.499933741887020555e-01 -3.355809824484864783e-04 -1.184377475796774437e+00 -8.390537136769565807e-01 -2.033428475039417149e-01 1.010314177941113334e+00 -2.950913705548597298e-03
-1.556405794784585295e+00 -7.453120222993884214e-01 -4.067699557881418460e-02 -3.978499666493097164e-01 -5.553984853922884534e-04 -1.234324324896020286e+00 -8.236889760096646196e-01 -2.041053958920034939e-01 1.042868150787847004e+00 -4.396350058876039718e-03
-1.620719106913715457e+00 -7.853750125383782699e-01 -5.172893737793553270e-02 -3.445212207151328032e-01 -1.001325576106952032e-03 0.000000000000000000e+00 0.000000000000000000e+00 0.000000000000000000e+00 0.000000000000000000e+00 0.000000000000000000e+00
-1.620719106913715457e+00 -7.853750125383782699e-01 -5.172893737793553270e-02 -3.445212207151328032e-01 -1.001325576106952032e-03 0.000000000000000000e+00 0.000000000000000000e+00 0.000000000000000000e+00 0.000000000000000000e+00 0.000000000000000000e+00
-1.620719106913715457e+00 -7.853750125383782699e-01 -5.172893737793553270e-02 -3.445212207151328032e-01 -1.001325576106952032e-03 0.000000000000000000e+00 0.000000000000000000e+00 0.000000000000000000e+00 0.000000000000000000e+00 0.000000000000000000e+00
-1.620719106913715457e+00 -7.853750125383782699e-01 -5.172893737793553270e-02 -3.445212207151328032e-01 -1.001325576106952032e-03 0.000000000000000000e+00 0.000000000000000000e+00 0.000000000000000000e+00 0.000000000000000000e+00 0.000000000000000000e+00
-1.620719106913715457e+00 -7.853750125383782699e-01 -5.172893737793553270e-02 -3.445212207151328032e-01 -1.001325576106952032e-03 0.000000000000000000e+00 0.000000000000000000e+00 0.000000000000000000e+00 0.000000000000000000e+00 0.000000000000000000e+00
-1.620719106913715457e+00 -7.853750125383782699e-01 -5.172893737793553270e-02 -3.445212207151328032e-01 -1.001325576106952032e-03 0.000000000000000000e+00 0.000000000000000000e+00 0.000000000000000000e+00 0.000000000000000000e+00 0.000000000000000000e+00
-1.620719106913715457e+00 -7.853750125383782699e-01 -5.172893737793553270e-02 -3.445212207151328032e-01 -1.001325576106952032e-03 0.000000000000000000e+00 0.000000000000000000e+00 0.000000000000000000e+00 0.000000000000000000e+00 0.000000000000000000e+00
-1.620719106913715457e+00 -7.853750125383782699e-01 -5.172893737793553270e-02 -3.445212207151328032e-01 -1.001325576106952032e-03 0.000000000000000000e+00 0.000000000000000000e+00 0.000000000000000000e+00 0.000000000000000000e+00 0.000000000000000000e+00
-1.620719106913715457e+00 -7.853750125383782699e-01 -5.172893737793553270e-02 -3.445212207151328032e-01 -1.001325576106952032e-03 0.000000000000000000e+00 0.000000000000000000e+00 0.000000000000000000e+00 0.000000000000000000e+00 0.000000000000000000e+00
-1.620719106913715457e+00 -7.853750125383782699e-01 -5.172893737793553270e-02 -3.445212207151328032e-01 -1.001325576106952032e-03 0.000000000000000000e+00 0.000000000000000000e+00 0.000000000000000000e+00 0.000000000000000000e+00 0.000000000000000000e+00
-1.620719106913715457e+00 -7.853750125383782699e-01 -5.172893737793553270e-02 -3.445212207151328032e-01 -1.001325576106952032e-03 0.000000000000000000e+00 0.000000000000000000e+00 0.000000000000000000e+00 0.000000000000000000e+00 0.000000000000000000e+00
-1.620719106913715457e+00 -7.853750125383782699e-01 -5.172893737793553270e-02 -3.445212207151328032e-01 -1.001325576106952032e-03 0.000000000000000000e+00 0.000000000000000000e+00 0.000000000000000000e+00 0.000000000000000000e+00 0.000000000000000000e+00
-1.620719106913715457e+00 -7.853750125383782699e-01 -5.172893737793553270e-02 -3.445212207151328032e-01 -1.001325576106952032e-03 0.000000000000000000e+00 0.000000000000000000e+00 0.000000000000000000e+00 0.000000000000000000e+00 0.000000000000000000e+00
-1.620719106913715457e+00 -7.853750125383782699e-01 -5.172893737793553270e-02 -3.445212207151328032e-01 -1.001325576106952032e-03 0.000000000000000000e+00 0.000000000000000000e+00 0.000000000000000000e+00 0.000000000000000000e+00 0.000000000000000000e+00
-1.620719106913715457e+00 -7.853750125383782699e-01 -5.172893737793553270e-02 -3.445212207151328032e-01 -1.001325576106952032e-03 0.000000000000000000e+00 0.000000000000000000e+00 0.000000000000000000e+00 0.000000000000000000e+00 0.000000000000000000e+00
-1.620719106913715457e+00 -7.853750125383782699e-01 -5.172893737793553270e-02 -3.445212207151328032e-01 -1.001325576106952032e-03 0.000000000000000000e+00 0.000000000000000000e+00 0.000000000000000000e+00 0.000000000000000000e+00 0.000000000000000000e+00
-1.620719106913715457e+00 -7.853750125383782699e-01 -5.172893737793553270e-02 -3.445212207151328032e-01 -1.001325576106952032e-03 0.000000000000000000e+00 0.000000000000000000e+00 0.000000000000000000e+00 0.000000000000000000e+00 0.000000000000000000e+00
-1.620719106913715457e+00 -7.853750125383782699e-01 -5.172893737793553270e-02 -3.445212207151328032e-01 -1.001325576106952032e-03 0.000000000000000000e+00 0.000000000000000000e+00 0.000000000000000000e+00 0.000000000000000000e+00 0.000000000000000000e+00
-1.620719106913715457e+00 -7.853750125383782699e-01 -5.172893737793553270e-02 -3.445212207151328032e-01 -1.001325576106952032e-03 0.000000000000000000e+00 0.000000000000000000e+00 0.000000000000000000e+00 0.000000000000000000e+00 0.000000000000000000e+00
-1.620719106913715457e+00 -7.853750125383782699e-01 -5.172893737793553270e-02 -3.445212207151328032e-01 -1.001325576106952032e-03 0.000000000000000000e+00 0.000000000000000000e+00 0.000000000000000000e+00 0.000000000000000000e+00 0.000000000000000000e+00
-1.620719106913715457e+00 -7.853750125383782699e-01 -5.172893737793553270e-02 -3.445212207151328032e-01 -1.001325576106952032e-03 0.000000000000000000e+00 0.000000000000000000e+00 0.000000000000000000e+00 0.000000000000000000e+00 0.000000000000000000e+00
-1.620719106913715457e+00 -7.853750125383782699e-01 -5.172893737793553270e-02 -3.445212207151328032e-01 -1.001325576106952032e-03 0.000000000000000000e+00 0.000000000000000000e+00 0.000000000000000000e+00 0.000000000000000000e+00 0.000000000000000000e+00
-1.620719106913715457e+00 -7.853750125383782699e-01 -5.172893737793553270e-02 -3.445212207151328032e-01 -1.001325576106952032e-03 0.000000000000000000e+00 0.000000000000000000e+00 0.000000000000000000e+00 0.000000000000000000e+00 0.000000000000000000e+00
-1.620719106913715457e+00 -7.853750125383782699e-01 -5.172893737793553270e-02 -3.445212207151328032e-01 -1.001325576106952032e-03 0.000000000000000000e+00 0.000000000000000000e+00 0.000000000000000000e+00 0.000000000000000000e+00 0.000000000000000000e+00
-1.620719106913715457e+00 -7.853750125383782699e-01 -5.172893737793553270e-02 -3.445212207151328032e-01 -1.001325576106952032e-03 0.000000000000000000e+00 0.000000000000000000e+00 0.000000000000000000e+00 0.000000000000000000e+00 0.000000000000000000e+00
-1.620719106913715457e+00 -7.853750125383782699e-01 -5.172893737793553270e-02 -3.445212207151328032e-01 -1.001325576106952032e-03 0.000000000000000000e+00 0.000000000000000000e+00 0.000000000000000000e+00 0.000000000000000000e+00 0.000000000000000000e+00
-1.620719106913715457e+00 -7.853750125383782699e-01 -5.172893737793553270e-02 -3.445212207151328032e-01 -1.001325576106952032e-03 0.000000000000000000e+00 0.000000000000000000e+00 0.000000000000000000e+00 0.000000000000000000e+00 0.000000000000000000e+00
-1.620719106913715457e+00 -7.853750125383782699e-01 -5.172893737793553270e-02 -3.445212207151328032e-01 -1.001325576106952032e-03 0.000000000000000000e+00 0.000000000000000000e+00 0.000000000000000000e+00 0.000000000000000000e+00 0.000000000000000000e+00
-1.620719106913715457e+00 -7.853750125383782699e-01 -5.172893737793553270e-02 -3.445212207151328032e-01 -1.001325576106952032e-03 0.000000000000000000e+00 0.000000000000000000e+00 0.000000000000000000e+00 0.000000000000000000e+00 0.000000000000000000e+00
