-1.474670040536390392e+00 -5.617831040382541552e-01 -4.939260942069760296e-01 -9.809909775287591893e-01 -6.128982266883530516e-04 -7.372935988763659187e-01 -5.013080574916890519e-01 -1.417951005590793179e-01 8.586175725193964103e-01 -1.026264590669293464e-03
-1.512411691265815428e+00 -5.863378809185072482e-01 -5.013027813020202172e-01 -9.382037308182380464e-01 -7.409211849691798007e-04 0.000000000000000000e+00 0.000000000000000000e+00 0.000000000000000000e+00 0.000000000000000000e+00 0.000000000000000000e+00
-1.512411691265815428e+00 -5.863378809185072482e-01 -5.013027813020202172e-01 -9.382037308182380464e-01 -7.409211849691798007e-04 0.000000000000000000e+00 0.000000000000000000e+00 0.000000000000000000e+00 0.000000000000000000e+00 0.000000000000000000e+00
-1.512411691265815428e+00 -5.863378809185072482e-01 -5.013027813020202172e-01 -9.382037308182380464e-01 -7.409211849691798007e-04 0.000000000000000000e+00 0.000000000000000000e+00 0.000000000000000000e+00 0.000000000000000000e+00 0.000000000000000000e+00
-1.512411691265815428e+00 -5.863378809185072482e-01 -5.013027813020202172e-01 -9.382037308182380464e-01 -7.409211849691798007e-04 0.000000000000000000e+00 0.000000000000000000e+00 0.000000000000000000e+00 0.000000000000000000e+00 0.000000000000000000e+00
-1.512411691265815428e+00 -5.863378809185072482e-01 -5.013027813020202172e-01 -9.382037308182380464e-01 -7.409211849691798007e-04 0.000000000000000000e+00 0.000000000000000000e+00 0.000000000000000000e+00 0.000000000000000000e+00 0.000000000000000000e+00
-1.512411691265815428e+00 -5.863378809185072482e-01 -5.013027813020202172e-01 -9.382037308182380464e-01 -7.409211849691798007e-04 0.000000000000000000e+00 0.000000000000000000e+00 0.000000000000000000e+00 0.000000000000000000e+00 0.000000000000000000e+00
-1.512411691265815428e+00 -5.863378809185072482e-01 -5.013027813020202172e-01 -9.382037308182380464e-01 -7.409211849691798007e-04 0.000000000000000000e+00 0.000000000000000000e+00 0.000000000000000000e+00 0.000000000000000000e+00 0.000000000000000000e+00
-1.512411691265815428e+00 -5.863378809185072482e-01 -5.013027813020202172e-01 -9.382037308182380464e-01 -7.409211849691798007e-04 0.000000000000000000e+00 0.000000000000000000e+00 0.000000000000000000e+00 0.000000000000000000e+00 0.000000000000000000e+00
-1.512411691265815428e+00 -5.863378809185072482e-01 -5.013027813020202172e-01 -9.382037308182380464e-01 -7.409211849691798007e-04 0.000000000000000000e+00 0.000000000000000000e+00 0.000000000000000000e+00 0.000000000000000000e+00 0.000000000000000000e+00
-1.512411691265815428e+00 -5.863378809185072482e-01 -5.013027813020202172e-01 -9.382037308182380464e-01 -7.409211849691798007e-04 0.000000000000000000e+00 0.000000000000000000e+00 0.000000000000000000e+00 0.000000000000000000e+00 0.000000000000000000e+00
-1.512411691265815428e+00 -5.863378809185072482e-01 -5.013027813020202172e-01 -9.382037308182380464e-01 -7.409211849691798007e-04 0.000000000000000000e+00 0.000000000000000000e+00 0.000000000000000000e+00 0.000000000000000000e+00 0.000000000000000000e+00
-1.512411691265815428e+00 -5.863378809185072482e-01 -5.013027813020202172e-01 -9.382037308182380464e-01 -7.409211849691798007e-04 0.000000000000000000e+00 0.000000000000000000e+00 0.000000000000000000e+00 0.000000000000000000e+00 0.000000000000000000e+00
-1.512411691265815428e+00 -5.863378809185072482e-01 -5.013027813020202172e-01 -9.382037308182380464e-01 -7.409211849691798007e-04 0.000000000000000000e+00 0.000000000000000000e+00 0.000000000000000000e+00 0.000000000000000000e+00 0.000000000000000000e+00
-1.512411691265815428e+00 -5.863378809185072482e-01 -5.013027813020202172e-01 -9.382037308182380464e-01 -7.409211849691798007e-04 0.000000000000000000e+00 0.000000000000000000e+00 0.000000000000000000e+00 0.000000000000000000e+00 0.000000000000000000e+00
-1.512411691265815428e+00 -5.863378809185072482e-01 -5.013027813020202172e-01 -9.382037308182380464e-01 -7.409211849691798007e-04 0.000000000000000000e+00 0.000000000000000000e+00 0.000000000000000000e+00 0.000000000000000000e+00 0.000000000000000000e+00
-1.512411691265815428e+00 -5.863378809185072482e-01 -5.013027813020202172e-01 -9.382037308182380464e-01 -7.409211849691798007e-04 0.000000000000000000e+00 0.000000000000000000e+00 0.000000000000000000e+00 0.000000000000000000e+00 0.000000000000000000e+00
-1.512411691265815428e+00 -5.863378809185072482e-01 -5.013027813020202172e-01 -9.382037308182380464e-01 -7.409211849691798007e-04 0.000000000000000000e+00 0.000000000000000000e+00 0.000000000000000000e+00 0.000000000000000000e+00 0.000000000000000000e+00
-1.512411691265815428e+00 -5.863378809185072482e-01 -5.013027813020202172e-01 -9.382037308182380464e-01 -7.409211849691798007e-04 0.000000000000000000e+00 0.000000000000000000e+00 0.000000000000000000e+00 0.000000000000000000e+00 0.000000000000000000e+00
-1.512411691265815428e+00 -5.863378809185072482e-01 -5.013027813020202172e-01 -9.382037308182380464e-01 -7.409211849691798007e-04 0.000000000000000000e+00 0.000000000000000000e+00 0.000000000000000000e+00 0.000000000000000000e+00 0.000000000000000000e+00
-1.512411691265815428e+00 -5.863378809185072482e-01 -5.013027813020202172e-01 -9.382037308182380464e-01 -7.409211849691798007e-04 0.000000000000000000e+00 0.000000000000000000e+00 0.000000000000000000e+00 0.000000000000000000e+00 0.000000000000000000e+00
-1.512411691265815428e+00 -5.863378809185072482e-01 -5.013027813020202172e-01 -9.382037308182380464e-01 -7.409211849691798007e-04 0.000000000000000000e+00 0.000000000000000000e+00 0.000000000000000000e+00 0.000000000000000000e+00 0.000000000000000000e+00
-1.512411691265815428e+00 -5.863378809185072482e-01 -5.013027813020202172e-01 -9.382037308182380464e-01 -7.409211849691798007e-04 0.000000000000000000e+00 0.000000000000000000e+00 0.000000000000000000e+00 0.000000000000000000e+00 0.000000000000000000e+00
-1.512411691265815428e+00 -5.863378809185072482e-01 -5.013027813020202172e-01 -9.382037308182380464e-01 -7.409211849691798007e-04 0.000000000000000000e+00 0.000000000000000000e+00 0.000000000000000000e+00 0.000000000000000000e+00 0.000000000000000000e+00
-1.512411691265815428e+00 -5.863378809185072482e-01 -5.013027813020202172e-01 -9.382037308182380464e-01 -7.409211849691798007e-04 0.000000000000000000e+00 0.000000000000000000e+00 0.000000000000000000e+00 0.000000000000000000e+00 0.000000000000000000e+00
-1.512411691265815428e+00 -5.863378809185072482e-01 -5.013027813020202172e-01 -9.382037308182380464e-01 -7.409211849691798007e-04 0.000000000000000000e+00 0.000000000000000000e+00 0.000000000000000000e+00 0.000000000000000000e+00 0.000000000000000000e+00
-1.512411691265815428e+00 -5.863378809185072482e-01 -5.013027813020202172e-01 -9.382037308182380464e-01 -7.409211849691798007e-04 0.000000000000000000e+00 0.000000000000000000e+00 0.000000000000000000e+00 0.000000000000000000e+00 0.000000000000000000e+00
-1.512411691265815428e+00 -5.863378809185072482e-01 -5.013027813020202172e-01 -9.382037308182380464e-01 -7.409211849691798007e-04 0.000000000000000000e+00 0.000000000000000000e+00 0.000000000000000000e+00 0.000000000000000000e+00 0.000000000000000000e+00
-1.512411691265815428e+00 -5.863378809185072482e-01 -5.013027813020202172e-01 -9.382037308182380464e-01 -7.409211849691798007e-04 0.000000000000000000e+00 0.000000000000000000e+00 0.000000000000000000e+00 0.000000000000000000e+00 0.000000000000000000e+00
-1.512411691265815428e+00 -5.863378809185072482e-01 -5.013027813020202172e-01 -9.382037308182380464e-01 -7.409211849691798007e-04 0.000000000000000000e+00 0.000000000000000000e+00 0.000000000000000000e+00 0.000000000000000000e+00 0.000000000000000000e+00
-1.512411691265815428e+00 -5.863378809185072482e-01 -5.013027813020202172e-01 -9.382037308182380464e-01 -7.409211849691798007e-04 0.000000000000000000e+00 0.000000000000000000e+00 0.000000000000000000e+00 0.000000000000000000e+00 0.000000000000000000e+00
