-6.283953060317991612e-01 -2.048548850030708635e-01 6.795267704621177351e-01 -1.457258844638743112e+00 -2.403052926672830244e-05 -5.836745109606523291e-02 -7.215633919580669020e-02 -1.422351753823578313e-01 -2.458727354350787042e-01 -4.806105853345659946e-04
-6.336510958760813716e-01 -2.122612442554682455e-01 6.659834027481252861e-01 -1.479404462644781981e+00 -4.383125293139247906e-05 -1.051157968856438057e-01 -1.481271850479477514e-01 -2.708673542798490375e-01 -4.429123601207791694e-01 -3.960144732932835052e-04
-6.407595178545543169e-01 -2.235977901955815694e-01 6.463863639207845235e-01 -1.509074151319896195e+00 -6.736972503685142348e-05 -1.421684395694579051e-01 -2.267309188022666455e-01 -3.919407765468159721e-01 -5.933937735022825066e-01 -4.707694421091788615e-04
-6.492910949951764543e-01 -2.389429915779457403e-01 6.209183938217320842e-01 -1.543994207090372273e+00 -1.087205620751871370e-04 -1.706315428124419997e-01 -3.069040276472831952e-01 -5.093594019810484541e-01 -6.984011154095208784e-01 -8.270167407667142158e-04
-6.588575790091056872e-01 -2.583369355097608899e-01 5.896863966212775310e-01 -1.581916318981446468e+00 -1.805595743062341375e-04 -1.913296802785846018e-01 -3.878788786363033814e-01 -6.246399440090916189e-01 -7.584422378214845661e-01 -1.436780244620939955e-03
-6.690977457314858379e-01 -2.817971693881389239e-01 5.528380487140438504e-01 -1.620592136074765266e+00 -2.907128809177108382e-04 -2.048033344476030970e-01 -4.692046775675612347e-01 -7.369669581446735007e-01 -7.735163418663748569e-01 -2.203066132229533798e-03
-6.796687580138973672e-01 -3.093323537687162061e-01 5.106680384685081675e-01 -1.657779999355676326e+00 -4.390826629829272737e-04 -2.114202456482301151e-01 -5.507036876115454227e-01 -8.434002049107146570e-01 -7.437572656182198649e-01 -2.967395641304328494e-03
-6.902476524002414404e-01 -3.409494973554634267e-01 4.636969267490631541e-01 -1.691304323735213222e+00 -6.158387258313992784e-04 -2.115778877268811864e-01 -6.323428717349440786e-01 -9.394222343889002680e-01 -6.704864875907377009e-01 -3.535121256969439227e-03
-7.005399679165449367e-01 -3.766554353518367648e-01 4.127095352578284415e-01 -1.719148032254379066e+00 -8.002007490457904975e-04 -2.058463103260701477e-01 -7.141187599274668729e-01 -1.019747829824694252e+00 -5.568741703833163248e-01 -3.687240464287825249e-03
-7.102918795635033700e-01 -4.164519533125283779e-01 3.587441141759730168e-01 -1.739561125766485583e+00 -9.567996491325293437e-04 -1.950382329391676384e-01 -7.959303592138318173e-01 -1.079308421637108939e+00 -4.082618702421291212e-01 -3.131978001734775623e-03
-7.193019110055883791e-01 -4.603228335359311196e-01 3.030264710397874151e-01 -1.751168845129160712e+00 -1.016593555548778952e-03 -1.802006288417009883e-01 -8.774176044680552788e-01 -1.114352862723711368e+00 -2.321543872535019037e-01 -1.195878128324991303e-03
-7.274265133184197873e-01 -5.082154634178505104e-01 2.468564245277694580e-01 -1.753050196932969040e+00 -1.034783051727837782e-03 -1.624920462566288026e-01 -9.578525976383877039e-01 -1.123400930240358919e+00 -3.762703607616874057e-02 -3.637899235811783288e-04
-7.345743420998993578e-01 -5.600232274158846169e-01 1.914760923430485762e-01 -1.744766007603114844e+00 -1.039576816092760599e-03 -1.429565756295924639e-01 -1.036155279960681685e+00 -1.107606643694417858e+00 1.656837865970837709e-01 -9.587528729845719994e-05
-7.406896734670714855e-01 -6.155742734215099432e-01 1.379503796155775175e-01 -1.726331544414047459e+00 -1.039182000331939160e-03 -1.223066273434416373e-01 -1.111020920112506083e+00 -1.070514254549421063e+00 3.686892637813462548e-01 7.896315216429517100e-06
-7.457288984568405388e-01 -6.746298280900312472e-01 8.708487001064035837e-02 -1.698142951753331964e+00 -1.035761522299760359e-03 -1.007844997953821209e-01 -1.181111093370426079e+00 -1.017310192098743071e+00 5.637718532143118910e-01 6.840956064357598602e-05
-7.496348673290218478e-01 -7.368922736821915676e-01 3.939596383136557967e-02 -1.660878190894149453e+00 -1.030301031898368889e-03 -7.811937744362601466e-02 -1.245248911843206630e+00 -9.537781235854955186e-01 7.452952171836486617e-01 1.092098080278300885e-04
-7.523140410919875176e-01 -8.020182884828079839e-01 -4.871558367818579205e-03 -1.615401573055448736e+00 -1.022631930871600913e-03 -5.358347525931364541e-02 -1.302520296012327217e+00 -8.853504439836831219e-01 9.095323567740147830e-01 1.533820205353612562e-04
-7.536161521571249633e-01 -8.696375251028651832e-01 -4.568743311270348495e-02 -1.562672849569707756e+00 -1.006487216013377895e-03 -2.604222130274851804e-02 -1.352384732401143319e+00 -8.163174948976981149e-01 1.054574469714817830e+00 3.228942971644601962e-04
-7.533178908378179717e-01 -9.393717844990722154e-01 -8.315941342686339333e-02 -1.503673354667021123e+00 -9.571752957680329998e-04 5.965226386140498605e-03 -1.394685187924141534e+00 -7.494396062831982785e-01 1.179989898053733333e+00 9.862384049068976827e-04
-7.511106407338319357e-01 -1.010852788938444435e+00 -1.174513102675766169e-01 -1.439349191249025051e+00 -8.254116380190025005e-04 4.414500207972163470e-02 -1.429620088787442844e+00 -6.858379368142644150e-01 1.286483268359922549e+00 2.635273154980609552e-03
-7.465955640877383059e-01 -1.083735391767682410e+00 -1.487094757875848661e-01 -1.370574431937678916e+00 -6.686850504698638826e-04 9.030153292187356739e-02 -1.457652056584761047e+00 -6.251633104001647068e-01 1.375495186226924460e+00 3.134531750982771925e-03
-7.392931924808201494e-01 -1.157706792364424420e+00 -1.770078579064926494e-01 -1.298126994515298005e+00 -5.084215836545570881e-04 1.460474321383632146e-01 -1.479428011934841081e+00 -5.659676423781557775e-01 1.448948748447615786e+00 3.205269336306135891e-03
-7.286813856255327515e-01 -1.232494169918117333e+00 -2.023231466569605230e-01 -1.222667490654357092e+00 -3.555655585874056205e-04 2.122361371057480683e-01 -1.495747551073856929e+00 -5.063057750093575837e-01 1.509190077218818260e+00 3.057120501343029567e-03
-7.142824174100789181e-01 -1.307870646203181497e+00 -2.245620062875948730e-01 -1.144722137006993989e+00 -2.174687278526905116e-04 2.879793643090770017e-01 -1.507529525701283957e+00 -4.447771926126871112e-01 1.558907072947261607e+00 2.761936614694301961e-03
-6.958128189878121095e-01 -1.383661932929622029e+00 -2.436615789355291162e-01 -1.064665032365865072e+00 -9.936178738744681467e-05 3.693919684453366159e-01 -1.515825734528811530e+00 -3.819914529586850849e-01 1.601142092822576579e+00 2.362138809304873723e-03
-6.733795114508150936e-01 -1.459750773545646751e+00 -2.597704475056438755e-01 -9.827150151452255233e-01 -3.937332964536530274e-06 4.486661507399405391e-01 -1.521776812320492889e+00 -3.221773714022947432e-01 1.639000344412791632e+00 1.908489088458205796e-03
-6.476443481488005638e-01 -1.536073480503830746e+00 -2.734665080265293868e-01 -8.989635370034818607e-01 7.023796314526410353e-05 5.147032660402910409e-01 -1.526454139163678780e+00 -2.739212104177103368e-01 1.675029562834872365e+00 1.483505922196012676e-03
-6.198314722588402770e-01 -1.612601870439860585e+00 -2.859067180866889379e-01 -8.134348295256996764e-01 1.359279501081931177e-04 5.562575177992051811e-01 -1.530567798720598560e+00 -2.488042012031908834e-01 1.710574149555644130e+00 1.313799739258580176e-03
-5.915095338943223702e-01 -1.689307389258031922e+00 -2.988164888700369226e-01 -7.261598014456780437e-01 2.549097051724224031e-04 5.664387672903592463e-01 -1.534110376363425399e+00 -2.581954156669593603e-01 1.745500561600431322e+00 2.379635101284585490e-03
-5.642387417351679701e-01 -1.766113529373601887e+00 -3.143418207682198706e-01 -6.372397773502175289e-01 7.021108973710622628e-04 0.000000000000000000e+00 0.000000000000000000e+00 0.000000000000000000e+00 0.000000000000000000e+00 0.000000000000000000e+00
-5.642387417351679701e-01 -1.766113529373601887e+00 -3.143418207682198706e-01 -6.372397773502175289e-01 7.021108973710622628e-04 0.000000000000000000e+00 0.000000000000000000e+00 0.000000000000000000e+00 0.000000000000000000e+00 0.000000000000000000e+00
