-4.039672982977267623e-01 -2.207013495309296802e-01 4.841196803880569166e-01 -8.946433523106026575e-01 0.000000000000000000e+00 -4.339273159822427256e-04 3.880756138434864446e-05 3.513786144626407718e-04 -4.880372119390778089e-04 0.000000000000000000e+00
-4.078465356187346291e-01 -2.220167219524852298e-01 4.797144474494007271e-01 -9.014326728921520093e-01 8.286183474935953817e-05 -7.758474642015748823e-02 -2.630744843111115783e-02 -8.810465877312360916e-02 -1.357864116309879521e-01 1.657236694987190492e-03
-4.154537952017580693e-01 -2.248313822179361932e-01 4.715864445913116043e-01 -9.145499035368491736e-01 1.884594569955040807e-04 -1.521451916604691645e-01 -5.629320530901922581e-02 -1.625600571617824563e-01 -2.623446128939439514e-01 2.111952444922890904e-03
-4.266825622787608352e-01 -2.292889433892503215e-01 4.602829127297423106e-01 -9.335634734776376842e-01 2.977448915304683336e-04 -2.245753415400557063e-01 -8.915122342628262198e-02 -2.260706372313863177e-01 -3.802713988157695457e-01 2.185708690699284407e-03
-4.414504133779120210e-01 -2.354940882540936253e-01 4.461878994157571499e-01 -9.580426807277111489e-01 4.023576173556501589e-04 -2.953570219830233268e-01 -1.241028972968659383e-01 -2.819002662797030490e-01 -4.895841450014685736e-01 2.092254516503636291e-03
-4.596966055365376835e-01 -2.435137779130934765e-01 4.295230668304371169e-01 -9.875450589847202254e-01 4.967241156959802855e-04 -3.649238431725134735e-01 -1.603937931799967742e-01 -3.332966517064003265e-01 -5.900475651401817512e-01 1.887329966806602748e-03
-4.813766882117538892e-01 -2.533803302080851472e-01 4.103601631441125552e-01 -1.021595899663554796e+00 5.757032892330684855e-04 -4.336016535043242248e-01 -1.973310458998339123e-01 -3.832580737264916770e-01 -6.810168135766933029e-01 1.579583470741763784e-03
-5.064544084730504547e-01 -2.650969736936074628e-01 3.886445741773927876e-01 -1.059657698380337854e+00 6.339460113117655754e-04 -5.015544052259305330e-01 -2.343328697104459513e-01 -4.343117793343947985e-01 -7.612359743356627018e-01 1.164854441573941364e-03
-5.348924747927435996e-01 -2.786449485969435536e-01 3.642292747711107781e-01 -1.101096580017232096e+00 6.653434076127449784e-04 -5.687613263938625652e-01 -2.709594980667219266e-01 -4.883059881256398560e-01 -8.287776327378868491e-01 6.279479260195874098e-04
-5.666437957404528714e-01 -2.939901568719643921e-01 3.369120496858948322e-01 -1.145152792909157391e+00 6.634370076209436008e-04 -6.350264189541854343e-01 -3.069041655004165481e-01 -5.463445017043186969e-01 -8.811242578385042323e-01 -3.812799983602635934e-05
-6.016450449236185882e-01 -3.110871617532659505e-01 3.064696000586129565e-01 -1.190924157066780564e+00 6.240296952226150572e-04 -7.000249836633147815e-01 -3.419400976260309477e-01 -6.088489925456371799e-01 -9.154272831524613574e-01 -7.881462479665714152e-04
-6.398166579698544298e-01 -3.298767938135773736e-01 2.726923163604913491e-01 -1.237392322606320594e+00 5.452870894154782620e-04 -7.634322609247178315e-01 -3.757926412062286281e-01 -6.755456739624318141e-01 -9.293633107907983693e-01 -1.574852116142736770e-03
-6.810654325735135961e-01 -3.502826081499497146e-01 2.354158954526807401e-01 -1.283463277189143215e+00 4.281431750672927178e-04 -8.249754920731825480e-01 -4.081162867274463757e-01 -7.455284181562120693e-01 -9.214190916564517497e-01 -2.342878286963710234e-03
-7.252886386901837845e-01 -3.722083886648055451e-01 1.945474839623148600e-01 -1.328010781768279802e+00 2.773590156789795705e-04 -8.844641223334039903e-01 -4.385156102971161096e-01 -8.173682298073177144e-01 -8.909500915827301970e-01 -3.015683187766262513e-03
-7.723809567282956534e-01 -3.955346651478693909e-01 1.500858376987785348e-01 -1.369934131846665348e+00 1.009227748758190072e-04 -9.418463607622372669e-01 -4.665255296612769720e-01 -8.892329252707260601e-01 -8.384670015677101462e-01 -3.528724816063210507e-03
-8.222419084420909963e-01 -4.201165249757226050e-01 1.021321074173770493e-01 -1.408213168375998414e+00 -9.083329905715484287e-05 -9.972190342759069681e-01 -4.916371965570643932e-01 -9.590746056280295972e-01 -7.655807305866616508e-01 -3.835121478659477001e-03
-8.747829289136690445e-01 -4.457824133572329539e-01 5.088834069918458242e-02 -1.441955568283217692e+00 -2.863018425396166152e-04 -1.050820409431560964e+00 -5.133177676302072001e-01 -1.024875334363849255e+00 -6.748479981443872289e-01 -3.909370869649235990e-03
-9.299329599354899667e-01 -4.723340545554900460e-01 -3.355607029132304242e-03 -1.470431628253047851e+00 -4.738044130427305307e-04 -1.103000620436418222e+00 -5.310328239651416204e-01 -1.084878954566337761e+00 -5.695211993966021735e-01 -3.750051410062278309e-03
-9.876419938145040156e-01 -4.995474305924045288e-01 -6.024653517063373320e-02 -1.493093143189802019e+00 -6.427474563578558465e-04 -1.154180677580281644e+00 -5.442675207382898783e-01 -1.137818562830028357e+00 -4.532302987350830259e-01 -3.378860866302505449e-03
-1.047882424667967438e+00 -5.271736107496590718e-01 -1.194019825309900334e-01 -1.509578049215710260e+00 -7.843155032593830071e-04 -1.204808617069267118e+00 -5.525236031450911911e-01 -1.183108947207125894e+00 -3.296981205181642172e-01 -2.831360938030542344e-03
-1.110648364185026882e+00 -5.549380969073267611e-01 -1.804491649709180634e-01 -1.519708781027302447e+00 -8.922844938464268840e-04 -1.255318790341188873e+00 -5.552897231533533429e-01 -1.220943648798560544e+00 -2.026146362318448080e-01 -2.159379811740876672e-03
-1.175952230050543834e+00 -5.825392192224607690e-01 -2.430621763925940870e-01 -1.523485525461506507e+00 -9.638535937532313443e-04 -1.306077317310338826e+00 -5.520224463026798256e-01 -1.252260228433520250e+00 -7.553488868407973178e-02 -1.431381998136089205e-03
-1.243818249207163218e+00 -6.096472789835349904e-01 -3.069921789758556785e-01 -1.521070861672169094e+00 -1.000378396499293368e-03 -1.357320383132387009e+00 -5.421611952214853147e-01 -1.278600051665232273e+00 4.829327578674863508e-02 -7.304960549212418915e-04
-1.314273122753981227e+00 -6.359057913639005744e-01 -3.720857533120370819e-01 -1.512764859416611429e+00 -1.008825370604700010e-03 -1.409097470936361063e+00 -5.251702476073115688e-01 -1.301871486723628291e+00 1.661200451111528309e-01 -1.689394821081308725e-04
-1.387334785783366886e+00 -6.609348812982799304e-01 -4.382881571643256757e-01 -1.498976041748749655e+00 -1.006911702176543130e-03 -1.461233260587714300e+00 -5.005817986875862324e-01 -1.324048077045771210e+00 2.757763533572371584e-01 3.827336856313836005e-05
-1.463000200850930632e+00 -6.843374348755584258e-01 -5.056333810721689304e-01 -1.480187031905264794e+00 -1.000396855308494570e-03 -1.513308301351274698e+00 -4.680510715455700188e-01 -1.346904478156864871e+00 3.757801968696963812e-01 1.302969373609712462e-04
-1.541233245944851671e+00 -7.057067179090198428e-01 -5.742240919011902811e-01 -1.456920888256928448e+00 -9.882576251153117088e-04 -1.564660901878420995e+00 -4.273856606692280624e-01 -1.371814216580426793e+00 4.653228729667282515e-01 2.427846038636569527e-04
-1.621953371566671631e+00 -7.246357824676862291e-01 -6.442043206913440345e-01 -1.429707424853400521e+00 -9.765753963040938509e-04 -1.614402512436399206e+00 -3.785812911733279496e-01 -1.399604575803075290e+00 5.442692680705568664e-01 2.336445762243558565e-04
-1.705025583287563151e+00 -7.407280339264731284e-01 -7.157301017025226031e-01 -1.399049782580188861e+00 -9.732057285031523244e-04 -1.661444234417830623e+00 -3.218450291757380399e-01 -1.430515620223572038e+00 6.131528454642352077e-01 6.739335601882990548e-05
-1.790252627863524904e+00 -7.536101741145199151e-01 -7.889404389598739797e-01 -1.365386342246034612e+00 -9.842098429893291617e-04 -1.704540891519233048e+00 -2.576428037609360122e-01 -1.464206745147026645e+00 6.732688066830856410e-01 -2.200822897235347661e-04
-1.877367958101370027e+00 -7.629542219306739703e-01 -8.639191384610760416e-01 -1.329018495548345502e+00 -1.000190220896332019e-03 -1.742306604756903354e+00 -1.868809563230815485e-01 -1.499573990024041903e+00 7.273569339537819811e-01 -3.196075581400581152e-04
