1.351344141382341268e+00 -9.123883332150077852e-01 1.584491638761136301e+00 -6.310358059895966321e-01 9.570244447697587873e-04 2.295000207321703289e+00 5.182639701749390815e-01 7.241772533068269180e-01 1.772621888069600526e+00 4.911280131032490920e-03
1.462368223497529041e+00 -8.826209388182524318e-01 1.612794743734717207e+00 -5.393312476447296167e-01 1.058669779033281390e-03 2.220481642303754555e+00 5.953478879351081776e-01 5.660620994716172305e-01 1.834091166897339864e+00 2.032906685270453786e-03
1.569655498288711648e+00 -8.498025671046361973e-01 1.633664521421419824e+00 -4.446572257505314596e-01 1.000990228280707267e-03 0.000000000000000000e+00 0.000000000000000000e+00 0.000000000000000000e+00 0.000000000000000000e+00 0.000000000000000000e+00
1.569655498288711648e+00 -8.498025671046361973e-01 1.633664521421419824e+00 -4.446572257505314596e-01 1.000990228280707267e-03 0.000000000000000000e+00 0.000000000000000000e+00 0.000000000000000000e+00 0.000000000000000000e+00 0.000000000000000000e+00
1.569655498288711648e+00 -8.498025671046361973e-01 1.633664521421419824e+00 -4.446572257505314596e-01 1.000990228280707267e-03 0.000000000000000000e+00 0.000000000000000000e+00 0.000000000000000000e+00 0.000000000000000000e+00 0.000000000000000000e+00
1.569655498288711648e+00 -8.498025671046361973e-01 1.633664521421419824e+00 -4.446572257505314596e-01 1.000990228280707267e-03 0.000000000000000000e+00 0.000000000000000000e+00 0.000000000000000000e+00 0.000000000000000000e+00 0.000000000000000000e+00
1.569655498288711648e+00 -8.498025671046361973e-01 1.633664521421419824e+00 -4.446572257505314596e-01 1.000990228280707267e-03 0.000000000000000000e+00 0.000000000000000000e+00 0.000000000000000000e+00 0.000000000000000000e+00 0.000000000000000000e+00
1.569655498288711648e+00 -8.498025671046361973e-01 1.633664521421419824e+00 -4.446572257505314596e-01 1.000990228280707267e-03 0.000000000000000000e+00 0.000000000000000000e+00 0.000000000000000000e+00 0.000000000000000000e+00 0.000000000000000000e+00
1.569655498288711648e+00 -8.498025671046361973e-01 1.633664521421419824e+00 -4.446572257505314596e-01 1.000990228280707267e-03 0.000000000000000000e+00 0.000000000000000000e+00 0.000000000000000000e+00 0.000000000000000000e+00 0.000000000000000000e+00
1.569655498288711648e+00 -8.498025671046361973e-01 1.633664521421419824e+00 -4.446572257505314596e-01 1.000990228280707267e-03 0.000000000000000000e+00 0.000000000000000000e+00 0.000000000000000000e+00 0.000000000000000000e+00 0.000000000000000000e+00
1.569655498288711648e+00 -8.498025671046361973e-01 1.633664521421419824e+00 -4.446572257505314596e-01 1.000990228280707267e-03 0.000000000000000000e+00 0.000000000000000000e+00 0.000000000000000000e+00 0.000000000000000000e+00 0.000000000000000000e+00
1.569655498288711648e+00 -8.498025671046361973e-01 1.633664521421419824e+00 -4.446572257505314596e-01 1.000990228280707267e-03 0.000000000000000000e+00 0.000000000000000000e+00 0.000000000000000000e+00 0.000000000000000000e+00 0.000000000000000000e+00
1.569655498288711648e+00 -8.498025671046361973e-01 1.633664521421419824e+00 -4.446572257505314596e-01 1.000990228280707267e-03 0.000000000000000000e+00 0.000000000000000000e+00 0.000000000000000000e+00 0.000000000000000000e+00 0.000000000000000000e+00
1.569655498288711648e+00 -8.498025671046361973e-01 1.633664521421419824e+00 -4.446572257505314596e-01 1.000990228280707267e-03 0.000000000000000000e+00 0.000000000000000000e+00 0.000000000000000000e+00 0.000000000000000000e+00 0.000000000000000000e+00
1.569655498288711648e+00 -8.498025671046361973e-01 1.633664521421419824e+00 -4.446572257505314596e-01 1.000990228280707267e-03 0.000000000000000000e+00 0.000000000000000000e+00 0.000000000000000000e+00 0.000000000000000000e+00 0.000000000000000000e+00
1.569655498288711648e+00 -8.498025671046361973e-01 1.633664521421419824e+00 -4.446572257505314596e-01 1.000990228280707267e-03 0.000000000000000000e+00 0.000000000000000000e+00 0.000000000000000000e+00 0.000000000000000000e+00 0.000000000000000000e+00
1.569655498288711648e+00 -8.498025671046361973e-01 1.633664521421419824e+00 -4.446572257505314596e-01 1.000990228280707267e-03 0.000000000000000000e+00 0.000000000000000000e+00 0.000000000000000000e+00 0.000000000000000000e+00 0.000000000000000000e+00
1.569655498288711648e+00 -8.498025671046361973e-01 1.633664521421419824e+00 -4.446572257505314596e-01 1.000990228280707267e-03 0.000000000000000000e+00 0.000000000000000000e+00 0.000000000000000000e+00 0.000000000000000000e+00 0.000000000000000000e+00
1.569655498288711648e+00 -8.498025671046361973e-01 1.633664521421419824e+00 -4.446572257505314596e-01 1.000990228280707267e-03 0.000000000000000000e+00 0.000000000000000000e+00 0.000000000000000000e+00 0.000000000000000000e+00 0.000000000000000000e+00
1.569655498288711648e+00 -8.498025671046361973e-01 1.633664521421419824e+00 -4.446572257505314596e-01 1.000990228280707267e-03 0.000000000000000000e+00 0.000000000000000000e+00 0.000000000000000000e+00 0.000000000000000000e+00 0.000000000000000000e+00
1.569655498288711648e+00 -8.498025671046361973e-01 1.633664521421419824e+00 -4.446572257505314596e-01 1.000990228280707267e-03 0.000000000000000000e+00 0.000000000000000000e+00 0.000000000000000000e+00 0.000000000000000000e+00 0.000000000000000000e+00
1.569655498288711648e+00 -8.498025671046361973e-01 1.633664521421419824e+00 -4.446572257505314596e-01 1.000990228280707267e-03 0.000000000000000000e+00 0.000000000000000000e+00 0.000000000000000000e+00 0.000000000000000000e+00 0.000000000000000000e+00
1.569655498288711648e+00 -8.498025671046361973e-01 1.633664521421419824e+00 -4.446572257505314596e-01 1.000990228280707267e-03 0.000000000000000000e+00 0.000000000000000000e+00 0.000000000000000000e+00 0.000000000000000000e+00 0.000000000000000000e+00
1.569655498288711648e+00 -8.498025671046361973e-01 1.633664521421419824e+00 -4.446572257505314596e-01 1.000990228280707267e-03 0.000000000000000000e+00 0.000000000000000000e+00 0.000000000000000000e+00 0.000000000000000000e+00 0.000000000000000000e+00
1.569655498288711648e+00 -8.498025671046361973e-01 1.633664521421419824e+00 -4.446572257505314596e-01 1.000990228280707267e-03 0.000000000000000000e+00 0.000000000000000000e+00 0.000000000000000000e+00 0.000000000000000000e+00 0.000000000000000000e+00
1.569655498288711648e+00 -8.498025671046361973e-01 1.633664521421419824e+00 -4.446572257505314596e-01 1.000990228280707267e-03 0.000000000000000000e+00 0.000000000000000000e+00 0.000000000000000000e+00 0.000000000000000000e+00 0.000000000000000000e+00
1.569655498288711648e+00 -8.498025671046361973e-01 1.633664521421419824e+00 -4.446572257505314596e-01 1.000990228280707267e-03 0.000000000000000000e+00 0.000000000000000000e+00 0.000000000000000000e+00 0.000000000000000000e+00 0.000000000000000000e+00
1.569655498288711648e+00 -8.498025671046361973e-01 1.633664521421419824e+00 -4.446572257505314596e-01 1.000990228280707267e-03 0.000000000000000000e+00 0.000000000000000000e+00 0.000000000000000000e+00 0.000000000000000000e+00 0.000000000000000000e+00
1.569655498288711648e+00 -8.498025671046361973e-01 1.633664521421419824e+00 -4.446572257505314596e-01 1.000990228280707267e-03 0.000000000000000000e+00 0.000000000000000000e+00 0.000000000000000000e+00 0.000000000000000000e+00 0.000000000000000000e+00
1.569655498288711648e+00 -8.498025671046361973e-01 1.633664521421419824e+00 -4.446572257505314596e-01 1.000990228280707267e-03 0.000000000000000000e+00 0.000000000000000000e+00 0.000000000000000000e+00 0.000000000000000000e+00 0.000000000000000000e+00
1.569655498288711648e+00 -8.498025671046361973e-01 1.633664521421419824e+00 -4.446572257505314596e-01 1.000990228280707267e-03 0.000000000000000000e+00 0.000000000000000000e+00 0.000000000000000000e+00 0.000000000000000000e+00 0.000000000000000000e+00
