-8.192686011852130523e-01 -1.194471741243180229e+00 -8.864670977796000606e-02 -1.021167957764857137e+00 9.721879645059591573e-04 -1.455024345563890598e-01 -7.823467771822931738e-01 -2.530429722428243489e-01 9.058354839812465809e-01 -4.832991256545248393e-04
-8.270811819693795197e-01 -1.233589411476160302e+00 -1.021780527089808099e-01 -9.752657656960018739e-01 9.347886328327626284e-04 0.000000000000000000e+00 0.000000000000000000e+00 0.000000000000000000e+00 0.000000000000000000e+00 0.000000000000000000e+00
-8.270811819693795197e-01 -1.233589411476160302e+00 -1.021780527089808099e-01 -9.752657656960018739e-01 9.347886328327626284e-04 0.000000000000000000e+00 0.000000000000000000e+00 0.000000000000000000e+00 0.000000000000000000e+00 0.000000000000000000e+00
-8.270811819693795197e-01 -1.233589411476160302e+00 -1.021780527089808099e-01 -9.752657656960018739e-01 9.347886328327626284e-04 0.000000000000000000e+00 0.000000000000000000e+00 0.000000000000000000e+00 0.000000000000000000e+00 0.000000000000000000e+00
-8.270811819693795197e-01 -1.233589411476160302e+00 -1.021780527089808099e-01 -9.752657656960018739e-01 9.347886328327626284e-04 0.000000000000000000e+00 0.000000000000000000e+00 0.000000000000000000e+00 0.000000000000000000e+00 0.000000000000000000e+00
-8.270811819693795197e-01 -1.233589411476160302e+00 -1.021780527089808099e-01 -9.752657656960018739e-01 9.347886328327626284e-04 0.000000000000000000e+00 0.000000000000000000e+00 0.000000000000000000e+00 0.000000000000000000e+00 0.000000000000000000e+00
-8.270811819693795197e-01 -1.233589411476160302e+00 -1.021780527089808099e-01 -9.752657656960018739e-01 9.347886328327626284e-04 0.000000000000000000e+00 0.000000000000000000e+00 0.000000000000000000e+00 0.000000000000000000e+00 0.000000000000000000e+00
-8.270811819693795197e-01 -1.233589411476160302e+00 -1.021780527089808099e-01 -9.752657656960018739e-01 9.347886328327626284e-04 0.000000000000000000e+00 0.000000000000000000e+00 0.000000000000000000e+00 0.000000000000000000e+00 0.000000000000000000e+00
-8.270811819693795197e-01 -1.233589411476160302e+00 -1.021780527089808099e-01 -9.752657656960018739e-01 9.347886328327626284e-04 0.000000000000000000e+00 0.000000000000000000e+00 0.000000000000000000e+00 0.000000000000000000e+00 0.000000000000000000e+00
-8.270811819693795197e-01 -1.233589411476160302e+00 -1.021780527089808099e-01 -9.752657656960018739e-01 9.347886328327626284e-04 0.000000000000000000e+00 0.000000000000000000e+00 0.000000000000000000e+00 0.000000000000000000e+00 0.000000000000000000e+00
-8.270811819693795197e-01 -1.233589411476160302e+00 -1.021780527089808099e-01 -9.752657656960018739e-01 9.347886328327626284e-04 0.000000000000000000e+00 0.000000000000000000e+00 0.000000000000000000e+00 0.000000000000000000e+00 0.000000000000000000e+00
-8.270811819693795197e-01 -1.233589411476160302e+00 -1.021780527089808099e-01 -9.752657656960018739e-01 9.347886328327626284e-04 0.000000000000000000e+00 0.000000000000000000e+00 0.000000000000000000e+00 0.000000000000000000e+00 0.000000000000000000e+00
-8.270811819693795197e-01 -1.233589411476160302e+00 -1.021780527089808099e-01 -9.752657656960018739e-01 9.347886328327626284e-04 0.000000000000000000e+00 0.000000000000000000e+00 0.000000000000000000e+00 0.000000000000000000e+00 0.000000000000000000e+00
-8.270811819693795197e-01 -1.233589411476160302e+00 -1.021780527089808099e-01 -9.752657656960018739e-01 9.347886328327626284e-04 0.000000000000000000e+00 0.000000000000000000e+00 0.000000000000000000e+00 0.000000000000000000e+00 0.000000000000000000e+00
-8.270811819693795197e-01 -1.233589411476160302e+00 -1.021780527089808099e-01 -9.752657656960018739e-01 9.347886328327626284e-04 0.000000000000000000e+00 0.000000000000000000e+00 0.000000000000000000e+00 0.000000000000000000e+00 0.000000000000000000e+00
-8.270811819693795197e-01 -1.233589411476160302e+00 -1.021780527089808099e-01 -9.752657656960018739e-01 9.347886328327626284e-04 0.000000000000000000e+00 0.000000000000000000e+00 0.000000000000000000e+00 0.000000000000000000e+00 0.000000000000000000e+00
-8.270811819693795197e-01 -1.233589411476160302e+00 -1.021780527089808099e-01 -9.752657656960018739e-01 9.347886328327626284e-04 0.000000000000000000e+00 0.000000000000000000e+00 0.000000000000000000e+00 0.000000000000000000e+00 0.000000000000000000e+00
-8.270811819693795197e-01 -1.233589411476160302e+00 -1.021780527089808099e-01 -9.752657656960018739e-01 9.347886328327626284e-04 0.000000000000000000e+00 0.000000000000000000e+00 0.000000000000000000e+00 0.000000000000000000e+00 0.000000000000000000e+00
-8.270811819693795197e-01 -1.233589411476160302e+00 -1.021780527089808099e-01 -9.752657656960018739e-01 9.347886328327626284e-04 0.000000000000000000e+00 0.000000000000000000e+00 0.000000000000000000e+00 0.000000000000000000e+00 0.000000000000000000e+00
-8.270811819693795197e-01 -1.233589411476160302e+00 -1.021780527089808099e-01 -9.752657656960018739e-01 9.347886328327626284e-04 0.000000000000000000e+00 0.000000000000000000e+00 0.000000000000000000e+00 0.000000000000000000e+00 0.000000000000000000e+00
-8.270811819693795197e-01 -1.233589411476160302e+00 -1.021780527089808099e-01 -9.752657656960018739e-01 9.347886328327626284e-04 0.000000000000000000e+00 0.000000000000000000e+00 0.000000000000000000e+00 0.000000000000000000e+00 0.000000000000000000e+00
-8.270811819693795197e-01 -1.233589411476160302e+00 -1.021780527089808099e-01 -9.752657656960018739e-01 9.347886328327626284e-04 0.000000000000000000e+00 0.000000000000000000e+00 0.000000000000000000e+00 0.000000000000000000e+00 0.000000000000000000e+00
-8.270811819693795197e-01 -1.233589411476160302e+00 -1.021780527089808099e-01 -9.752657656960018739e-01 9.347886328327626284e-04 0.000000000000000000e+00 0.000000000000000000e+00 0.000000000000000000e+00 0.000000000000000000e+00 0.000000000000000000e+00
-8.270811819693795197e-01 -1.233589411476160302e+00 -1.021780527089808099e-01 -9.752657656960018739e-01 9.347886328327626284e-04 0.000000000000000000e+00 0.000000000000000000e+00 0.000000000000000000e+00 0.000000000000000000e+00 0.000000000000000000e+00
-8.270811819693795197e-01 -1.233589411476160302e+00 -1.021780527089808099e-01 -9.752657656960018739e-01 9.347886328327626284e-04 0.000000000000000000e+00 0.000000000000000000e+00 0.000000000000000000e+00 0.000000000000000000e+00 0.000000000000000000e+00
-8.270811819693795197e-01 -1.233589411476160302e+00 -1.021780527089808099e-01 -9.752657656960018739e-01 9.347886328327626284e-04 0.000000000000000000e+00 0.000000000000000000e+00 0.000000000000000000e+00 0.000000000000000000e+00 0.000000000000000000e+00
-8.270811819693795197e-01 -1.233589411476160302e+00 -1.021780527089808099e-01 -9.752657656960018739e-01 9.347886328327626284e-04 0.000000000000000000e+00 0.000000000000000000e+00 0.000000000000000000e+00 0.000000000000000000e+00 0.000000000000000000e+00
-8.270811819693795197e-01 -1.233589411476160302e+00 -1.021780527089808099e-01 -9.752657656960018739e-01 9.347886328327626284e-04 0.000000000000000000e+00 0.000000000000000000e+00 0.000000000000000000e+00 0.000000000000000000e+00 0.000000000000000000e+00
-8.270811819693795197e-01 -1.233589411476160302e+00 -1.021780527089808099e-01 -9.752657656960018739e-01 9.347886328327626284e-04 0.000000000000000000e+00 0.000000000000000000e+00 0.000000000000000000e+00 0.000000000000000000e+00 0.000000000000000000e+00
-8.270811819693795197e-01 -1.233589411476160302e+00 -1.021780527089808099e-01 -9.752657656960018739e-01 9.347886328327626284e-04 0.000000000000000000e+00 0.000000000000000000e+00 0.000000000000000000e+00 0.000000000000000000e+00 0.000000000000000000e+00
-8.270811819693795197e-01 -1.233589411476160302e+00 -1.021780527089808099e-01 -9.752657656960018739e-01 9.347886328327626284e-04 0.000000000000000000e+00 0.000000000000000000e+00 0.000000000000000000e+00 0.000000000000000000e+00 0.000000000000000000e+00
