3.682639608979644819e-01 -3.531660704715019472e-01 4.128495297755775395e-01
3.682639608979644819e-01 -3.531660704715019472e-01 4.128495297755775395e-01
3.682639608979644819e-01 -3.531660704715019472e-01 4.128495297755775395e-01
3.682639608979644819e-01 -3.531660704715019472e-01 4.128495297755775395e-01
3.682639608979644819e-01 -3.531660704715019472e-01 4.128495297755775395e-01
3.682639608979644819e-01 -3.531660704715019472e-01 4.128495297755775395e-01
3.682639608979644819e-01 -3.531660704715019472e-01 4.128495297755775395e-01
3.682639608979644819e-01 -3.531660704715019472e-01 4.128495297755775395e-01
3.682639608979644819e-01 -3.531660704715019472e-01 4.128495297755775395e-01
3.682639608979644819e-01 -3.531660704715019472e-01 4.128495297755775395e-01
3.682639608979644819e-01 -3.531660704715019472e-01 4.128495297755775395e-01
3.682639608979644819e-01 -3.531660704715019472e-01 4.128495297755775395e-01
3.682639608979644819e-01 -3.531660704715019472e-01 4.128495297755775395e-01
3.682639608979644819e-01 -3.531660704715019472e-01 4.128495297755775395e-01
3.682639608979644819e-01 -3.531660704715019472e-01 4.128495297755775395e-01
3.682639608979644819e-01 -3.531660704715019472e-01 4.128495297755775395e-01
3.682639608979644819e-01 -3.531660704715019472e-01 4.128495297755775395e-01
3.682639608979644819e-01 -3.531660704715019472e-01 4.128495297755775395e-01
3.682639608979644819e-01 -3.531660704715019472e-01 4.128495297755775395e-01
3.682639608979644819e-01 -3.531660704715019472e-01 4.128495297755775395e-01
3.682639608979644819e-01 -3.531660704715019472e-01 4.128495297755775395e-01
3.682639608979644819e-01 -3.531660704715019472e-01 4.128495297755775395e-01
3.682639608979644819e-01 -3.531660704715019472e-01 4.128495297755775395e-01
3.682639608979644819e-01 -3.531660704715019472e-01 4.128495297755775395e-01
3.682639608979644819e-01 -3.531660704715019472e-01 4.128495297755775395e-01
3.682639608979644819e-01 -3.531660704715019472e-01 4.128495297755775395e-01
3.682639608979644819e-01 -3.531660704715019472e-01 4.128495297755775395e-01
3.682639608979644819e-01 -3.531660704715019472e-01 4.128495297755775395e-01
3.682639608979644819e-01 -3.531660704715019472e-01 4.128495297755775395e-01
3.682639608979644819e-01 -3.531660704715019472e-01 4.128495297755775395e-01
