-5.124951586669252990e-01 -5.410855722384455557e-01 3.491957658836162270e-01 -1.397344089154989755e+00 -1.013769823088753489e-03 -3.562023821532450119e-01 -8.156343519271740394e-01 -6.936723381776521702e-01 9.038187188424837148e-02 -1.833872633154796884e-04
-5.302001274064142011e-01 -5.838829781748331449e-01 3.170230034586717927e-01 -1.386971670357168840e+00 -1.014310072045478996e-03 -3.540993747897783761e-01 -8.559481187277516723e-01 -6.434552484988889098e-01 2.074483759564164087e-01 -1.080497913450828140e-05
-5.477318426156062570e-01 -6.285656430374171322e-01 2.876658672579209819e-01 -1.370671482056400770e+00 -1.012750198733976953e-03 -3.506343041838415608e-01 -8.936532972516794127e-01 -5.871427240150165483e-01 3.260037660153607963e-01 3.119746623004166088e-05
-5.650482239065397483e-01 -6.749867806154357108e-01 2.612948627170347260e-01 -1.348506209557382540e+00 -1.010585244602753242e-03 -3.463276258186705481e-01 -9.284227515603709069e-01 -5.274200908177256730e-01 4.433054499803642523e-01 4.329908262447398762e-05
-5.821340428268244604e-01 -7.229856343237833771e-01 2.379478785912332028e-01 -1.320660558055696709e+00 -1.008242875352915709e-03 -3.417163784056939102e-01 -9.599770741669531038e-01 -4.669396825160306297e-01 5.569130300337152839e-01 4.684738499675216437e-05
-5.990003340705545298e-01 -7.723927293140806505e-01 2.175453289949009217e-01 -1.287420195677596579e+00 -1.005591881521708617e-03 -3.373258248746005550e-01 -9.881418998059463554e-01 -4.080509919266457897e-01 6.648072475620021571e-01 5.301987662414178173e-05
-6.156839198780699185e-01 -8.230360885652775460e-01 1.999116183693006032e-01 -1.249150107634130036e+00 -1.000548276034342278e-03 -3.336717161503071072e-01 -1.012867185023938355e+00 -3.526742125120064242e-01 7.654017608693322039e-01 1.008721097473260468e-04
-6.322477829406092376e-01 -8.747468020545430267e-01 1.847973608766555753e-01 -1.206275102911781971e+00 -9.851924384074721864e-04 -3.312772612507870473e-01 -1.034214269785310503e+00 -3.022851498529004477e-01 8.575000944469612918e-01 3.071167525374030169e-04
-6.487817122538885872e-01 -9.273645206011060793e-01 1.719003710811786434e-01 -1.159258941298275225e+00 -9.443076171497309743e-04 -3.306785862655871600e-01 -1.052354370931260164e+00 -2.579397959095386939e-01 9.403232322701355894e-01 8.176964251548245665e-04
-6.654057081070646751e-01 -9.807401678890248498e-01 1.608781233294855340e-01 -1.108590295783307367e+00 -8.987460054427476698e-04 -3.324799170635207579e-01 -1.067512945758374521e+00 -2.204449550338619668e-01 1.013372910299356722e+00 9.112322341396654393e-04
-6.822789123885973916e-01 -1.034735060798995132e+00 1.513432721355528476e-01 -1.054773294518364990e+00 -8.586778241905530101e-04 -3.374640856306547754e-01 -1.079897858199405647e+00 -1.906970238786534766e-01 1.076340025298845537e+00 8.013636250438941700e-04
-6.996134620983698316e-01 -1.089219952236317734e+00 1.428424232017841411e-01 -9.983064881488407094e-01 -8.322905961366777435e-04 -3.466909941954495200e-01 -1.089697828746449826e+00 -1.700169786753740475e-01 1.129336127390485833e+00 5.277445610775053329e-04
-7.176946134945892952e-01 -1.144073456294362412e+00 1.348200451114981435e-01 -9.396601036323161127e-01 -8.293970834600294158e-04 -3.616230279243882184e-01 -1.097070081160892663e+00 -1.604475618057199238e-01 1.172927690330492156e+00 5.787025353296714912e-05
-7.369112732395941556e-01 -1.199176807249260568e+00 1.265598948154142422e-01 -8.792629453453499888e-01 -8.685372324224546097e-04 -3.843331949000968750e-01 -1.102067019097961342e+00 -1.652030059216779423e-01 1.207943165739321811e+00 -7.828029792485047440e-04
-7.577983398978352936e-01 -1.254406199111578024e+00 1.170959535387876005e-01 -8.174885712729889065e-01 -1.000514159895837980e-03 0.000000000000000000e+00 0.000000000000000000e+00 0.000000000000000000e+00 0.000000000000000000e+00 0.000000000000000000e+00
-7.577983398978352936e-01 -1.254406199111578024e+00 1.170959535387876005e-01 -8.174885712729889065e-01 -1.000514159895837980e-03 0.000000000000000000e+00 0.000000000000000000e+00 0.000000000000000000e+00 0.000000000000000000e+00 0.000000000000000000e+00
-7.577983398978352936e-01 -1.254406199111578024e+00 1.170959535387876005e-01 -8.174885712729889065e-01 -1.000514159895837980e-03 0.000000000000000000e+00 0.000000000000000000e+00 0.000000000000000000e+00 0.000000000000000000e+00 0.000000000000000000e+00
-7.577983398978352936e-01 -1.254406199111578024e+00 1.170959535387876005e-01 -8.174885712729889065e-01 -1.000514159895837980e-03 0.000000000000000000e+00 0.000000000000000000e+00 0.000000000000000000e+00 0.000000000000000000e+00 0.000000000000000000e+00
-7.577983398978352936e-01 -1.254406199111578024e+00 1.170959535387876005e-01 -8.174885712729889065e-01 -1.000514159895837980e-03 0.000000000000000000e+00 0.000000000000000000e+00 0.000000000000000000e+00 0.000000000000000000e+00 0.000000000000000000e+00
-7.577983398978352936e-01 -1.254406199111578024e+00 1.170959535387876005e-01 -8.174885712729889065e-01 -1.000514159895837980e-03 0.000000000000000000e+00 0.000000000000000000e+00 0.000000000000000000e+00 0.000000000000000000e+00 0.000000000000000000e+00
-7.577983398978352936e-01 -1.254406199111578024e+00 1.170959535387876005e-01 -8.174885712729889065e-01 -1.000514159895837980e-03 0.000000000000000000e+00 0.000000000000000000e+00 0.000000000000000000e+00 0.000000000000000000e+00 0.000000000000000000e+00
-7.577983398978352936e-01 -1.254406199111578024e+00 1.170959535387876005e-01 -8.174885712729889065e-01 -1.000514159895837980e-03 0.000000000000000000e+00 0.000000000000000000e+00 0.000000000000000000e+00 0.000000000000000000e+00 0.000000000000000000e+00
-7.577983398978352936e-01 -1.254406199111578024e+00 1.170959535387876005e-01 -8.174885712729889065e-01 -1.000514159895837980e-03 0.000000000000000000e+00 0.000000000000000000e+00 0.000000000000000000e+00 0.000000000000000000e+00 0.000000000000000000e+00
-7.577983398978352936e-01 -1.254406199111578024e+00 1.170959535387876005e-01 -8.174885712729889065e-01 -1.000514159895837980e-03 0.000000000000000000e+00 0.000000000000000000e+00 0.000000000000000000e+00 0.000000000000000000e+00 0.000000000000000000e+00
-7.577983398978352936e-01 -1.254406199111578024e+00 1.170959535387876005e-01 -8.174885712729889065e-01 -1.000514159895837980e-03 0.000000000000000000e+00 0.000000000000000000e+00 0.000000000000000000e+00 0.000000000000000000e+00 0.000000000000000000e+00
-7.577983398978352936e-01 -1.254406199111578024e+00 1.170959535387876005e-01 -8.174885712729889065e-01 -1.000514159895837980e-03 0.000000000000000000e+00 0.000000000000000000e+00 0.000000000000000000e+00 0.000000000000000000e+00 0.000000000000000000e+00
-7.577983398978352936e-01 -1.254406199111578024e+00 1.170959535387876005e-01 -8.174885712729889065e-01 -1.000514159895837980e-03 0.000000000000000000e+00 0.000000000000000000e+00 0.000000000000000000e+00 0.000000000000000000e+00 0.000000000000000000e+00
-7.577983398978352936e-01 -1.254406199111578024e+00 1.170959535387876005e-01 -8.174885712729889065e-01 -1.000514159895837980e-03 0.000000000000000000e+00 0.000000000000000000e+00 0.000000000000000000e+00 0.000000000000000000e+00 0.000000000000000000e+00
-7.577983398978352936e-01 -1.254406199111578024e+00 1.170959535387876005e-01 -8.174885712729889065e-01 -1.000514159895837980e-03 0.000000000000000000e+00 0.000000000000000000e+00 0.000000000000000000e+00 0.000000000000000000e+00 0.000000000000000000e+00
-7.577983398978352936e-01 -1.254406199111578024e+00 1.170959535387876005e-01 -8.174885712729889065e-01 -1.000514159895837980e-03 0.000000000000000000e+00 0.000000000000000000e+00 0.000000000000000000e+00 0.000000000000000000e+00 0.000000000000000000e+00
-7.577983398978352936e-01 -1.254406199111578024e+00 1.170959535387876005e-01 -8.174885712729889065e-01 -1.000514159895837980e-03 0.000000000000000000e+00 0.000000000000000000e+00 0.000000000000000000e+00 0.000000000000000000e+00 0.000000000000000000e+00
