-1.179204887711143845e+00 -3.307007631577403295e-01 -3.641565817187409348e-01 -1.446302820315964688e+00 -6.995312371800651739e-04 -1.336169839715630525e+00 -4.705627882605625811e-01 -9.816922036869077939e-01 1.189991936461619382e+00 3.707434736700964024e-03
-1.247993322958668161e+00 -3.538469049907886910e-01 -4.087465105459540671e-01 -1.382086378423007300e+00 -4.920526870182150882e-04 -1.375768704950484977e+00 -4.629228366609669520e-01 -8.917985765442622004e-01 1.284328837859145978e+00 4.149571003237000413e-03
-1.318718117765844022e+00 -3.762482788499606490e-01 -4.490080523258690448e-01 -1.314152246170247729e+00 -2.777257363193498269e-04 -1.414495896143517006e+00 -4.480274771834390490e-01 -8.052308355982989996e-01 1.358682645055191651e+00 4.286539013977306092e-03
-1.391309508715751875e+00 -3.975824154257114329e-01 -4.851074612691336219e-01 -1.243369894358012484e+00 -7.063562236094063254e-05 -1.451827818998159270e+00 -4.266827315150156785e-01 -7.219881788652913190e-01 1.415647036244706447e+00 4.141802279168183346e-03
-1.465674253383387304e+00 -4.175781561163455780e-01 -5.171871346626750743e-01 -1.170461065486785079e+00 1.158464296845750996e-04 -1.487294893352710146e+00 -3.999148138126828456e-01 -6.415934678708278271e-01 1.458176577424546760e+00 3.729641040910314752e-03
-1.541697627501775525e+00 -4.360221516152540944e-01 -5.453592956368713551e-01 -1.095994814189352295e+00 2.644873800572039059e-04 -1.520467482367765300e+00 -3.688799099781704394e-01 -5.634432194839249508e-01 1.489325025948655901e+00 2.972819007452575258e-03
-1.619244392696848944e+00 -4.527623512870016520e-01 -5.697119290897889599e-01 -1.020389504970840466e+00 3.338878841350602453e-04 -1.550935303901466611e+00 -3.348039934349507085e-01 -4.870526690583530938e-01 1.512106184370235251e+00 1.388010081557126355e-03
-1.698158069274244619e+00 -4.677132113319338313e-01 -5.903110733380946273e-01 -9.439025906728747417e-01 1.764297802230236408e-04 -1.578273531547913500e+00 -2.990172008986433649e-01 -4.119828849661140713e-01 1.529738285959315158e+00 -3.149162078240730789e-03
-1.778259654745707463e+00 -4.808592779254659555e-01 -6.072041662619303004e-01 -8.666221471999132620e-01 -1.743928256941805564e-04 -1.602031709429255324e+00 -2.629213318706421498e-01 -3.378618584767126842e-01 1.545608869459229817e+00 -7.016452118344083076e-03
-1.859347095707378106e+00 -4.922554153656599207e-01 -6.204256800602462318e-01 -7.884665292368541190e-01 -1.061057274668429293e-03 0.000000000000000000e+00 0.000000000000000000e+00 0.000000000000000000e+00 0.000000000000000000e+00 0.000000000000000000e+00
-1.859347095707378106e+00 -4.922554153656599207e-01 -6.204256800602462318e-01 -7.884665292368541190e-01 -1.061057274668429293e-03 0.000000000000000000e+00 0.000000000000000000e+00 0.000000000000000000e+00 0.000000000000000000e+00 0.000000000000000000e+00
-1.859347095707378106e+00 -4.922554153656599207e-01 -6.204256800602462318e-01 -7.884665292368541190e-01 -1.061057274668429293e-03 0.000000000000000000e+00 0.000000000000000000e+00 0.000000000000000000e+00 0.000000000000000000e+00 0.000000000000000000e+00
-1.859347095707378106e+00 -4.922554153656599207e-01 -6.204256800602462318e-01 -7.884665292368541190e-01 -1.061057274668429293e-03 0.000000000000000000e+00 0.000000000000000000e+00 0.000000000000000000e+00 0.000000000000000000e+00 0.000000000000000000e+00
-1.859347095707378106e+00 -4.922554153656599207e-01 -6.204256800602462318e-01 -7.884665292368541190e-01 -1.061057274668429293e-03 0.000000000000000000e+00 0.000000000000000000e+00 0.000000000000000000e+00 0.000000000000000000e+00 0.000000000000000000e+00
-1.859347095707378106e+00 -4.922554153656599207e-01 -6.204256800602462318e-01 -7.884665292368541190e-01 -1.061057274668429293e-03 0.000000000000000000e+00 0.000000000000000000e+00 0.000000000000000000e+00 0.000000000000000000e+00 0.000000000000000000e+00
-1.859347095707378106e+00 -4.922554153656599207e-01 -6.204256800602462318e-01 -7.884665292368541190e-01 -1.061057274668429293e-03 0.000000000000000000e+00 0.000000000000000000e+00 0.000000000000000000e+00 0.000000000000000000e+00 0.000000000000000000e+00
-1.859347095707378106e+00 -4.922554153656599207e-01 -6.204256800602462318e-01 -7.884665292368541190e-01 -1.061057274668429293e-03 0.000000000000000000e+00 0.000000000000000000e+00 0.000000000000000000e+00 0.000000000000000000e+00 0.000000000000000000e+00
-1.859347095707378106e+00 -4.922554153656599207e-01 -6.204256800602462318e-01 -7.884665292368541190e-01 -1.061057274668429293e-03 0.000000000000000000e+00 0.000000000000000000e+00 0.000000000000000000e+00 0.000000000000000000e+00 0.000000000000000000e+00
-1.859347095707378106e+00 -4.922554153656599207e-01 -6.204256800602462318e-01 -7.884665292368541190e-01 -1.061057274668429293e-03 0.000000000000000000e+00 0.000000000000000000e+00 0.000000000000000000e+00 0.000000000000000000e+00 0.000000000000000000e+00
-1.859347095707378106e+00 -4.922554153656599207e-01 -6.204256800602462318e-01 -7.884665292368541190e-01 -1.061057274668429293e-03 0.000000000000000000e+00 0.000000000000000000e+00 0.000000000000000000e+00 0.000000000000000000e+00 0.000000000000000000e+00
-1.859347095707378106e+00 -4.922554153656599207e-01 -6.204256800602462318e-01 -7.884665292368541190e-01 -1.061057274668429293e-03 0.000000000000000000e+00 0.000000000000000000e+00 0.000000000000000000e+00 0.000000000000000000e+00 0.000000000000000000e+00
-1.859347095707378106e+00 -4.922554153656599207e-01 -6.204256800602462318e-01 -7.884665292368541190e-01 -1.061057274668429293e-03 0.000000000000000000e+00 0.000000000000000000e+00 0.000000000000000000e+00 0.000000000000000000e+00 0.000000000000000000e+00
-1.859347095707378106e+00 -4.922554153656599207e-01 -6.204256800602462318e-01 -7.884665292368541190e-01 -1.061057274668429293e-03 0.000000000000000000e+00 0.000000000000000000e+00 0.000000000000000000e+00 0.000000000000000000e+00 0.000000000000000000e+00
-1.859347095707378106e+00 -4.922554153656599207e-01 -6.204256800602462318e-01 -7.884665292368541190e-01 -1.061057274668429293e-03 0.000000000000000000e+00 0.000000000000000000e+00 0.000000000000000000e+00 0.000000000000000000e+00 0.000000000000000000e+00
-1.859347095707378106e+00 -4.922554153656599207e-01 -6.204256800602462318e-01 -7.884665292368541190e-01 -1.061057274668429293e-03 0.000000000000000000e+00 0.000000000000000000e+00 0.000000000000000000e+00 0.000000000000000000e+00 0.000000000000000000e+00
-1.859347095707378106e+00 -4.922554153656599207e-01 -6.204256800602462318e-01 -7.884665292368541190e-01 -1.061057274668429293e-03 0.000000000000000000e+00 0.000000000000000000e+00 0.000000000000000000e+00 0.000000000000000000e+00 0.000000000000000000e+00
-1.859347095707378106e+00 -4.922554153656599207e-01 -6.204256800602462318e-01 -7.884665292368541190e-01 -1.061057274668429293e-03 0.000000000000000000e+00 0.000000000000000000e+00 0.000000000000000000e+00 0.000000000000000000e+00 0.000000000000000000e+00
-1.859347095707378106e+00 -4.922554153656599207e-01 -6.204256800602462318e-01 -7.884665292368541190e-01 -1.061057274668429293e-03 0.000000000000000000e+00 0.000000000000000000e+00 0.000000000000000000e+00 0.000000000000000000e+00 0.000000000000000000e+00
-1.859347095707378106e+00 -4.922554153656599207e-01 -6.204256800602462318e-01 -7.884665292368541190e-01 -1.061057274668429293e-03 0.000000000000000000e+00 0.000000000000000000e+00 0.000000000000000000e+00 0.000000000000000000e+00 0.000000000000000000e+00
-1.859347095707378106e+00 -4.922554153656599207e-01 -6.204256800602462318e-01 -7.884665292368541190e-01 -1.061057274668429293e-03 0.000000000000000000e+00 0.000000000000000000e+00 0.000000000000000000e+00 0.000000000000000000e+00 0.000000000000000000e+00
-1.859347095707378106e+00 -4.922554153656599207e-01 -6.204256800602462318e-01 -7.884665292368541190e-01 -1.061057274668429293e-03 0.000000000000000000e+00 0.000000000000000000e+00 0.000000000000000000e+00 0.000000000000000000e+00 0.000000000000000000e+00
