-5.286902124521858370e-01 -3.870546713233876668e-01 6.201008474088685052e-01 -1.380968747898025928e+00 1.070930318262578070e-03 -6.467763817179624786e-01 2.067057442071758011e-01 -1.594378043966908631e+00 -1.184286774575670220e+00 2.721381932047604608e-05
-5.618619215484764728e-01 -3.778262409530619981e-01 5.377734522230602776e-01 -1.439130142782101274e+00 1.038885537952966920e-03 -6.634341819258122719e-01 1.845686074065135684e-01 -1.646547903716163663e+00 -1.163227897681508027e+00 -6.408956061922229872e-04
-5.952020958615416024e-01 -3.702708212648824215e-01 4.543430412099046523e-01 -1.493474495516166511e+00 9.283490330363458739e-04 -6.668034862613034797e-01 1.511083937635919194e-01 -1.668608220263111841e+00 -1.086887054681305864e+00 -2.210730098332421359e-03
-6.282411879085321171e-01 -3.648395500916103984e-01 3.710897902321390607e-01 -1.541696226630595135e+00 6.339571348079645844e-04 -6.607818409398098503e-01 1.086254234654405182e-01 -1.665065019555312276e+00 -9.644346222885730180e-01 -5.887837964567625357e-03
-6.606744725943338725e-01 -3.618744583247477387e-01 2.892014542860041892e-01 -1.582048131986180328e+00 2.669827909918420935e-04 -6.486656937160339975e-01 5.930183533725300049e-02 -1.637766718922696763e+00 -8.070381071117053162e-01 -7.339486876322448734e-03
-6.923214811144362546e-01 -3.616389844281078791e-01 2.098970050625547645e-01 -1.613333669956991123e+00 -1.075658001272966711e-04 -6.329401704020488628e-01 4.709477932797259681e-03 -1.586088984468988716e+00 -6.257107594162147901e-01 -7.490971822382775508e-03
-7.231287941925811369e-01 -3.642876464896502853e-01 1.343084075148349710e-01 -1.634976241385975415e+00 -4.444540264226131180e-04 -6.161462615628975348e-01 -5.297324123084790060e-02 -1.511771950954395871e+00 -4.328514285796842831e-01 -6.737764525906327420e-03
-7.531452367274282800e-01 -3.698587882039633956e-01 6.339983415054288585e-02 -1.646976665788379979e+00 -7.142977903076019354e-04 -6.003288506969438609e-01 -1.114228342862620402e-01 -1.418171467285841647e+00 -2.400084880480893856e-01 -5.396875277699776999e-03
-7.824894513768734239e-01 -3.782769648545626917e-01 -2.105746876434971826e-03 -1.649814584439731391e+00 -9.031506430071191459e-04 -5.868842929889032112e-01 -1.683635330119858109e-01 -1.310111620539557098e+00 -5.675837302702840814e-02 -3.777057053990343777e-03
-8.113164769683870459e-01 -3.893644645072657506e-01 -6.176920201040843328e-02 -1.644324478099685960e+00 -1.010395049866452634e-03 -5.765405118302719956e-01 -2.217499930540615394e-01 -1.193269102679469063e+00 1.098021268009064244e-01 -2.144888137186668452e-03
-8.397891257877637683e-01 -4.028616519978261423e-01 -1.154373089321657220e-01 -1.631566038425839693e+00 -1.045059006984843785e-03 -5.694529763875344486e-01 -2.699437498112080558e-01 -1.073362138435145940e+00 2.551687934769251154e-01 -6.932791423678210784e-04
-8.680580501617164435e-01 -4.184524017664693063e-01 -1.632096191256932338e-01 -1.612707497712642546e+00 -1.021718056908051423e-03 -5.653784874790542814e-01 -3.118149953728636126e-01 -9.554462038705503479e-01 3.771708142639440542e-01 4.668190015358452804e-04
-8.962518553748798356e-01 -4.357919093821308598e-01 -2.053884437750783665e-01 -1.588922135729531115e+00 -9.575872864610455093e-04 -5.638761042632686182e-01 -3.467901523132309038e-01 -8.435764929877027640e-01 4.757072396622286647e-01 1.282615408940117633e-03
-9.244745273515991846e-01 -4.545325344407771806e-01 -2.424169113434902489e-01 -1.561310188315739200e+00 -8.694516192222173732e-04 -5.644534395343859812e-01 -3.748125011729263045e-01 -7.405693513682377604e-01 5.522389482758378598e-01 1.762713344776562288e-03
-9.528081190862388583e-01 -4.743448380939562226e-01 -2.748201166507334703e-01 -1.530846453561830245e+00 -7.715094015704557912e-04 -5.666718346927925865e-01 -3.962460730635808948e-01 -6.480641061448645379e-01 6.092746950781801063e-01 1.958844353035231640e-03
-9.813184233233143150e-01 -4.949305658875799430e-01 -3.031601581441022986e-01 -1.498356654474066962e+00 -6.746967491235868588e-04 -5.702060847415085787e-01 -4.117145558724745191e-01 -5.668008298673770096e-01 6.497959817552654282e-01 1.936253048937378648e-03
-1.010061248130373679e+00 -5.160293335316437080e-01 -3.280048487263731993e-01 -1.464512839981586767e+00 -5.867153229910495107e-04 -5.748564961411887220e-01 -4.219753528812754118e-01 -4.968938116454184595e-01 6.768762898496034630e-01 1.759628522650746093e-03
-1.039087938269759537e+00 -5.374201119448313024e-01 -3.499083587210329860e-01 -1.429842153902963986e+00 -5.124701771411923441e-04 -5.805338027877162688e-01 -4.278155682637524437e-01 -4.380701998931956775e-01 6.934137215724560654e-01 1.484902916997144200e-03
-1.068449926398487904e+00 -5.589195667564784697e-01 -3.694021871252448630e-01 -1.394740769731751318e+00 -4.548018497820771828e-04 -5.872397625745653382e-01 -4.299890962329444011e-01 -3.898765680842375403e-01 7.020276834242553665e-01 1.153366547182302576e-03
-1.098202161028478674e+00 -5.803796419240497828e-01 -3.869921309480102711e-01 -1.359485192605663695e+00 -4.149504177357926020e-04 -5.950446925998172931e-01 -4.292015033514254285e-01 -3.517988764553083292e-01 7.051115425217518995e-01 7.970286409256918322e-04
-1.128405589262938769e+00 -6.016838860663111799e-01 -4.031591486415850856e-01 -1.324245114274266166e+00 -3.931331156711603044e-04 -6.040685646892008931e-01 -4.260848828452268311e-01 -3.233403538714958447e-01 7.048015666279495717e-01 4.363460412926459513e-04
-1.159128761338715563e+00 -6.227429309527757750e-01 -4.183619141183184120e-01 -1.289097899112449319e+00 -3.895452073267638687e-04 -6.144634415155357798e-01 -4.211808977292925138e-01 -3.040553095346666401e-01 7.029443032363387189e-01 7.175816688792866068e-05
-1.190448795358932443e+00 -6.434893653199903474e-01 -4.330416048129733242e-01 -1.254043098466257611e+00 -4.066149410187970851e-04 -6.264006804043371623e-01 -4.149286873442918355e-01 -2.935938138930983543e-01 7.010960129238359428e-01 -3.413946738406644916e-04
-1.222451708728139241e+00 -6.638735024100188564e-01 -4.476268737983545298e-01 -1.219012225735820909e+00 -4.561659822630232731e-04 -6.400582673841340720e-01 -4.076827418005693482e-01 -2.917053797076240018e-01 7.006174546087329258e-01 -9.910208248845233259e-04
-1.255232110024272041e+00 -6.838596413579451916e-01 -4.625382832738955119e-01 -1.183876489261871612e+00 -5.875525593524360884e-04 0.000000000000000000e+00 0.000000000000000000e+00 0.000000000000000000e+00 0.000000000000000000e+00 0.000000000000000000e+00
-1.255232110024272041e+00 -6.838596413579451916e-01 -4.625382832738955119e-01 -1.183876489261871612e+00 -5.875525593524360884e-04 0.000000000000000000e+00 0.000000000000000000e+00 0.000000000000000000e+00 0.000000000000000000e+00 0.000000000000000000e+00
-1.255232110024272041e+00 -6.838596413579451916e-01 -4.625382832738955119e-01 -1.183876489261871612e+00 -5.875525593524360884e-04 0.000000000000000000e+00 0.000000000000000000e+00 0.000000000000000000e+00 0.000000000000000000e+00 0.000000000000000000e+00
-1.255232110024272041e+00 -6.838596413579451916e-01 -4.625382832738955119e-01 -1.183876489261871612e+00 -5.875525593524360884e-04 0.000000000000000000e+00 0.000000000000000000e+00 0.000000000000000000e+00 0.000000000000000000e+00 0.000000000000000000e+00
-1.255232110024272041e+00 -6.838596413579451916e-01 -4.625382832738955119e-01 -1.183876489261871612e+00 -5.875525593524360884e-04 0.000000000000000000e+00 0.000000000000000000e+00 0.000000000000000000e+00 0.000000000000000000e+00 0.000000000000000000e+00
-1.255232110024272041e+00 -6.838596413579451916e-01 -4.625382832738955119e-01 -1.183876489261871612e+00 -5.875525593524360884e-04 0.000000000000000000e+00 0.000000000000000000e+00 0.000000000000000000e+00 0.000000000000000000e+00 0.000000000000000000e+00
-1.255232110024272041e+00 -6.838596413579451916e-01 -4.625382832738955119e-01 -1.183876489261871612e+00 -5.875525593524360884e-04 0.000000000000000000e+00 0.000000000000000000e+00 0.000000000000000000e+00 0.000000000000000000e+00 0.000000000000000000e+00
