-4.318515628729095446e-01 -1.297737282834682926e+00 6.416820013131593337e-01 -1.470589470318610426e+00 -5.772166309322373070e-04 -1.081811920545919653e-01 -1.426094783223172513e+00 7.108282958968450971e-02 -1.266383838120304639e-01 -3.339157034822074627e-03
-4.372689633190724456e-01 -1.369377767622633302e+00 6.435919454090300862e-01 -1.475368585727047988e+00 -1.002053227878850483e-03 0.000000000000000000e+00 0.000000000000000000e+00 0.000000000000000000e+00 0.000000000000000000e+00 0.000000000000000000e+00
-4.372689633190724456e-01 -1.369377767622633302e+00 6.435919454090300862e-01 -1.475368585727047988e+00 -1.002053227878850483e-03 0.000000000000000000e+00 0.000000000000000000e+00 0.000000000000000000e+00 0.000000000000000000e+00 0.000000000000000000e+00
-4.372689633190724456e-01 -1.369377767622633302e+00 6.435919454090300862e-01 -1.475368585727047988e+00 -1.002053227878850483e-03 0.000000000000000000e+00 0.000000000000000000e+00 0.000000000000000000e+00 0.000000000000000000e+00 0.000000000000000000e+00
-4.372689633190724456e-01 -1.369377767622633302e+00 6.435919454090300862e-01 -1.475368585727047988e+00 -1.002053227878850483e-03 0.000000000000000000e+00 0.000000000000000000e+00 0.000000000000000000e+00 0.000000000000000000e+00 0.000000000000000000e+00
-4.372689633190724456e-01 -1.369377767622633302e+00 6.435919454090300862e-01 -1.475368585727047988e+00 -1.002053227878850483e-03 0.000000000000000000e+00 0.000000000000000000e+00 0.000000000000000000e+00 0.000000000000000000e+00 0.000000000000000000e+00
-4.372689633190724456e-01 -1.369377767622633302e+00 6.435919454090300862e-01 -1.475368585727047988e+00 -1.002053227878850483e-03 0.000000000000000000e+00 0.000000000000000000e+00 0.000000000000000000e+00 0.000000000000000000e+00 0.000000000000000000e+00
-4.372689633190724456e-01 -1.369377767622633302e+00 6.435919454090300862e-01 -1.475368585727047988e+00 -1.002053227878850483e-03 0.000000000000000000e+00 0.000000000000000000e+00 0.000000000000000000e+00 0.000000000000000000e+00 0.000000000000000000e+00
-4.372689633190724456e-01 -1.369377767622633302e+00 6.435919454090300862e-01 -1.475368585727047988e+00 -1.002053227878850483e-03 0.000000000000000000e+00 0.000000000000000000e+00 0.000000000000000000e+00 0.000000000000000000e+00 0.000000000000000000e+00
-4.372689633190724456e-01 -1.369377767622633302e+00 6.435919454090300862e-01 -1.475368585727047988e+00 -1.002053227878850483e-03 0.000000000000000000e+00 0.000000000000000000e+00 0.000000000000000000e+00 0.000000000000000000e+00 0.000000000000000000e+00
-4.372689633190724456e-01 -1.369377767622633302e+00 6.435919454090300862e-01 -1.475368585727047988e+00 -1.002053227878850483e-03 0.000000000000000000e+00 0.000000000000000000e+00 0.000000000000000000e+00 0.000000000000000000e+00 0.000000000000000000e+00
-4.372689633190724456e-01 -1.369377767622633302e+00 6.435919454090300862e-01 -1.475368585727047988e+00 -1.002053227878850483e-03 0.000000000000000000e+00 0.000000000000000000e+00 0.000000000000000000e+00 0.000000000000000000e+00 0.000000000000000000e+00
-4.372689633190724456e-01 -1.369377767622633302e+00 6.435919454090300862e-01 -1.475368585727047988e+00 -1.002053227878850483e-03 0.000000000000000000e+00 0.000000000000000000e+00 0.000000000000000000e+00 0.000000000000000000e+00 0.000000000000000000e+00
-4.372689633190724456e-01 -1.369377767622633302e+00 6.435919454090300862e-01 -1.475368585727047988e+00 -1.002053227878850483e-03 0.000000000000000000e+00 0.000000000000000000e+00 0.000000000000000000e+00 0.000000000000000000e+00 0.000000000000000000e+00
-4.372689633190724456e-01 -1.369377767622633302e+00 6.435919454090300862e-01 -1.475368585727047988e+00 -1.002053227878850483e-03 0.000000000000000000e+00 0.000000000000000000e+00 0.000000000000000000e+00 0.000000000000000000e+00 0.000000000000000000e+00
-4.372689633190724456e-01 -1.369377767622633302e+00 6.435919454090300862e-01 -1.475368585727047988e+00 -1.002053227878850483e-03 0.000000000000000000e+00 0.000000000000000000e+00 0.000000000000000000e+00 0.000000000000000000e+00 0.000000000000000000e+00
-4.372689633190724456e-01 -1.369377767622633302e+00 6.435919454090300862e-01 -1.475368585727047988e+00 -1.002053227878850483e-03 0.000000000000000000e+00 0.000000000000000000e+00 0.000000000000000000e+00 0.000000000000000000e+00 0.000000000000000000e+00
-4.372689633190724456e-01 -1.369377767622633302e+00 6.435919454090300862e-01 -1.475368585727047988e+00 -1.002053227878850483e-03 0.000000000000000000e+00 0.000000000000000000e+00 0.000000000000000000e+00 0.000000000000000000e+00 0.000000000000000000e+00
-4.372689633190724456e-01 -1.369377767622633302e+00 6.435919454090300862e-01 -1.475368585727047988e+00 -1.002053227878850483e-03 0.000000000000000000e+00 0.000000000000000000e+00 0.000000000000000000e+00 0.000000000000000000e+00 0.000000000000000000e+00
-4.372689633190724456e-01 -1.369377767622633302e+00 6.435919454090300862e-01 -1.475368585727047988e+00 -1.002053227878850483e-03 0.000000000000000000e+00 0.000000000000000000e+00 0.000000000000000000e+00 0.000000000000000000e+00 0.000000000000000000e+00
-4.372689633190724456e-01 -1.369377767622633302e+00 6.435919454090300862e-01 -1.475368585727047988e+00 -1.002053227878850483e-03 0.000000000000000000e+00 0.000000000000000000e+00 0.000000000000000000e+00 0.000000000000000000e+00 0.000000000000000000e+00
-4.372689633190724456e-01 -1.369377767622633302e+00 6.435919454090300862e-01 -1.475368585727047988e+00 -1.002053227878850483e-03 0.000000000000000000e+00 0.000000000000000000e+00 0.000000000000000000e+00 0.000000000000000000e+00 0.000000000000000000e+00
-4.372689633190724456e-01 -1.369377767622633302e+00 6.435919454090300862e-01 -1.475368585727047988e+00 -1.002053227878850483e-03 0.000000000000000000e+00 0.000000000000000000e+00 0.000000000000000000e+00 0.000000000000000000e+00 0.000000000000000000e+00
-4.372689633190724456e-01 -1.369377767622633302e+00 6.435919454090300862e-01 -1.475368585727047988e+00 -1.002053227878850483e-03 0.000000000000000000e+00 0.000000000000000000e+00 0.000000000000000000e+00 0.000000000000000000e+00 0.000000000000000000e+00
-4.372689633190724456e-01 -1.369377767622633302e+00 6.435919454090300862e-01 -1.475368585727047988e+00 -1.002053227878850483e-03 0.000000000000000000e+00 0.000000000000000000e+00 0.000000000000000000e+00 0.000000000000000000e+00 0.000000000000000000e+00
-4.372689633190724456e-01 -1.369377767622633302e+00 6.435919454090300862e-01 -1.475368585727047988e+00 -1.002053227878850483e-03 0.000000000000000000e+00 0.000000000000000000e+00 0.000000000000000000e+00 0.000000000000000000e+00 0.000000000000000000e+00
-4.372689633190724456e-01 -1.369377767622633302e+00 6.435919454090300862e-01 -1.475368585727047988e+00 -1.002053227878850483e-03 0.000000000000000000e+00 0.000000000000000000e+00 0.000000000000000000e+00 0.000000000000000000e+00 0.000000000000000000e+00
-4.372689633190724456e-01 -1.369377767622633302e+00 6.435919454090300862e-01 -1.475368585727047988e+00 -1.002053227878850483e-03 0.000000000000000000e+00 0.000000000000000000e+00 0.000000000000000000e+00 0.000000000000000000e+00 0.000000000000000000e+00
-4.372689633190724456e-01 -1.369377767622633302e+00 6.435919454090300862e-01 -1.475368585727047988e+00 -1.002053227878850483e-03 0.000000000000000000e+00 0.000000000000000000e+00 0.000000000000000000e+00 0.000000000000000000e+00 0.000000000000000000e+00
-4.372689633190724456e-01 -1.369377767622633302e+00 6.435919454090300862e-01 -1.475368585727047988e+00 -1.002053227878850483e-03 0.000000000000000000e+00 0.000000000000000000e+00 0.000000000000000000e+00 0.000000000000000000e+00 0.000000000000000000e+00
-4.372689633190724456e-01 -1.369377767622633302e+00 6.435919454090300862e-01 -1.475368585727047988e+00 -1.002053227878850483e-03 0.000000000000000000e+00 0.000000000000000000e+00 0.000000000000000000e+00 0.000000000000000000e+00 0.000000000000000000e+00
