-3.596783118785961131e-01 -6.091950999898458896e-01 1.004454597949798522e+00 -1.138610534656365969e+00 9.206467516831264497e-04 -4.537058006590404813e-01 -3.614568196524735599e-01 -7.429428079284327024e-01 -1.211597639742462595e+00 -1.676520437310103197e-03
-3.827727634589003780e-01 -6.303053618973374350e-01 9.660271957543259402e-01 -1.197479887901377493e+00 7.678123132551974844e-04 -4.618890316060850765e-01 -4.222052381498298534e-01 -7.685480439094526384e-01 -1.177387064900228264e+00 -3.056688768558579305e-03
-4.059099266503153891e-01 -6.544125664539193199e-01 9.266288853885317200e-01 -1.252702705484331602e+00 5.622812506251442062e-04 -4.627432638283000554e-01 -4.821440911316370315e-01 -7.879662073158851809e-01 -1.104456351659080182e+00 -4.110621252601065131e-03
-4.287943052187433990e-01 -6.814385958267519250e-01 8.866000416283853491e-01 -1.302656254531845192e+00 3.233948116618941227e-04 -4.576875713685601421e-01 -5.405205874566531010e-01 -8.005768752029273072e-01 -9.990709809502731353e-01 -4.777728779265000801e-03
-4.511912062378478083e-01 -7.112773608881828302e-01 8.463542811434870972e-01 -1.346049249499585931e+00 7.068541127389337811e-05 -4.479380203820880757e-01 -5.967753012286177716e-01 -8.049152096979654836e-01 -8.678598993548165552e-01 -5.054188007760014242e-03
-4.729196608765155463e-01 -7.438031461545139278e-01 8.063849262525137895e-01 -1.381926858481129061e+00 -1.777471114565377019e-04 -4.345690927733548703e-01 -6.505157053266223954e-01 -7.993870978194653754e-01 -7.175521796308621525e-01 -4.968650454608620516e-03
-4.938476092447067201e-01 -7.788764809644282971e-01 7.672438999976908258e-01 -1.409664008562420578e+00 -4.065722192375352539e-04 -4.185589673638238639e-01 -7.014666961982878313e-01 -7.828205250964594963e-01 -5.547430016258313445e-01 -4.576502155619950607e-03
-5.138876405516130674e-01 -8.163475364934544842e-01 7.295038092093615312e-01 -1.428945342387764716e+00 -6.041220601972626617e-04 -4.008006261381276136e-01 -7.494211105805234086e-01 -7.548018157665847827e-01 -3.856266765068844249e-01 -3.950996819194549023e-03
-5.329926656653903860e-01 -8.560572254718292751e-01 6.937144047350827236e-01 -1.439736347920170356e+00 -7.629583888639229370e-04 -3.821005022755458724e-01 -7.941937795674965939e-01 -7.157880894855762621e-01 -2.158201106481137943e-01 -3.176726573333205506e-03
-5.511501775430338590e-01 -8.978371952425178160e-01 6.603637608639063572e-01 -1.442246327793102578e+00 -8.799684727043539196e-04 -3.631502375528700144e-01 -8.355993954137705959e-01 -6.670128774235264402e-01 -5.019959745864494005e-02 -2.340201676808620086e-03
-5.683752476156719302e-01 -9.415099001199077611e-01 6.298495357604039224e-01 -1.436884607729638885e+00 -9.559368981527004367e-04 -3.445014014527620905e-01 -8.734540975477980140e-01 -6.102845020700476963e-01 1.072344012692756920e-01 -1.519368508966930775e-03
-5.847035086764074130e-01 -9.868898606386442562e-01 6.024616631158168367e-01 -1.424212201268763467e+00 -9.949297248031381633e-04 -3.265652212147107658e-01 -9.075992103747296813e-01 -5.477574528917426022e-01 2.534481292175082556e-01 -7.798565330087554003e-04
-6.001847725888435070e-01 -1.033786694674620588e+00 5.783773281079344075e-01 -1.404891497826650237e+00 -1.003644630271837476e-03 -3.096252782487217692e-01 -9.379366807195262945e-01 -4.816867001576492502e-01 3.864140688422641468e-01 -1.742981093739875455e-04
-6.148780970025015113e-01 -1.082009708161925321e+00 5.576664556680294149e-01 -1.379637956495603612e+00 -9.913618895125938558e-04 -2.938664882731599759e-01 -9.644602697460947782e-01 -4.142174487980994080e-01 5.050708266209336106e-01 2.456548151848717432e-04
-6.288470689176911543e-01 -1.131374104760744848e+00 5.403072274590743351e-01 -1.349174605776304547e+00 -9.521462572834681450e-04 -2.793794383037918605e-01 -9.872879319763901984e-01 -3.471845641791025394e-01 6.092670143859828524e-01 7.843126445825148677e-04
-6.421570369277420642e-01 -1.181706942155616336e+00 5.262053158894773874e-01 -1.314195880322908128e+00 -9.022291471706405264e-04 -2.661993602010191973e-01 -1.006656747897431536e+00 -2.820382313919393980e-01 6.995745090679261757e-01 9.983422022565530216e-04
-6.548743457990880978e-01 -1.232852065818537790e+00 5.152129471160256102e-01 -1.275342034450786421e+00 -8.501760078090183107e-04 -2.543461774269215048e-01 -1.022902473258430200e+00 -2.198473754690345450e-01 7.770769174424327908e-01 1.041062787232444964e-03
-6.670659546207343693e-01 -1.284673641726873372e+00 5.071475064723138804e-01 -1.233183415528552374e+00 -8.014934820922039582e-04 -2.438321764329247909e-01 -1.036431518166713861e+00 -1.613088128742347083e-01 8.431723784446807368e-01 9.736505143362860762e-04
-6.788009847229364846e-01 -1.337057078915597774e+00 5.018051538157737301e-01 -1.188217864976176541e+00 -7.598353331623781569e-04 -2.347006020440429996e-01 -1.047668743774489597e+00 -1.068470531308025467e-01 8.993110110475148744e-01 8.331629785965151587e-04
-6.901508940479555987e-01 -1.389908063667613103e+00 4.989726888619930301e-01 -1.140875682277421976e+00 -7.275126194937558098e-04 -2.269981865003821708e-01 -1.057019695040306129e+00 -5.664929907561439687e-02 9.468436539750928471e-01 6.464542733724458565e-04
-7.011818974064454313e-01 -1.443151395817709348e+00 4.984459940733503847e-01 -1.091524588330330392e+00 -7.069102782772246612e-04 -2.206200671697965410e-01 -1.064866643001923574e+00 -1.053389577285269302e-02 9.870218789418323535e-01 4.120468243306232977e-04
-7.119382795277388043e-01 -1.496729553212786001e+00 5.000574426265238515e-01 -1.040476276235356989e+00 -7.061320703788952517e-04 -2.151276424258678488e-01 -1.071563147901531954e+00 3.222897106346869767e-02 1.020966241899467830e+00 1.556415796658916582e-05
-7.224229172663408916e-01 -1.550601146725799184e+00 5.037048829201403732e-01 -9.879924966445953194e-01 -7.587668879615231234e-04 -2.096927547720418283e-01 -1.077431870260262103e+00 7.294880587233004698e-02 1.049675591815233178e+00 -1.052696351652556567e-03
-7.325830757170032070e-01 -1.604739502807403406e+00 5.093754079394100520e-01 -9.342905577551883223e-01 -1.001583292452675909e-03 0.000000000000000000e+00 0.000000000000000000e+00 0.000000000000000000e+00 0.000000000000000000e+00 0.000000000000000000e+00
-7.325830757170032070e-01 -1.604739502807403406e+00 5.093754079394100520e-01 -9.342905577551883223e-01 -1.001583292452675909e-03 0.000000000000000000e+00 0.000000000000000000e+00 0.000000000000000000e+00 0.000000000000000000e+00 0.000000000000000000e+00
-7.325830757170032070e-01 -1.604739502807403406e+00 5.093754079394100520e-01 -9.342905577551883223e-01 -1.001583292452675909e-03 0.000000000000000000e+00 0.000000000000000000e+00 0.000000000000000000e+00 0.000000000000000000e+00 0.000000000000000000e+00
-7.325830757170032070e-01 -1.604739502807403406e+00 5.093754079394100520e-01 -9.342905577551883223e-01 -1.001583292452675909e-03 0.000000000000000000e+00 0.000000000000000000e+00 0.000000000000000000e+00 0.000000000000000000e+00 0.000000000000000000e+00
-7.325830757170032070e-01 -1.604739502807403406e+00 5.093754079394100520e-01 -9.342905577551883223e-01 -1.001583292452675909e-03 0.000000000000000000e+00 0.000000000000000000e+00 0.000000000000000000e+00 0.000000000000000000e+00 0.000000000000000000e+00
-7.325830757170032070e-01 -1.604739502807403406e+00 5.093754079394100520e-01 -9.342905577551883223e-01 -1.001583292452675909e-03 0.000000000000000000e+00 0.000000000000000000e+00 0.000000000000000000e+00 0.000000000000000000e+00 0.000000000000000000e+00
-7.325830757170032070e-01 -1.604739502807403406e+00 5.093754079394100520e-01 -9.342905577551883223e-01 -1.001583292452675909e-03 0.000000000000000000e+00 0.000000000000000000e+00 0.000000000000000000e+00 0.000000000000000000e+00 0.000000000000000000e+00
-7.325830757170032070e-01 -1.604739502807403406e+00 5.093754079394100520e-01 -9.342905577551883223e-01 -1.001583292452675909e-03 0.000000000000000000e+00 0.000000000000000000e+00 0.000000000000000000e+00 0.000000000000000000e+00 0.000000000000000000e+00
