-2.420171634586399390e-01 -8.362853711366831089e-01 9.662722567874437729e-01 -1.129376813169856941e+00 6.172191531733170890e-05 4.591500394184011569e-01 -5.002794257729408223e-01 3.730562171824012285e-01 3.845176146508415549e-01 4.973974145293898804e-04
-2.170332717211304052e-01 -8.614155829648808549e-01 9.877469809198217154e-01 -1.107615821697424785e+00 1.031013707091171317e-04 4.996778347501904527e-01 -5.026042365639552534e-01 4.294944826475595723e-01 4.352198294486445684e-01 8.275891078357083472e-04
-1.900587381276558352e-01 -8.865602330177787538e-01 1.012021549672632803e+00 -1.083747711232468269e+00 1.578429517701222936e-04 5.394906718694915115e-01 -5.028930010579586440e-01 4.854913750562217523e-01 4.773622092991323118e-01 1.094831621220103456e-03
-1.611209227684345935e-01 -9.116319901700935535e-01 1.039103220635120728e+00 -1.058212100556002566e+00 2.214914460865269677e-04 5.787563071844248341e-01 -5.014351430462962167e-01 5.416334192497578304e-01 5.107122135293123977e-01 1.272969886328093264e-03
-1.302283282701453826e-01 -9.365599810006787207e-01 1.069043804567550771e+00 -1.031440398505088396e+00 2.818493852820573749e-04 6.178518899657842178e-01 -4.985598166117030106e-01 5.988116786486017418e-01 5.354340410182836241e-01 1.207158783910607927e-03
-9.735898260309464036e-02 -9.612911916385241673e-01 1.101961391110422683e+00 -1.003848197577644097e+00 2.913399500785736991e-04 6.573869133410149557e-01 -4.946242127569099312e-01 6.583517308574369231e-01 5.518440185488844296e-01 1.898112959303269176e-04
-6.244596442599747305e-02 -9.857911870603490723e-01 1.138064937144944500e+00 -9.758260756409297132e-01 5.926817940710461265e-05 0.000000000000000000e+00 0.000000000000000000e+00 0.000000000000000000e+00 0.000000000000000000e+00 0.000000000000000000e+00
-6.244596442599747305e-02 -9.857911870603490723e-01 1.138064937144944500e+00 -9.758260756409297132e-01 5.926817940710461265e-05 0.000000000000000000e+00 0.000000000000000000e+00 0.000000000000000000e+00 0.000000000000000000e+00 0.000000000000000000e+00
-6.244596442599747305e-02 -9.857911870603490723e-01 1.138064937144944500e+00 -9.758260756409297132e-01 5.926817940710461265e-05 0.000000000000000000e+00 0.000000000000000000e+00 0.000000000000000000e+00 0.000000000000000000e+00 0.000000000000000000e+00
-6.244596442599747305e-02 -9.857911870603490723e-01 1.138064937144944500e+00 -9.758260756409297132e-01 5.926817940710461265e-05 0.000000000000000000e+00 0.000000000000000000e+00 0.000000000000000000e+00 0.000000000000000000e+00 0.000000000000000000e+00
-6.244596442599747305e-02 -9.857911870603490723e-01 1.138064937144944500e+00 -9.758260756409297132e-01 5.926817940710461265e-05 0.000000000000000000e+00 0.000000000000000000e+00 0.000000000000000000e+00 0.000000000000000000e+00 0.000000000000000000e+00
-6.244596442599747305e-02 -9.857911870603490723e-01 1.138064937144944500e+00 -9.758260756409297132e-01 5.926817940710461265e-05 0.000000000000000000e+00 0.000000000000000000e+00 0.000000000000000000e+00 0.000000000000000000e+00 0.000000000000000000e+00
-6.244596442599747305e-02 -9.857911870603490723e-01 1.138064937144944500e+00 -9.758260756409297132e-01 5.926817940710461265e-05 0.000000000000000000e+00 0.000000000000000000e+00 0.000000000000000000e+00 0.000000000000000000e+00 0.000000000000000000e+00
-6.244596442599747305e-02 -9.857911870603490723e-01 1.138064937144944500e+00 -9.758260756409297132e-01 5.926817940710461265e-05 0.000000000000000000e+00 0.000000000000000000e+00 0.000000000000000000e+00 0.000000000000000000e+00 0.000000000000000000e+00
-6.244596442599747305e-02 -9.857911870603490723e-01 1.138064937144944500e+00 -9.758260756409297132e-01 5.926817940710461265e-05 0.000000000000000000e+00 0.000000000000000000e+00 0.000000000000000000e+00 0.000000000000000000e+00 0.000000000000000000e+00
-6.244596442599747305e-02 -9.857911870603490723e-01 1.138064937144944500e+00 -9.758260756409297132e-01 5.926817940710461265e-05 0.000000000000000000e+00 0.000000000000000000e+00 0.000000000000000000e+00 0.000000000000000000e+00 0.000000000000000000e+00
-6.244596442599747305e-02 -9.857911870603490723e-01 1.138064937144944500e+00 -9.758260756409297132e-01 5.926817940710461265e-05 0.000000000000000000e+00 0.000000000000000000e+00 0.000000000000000000e+00 0.000000000000000000e+00 0.000000000000000000e+00
-6.244596442599747305e-02 -9.857911870603490723e-01 1.138064937144944500e+00 -9.758260756409297132e-01 5.926817940710461265e-05 0.000000000000000000e+00 0.000000000000000000e+00 0.000000000000000000e+00 0.000000000000000000e+00 0.000000000000000000e+00
-6.244596442599747305e-02 -9.857911870603490723e-01 1.138064937144944500e+00 -9.758260756409297132e-01 5.926817940710461265e-05 0.000000000000000000e+00 0.000000000000000000e+00 0.000000000000000000e+00 0.000000000000000000e+00 0.000000000000000000e+00
-6.244596442599747305e-02 -9.857911870603490723e-01 1.138064937144944500e+00 -9.758260756409297132e-01 5.926817940710461265e-05 0.000000000000000000e+00 0.000000000000000000e+00 0.000000000000000000e+00 0.000000000000000000e+00 0.000000000000000000e+00
-6.244596442599747305e-02 -9.857911870603490723e-01 1.138064937144944500e+00 -9.758260756409297132e-01 5.926817940710461265e-05 0.000000000000000000e+00 0.000000000000000000e+00 0.000000000000000000e+00 0.000000000000000000e+00 0.000000000000000000e+00
-6.244596442599747305e-02 -9.857911870603490723e-01 1.138064937144944500e+00 -9.758260756409297132e-01 5.926817940710461265e-05 0.000000000000000000e+00 0.000000000000000000e+00 0.000000000000000000e+00 0.000000000000000000e+00 0.000000000000000000e+00
-6.244596442599747305e-02 -9.857911870603490723e-01 1.138064937144944500e+00 -9.758260756409297132e-01 5.926817940710461265e-05 0.000000000000000000e+00 0.000000000000000000e+00 0.000000000000000000e+00 0.000000000000000000e+00 0.000000000000000000e+00
-6.244596442599747305e-02 -9.857911870603490723e-01 1.138064937144944500e+00 -9.758260756409297132e-01 5.926817940710461265e-05 0.000000000000000000e+00 0.000000000000000000e+00 0.000000000000000000e+00 0.000000000000000000e+00 0.000000000000000000e+00
-6.244596442599747305e-02 -9.857911870603490723e-01 1.138064937144944500e+00 -9.758260756409297132e-01 5.926817940710461265e-05 0.000000000000000000e+00 0.000000000000000000e+00 0.000000000000000000e+00 0.000000000000000000e+00 0.000000000000000000e+00
-6.244596442599747305e-02 -9.857911870603490723e-01 1.138064937144944500e+00 -9.758260756409297132e-01 5.926817940710461265e-05 0.000000000000000000e+00 0.000000000000000000e+00 0.000000000000000000e+00 0.000000000000000000e+00 0.000000000000000000e+00
-6.244596442599747305e-02 -9.857911870603490723e-01 1.138064937144944500e+00 -9.758260756409297132e-01 5.926817940710461265e-05 0.000000000000000000e+00 0.000000000000000000e+00 0.000000000000000000e+00 0.000000000000000000e+00 0.000000000000000000e+00
-6.244596442599747305e-02 -9.857911870603490723e-01 1.138064937144944500e+00 -9.758260756409297132e-01 5.926817940710461265e-05 0.000000000000000000e+00 0.000000000000000000e+00 0.000000000000000000e+00 0.000000000000000000e+00 0.000000000000000000e+00
-6.244596442599747305e-02 -9.857911870603490723e-01 1.138064937144944500e+00 -9.758260756409297132e-01 5.926817940710461265e-05 0.000000000000000000e+00 0.000000000000000000e+00 0.000000000000000000e+00 0.000000000000000000e+00 0.000000000000000000e+00
-6.244596442599747305e-02 -9.857911870603490723e-01 1.138064937144944500e+00 -9.758260756409297132e-01 5.926817940710461265e-05 0.000000000000000000e+00 0.000000000000000000e+00 0.000000000000000000e+00 0.000000000000000000e+00 0.000000000000000000e+00
-6.244596442599747305e-02 -9.857911870603490723e-01 1.138064937144944500e+00 -9.758260756409297132e-01 5.926817940710461265e-05 0.000000000000000000e+00 0.000000000000000000e+00 0.000000000000000000e+00 0.000000000000000000e+00 0.000000000000000000e+00
