-5.325758498238213068e-02 -5.004799614258115259e-01 7.643685747005738440e-01 -1.390787964995184645e+00 -1.012672251858294037e-03 8.721472657813532647e-01 -8.388868218257296006e-01 2.381376346136630795e-01 2.501918037618073853e-01 -1.978740778463917776e-04
-4.513068241509182732e-03 -5.431767999670700231e-01 7.812677908265431848e-01 -1.370860558468671275e+00 -1.013966907807258228e-03 9.748903348174589034e-01 -8.539367708251704991e-01 3.379843225193870371e-01 3.985481305302652766e-01 -2.589311897928343398e-05
4.962694540983755148e-02 -5.860906434818744515e-01 8.034058727223816199e-01 -1.343499285866713411e+00 -1.013636998582215882e-03 1.082800273026934601e+00 -8.582768702960896778e-01 4.427616379167684801e-01 5.472254520391578447e-01 6.598184500846255250e-06
1.093796965520921483e-01 -6.286431743546884165e-01 8.308944228182049141e-01 -1.308883610681458753e+00 -1.013719700350941035e-03 1.195055022845091797e+00 -8.510506174562783022e-01 5.497710019164647743e-01 6.923135037050938134e-01 -1.654035374504569434e-06
1.749012700226397210e-01 -6.702224345322712606e-01 8.636985742346710015e-01 -1.267367026281609910e+00 -1.014683737099157049e-03 1.310431469410951788e+00 -8.315852035516557716e-01 6.560830283293210829e-01 8.303316879969748765e-01 -1.928073496431922056e-05
2.462628174056497865e-01 -7.101952533471445062e-01 9.016240192659177310e-01 -1.219448338796268683e+00 -1.016012486544370279e-03 1.427230947660201199e+00 -7.994563762974637999e-01 7.585089006249353671e-01 9.583737497068266498e-01 -2.657498890426611920e-05
3.234250029614484934e-01 -7.479233552039803445e-01 9.443006993866590593e-01 -1.165734152887133002e+00 -1.014032287166711415e-03 1.543243711115973804e+00 -7.545620371367171009e-01 8.535336024148274525e-01 1.074283718182715397e+00 3.960398755317732280e-05
4.062140200068663498e-01 -7.827836924657411988e-01 9.911659656205636937e-01 -1.106894210052092209e+00 -9.954528685733161041e-04 1.655780340908357795e+00 -6.972067452352169736e-01 9.373053246780935766e-01 1.176798856700816742e+00 3.715883718679043697e-04
4.943043233086175103e-01 -8.141937541498758257e-01 1.041454745570083773e+00 -1.043612001824134383e+00 -9.319886571504709975e-04 1.761806066035023211e+00 -6.282012336826934273e-01 1.005775598990403363e+00 1.265644164559156737e+00 1.269284228456901264e-03
5.872143325401931735e-01 -8.416420502217122346e-01 1.094210093801308847e+00 -9.765375570870324928e-01 -8.120728538753755167e-04 1.858200184631512375e+00 -5.489659214367273998e-01 1.055106964624501709e+00 1.341488894742036475e+00 2.398316065501908748e-03
6.843239341493582151e-01 -8.647233018412545658e-01 1.148330679676319299e+00 -9.062408699521417033e-01 -6.299464638595334010e-04 1.942192032183301276e+00 -4.616250323908474007e-01 1.082411717500207482e+00 1.405933742697814903e+00 3.642527800316841015e-03
7.849156138349655532e-01 -8.831734195791342001e-01 1.202663977083640034e+00 -8.331798617383195937e-01 -3.836538343934776723e-04 2.011833593712147650e+00 -3.690023547575923546e-01 1.086665948146415372e+00 1.461220164276441746e+00 4.925852589321114139e-03
8.882398479398583291e-01 -8.968985360078957081e-01 1.256153857423314202e+00 -7.576886593501265255e-01 -7.593978936543154586e-05 2.066484682097854630e+00 -2.745023285752308806e-01 1.069797606793483125e+00 1.509824047763860699e+00 6.154280900560921662e-03
9.935921943098546816e-01 -9.059887260584885693e-01 1.308023885496132355e+00 -6.799936907314259038e-01 2.829224353007029941e-04 2.107046927399925718e+00 -1.818038010118571135e-01 1.037400561456363723e+00 1.553899372374011545e+00 7.177244493322690148e-03
1.100391071663656462e+00 -9.107092451654799081e-01 1.357972440185456708e+00 -6.002393841256339346e-01 6.676769737477531884e-04 2.135977547076035155e+00 -9.441038213982594351e-02 9.989710937864850759e-01 1.595086132115839828e+00 7.695090768941003669e-03
1.208245885810065090e+00 -9.114667639708985414e-01 1.406367594409254185e+00 -5.185188984921865751e-01 1.001541427846510280e-03 2.157096282928171238e+00 -1.515037610837238757e-02 9.679030844759495267e-01 1.634409712668946968e+00 6.677289081975143134e-03
1.317008862387259338e+00 -9.087487044771084266e-01 1.454426307558210230e+00 -4.348977997108615101e-01 1.001822636522356610e-03 0.000000000000000000e+00 0.000000000000000000e+00 0.000000000000000000e+00 0.000000000000000000e+00 0.000000000000000000e+00
1.317008862387259338e+00 -9.087487044771084266e-01 1.454426307558210230e+00 -4.348977997108615101e-01 1.001822636522356610e-03 0.000000000000000000e+00 0.000000000000000000e+00 0.000000000000000000e+00 0.000000000000000000e+00 0.000000000000000000e+00
1.317008862387259338e+00 -9.087487044771084266e-01 1.454426307558210230e+00 -4.348977997108615101e-01 1.001822636522356610e-03 0.000000000000000000e+00 0.000000000000000000e+00 0.000000000000000000e+00 0.000000000000000000e+00 0.000000000000000000e+00
1.317008862387259338e+00 -9.087487044771084266e-01 1.454426307558210230e+00 -4.348977997108615101e-01 1.001822636522356610e-03 0.000000000000000000e+00 0.000000000000000000e+00 0.000000000000000000e+00 0.000000000000000000e+00 0.000000000000000000e+00
1.317008862387259338e+00 -9.087487044771084266e-01 1.454426307558210230e+00 -4.348977997108615101e-01 1.001822636522356610e-03 0.000000000000000000e+00 0.000000000000000000e+00 0.000000000000000000e+00 0.000000000000000000e+00 0.000000000000000000e+00
1.317008862387259338e+00 -9.087487044771084266e-01 1.454426307558210230e+00 -4.348977997108615101e-01 1.001822636522356610e-03 0.000000000000000000e+00 0.000000000000000000e+00 0.000000000000000000e+00 0.000000000000000000e+00 0.000000000000000000e+00
1.317008862387259338e+00 -9.087487044771084266e-01 1.454426307558210230e+00 -4.348977997108615101e-01 1.001822636522356610e-03 0.000000000000000000e+00 0.000000000000000000e+00 0.000000000000000000e+00 0.000000000000000000e+00 0.000000000000000000e+00
1.317008862387259338e+00 -9.087487044771084266e-01 1.454426307558210230e+00 -4.348977997108615101e-01 1.001822636522356610e-03 0.000000000000000000e+00 0.000000000000000000e+00 0.000000000000000000e+00 0.000000000000000000e+00 0.000000000000000000e+00
1.317008862387259338e+00 -9.087487044771084266e-01 1.454426307558210230e+00 -4.348977997108615101e-01 1.001822636522356610e-03 0.000000000000000000e+00 0.000000000000000000e+00 0.000000000000000000e+00 0.000000000000000000e+00 0.000000000000000000e+00
1.317008862387259338e+00 -9.087487044771084266e-01 1.454426307558210230e+00 -4.348977997108615101e-01 1.001822636522356610e-03 0.000000000000000000e+00 0.000000000000000000e+00 0.000000000000000000e+00 0.000000000000000000e+00 0.000000000000000000e+00
1.317008862387259338e+00 -9.087487044771084266e-01 1.454426307558210230e+00 -4.348977997108615101e-01 1.001822636522356610e-03 0.000000000000000000e+00 0.000000000000000000e+00 0.000000000000000000e+00 0.000000000000000000e+00 0.000000000000000000e+00
1.317008862387259338e+00 -9.087487044771084266e-01 1.454426307558210230e+00 -4.348977997108615101e-01 1.001822636522356610e-03 0.000000000000000000e+00 0.000000000000000000e+00 0.000000000000000000e+00 0.000000000000000000e+00 0.000000000000000000e+00
1.317008862387259338e+00 -9.087487044771084266e-01 1.454426307558210230e+00 -4.348977997108615101e-01 1.001822636522356610e-03 0.000000000000000000e+00 0.000000000000000000e+00 0.000000000000000000e+00 0.000000000000000000e+00 0.000000000000000000e+00
1.317008862387259338e+00 -9.087487044771084266e-01 1.454426307558210230e+00 -4.348977997108615101e-01 1.001822636522356610e-03 0.000000000000000000e+00 0.000000000000000000e+00 0.000000000000000000e+00 0.000000000000000000e+00 0.000000000000000000e+00
1.317008862387259338e+00 -9.087487044771084266e-01 1.454426307558210230e+00 -4.348977997108615101e-01 1.001822636522356610e-03 0.000000000000000000e+00 0.000000000000000000e+00 0.000000000000000000e+00 0.000000000000000000e+00 0.000000000000000000e+00
