-3.257797108871806069e-01 -1.392241972540922412e-01 8.101887033129036020e-01 -1.231347637184125654e+00 0.000000000000000000e+00 -2.398735418692654262e-04 -4.723259910709891665e-05 3.991006776935196801e-04 -5.990587192344855230e-04 0.000000000000000000e+00
-3.240528531055830164e-01 -1.432375749557882050e-01 8.071533043691752063e-01 -1.237982483301627079e+00 -3.844239979806158361e-06 3.453715563195145638e-02 -8.026755403391944155e-02 -6.070797887456835101e-02 -1.326969223500278072e-01 -7.688479959612315028e-05
-3.203962284606031163e-01 -1.511945729895837198e-01 8.017318968530269263e-01 -1.249992940517820061e+00 -2.022095981584297783e-05 7.313249289959791732e-02 -1.591399606759103524e-01 -1.084281503229662935e-01 -2.402091443238584256e-01 -3.275343967207363250e-04
-3.146385254516199104e-01 -1.630040819760755211e-01 7.945372238608360282e-01 -1.266219485011050860e+00 -5.559045531495715258e-05 1.151540601796640362e-01 -2.361901797298361916e-01 -1.438934598438174339e-01 -3.245308898646150353e-01 -7.073899099822832104e-04
-3.066169022331483029e-01 -1.785529122047976591e-01 7.861442766001408566e-01 -1.285538712793564686e+00 -1.145363708255908177e-04 1.604324643694319819e-01 -3.109766045744429275e-01 -1.678589452139039040e-01 -3.863845556502776279e-01 -1.178918310212672977e-03
-2.961610875530140685e-01 -1.977097114048603499e-01 7.771085865553819527e-01 -1.306810562837644296e+00 -1.984407139282872877e-04 2.091162936026843000e-01 -3.831359840012539819e-01 -1.807138008951786334e-01 -4.254370008815914761e-01 -1.678086862053929616e-03
-2.830805063451842796e-01 -2.203277292405796950e-01 7.679871269969990033e-01 -1.328845193098562305e+00 -3.050557406600885304e-04 2.616116241565954459e-01 -4.523603567143869575e-01 -1.824291911676589883e-01 -4.406926052183607889e-01 -2.132300534636023988e-03
-2.671577804050322968e-01 -2.462439655766769930e-01 7.593546767022468780e-01 -1.350402000875831066e+00 -4.285381696763923033e-04 3.184545188030400986e-01 -5.183247267219460719e-01 -1.726490058950421180e-01 -4.311361555453744332e-01 -2.469648580326075024e-03
-2.481478082493688286e-01 -2.752755064603935597e-01 7.518126647021974307e-01 -1.370215593110044816e+00 -5.601784362314460829e-04 3.801994431132694197e-01 -5.806308176743308902e-01 -1.508402400009886679e-01 -3.962718446842738440e-01 -2.632805331101075157e-03
-2.257816684805163399e-01 -3.072130972789234304e-01 7.459878667295463117e-01 -1.387043575065229684e+00 -6.896344210631146637e-04 4.473227953770494980e-01 -6.387518163705974139e-01 -1.164959594530218523e-01 -3.365596391036994040e-01 -2.589119696633371617e-03
-1.997721810143963939e-01 -3.418142119325560113e-01 7.425214177559129602e-01 -1.399719296571975358e+00 -8.064634791533117474e-04 5.201897493223989200e-01 -6.920222930726511734e-01 -6.932897947266700167e-02 -2.535144301349116502e-01 -2.336581161803941240e-03
-1.698199292564453733e-01 -3.787961587645513051e-01 7.420494982408367690e-01 -1.407201599383339996e+00 -9.014099125862922758e-04 5.990450351590201894e-01 -7.396389366399058751e-01 -9.438390301523158499e-03 -1.496460562272944883e-01 -1.898928668659610568e-03
-1.356193575010384844e-01 -4.178299545601704135e-01 7.451790599093988110e-01 -1.408618009845786334e+00 -9.677065456721553908e-04 6.840114351081379995e-01 -7.806759159123821679e-01 6.259123337124108954e-02 -2.832820924892712200e-02 -1.325932661717261650e-03
-9.686494827144979947e-02 -4.585356203345249959e-01 7.524616929698907386e-01 -1.403297555183274925e+00 -1.002778547965974421e-03 7.750881845917736435e-01 -8.141133154870918709e-01 1.456526612098381634e-01 1.064090932502263498e-01 -7.014400458763821265e-04
-5.325758498238213068e-02 -5.004799614258115259e-01 7.643685747005738440e-01 -1.390787964995184645e+00 -1.012672251858294037e-03 8.721472657813532647e-01 -8.388868218257296006e-01 2.381376346136630795e-01 2.501918037618073853e-01 -1.978740778463917776e-04
-4.513068241509182732e-03 -5.431767999670700231e-01 7.812677908265431848e-01 -1.370860558468671275e+00 -1.013966907807258228e-03 9.748903348174589034e-01 -8.539367708251704991e-01 3.379843225193870371e-01 3.985481305302652766e-01 -2.589311897928343398e-05
4.962694540983755148e-02 -5.860906434818744515e-01 8.034058727223816199e-01 -1.343499285866713411e+00 -1.013636998582215882e-03 1.082800273026934601e+00 -8.582768702960896778e-01 4.427616379167684801e-01 5.472254520391578447e-01 6.598184500846255250e-06
1.093796965520921483e-01 -6.286431743546884165e-01 8.308944228182049141e-01 -1.308883610681458753e+00 -1.013719700350941035e-03 1.195055022845091797e+00 -8.510506174562783022e-01 5.497710019164647743e-01 6.923135037050938134e-01 -1.654035374504569434e-06
1.749012700226397210e-01 -6.702224345322712606e-01 8.636985742346710015e-01 -1.267367026281609910e+00 -1.014683737099157049e-03 1.310431469410951788e+00 -8.315852035516557716e-01 6.560830283293210829e-01 8.303316879969748765e-01 -1.928073496431922056e-05
2.462628174056497865e-01 -7.101952533471445062e-01 9.016240192659177310e-01 -1.219448338796268683e+00 -1.016012486544370279e-03 1.427230947660201199e+00 -7.994563762974637999e-01 7.585089006249353671e-01 9.583737497068266498e-01 -2.657498890426611920e-05
3.234250029614484934e-01 -7.479233552039803445e-01 9.443006993866590593e-01 -1.165734152887133002e+00 -1.014032287166711415e-03 1.543243711115973804e+00 -7.545620371367171009e-01 8.535336024148274525e-01 1.074283718182715397e+00 3.960398755317732280e-05
4.062140200068663498e-01 -7.827836924657411988e-01 9.911659656205636937e-01 -1.106894210052092209e+00 -9.954528685733161041e-04 1.655780340908357795e+00 -6.972067452352169736e-01 9.373053246780935766e-01 1.176798856700816742e+00 3.715883718679043697e-04
4.943043233086175103e-01 -8.141937541498758257e-01 1.041454745570083773e+00 -1.043612001824134383e+00 -9.319886571504709975e-04 1.761806066035023211e+00 -6.282012336826934273e-01 1.005775598990403363e+00 1.265644164559156737e+00 1.269284228456901264e-03
5.872143325401931735e-01 -8.416420502217122346e-01 1.094210093801308847e+00 -9.765375570870324928e-01 -8.120728538753755167e-04 1.858200184631512375e+00 -5.489659214367273998e-01 1.055106964624501709e+00 1.341488894742036475e+00 2.398316065501908748e-03
6.843239341493582151e-01 -8.647233018412545658e-01 1.148330679676319299e+00 -9.062408699521417033e-01 -6.299464638595334010e-04 1.942192032183301276e+00 -4.616250323908474007e-01 1.082411717500207482e+00 1.405933742697814903e+00 3.642527800316841015e-03
7.849156138349655532e-01 -8.831734195791342001e-01 1.202663977083640034e+00 -8.331798617383195937e-01 -3.836538343934776723e-04 2.011833593712147650e+00 -3.690023547575923546e-01 1.086665948146415372e+00 1.461220164276441746e+00 4.925852589321114139e-03
8.882398479398583291e-01 -8.968985360078957081e-01 1.256153857423314202e+00 -7.576886593501265255e-01 -7.593978936543154586e-05 2.066484682097854630e+00 -2.745023285752308806e-01 1.069797606793483125e+00 1.509824047763860699e+00 6.154280900560921662e-03
9.935921943098546816e-01 -9.059887260584885693e-01 1.308023885496132355e+00 -6.799936907314259038e-01 2.829224353007029941e-04 2.107046927399925718e+00 -1.818038010118571135e-01 1.037400561456363723e+00 1.553899372374011545e+00 7.177244493322690148e-03
1.100391071663656462e+00 -9.107092451654799081e-01 1.357972440185456708e+00 -6.002393841256339346e-01 6.676769737477531884e-04 2.135977547076035155e+00 -9.441038213982594351e-02 9.989710937864850759e-01 1.595086132115839828e+00 7.695090768941003669e-03
1.208245885810065090e+00 -9.114667639708985414e-01 1.406367594409254185e+00 -5.185188984921865751e-01 1.001541427846510280e-03 2.157096282928171238e+00 -1.515037610837238757e-02 9.679030844759495267e-01 1.634409712668946968e+00 6.677289081975143134e-03
1.317008862387259338e+00 -9.087487044771084266e-01 1.454426307558210230e+00 -4.348977997108615101e-01 1.001822636522356610e-03 2.175259531543886293e+00 5.436118987580275397e-02 9.611742629791222292e-01 1.672421975626500856e+00 5.624173516926601890e-06
