Objects,,,,,,,,,,,,,,,,,,,
800,,,,,,,,,,,,,,,,,,,
,,Global Angle elbow:elbow,,,,,,Global Angle shoulder:shoulder,,,,,,Global Angle wrist:wrist,,,,,
Frame,Sub Frame,RX,RY,RZ,TX,TY,TZ,RX,RY,RZ,TX,TY,TZ,RX,RY,RZ,TX,TY,TZ
,,rad,rad,rad,mm,mm,mm,rad,rad,rad,mm,mm,mm,rad,rad,rad,mm,mm,mm
1,0,0.318688,-1.881011,0.695109,-216.218918,18.247322,28.362368,1.537336,-0.046437,2.866409,-328.588562,106.608803,197.06189,3.707065,0.045453,0.836959,-80.819824,185.477829,21.530462
2,0,0.3203,-1.88481,0.696328,-215.548431,18.501337,29.374033,1.543143,0.017664,2.890203,-328.484314,107.040787,197.337204,3.706107,0.049195,0.847525,-80.312706,185.841843,23.352623
3,0,0.319856,-1.892097,0.698489,-214.840744,18.776514,30.427143,1.546887,0.069606,2.908422,-328.382477,107.504425,197.604065,3.706272,0.054574,0.855098,-79.816048,186.209976,25.191328
4,0,0.318102,-1.894501,0.698891,-214.159698,19.027935,31.452789,1.549934,0.129438,2.92899,-328.282196,107.959793,197.891983,3.705074,0.058219,0.864927,-79.318413,186.570053,27.042364
5,0,0.318464,-1.899523,0.701685,-213.480698,19.303967,32.477173,1.551946,0.184031,2.946209,-328.153259,108.428131,198.179916,3.704465,0.062598,0.872573,-78.804466,186.938583,28.894642
6,0,0.315591,-1.905764,0.703645,-212.77211,19.57246,33.522163,1.553756,0.236344,2.961657,-328.072113,108.882164,198.437851,3.704102,0.067392,0.881591,-78.313316,187.29953,30.746515
7,0,0.317164,-1.910049,0.704209,-212.130264,19.836952,34.535248,1.55707,0.332662,2.986866,-327.95105,109.367294,198.756607,3.703124,0.07205,0.892314,-77.798454,187.669403,32.591904
8,0,0.315821,-1.915491,0.706707,-211.409668,20.120275,35.622864,1.560061,0.429309,3.007841,-327.839661,109.813278,199.003342,3.702253,0.076268,0.901834,-77.293625,188.041656,34.437119
9,0,0.314409,-1.918135,0.706879,-210.70929,20.408949,36.682674,1.547907,0.314008,2.987017,-327.714508,110.315529,199.349243,3.701127,0.080267,0.911403,-76.797363,188.404709,36.297024
10,0,0.315602,-1.923613,0.710277,-210.045639,20.693487,37.747089,1.549293,0.380724,3.002573,-327.615112,110.776741,199.582382,3.701333,0.08564,0.919423,-76.299767,188.769989,38.157284
11,0,0.312665,-1.929947,0.711584,-209.31723,20.961151,38.788456,1.540289,0.30408,2.9884,-327.486176,111.266571,199.901825,3.700096,0.08938,0.928121,-75.788643,189.141556,40.025131
12,0,0.313362,-1.933489,0.714475,-208.673706,21.26598,39.866169,1.541507,0.385114,3.007915,-327.388306,111.748123,200.177734,3.699668,0.09397,0.93636,-75.287621,189.504379,41.898361
13,0,0.312291,-1.937866,0.716889,-207.941528,21.56391,40.971535,1.535474,0.340384,3.000117,-327.244232,112.231339,200.480438,3.698885,0.098066,0.944901,-74.795029,189.878799,43.75985
14,0,0.311419,-1.943008,0.715734,-207.254837,21.8519,42.02314,1.528852,0.29619,2.992384,-327.139069,112.717323,200.755569,3.697351,0.102375,0.954597,-74.294006,190.244675,45.641426
15,0,0.31086,-1.949779,0.718113,-206.586044,22.156988,43.118427,1.520442,0.233401,2.979731,-327.009705,113.217567,201.078918,3.696613,0.106781,0.963861,-73.792747,190.613937,47.507019
16,0,0.309626,-1.952935,0.721334,-205.863678,22.449896,44.18544,1.520013,0.268469,2.989705,-326.895966,113.694069,201.34845,3.69591,0.111538,0.972257,-73.290405,190.978485,49.389442
17,0,0.308948,-1.958863,0.722641,-205.203949,22.755926,45.307037,1.50648,0.150182,2.962054,-326.767151,114.231743,201.669128,3.695327,0.116301,0.981789,-72.782425,191.349472,51.265499
18,0,0.309341,-1.96356,0.722372,-204.494324,23.06175,46.395008,1.507155,0.190529,2.974201,-326.64975,114.695641,201.932404,3.694259,0.119255,0.989468,-72.298759,191.714462,53.146275
19,0,0.307248,-1.968549,0.726097,-203.780533,23.367403,47.502995,1.49292,0.079024,2.945172,-326.522217,115.209435,202.254959,3.693711,0.123894,0.998174,-71.779381,192.089325,55.043056
20,0,0.305267,-1.973635,0.727944,-203.084885,23.676121,48.605923,1.499662,0.198627,2.980471,-326.383331,115.692307,202.562897,3.692933,0.12786,1.00593,-71.302452,192.453568,56.936634
21,0,0.305689,-1.978423,0.728112,-202.38974,23.995539,49.726875,1.491343,0.135293,2.965316,-326.250977,116.199654,202.852356,3.691771,0.132785,1.014925,-70.80407,192.823395,58.826584
22,0,0.305108,-1.982657,0.730932,-201.689377,24.3153,50.85421,1.481653,0.06794,2.947268,-326.123962,116.696564,203.145615,3.690578,0.136312,1.024362,-70.309647,193.194489,60.721363
23,0,0.302883,-1.9893,0.733367,-200.978073,24.628447,51.972977,1.485276,0.147575,2.972367,-325.980286,117.200294,203.446899,3.690175,0.140258,1.03196,-69.819237,193.564392,62.612144
24,0,0.304325,-1.992835,0.734915,-200.315674,24.951506,53.083141,1.47512,0.07947,2.955173,-325.826599,117.706284,203.76825,3.689752,0.145548,1.040074,-69.326538,193.939041,64.515121
25,0,0.301272,-1.997652,0.737576,-199.584763,25.279036,54.261616,1.399894,-0.392861,2.78268,-325.846161,118.159729,203.921661,3.688633,0.149354,1.049392,-68.826576,194.318909,66.402245
26,0,0.301427,-2.003648,0.738407,-198.891266,25.608385,55.370914,1.388541,-0.437653,2.763875,-325.713287,118.67189,204.246384,3.688107,0.153194,1.05795,-68.321526,194.697403,68.313118
27,0,0.300396,-2.008934,0.740566,-198.18161,25.92551,56.505268,1.384018,-0.444071,2.762759,-325.586304,119.187073,204.532104,3.687404,0.156876,1.066177,-67.851349,195.074448,70.212479
28,0,0.298044,-2.012573,0.742739,-197.484314,26.267742,57.693172,1.317293,-0.729693,2.607479,-325.414795,119.715858,204.8815,3.687211,0.161865,1.074101,-67.367828,195.453995,72.130882
29,0,0.298586,-2.018906,0.743255,-196.792084,26.592499,58.828625,1.349441,-0.587577,2.692255,-325.305847,120.204597,205.138992,3.686217,0.165916,1.083689,-66.860008,195.835602,74.028687
30,0,0.296293,-2.022709,0.746918,-196.07872,26.919516,59.976494,1.333675,-0.646917,2.661441,-325.132813,120.743683,205.463409,3.685594,0.169227,1.090184,-66.392899,196.218994,75.950363
31,0,0.295773,-2.028409,0.748502,-195.400818,27.259987,61.155632,1.336241,-0.625572,2.676203,-325.041321,121.256035,205.764008,3.685389,0.175434,1.098234,-65.901596,196.592239,77.859138
32,0,0.295685,-2.028397,0.746891,-194.713089,27.40983,62.280361,1.294987,-0.7815,2.583729,-324.870483,121.77523,206.097061,3.684304,0.178328,1.105964,-65.441719,196.976028,79.77684
33,0,0.292892,-2.033226,0.75079,-194.033371,27.751205,63.463463,1.325131,-0.651392,2.66633,-324.777771,122.301353,206.391388,3.683734,0.183438,1.112375,-64.951866,197.362381,81.693764
34,0,0.293047,-2.039161,0.751573,-193.314697,28.092211,64.621819,1.265458,-0.872441,2.527425,-324.623535,122.81427,206.716141,3.682686,0.187197,1.120846,-64.481735,197.751358,83.600006
35,0,0.291916,-2.043889,0.753503,-192.602219,28.440557,65.811272,1.299236,-0.737847,2.618647,-324.481995,123.344788,207.008286,3.681896,0.191791,1.128169,-64.021698,198.136673,85.525574
36,0,0.291183,-2.049396,0.755699,-191.939529,28.781977,66.999619,1.295756,-0.74044,2.620317,-324.347931,123.877647,207.345093,3.680294,0.196735,1.137783,-63.542507,198.538712,87.438187
37,0,0.289977,-2.05437,0.757125,-191.205124,29.14045,68.172874,1.306811,-0.683274,2.656836,-324.169037,124.394867,207.635712,3.678931,0.200477,1.14615,-63.078819,198.930206,89.359299
38,0,0.28877,-2.059463,0.759684,-190.537918,29.492407,69.397911,1.267304,-0.833624,2.563975,-324.05896,124.919106,207.945831,3.677929,0.205999,1.154177,-62.600143,199.331329,91.27919
39,0,0.287685,-2.06503,0.761989,-189.803833,29.850599,70.560257,1.26318,-0.837794,2.564206,-323.902618,125.448105,208.283859,3.675897,0.209788,1.163432,-62.151691,199.731659,93.189857
40,0,0.286718,-2.069571,0.763846,-189.110748,30.212513,71.791145,1.299312,-0.681703,2.665189,-323.76297,125.976128,208.592194,3.674946,0.214983,1.170591,-61.699352,200.131393,95.106346
41,0,0.28669,-2.075453,0.764666,-188.422333,30.566942,72.973183,1.279555,-0.752245,2.62459,-323.591248,126.503738,208.925827,3.674043,0.219848,1.178241,-61.22736,200.540176,97.015221
42,0,0.28458,-2.078938,0.768387,-187.705231,30.932518,74.188858,1.292628,-0.688221,2.665874,-323.479889,127.042488,209.210556,3.672348,0.223664,1.185787,-60.791512,200.942413,98.933067
43,0,0.284368,-2.085738,0.7692,-187.044632,31.288889,75.404747,1.23148,-0.921186,2.517014,-323.332703,127.590103,209.554535,3.671052,0.228466,1.194927,-60.327095,201.355087,100.847466
44,0,0.282274,-2.089939,0.77234,-186.31337,31.659178,76.6091,1.268625,-0.771198,2.61952,-323.189941,128.116104,209.851318,3.669682,0.233642,1.202161,-59.88829,201.768631,102.771278
45,0,0.281459,-2.09511,0.774377,-185.630768,32.036263,77.835571,1.248119,-0.839777,2.579094,-323.036743,128.678802,210.201355,3.667978,0.237215,1.211546,-59.448738,202.182831,104.690445
46,0,0.279753,-2.100592,0.775855,-184.922562,32.407421,79.057022,1.213747,-0.958194,2.498589,-322.899628,129.223312,210.527084,3.665905,0.241875,1.21961,-59.000729,202.608047,106.611801
47,0,0.279338,-2.105542,0.77817,-184.248703,32.783203,80.279556,1.198274,-1.003657,2.46581,-322.774445,129.751099,210.802002,3.664784,0.246838,1.226351,-58.574383,203.023407,108.538025
48,0,0.278179,-2.111443,0.779033,-183.562256,33.158161,81.510551,1.159165,-1.119463,2.377389,-322.604523,130.320786,211.157349,3.662542,0.250571,1.235925,-58.131435,203.450089,110.455536
49,0,0.276697,-2.11597,0.781379,-182.853073,33.540955,82.735687,1.271021,-0.704749,2.673595,-322.465881,130.863785,211.467316,3.661449,0.256394,1.242684,-57.717319,203.87384,112.37854
50,0,0.27542,-2.122351,0.783467,-182.172852,33.924755,83.968102,1.257947,-0.748946,2.648843,-322.281982,131.395218,211.790405,3.659491,0.260546,1.250106,-57.302544,204.300491,114.29866
51,0,0.273011,-2.127276,0.785506,-181.481354,34.308029,85.223747,1.243479,-0.803537,2.616952,-322.178741,131.962967,212.099426,3.657588,0.265077,1.259789,-56.869576,204.735016,116.199432
52,0,0.273053,-2.132208,0.787451,-180.819214,34.692734,86.446014,1.140185,-1.152915,2.360471,-322.004578,132.515533,212.447403,3.655281,0.270782,1.267584,-56.45015,205.171982,118.12365
53,0,0.270617,-2.136964,0.789235,-180.127441,35.097515,87.708168,1.110699,-1.229472,2.29535,-321.852448,133.054245,212.781403,3.662364,0.28407,1.252909,-56.083431,205.511948,120.063499
54,0,0.270511,-2.14265,0.791365,-179.44545,35.48328,88.954674,1.153772,-1.097751,2.412762,-321.718475,133.619095,213.102325,3.659491,0.289134,1.263355,-55.65797,205.971344,121.957634
55,0,0.268345,-2.146953,0.793378,-178.747894,35.887772,90.210976,1.104425,-1.23702,2.294603,-321.547272,134.182312,213.450867,3.657426,0.294183,1.27036,-55.261848,206.424713,123.878609
56,0,0.267461,-2.152532,0.795252,-178.077072,36.285606,91.465759,1.133589,-1.148542,2.375482,-321.434174,134.739624,213.726349,3.65537,0.299084,1.277086,-54.866394,206.871094,125.794319
57,0,0.265954,-2.1575,0.797768,-177.37706,36.707035,92.72039,1.119444,-1.184415,2.347362,-321.260834,135.305466,214.091995,3.652478,0.304097,1.287267,-54.477043,207.330353,127.700073
58,0,0.264722,-2.161803,0.799519,-176.71463,37.107479,93.987518,1.122241,-1.17085,2.362052,-321.128479,135.865509,214.410889,3.649091,0.308266,1.29646,-54.084858,207.794052,129.617615
59,0,0.263466,-2.167947,0.802088,-176.026566,37.520752,95.240402,1.057373,-1.34392,2.204536,-320.97583,136.427826,214.763809,3.646323,0.313825,1.305178,-53.689156,208.260391,131.537781
60,0,0.262136,-2.173083,0.803941,-175.36026,37.93642,96.538216,1.038732,-1.386462,2.164022,-320.84201,136.991882,215.080353,3.642815,0.318102,1.31587,-53.309124,208.730392,133.444183
61,0,0.261373,-2.178213,0.805589,-174.696945,38.359718,97.784332,1.07265,-1.296013,2.257196,-320.710632,137.563522,215.429504,3.63992,0.323385,1.32508,-52.940403,209.199066,135.353317
62,0,0.258798,-2.181983,0.80781,-174.014297,38.788094,99.064957,1.054219,-1.340004,2.217694,-320.550903,138.103165,215.750015,3.637322,0.328328,1.332415,-52.578659,209.670609,137.259125
63,0,0.258697,-2.18875,0.809252,-173.362473,39.213989,100.330772,1.106143,-1.190741,2.358942,-320.396973,138.671173,216.079376,3.633891,0.332835,1.341373,-52.2075,210.149384,139.169006
64,0,0.256285,-2.192719,0.81182,-172.668671,39.643494,101.62252,1.046647,-1.353431,2.210708,-320.231049,139.259155,216.44397,3.630461,0.337948,1.351267,-51.828991,210.640976,141.075378
65,0,0.255725,-2.198548,0.813225,-172.02829,40.076969,102.892334,1.027229,-1.399452,2.166434,-320.116272,139.804596,216.743317,3.626848,0.341306,1.359627,-51.482937,211.117722,142.987946
66,0,0.253552,-2.203314,0.816203,-171.354599,40.513958,104.190758,0.988134,-1.488294,2.072062,-319.957123,140.370438,217.091278,3.623195,0.346169,1.368902,-51.138618,211.602158,144.904449
67,0,0.25283,-2.207677,0.817881,-170.724167,40.953289,105.478317,0.939128,-1.590037,1.955476,-319.786194,140.929825,217.467834,3.619451,0.351035,1.378452,-50.764214,212.1064,146.801865
68,0,0.250621,-2.212978,0.81958,-170.0345,41.402493,106.744293,0.956667,-1.551763,2.006199,-319.652802,141.50264,217.802795,3.616028,0.356704,1.387701,-50.413948,212.610474,148.70549
69,0,0.249498,-2.217368,0.822494,-169.404449,41.847454,108.063751,0.885811,-1.689631,1.829678,-319.481689,142.067047,218.130997,3.612617,0.359964,1.394449,-50.083332,213.103561,150.607498
70,0,0.247971,-2.223458,0.823907,-168.730896,42.298595,109.344681,0.926035,-1.61263,1.936348,-319.37674,142.631027,218.448654,3.609304,0.364405,1.4028,-49.756279,213.601013,152.50032
71,0,0.24688,-2.227408,0.826659,-168.109695,42.750717,110.655525,0.906244,-1.650128,1.892113,-319.195221,143.217377,218.813751,3.605536,0.370018,1.410912,-49.40596,214.115387,154.410187
72,0,0.245167,-2.232693,0.828385,-167.442581,43.208611,111.929024,0.888087,-1.682473,1.851887,-319.031342,143.778412,219.166931,3.602252,0.375376,1.417802,-49.079021,214.613876,156.31842
73,0,0.244405,-2.237475,0.8303,-166.818298,43.671329,113.24115,0.925301,-1.607818,1.954451,-318.90094,144.345276,219.479431,3.597609,0.378827,1.426794,-48.76532,215.138428,158.225693
74,0,0.242118,-2.242356,0.833017,-166.148712,44.145161,114.536476,0.90319,-1.651014,1.902213,-318.740051,144.922775,219.866241,3.593673,0.383206,1.435664,-48.457649,215.654236,160.122238
75,0,0.242028,-2.248038,0.83348,-165.535965,44.608139,115.839851,0.902497,-1.651081,1.906258,-318.641907,145.497116,220.191895,3.589767,0.387674,1.444637,-48.123066,216.178574,162.005997
76,0,0.239197,-2.251947,0.837191,-164.880814,45.081169,117.147629,0.840713,-1.761636,1.753966,-318.446777,146.046432,220.539383,3.586333,0.393168,1.451916,-47.787563,216.704285,163.899475
77,0,0.238386,-2.257844,0.837867,-164.276703,45.550507,118.449463,0.892354,-1.666551,1.893119,-318.27713,146.617844,220.88205,3.58175,0.397268,1.461141,-47.481438,217.232697,165.791122
78,0,0.236624,-2.262567,0.840398,-163.640549,46.030888,119.749039,0.891954,-1.66636,1.898445,-318.147156,147.207626,221.242493,3.57732,0.40091,1.468655,-47.188442,217.753281,167.689499
79,0,0.234972,-2.267245,0.842636,-163.029831,46.516193,121.07209,0.819188,-1.796591,1.713587,-317.986877,147.760513,221.580063,3.572456,0.405548,1.47782,-46.88895,218.295349,169.577133
80,0,0.233471,-2.272566,0.844179,-162.395157,47.000572,122.369438,0.83644,-1.766146,1.764044,-317.85376,148.3349,221.915405,3.567187,0.409669,1.488713,-46.568741,218.835861,171.457047
81,0,0.231553,-2.276596,0.847059,-161.797989,47.491154,123.70591,0.82773,-1.780206,1.747969,-317.718231,148.901886,222.284683,3.562078,0.413945,1.499307,-46.251217,219.378922,173.338913
82,0,0.230244,-2.282085,0.849131,-161.177612,47.976387,125.00116,0.831655,-1.772798,1.76403,-317.549896,149.47464,222.613297,3.542701,0.41158,1.54785,-46.041332,219.848404,175.296997
83,0,0.228802,-2.286386,0.851011,-160.578796,48.473999,126.316101,0.865513,-1.709778,1.85856,-317.402954,150.063324,222.966782,3.54104,0.416026,1.548942,-45.741623,220.390717,177.172852
84,0,0.228013,-2.291283,0.853526,-159.971832,48.971172,127.636108,0.845213,-1.74772,1.810157,-317.25116,150.624893,223.297729,3.537333,0.420302,1.553369,-45.420601,220.952484,179.043472
85,0,0.226302,-2.297382,0.854536,-159.383026,49.474213,128.951065,0.805753,-1.816608,1.708889,-317.125031,151.208435,223.653931,3.534553,0.425821,1.556534,-45.101009,221.512039,180.906052
86,0,0.224684,-2.301313,0.857643,-158.784958,49.977509,130.271988,0.783645,-1.85248,1.655874,-316.946045,151.769882,223.994202,3.53132,0.430131,1.560872,-44.809738,222.070892,182.783096
87,0,0.222409,-2.30658,0.859423,-158.196442,50.487885,131.590286,0.714593,-1.953759,1.479146,-316.805176,152.326279,224.34584,3.528641,0.434026,1.56527,-44.520096,222.627838,184.664001
88,0,0.221426,-2.312063,0.861299,-157.61792,51.000141,132.907639,0.760018,-1.889497,1.603658,-316.647034,152.934448,224.715012,3.526015,0.438996,1.569787,-44.232357,223.176025,186.547913
89,0,0.218668,-2.316062,0.864476,-157.010742,51.523983,134.232986,0.695871,-1.980069,1.438297,-316.491028,153.483383,225.074203,3.521734,0.443064,1.577297,-43.923428,223.740555,188.413116
90,0,0.218237,-2.321627,0.865766,-156.447189,52.039532,135.539368,0.741897,-1.916671,1.564332,-316.370331,154.070663,225.379211,3.517674,0.448143,1.584843,-43.606091,224.303665,190.273102
91,0,0.216377,-2.326003,0.868599,-155.856781,52.570271,136.862656,0.683156,-1.99871,1.41116,-316.186493,154.653107,225.756897,3.512346,0.451651,1.594114,-43.306149,224.867828,192.130844
92,0,0.213666,-2.330576,0.871389,-155.290024,53.095516,138.206894,0.711328,-1.961638,1.491968,-316.042236,155.244354,226.097168,3.508708,0.455287,1.600597,-43.02132,225.429764,194.005844
93,0,0.213239,-2.336844,0.872663,-154.723083,53.628063,139.522217,0.742839,-1.915485,1.583309,-315.884888,155.822464,226.453339,3.505651,0.45862,1.604838,-42.757992,225.984909,195.88295
94,0,0.211135,-2.340462,0.875393,-154.147583,54.162746,140.852783,0.720616,-1.947914,1.528274,-315.732513,156.392746,226.7854,3.501822,0.461941,1.611574,-42.481949,226.54277,197.748611
95,0,0.209101,-2.345771,0.878286,-153.591629,54.697021,142.18074,0.746696,-1.910084,1.601864,-315.643951,157.006226,227.137466,3.497597,0.466096,1.619097,-42.17205,227.105988,199.606049
96,0,0.208343,-2.350876,0.879669,-153.027969,55.239491,143.507751,0.723894,-1.945317,1.544081,-315.46521,157.588013,227.49881,3.492804,0.470306,1.628796,-41.861309,227.668015,201.452148
97,0,0.204185,-2.355572,0.883571,-152.471466,55.784485,144.851578,0.736086,-1.927722,1.581396,-315.314392,158.191345,227.830521,3.488278,0.474023,1.637898,-41.560001,228.248276,203.300323
98,0,0.204799,-2.36073,0.88467,-151.927795,56.328568,146.17485,0.710114,-1.966859,1.515275,-315.180939,158.792267,228.222015,3.484328,0.476309,1.645402,-41.266407,228.823669,205.147263
99,0,0.202197,-2.365299,0.887137,-151.359985,56.885571,147.49353,0.669861,-2.024155,1.406088,-315.030487,159.391663,228.556442,3.480442,0.479203,1.651404,-41.002537,229.377579,207.011383
100,0,0.199268,-2.369247,0.890662,-150.83345,57.440731,148.851334,0.693629,-1.993618,1.474006,-314.929749,160.002426,228.933029,3.476146,0.482459,1.658491,-40.704163,229.954315,208.860046
101,0,0.198693,-2.374796,0.892154,-150.277374,58.006237,150.177582,0.67232,-2.022385,1.42119,-314.763947,160.573441,229.248459,3.471979,0.486073,1.666129,-40.399715,230.521896,210.697922
102,0,0.19602,-2.379721,0.894571,-149.728806,58.568947,151.50795,0.64929,-2.054138,1.359452,-314.618011,161.192398,229.621552,3.467825,0.489564,1.673989,-40.104462,231.097473,212.526917
103,0,0.194086,-2.383248,0.897659,-149.190994,59.129295,152.849564,0.580597,-2.134633,1.171223,-314.475769,161.798599,229.991531,3.464295,0.49269,1.681318,-39.809673,231.676468,214.359344
104,0,0.192786,-2.389082,0.899662,-148.662537,59.697948,154.181381,0.555845,-2.160348,1.106935,-314.340088,162.381653,230.31279,3.46137,0.495579,1.686851,-39.527454,232.243851,216.20224
105,0,0.190361,-2.393323,0.90196,-148.124771,60.267563,155.525574,0.49795,-2.212629,0.947986,-314.204437,163.002274,230.680237,3.458846,0.499398,1.692328,-39.247654,232.81366,218.053497
106,0,0.188378,-2.398061,0.905746,-147.599808,60.840839,156.87291,0.474395,-2.233177,0.883592,-314.091431,163.625473,231.047592,3.456104,0.502682,1.697607,-38.960068,233.384842,219.886353
107,0,0.187124,-2.402313,0.906665,-147.061493,61.42244,158.202042,0.45088,-2.251183,0.820792,-313.985962,164.230896,231.396667,3.451899,0.505757,1.705984,-38.649334,233.97081,221.711121
108,0,0.184641,-2.406961,0.909883,-146.544418,62.003956,159.530167,0.446849,-2.256143,0.810057,-313.845062,164.836105,231.7397,3.446938,0.508345,1.71567,-38.340744,234.55751,223.537094
109,0,0.183703,-2.410222,0.912085,-146.005478,62.5835,160.884537,0.609563,-2.100454,1.275281,-313.75882,165.258041,231.66214,3.443877,0.511522,1.722415,-38.040085,235.134598,225.358215
110,0,0.181844,-2.416804,0.913488,-145.497391,63.167015,162.22905,0.622572,-2.086555,1.31819,-313.565033,165.862091,232.020218,3.441021,0.514259,1.727884,-37.765869,235.698853,227.189316
111,0,0.178129,-2.421101,0.916736,-144.977081,63.754215,163.5616,0.64768,-2.054537,1.392433,-313.466278,166.475998,232.355453,3.438943,0.517345,1.730997,-37.488838,236.265549,229.026718
112,0,0.177274,-2.424513,0.918853,-144.450867,64.34668,164.913651,0.654377,-2.046754,1.416107,-313.32431,167.092392,232.699387,3.436946,0.521439,1.735991,-37.196556,236.838013,230.847519
113,0,0.175109,-2.429099,0.921128,-143.936874,64.931206,166.237488,0.635402,-2.071975,1.366818,-313.212952,167.676147,233.05275,3.433468,0.52453,1.743893,-36.888687,237.426147,232.655258
114,0,0.173421,-2.434464,0.922558,-143.433914,65.530556,167.598053,0.631631,-2.078353,1.358444,-313.083527,168.301895,233.366638,3.429314,0.527597,1.752366,-36.561863,238.022034,234.455933
115,0,0.171735,-2.438201,0.925781,-142.914063,66.13015,168.933655,0.607844,-2.108516,1.294106,-312.949829,168.900406,233.715866,3.426244,0.530931,1.759746,-36.254551,238.610764,236.256836
116,0,0.169243,-2.443092,0.927623,-142.402496,66.723488,170.260605,0.59926,-2.119986,1.27275,-312.804718,169.503265,234.019897,3.423646,0.53373,1.765275,-35.953777,239.191803,238.063293
117,0,0.167113,-2.446967,0.929023,-141.902405,67.317169,171.601761,0.618192,-2.097748,1.332623,-312.658752,170.131485,234.417892,3.421027,0.536359,1.77131,-35.662888,239.774734,239.863541
118,0,0.165848,-2.451566,0.932598,-141.414383,67.918442,172.947372,0.609447,-2.10939,1.310192,-312.561096,170.718979,234.713364,3.418667,0.539097,1.777095,-35.358707,240.353363,241.662598
119,0,0.1645,-2.456075,0.933106,-140.913071,68.512566,174.292633,0.595277,-2.127584,1.273236,-312.450287,171.343979,235.069351,3.415695,0.542427,1.784707,-35.044601,240.938644,243.446213
120,0,0.160421,-2.461478,0.936095,-140.396637,69.123398,175.60965,0.599294,-2.123829,1.286546,-312.354156,171.957687,235.385208,3.41244,0.546143,1.792844,-34.704517,241.540848,245.225601
121,0,0.15963,-2.46408,0.937309,-139.908524,69.732231,176.96431,0.575346,-2.15318,1.220596,-312.198273,172.56395,235.708694,3.41062,0.549174,1.797458,-34.4034,242.119324,247.020279
122,0,0.15924,-2.469404,0.938866,-139.415405,70.336128,178.2883,0.575357,-2.154378,1.22508,-312.039612,173.181961,236.079102,3.40973,0.552779,1.800597,-34.122883,242.706848,248.820313
123,0,0.15588,-2.47458,0.94113,-138.920502,70.942078,179.622253,0.587295,-2.141365,1.264253,-311.874939,173.778748,236.410461,3.408871,0.554846,1.803219,-33.839699,243.274155,250.615952
124,0,0.153701,-2.477897,0.942625,-138.427216,71.560127,180.976013,0.564438,-2.168622,1.201122,-311.784332,174.389252,236.756973,3.40581,0.557392,1.810186,-33.527756,243.870392,252.379807
125,0,0.152815,-2.482068,0.94519,-137.930313,72.177361,182.284653,0.57996,-2.15219,1.246591,-311.786591,175.024246,237.055618,3.402569,0.56037,1.81819,-33.198509,244.464798,254.143829
126,0,0.151259,-2.486578,0.945979,-137.445175,72.796165,183.617706,0.590879,-2.139503,1.286559,-311.564789,175.6371,237.457001,3.3998,0.562767,1.825352,-32.86834,245.071075,255.908127
127,0,0.147647,-2.491308,0.948947,-136.984161,73.410576,184.963821,0.572954,-2.162287,1.235364,-311.46405,176.247406,237.759125,3.398782,0.567296,1.82974,-32.568275,245.655655,257.679749
128,0,0.1475,-2.495569,0.949641,-136.509262,74.033836,186.298065,0.595115,-2.136096,1.305022,-311.376068,176.866638,238.0923,3.397276,0.570284,1.833942,-32.266762,246.240921,259.449158
129,0,0.14675,-2.499443,0.950856,-136.006119,74.657913,187.614426,0.576241,-2.160133,1.253771,-311.15329,177.477127,238.45549,3.387258,0.56593,1.861069,-31.982023,246.900513,261.025635
130,0,0.141553,-2.502987,0.954524,-135.520538,75.28376,188.942093,0.558931,-2.180453,1.207009,-311.037506,178.057861,238.763031,3.385019,0.568456,1.867344,-31.674654,247.502213,262.769592
131,0,0.140806,-2.508034,0.954555,-135.069946,75.920769,190.289322,0.563771,-2.173221,1.191674,-311.739227,178.615326,238.403748,3.38359,0.571772,1.871992,-31.381247,248.099152,264.529755
132,0,0.140303,-2.513174,0.956481,-134.604294,76.543411,191.613464,0.548185,-2.191238,1.153111,-311.461914,179.221985,238.782837,3.382185,0.574237,1.876034,-31.072664,248.692795,266.289368
133,0,0.138328,-2.516369,0.958534,-134.111221,77.185921,192.94693,0.534816,-2.206279,1.113484,-311.421356,179.837158,239.079437,3.380093,0.577368,1.881844,-30.751966,249.295746,268.034088
134,0,0.135256,-2.519969,0.96008,-133.636093,77.82354,194.265686,0.515461,-2.227866,1.062317,-311.173126,180.438599,239.455978,3.375664,0.579327,1.891038,-30.408497,249.918274,269.752045
135,0,0.13358,-2.524203,0.962255,-133.185852,78.463257,195.584778,0.501865,-2.24095,1.022162,-311.149963,181.047287,239.74884,3.37449,0.582682,1.895728,-30.091787,250.527359,271.49472
136,0,0.133149,-2.528899,0.963532,-132.727692,79.114433,196.934494,0.487758,-2.255885,0.982538,-311.005463,181.672989,240.089264,3.373844,0.585107,1.897658,-29.796139,251.126083,273.236359
137,0,0.130613,-2.533044,0.965804,-132.255096,79.757851,198.250046,0.47138,-2.26985,0.929938,-311.118683,182.284088,240.330917,3.373258,0.588009,1.90012,-29.494154,251.724487,274.97821
138,0,0.128171,-2.53664,0.966738,-131.796997,80.40461,199.579712,0.452911,-2.286968,0.881311,-310.849487,182.868576,240.687057,3.37017,0.590792,1.907974,-29.171791,252.350723,276.685303
139,0,0.125708,-2.53942,0.969333,-131.345551,81.055542,200.904602,0.434954,-2.301935,0.829025,-310.732727,183.47731,241.028778,3.36595,0.593119,1.9168,-28.834368,252.979401,278.386902
140,0,0.125771,-2.544515,0.970119,-130.886765,81.709694,202.234924,0.417213,-2.31636,0.777742,-310.59491,184.091034,241.354721,3.36375,0.595971,1.922902,-28.517771,253.605698,280.101837
141,0,0.12399,-2.549096,0.971768,-130.432861,82.366539,203.556549,0.400295,-2.328147,0.727009,-310.552124,184.695786,241.655365,3.361933,0.598435,1.927389,-28.214722,254.23259,281.821259
142,0,0.120021,-2.551643,0.975187,-129.999008,83.029297,204.86467,0.383143,-2.339421,0.677025,-310.460907,185.308487,241.944122,3.360147,0.601148,1.932248,-27.901451,254.861053,283.539215
143,0,0.119645,-2.555497,0.974972,-129.584412,83.69709,206.206985,0.366517,-2.35001,0.626469,-310.405273,185.924896,242.247879,3.357676,0.603378,1.938445,-27.577349,255.495728,285.236389
144,0,0.118935,-2.560414,0.975812,-129.132843,84.365349,207.520905,0.349604,-2.360267,0.577074,-310.258331,186.533325,242.573395,3.35651,0.606167,1.942347,-27.278402,256.124847,286.945099
145,0,0.116495,-2.563426,0.978639,-128.663818,85.04586,208.845245,0.332831,-2.369741,0.528145,-310.102173,187.135605,242.90715,3.356313,0.60921,1.943001,-26.985767,256.743713,288.661804
146,0,0.114373,-2.566671,0.980174,-128.221695,85.720306,210.165268,0.31706,-2.37657,0.479512,-310.092163,187.74025,243.187943,3.35386,0.611615,1.948711,-26.681545,257.387543,290.359863
147,0,0.111054,-2.569957,0.982729,-127.800125,86.388351,211.468613,0.305732,-2.381568,0.443943,-310.072327,188.367523,243.468658,3.34965,0.613996,1.956823,-26.353556,258.048218,292.024841
148,0,0.110093,-2.573877,0.984077,-127.407982,87.069427,212.8228,0.285862,-2.390464,0.385945,-309.824097,188.973526,243.831192,3.346604,0.616769,1.963684,-26.037176,258.706604,293.691376
149,0,0.108528,-2.577919,0.985607,-126.985428,87.749565,214.13591,0.268848,-2.394984,0.333267,-309.819214,189.587479,244.097076,3.345414,0.619441,1.96691,-25.742445,259.349609,295.378357
150,0,0.107348,-2.582083,0.986325,-126.547859,88.434799,215.437729,0.246107,-2.401752,0.26551,-309.65625,190.192734,244.419022,3.34559,0.621528,1.96703,-25.462795,259.979675,297.072906
151,0,0.104766,-2.585291,0.988052,-126.133545,89.131149,216.771561,0.228752,-2.403544,0.212446,-309.684875,190.803421,244.693069,3.342758,0.62332,1.973929,-25.15139,260.658905,298.738525
152,0,0.101654,-2.589108,0.991065,-125.712395,89.82579,218.070679,0.217881,-2.407772,0.179764,-309.473145,191.40657,245.038574,3.34033,0.625308,1.978208,-24.8494,261.316101,300.405212
153,0,0.101239,-2.592147,0.991098,-125.316887,90.528275,219.39238,0.211721,-2.407865,0.158359,-309.549957,192.036987,245.273193,3.337813,0.628081,1.98414,-24.538624,261.985779,302.060669
154,0,0.09938,-2.594416,0.993485,-124.906761,91.225945,220.706757,0.209712,-2.410686,0.151306,-309.419617,192.646713,245.586929,3.335233,0.631456,1.988246,-24.239143,262.64978,303.714203
155,0,0.097617,-2.598228,0.994636,-124.476563,91.931198,222.016968,0.193406,-2.413326,0.101875,-309.217712,193.248306,245.923309,3.331602,0.633433,1.994777,-23.930468,263.328003,305.368652
156,0,0.096753,-2.603984,0.99547,-124.069618,92.638313,223.337616,0.196027,-2.414846,0.108515,-309.155151,193.855545,246.208694,3.327571,0.635144,2.002358,-23.611599,264.010162,307.005096
157,0,0.093729,-2.605555,0.998723,-123.687881,93.344849,224.640717,0.183593,-2.41563,0.067776,-309.138885,194.466431,246.472824,3.324335,0.63689,2.008205,-23.320713,264.695038,308.647797
158,0,0.09439,-2.608637,0.998299,-123.313362,94.05719,225.958969,0.184443,-2.415489,0.068511,-309.208374,195.075684,246.726532,3.322706,0.639202,2.011303,-23.026356,265.380493,310.296844
159,0,0.092639,-2.612876,1.000225,-122.950935,94.768532,227.270081,0.195938,-2.420343,0.101935,-308.949249,195.688904,247.08432,3.319817,0.64047,2.016693,-22.751043,266.060364,311.936768
160,0,0.091877,-2.615479,1.001044,-122.573547,95.491417,228.594101,0.177926,-2.420769,0.046352,-308.858643,196.29245,247.379044,3.316566,0.641671,2.022166,-22.451332,266.763855,313.554749
161,0,0.090384,-2.61838,1.002104,-122.205345,96.212288,229.888016,0.176974,-2.421951,0.040913,-308.81781,196.896759,247.647354,3.314297,0.643849,2.025474,-22.17194,267.444916,315.188293
162,0,0.089031,-2.622799,1.003198,-121.798309,96.936646,231.180984,0.169458,-2.42274,0.016048,-308.743378,197.50383,247.929321,3.313817,0.645923,2.026555,-21.898722,268.130646,316.822632
163,0,0.088975,-2.625247,1.003689,-121.424843,97.662766,232.511826,0.162562,-2.422657,-0.007159,-308.707703,198.113129,248.205566,3.310906,0.646721,2.029931,-21.619755,268.826355,318.452148
164,0,0.088268,-2.628892,1.005164,-121.055397,98.39048,233.793823,0.156194,-2.423316,-0.028908,-308.637756,198.728348,248.482742,3.307307,0.649016,2.036292,-21.322903,269.54483,320.05777
165,0,0.089429,-2.6309,1.004527,-120.719307,99.118858,235.097977,0.168989,-2.427855,0.008929,-308.484192,199.3414,248.787354,3.302051,0.649287,2.045026,-21.023581,270.262695,321.663269
166,0,0.08718,-2.633693,1.005629,-120.358589,99.854897,236.388077,0.147619,-2.424139,-0.059433,-308.511536,199.952408,249.037003,3.298453,0.650923,2.050751,-20.720592,270.985809,323.264038
167,0,0.0873,-2.637184,1.005896,-120.010941,100.602173,237.688995,0.161212,-2.429816,-0.019087,-308.344635,200.557724,249.331253,3.295835,0.653166,2.054484,-20.439142,271.695038,324.880127
168,0,0.087153,-2.639541,1.006973,-119.645264,101.353668,238.970078,0.138009,-2.424718,-0.093018,-308.394379,201.171097,249.562912,3.292165,0.654065,2.058741,-20.13736,272.415131,326.491669
169,0,0.084642,-2.642121,1.00836,-119.293007,102.096024,240.245148,0.134753,-2.42717,-0.105287,-308.170166,201.787445,249.893661,3.288797,0.655059,2.06298,-19.839565,273.138397,328.075104
170,0,0.083499,-2.646936,1.007775,-118.938103,102.84948,241.545761,0.153877,-2.434003,-0.048019,-308.02829,202.404709,250.199051,3.283839,0.65569,2.070373,-19.546236,273.869171,329.653107
171,0,0.083019,-2.64928,1.009283,-118.594887,103.590988,242.817963,0.113648,-2.422152,-0.175406,-308.150024,203.019363,250.402069,3.280737,0.656767,2.075104,-19.259066,274.586456,331.241333
172,0,0.083314,-2.651822,1.009176,-118.251945,104.343323,244.091583,0.124034,-2.427743,-0.145724,-308.042328,203.629547,250.665421,3.276869,0.657252,2.079699,-18.978445,275.314972,332.8284
173,0,0.083105,-2.656156,1.008449,-117.916214,105.098946,245.383728,0.112603,-2.423858,-0.182539,-308.075012,204.24263,250.909866,3.274726,0.658966,2.083216,-18.696712,276.047882,334.410187
174,0,0.082834,-2.658686,1.009473,-117.596916,105.854088,246.651062,0.126699,-2.432752,-0.140263,-307.777679,204.848694,251.239655,3.272409,0.660003,2.085599,-18.434618,276.784637,335.991852
175,0,0.083893,-2.66056,1.009232,-117.259163,106.621033,247.909943,0.099441,-2.42339,-0.228198,-307.800476,205.461868,251.481689,3.268054,0.660557,2.091358,-18.158491,277.53653,337.556732
176,0,0.082338,-2.664674,1.009646,-116.939888,107.389305,249.185013,0.088849,-2.421987,-0.272455,-308.094604,206.020157,251.460403,3.264337,0.661862,2.098195,-17.8713,278.30191,339.118439
177,0,0.082124,-2.667393,1.009597,-116.62281,108.156822,250.453735,0.100743,-2.42812,-0.238494,-308.044098,206.621704,251.71283,3.261992,0.662833,2.100794,-17.602758,279.050751,340.68988
178,0,0.082358,-2.669004,1.010452,-116.296921,108.920708,251.707672,0.112462,-2.434353,-0.204525,-307.969543,207.239471,251.970322,3.259187,0.663067,2.103265,-17.337793,279.787872,342.251465
179,0,0.080389,-2.672556,1.010653,-115.97496,109.693756,252.974594,0.123873,-2.439462,-0.17117,-307.920441,207.84903,252.220718,3.2563,0.664714,2.107017,-17.068005,280.53299,343.820007
180,0,0.079317,-2.675634,1.010818,-115.664429,110.472641,254.23735,0.139996,-2.446046,-0.122221,-307.861694,208.475372,252.461136,3.252102,0.665131,2.112564,-16.792604,281.298584,345.363922
181,0,0.077973,-2.677067,1.012308,-115.337181,111.24984,255.479874,0.154,-2.451498,-0.080151,-307.790283,209.089508,252.731567,3.249763,0.665594,2.116049,-16.524364,282.051453,346.915039
182,0,0.076852,-2.680714,1.011881,-115.036598,112.03125,256.753784,0.167014,-2.455748,-0.041065,-307.735962,209.699554,252.967957,3.246643,0.666962,2.120386,-16.253141,282.817566,348.462097
183,0,0.074819,-2.683682,1.013512,-114.735382,112.815331,257.996185,0.165143,-2.456809,-0.048441,-307.658508,210.299088,253.216888,3.242353,0.667149,2.125884,-15.95407,283.58374,349.990753
184,0,0.075536,-2.68506,1.0128,-114.430183,113.608818,259.247833,0.143213,-2.452314,-0.12306,-307.595276,210.903381,253.468933,3.238841,0.667734,2.130201,-15.689131,284.347504,351.528778
185,0,0.040191,-2.694761,1.034559,-113.858223,114.489861,260.230957,0.124045,-2.447283,-0.186734,-307.526367,211.506699,253.723557,3.237006,0.66859,2.132745,-15.435806,285.101379,353.088043
186,0,0.040857,-2.696916,1.035308,-113.574875,115.273621,261.4776,0.124315,-2.448027,-0.188725,-307.504852,212.106094,253.93692,3.235338,0.669524,2.134999,-15.169606,285.861023,354.617432
187,0,0.037093,-2.699499,1.036797,-113.265205,116.087334,262.708252,0.141171,-2.455294,-0.13762,-307.412201,212.725998,254.196609,3.229987,0.668635,2.141955,-14.87639,286.633972,356.116669
188,0,0.035341,-2.702869,1.038801,-112.990295,116.885635,263.942871,0.146174,-2.45793,-0.123734,-307.356842,213.323669,254.432999,3.226434,0.669779,2.146586,-14.595307,287.40921,357.637482
189,0,0.034057,-2.705618,1.03952,-112.678886,117.705833,265.173981,0.164386,-2.46438,-0.067044,-307.288147,213.926193,254.677628,3.225856,0.671057,2.147074,-14.346107,288.168457,359.180939
190,0,0.031216,-2.708092,1.041699,-112.434166,118.504028,266.39859,0.147133,-2.460674,-0.126564,-307.229065,214.535492,254.92131,3.221809,0.670934,2.153278,-14.069245,288.94928,360.684875
191,0,0.029526,-2.711621,1.042497,-112.136185,119.333008,267.640656,0.149009,-2.462344,-0.123371,-307.176819,215.132736,255.163437,3.217302,0.670597,2.158885,-13.785502,289.726898,362.176239
192,0,0.02699,-2.713752,1.044852,-111.88237,120.1409,268.845276,0.139685,-2.460819,-0.156248,-307.088959,215.732056,255.40274,3.215292,0.671194,2.162048,-13.511441,290.49527,363.682465
193,0,0.024764,-2.717261,1.045902,-111.611,120.969215,270.084961,0.146317,-2.463848,-0.137161,-307.043762,216.325745,255.62236,3.213453,0.671834,2.164505,-13.249141,291.267731,365.20755
194,0,0.022126,-2.720149,1.048091,-111.335365,121.792671,271.296967,0.136371,-2.461283,-0.173121,-306.998474,216.929718,255.847931,3.21013,0.671688,2.169066,-12.973484,292.046844,366.697449
195,0,0.020446,-2.721798,1.049158,-111.07608,122.610413,272.5112,0.137786,-2.462954,-0.170935,-306.930115,217.518112,256.089294,3.205876,0.671348,2.174601,-12.686237,292.825928,368.172333
196,0,0.01655,-2.725535,1.051784,-110.797035,123.449699,273.732697,0.124298,-2.458552,-0.219132,-306.876373,218.10556,256.316925,3.2047,0.672785,2.176883,-12.426523,293.588409,369.671417
197,0,0.015534,-2.727719,1.0524,-110.552216,124.277969,274.950348,0.117567,-2.456667,-0.244738,-306.808167,218.714874,256.554657,3.204704,0.674084,2.176545,-12.167846,294.355347,371.18042
198,0,0.011012,-2.729286,1.05582,-110.269783,125.121681,276.139374,0.11944,-2.458191,-0.242545,-306.75885,219.301697,256.781525,3.199976,0.677254,2.181281,-11.88752,295.190491,372.672333
199,0,0.009235,-2.732328,1.05657,-110.043373,125.95591,277.374207,0.128856,-2.463435,-0.213922,-306.68869,219.904358,257.007202,3.197229,0.677891,2.185095,-11.61811,295.9664,374.142273
200,0,0.005144,-2.735087,1.059314,-109.78183,126.801117,278.562225,0.110033,-2.455208,-0.280436,-306.663666,220.495117,257.214081,3.196775,0.678659,2.185174,-11.357001,296.74353,375.637543
201,0,0.003687,-2.737694,1.059563,-109.577324,127.626869,279.783447,0.0837,-2.442102,-0.369893,-306.577484,221.080505,257.444153,3.197054,0.688491,2.177606,-11.166885,297.495514,377.057953
202,0,-0.001141,-2.741196,1.062516,-109.321594,128.48616,280.984161,0.087295,-2.44505,-0.361362,-306.504211,221.681641,257.667603,3.192996,0.688657,2.183385,-10.899947,298.278168,378.516785
203,0,-0.001232,-2.743016,1.062821,-109.116104,129.309448,282.186279,0.064459,-2.430855,-0.44076,-306.467285,222.275528,257.87146,3.192591,0.690576,2.18317,-10.649695,299.037079,379.993195
204,0,-0.006212,-2.746212,1.066349,-108.860611,130.163376,283.380768,0.055217,-2.425117,-0.474939,-306.385681,222.866455,258.096252,3.192312,0.691335,2.184229,-10.366747,299.824188,381.467163
205,0,-0.007842,-2.748566,1.0668,-108.639069,131.009201,284.57959,0.06496,-2.432066,-0.446755,-306.332642,223.447449,258.297668,3.187162,0.691039,2.191691,-10.088176,300.615295,382.907379
206,0,-0.009952,-2.750567,1.069113,-108.394447,131.853409,285.762146,0.053214,-2.424082,-0.488898,-306.278595,224.03421,258.499786,3.185885,0.692391,2.19327,-9.842746,301.387543,384.363586
207,0,-0.01372,-2.75406,1.070596,-108.170982,132.708908,286.961487,0.067299,-2.434703,-0.446309,-306.198425,224.611435,258.724579,3.18549,0.692793,2.193606,-9.585928,302.159576,385.837097
208,0,-0.015117,-2.755777,1.07282,-107.968323,133.542252,288.139832,0.05018,-2.422767,-0.506162,-306.125366,225.195938,258.93335,3.181838,0.69391,2.198183,-9.317341,302.942566,387.275269
209,0,-0.017627,-2.759983,1.073932,-107.753387,134.403244,289.339844,0.032372,-2.408775,-0.569764,-306.062622,225.779114,259.154907,3.179269,0.694733,2.201538,-9.070138,303.733643,388.718414
210,0,-0.019634,-2.76135,1.075722,-107.569984,135.240555,290.517731,0.049622,-2.423019,-0.515922,-305.984344,226.361252,259.368439,3.179087,0.696127,2.202441,-8.824465,304.523346,390.171722
211,0,-0.023684,-2.763294,1.077859,-107.348274,136.100861,291.693817,0.003027,-2.382604,-0.672864,-305.944122,226.891098,259.536377,3.168812,0.694817,2.217611,-8.478942,305.394562,391.718994
212,0,-0.026566,-2.765881,1.079114,-107.153923,136.953156,292.877747,0.038452,-2.413995,-0.560168,-305.880646,227.507996,259.760345,3.165225,0.694817,2.221285,-8.235966,306.180145,393.138519
213,0,-0.028773,-2.766795,1.081063,-106.949615,137.804886,294.051575,0.053898,-2.426816,-0.512078,-305.805084,228.096909,259.978149,3.165272,0.69554,2.222603,-7.998788,306.968292,394.589264
214,0,-0.031188,-2.770519,1.081849,-106.753326,138.661728,295.231537,0.033825,-2.410106,-0.583092,-305.764282,228.670944,260.166809,3.162474,0.696901,2.225473,-7.744397,307.754883,396.022583
215,0,-0.033535,-2.772896,1.083938,-106.566826,139.511765,296.397827,0.01841,-2.396763,-0.63775,-305.680389,229.250198,260.37735,3.159546,0.694875,2.233553,-7.546143,308.64212,397.379944
216,0,-0.036539,-2.776382,1.085431,-106.360886,140.373795,297.564819,0.033812,-2.410546,-0.58985,-305.619141,229.809723,260.589111,3.158146,0.693691,2.235632,-7.307394,309.434448,398.805145
217,0,-0.040516,-2.778312,1.086973,-106.154549,141.228302,298.726257,0.035659,-2.412014,-0.587478,-305.560211,230.392059,260.779938,3.157099,0.695554,2.235939,-7.072141,310.228088,400.233429
218,0,-0.044453,-2.779576,1.08949,-105.954697,142.094147,299.864044,0.008989,-2.387431,-0.679857,-305.497284,230.942352,260.979797,3.155152,0.696898,2.238291,-6.828771,311.016449,401.645782
219,0,-0.048777,-2.782214,1.090009,-105.748199,142.972015,301.036469,0.001651,-2.380108,-0.707122,-305.43161,231.521515,261.17746,3.152356,0.695898,2.242821,-6.582288,311.82312,403.065186
220,0,-0.05195,-2.785009,1.092636,-105.584579,143.827927,302.160065,-0.024895,-2.351278,-0.798578,-305.382813,232.098923,261.36261,3.149187,0.69698,2.245278,-6.352396,312.62262,404.471832
221,0,-0.052681,-2.788128,1.092851,-105.399414,144.689499,303.343719,-0.036637,-2.337693,-0.839393,-305.343994,232.649094,261.545715,3.148582,0.697061,2.245646,-6.113224,313.417084,405.870972
222,0,-0.05708,-2.789747,1.094786,-105.208931,145.545532,304.454071,-0.050902,-2.320513,-0.889861,-305.271576,233.215683,261.748962,3.100865,0.669679,2.317527,-5.946156,314.750549,406.852356
223,0,-0.056321,-2.792199,1.094638,-105.042191,146.393082,305.629395,-0.059921,-2.308357,-0.923268,-305.228333,233.776184,261.930756,3.118416,0.662466,2.297053,-5.941296,315.380402,407.977051
224,0,-0.060144,-2.793604,1.097493,-104.838898,147.266144,306.753204,-0.06584,-2.301159,-0.946339,-305.119446,234.328903,262.154114,3.116117,0.662897,2.298891,-5.704446,316.176971,409.386688
225,0,-0.061667,-2.795953,1.097538,-104.707321,148.119614,307.911133,-0.0714,-2.293672,-0.969342,-305.030548,234.873627,262.384888,3.114719,0.664196,2.300673,-5.492047,316.975189,410.769623
226,0,-0.064692,-2.797852,1.099047,-104.542381,148.971252,309.029816,-0.080537,-2.282084,-1.004022,-304.866974,235.411469,262.655212,3.113125,0.665273,2.302469,-5.261798,317.764893,412.151733
227,0,-0.068105,-2.800668,1.100764,-104.368233,149.838867,310.171936,-0.089572,-2.270129,-1.038901,-304.730621,235.941635,262.932465,3.108626,0.664314,2.307839,-5.033924,318.57785,413.537842
228,0,-0.070745,-2.80258,1.100999,-104.174973,150.708191,311.285797,-0.098796,-2.257823,-1.076188,-304.535217,236.473724,263.275391,3.107607,0.666927,2.307201,-4.812728,319.360229,414.91861
229,0,-0.074219,-2.804488,1.10316,-103.987396,151.578979,312.399261,-0.107645,-2.246336,-1.114322,-304.24234,236.985947,263.685547,3.104195,0.664406,2.311368,-4.601987,320.186462,416.268036
230,0,-0.07503,-2.806722,1.10322,-103.821571,152.439041,313.532867,-0.118164,-2.230811,-1.159081,-303.99408,237.501572,264.088196,3.09597,0.663508,2.321878,-4.335967,321.03125,417.619171
231,0,-0.079255,-2.809833,1.105583,-103.670341,153.312027,314.633545,-0.124557,-2.222876,-1.190715,-303.664246,238.000839,264.567566,3.094824,0.662502,2.322811,-4.148595,321.822662,418.983765
232,0,-0.079813,-2.810827,1.105118,-103.552444,154.166412,315.749786,-0.131176,-2.213949,-1.225447,-303.297302,238.479294,265.082916,3.089221,0.66267,2.329129,-3.91221,322.636139,420.33194
233,0,-0.081166,-2.813422,1.105791,-103.377487,155.035599,316.854767,-0.143345,-2.19644,-1.277379,-302.894409,238.897308,265.629333,3.086488,0.663813,2.330848,-3.708689,323.425995,421.686523
234,0,-0.081721,-2.814786,1.105918,-103.211014,155.904953,317.958954,-0.143345,-2.19644,-1.277379,-302.894409,238.897308,265.629333,3.082742,0.661687,2.335795,-3.49153,324.245544,423.03067
235,0,-0.084604,-2.817425,1.106659,-103.06675,156.777771,319.063049,-0.143345,-2.19644,-1.277379,-302.894409,238.897308,265.629333,3.07954,0.666218,2.338314,-3.262012,325.021393,424.375366
236,0,-0.088196,-2.819635,1.108594,-102.9076,157.650116,320.140381,-0.143345,-2.19644,-1.277379,-302.894409,238.897308,265.629333,3.080799,0.666734,2.335521,-3.082273,325.809906,425.731262
237,0,-0.091452,-2.822648,1.109004,-102.754723,158.534058,321.247253,-0.143345,-2.19644,-1.277379,-302.894409,238.897308,265.629333,3.076878,0.666303,2.340254,-2.898117,326.63382,427.040283
238,0,-0.094052,-2.822664,1.110485,-102.608444,159.404266,322.324432,-0.143345,-2.19644,-1.277379,-302.894409,238.897308,265.629333,3.073001,0.665442,2.343202,-2.706016,327.431,428.387024
239,0,-0.094982,-2.825104,1.109978,-102.449387,160.283295,323.409973,-0.143345,-2.19644,-1.277379,-302.894409,238.897308,265.629333,3.069751,0.664707,2.347098,-2.532703,328.23645,429.682037
240,0,-0.09433,-2.827181,1.109565,-102.330894,161.138916,324.50473,-0.143345,-2.19644,-1.277379,-302.894409,238.897308,265.629333,3.067425,0.66382,2.34861,-2.332587,329.047577,431.007538
241,0,-0.096621,-2.829877,1.111145,-102.192474,162.012146,325.571106,-0.143345,-2.19644,-1.277379,-302.894409,238.897308,265.629333,3.062782,0.66203,2.354255,-2.149716,329.887207,432.298462
242,0,-0.09793,-2.830399,1.110764,-102.042824,162.885742,326.65036,-0.143345,-2.19644,-1.277379,-302.894409,238.897308,265.629333,3.060356,0.661328,2.356528,-1.970232,330.679199,433.615112
243,0,-0.103274,-2.831404,1.112483,-101.894127,163.766052,327.708069,-0.143345,-2.19644,-1.277379,-302.894409,238.897308,265.629333,3.055245,0.662918,2.362191,-1.745713,331.481354,434.919586
244,0,-0.105722,-2.834346,1.112454,-101.743431,164.640167,328.767273,-0.143345,-2.19644,-1.277379,-302.894409,238.897308,265.629333,3.054892,0.664109,2.361793,-1.575022,332.269073,436.210999
245,0,-0.104799,-2.835462,1.112213,-101.632271,165.516022,329.843048,-0.143345,-2.19644,-1.277379,-302.894409,238.897308,265.629333,3.048022,0.66523,2.369199,-1.354826,333.08728,437.499939
246,0,-0.108282,-2.837608,1.11421,-101.492813,166.394043,330.892853,-0.143345,-2.19644,-1.277379,-302.894409,238.897308,265.629333,3.045157,0.664021,2.371875,-1.200073,333.886475,438.767212
247,0,-0.106721,-2.837187,1.112074,-101.387276,167.256348,331.957397,-0.143345,-2.19644,-1.277379,-302.894409,238.897308,265.629333,3.038566,0.65982,2.379796,-1.007499,334.729828,440.038391
248,0,-0.11215,-2.839474,1.113931,-101.248711,168.153503,332.999298,-0.143345,-2.19644,-1.277379,-302.894409,238.897308,265.629333,3.036305,0.658473,2.381408,-0.835389,335.529663,441.309479
249,0,-0.116094,-2.842552,1.114607,-101.119194,169.038925,334.031494,-0.143345,-2.19644,-1.277379,-302.894409,238.897308,265.629333,3.075397,0.666824,2.327902,-0.760262,336.079041,442.494019
250,0,-0.117165,-2.844018,1.114487,-100.980148,169.93541,335.082855,-0.143345,-2.19644,-1.277379,-302.894409,238.897308,265.629333,3.076507,0.667333,2.324692,-0.618386,336.854614,443.750488
251,0,-0.119744,-2.844371,1.11525,-100.860825,170.827332,336.118195,-0.143345,-2.19644,-1.277379,-302.894409,238.897308,265.629333,3.070532,0.665823,2.332961,-0.439299,337.662567,445.010468
252,0,-0.121702,-2.845797,1.115905,-100.754639,171.716324,337.138641,-0.143345,-2.19644,-1.277379,-302.894409,238.897308,265.629333,3.071936,0.668919,2.328236,-0.285773,338.442627,446.259247
253,0,-0.121207,-2.847415,1.11527,-100.672035,172.592072,338.196289,-0.143345,-2.19644,-1.277379,-302.894409,238.897308,265.629333,3.061856,0.665334,2.342291,-0.068413,339.29245,447.498932
254,0,-0.125269,-2.849479,1.117653,-100.529839,173.480881,339.20459,-0.143345,-2.19644,-1.277379,-302.894409,238.897308,265.629333,3.063836,0.666194,2.337537,0.083377,340.05365,448.754517
255,0,-0.127827,-2.850541,1.117537,-100.392845,174.375671,340.215363,-0.143345,-2.19644,-1.277379,-302.894409,238.897308,265.629333,3.052919,0.659303,2.353347,0.285924,340.902954,449.975708
256,0,-0.130124,-2.851701,1.11728,-100.303032,175.26738,341.252014,-0.143345,-2.19644,-1.277379,-302.894409,238.897308,265.629333,3.052442,0.659287,2.352026,0.448528,341.682312,451.217438
257,0,-0.131511,-2.854084,1.118578,-100.212341,176.157837,342.243561,-0.143345,-2.19644,-1.277379,-302.894409,238.897308,265.629333,3.046438,0.65551,2.359771,0.623641,342.527405,452.435913
258,0,-0.131445,-2.854972,1.118971,-100.122955,177.041229,343.27475,-0.143345,-2.19644,-1.277379,-302.894409,238.897308,265.629333,3.045196,0.655627,2.360561,0.775708,343.311432,453.663727
259,0,-0.132848,-2.855956,1.118779,-99.99984,177.937485,344.280548,-0.143345,-2.19644,-1.277379,-302.894409,238.897308,265.629333,3.041541,0.654792,2.365321,0.938345,344.119598,454.886292
260,0,-0.136342,-2.857698,1.120253,-99.917534,178.832321,345.266296,-0.143345,-2.19644,-1.277379,-302.894409,238.897308,265.629333,3.041894,0.655346,2.363822,1.06989,344.897552,456.119934
261,0,-0.139141,-2.859726,1.121697,-99.824532,179.729156,346.260315,-0.143345,-2.19644,-1.277379,-302.894409,238.897308,265.629333,3.042363,0.654965,2.36183,1.223396,345.687012,457.327332
262,0,-0.136431,-2.86093,1.120039,-99.747932,180.616913,347.273682,-0.143345,-2.19644,-1.277379,-302.894409,238.897308,265.629333,3.035554,0.65129,2.370714,1.407096,346.502655,458.537659
263,0,-0.139326,-2.861269,1.120858,-99.642792,181.527481,348.25116,-0.143345,-2.19644,-1.277379,-302.894409,238.897308,265.629333,3.033547,0.651016,2.371889,1.571787,347.29364,459.734192
264,0,-0.143867,-2.863969,1.122553,-99.552589,182.432709,349.22113,-0.143345,-2.19644,-1.277379,-302.894409,238.897308,265.629333,3.024611,0.645925,2.384187,1.762949,348.12207,460.934937
265,0,-0.146543,-2.865652,1.122371,-99.471741,183.337509,350.203033,-0.143345,-2.19644,-1.277379,-302.894409,238.897308,265.629333,3.022561,0.647542,2.385327,1.92414,348.904846,462.133789
266,0,-0.146164,-2.865615,1.122436,-99.38501,184.228989,351.193451,-0.143345,-2.19644,-1.277379,-302.894409,238.897308,265.629333,3.036732,0.645695,2.299746,2.420176,350.140442,462.847992
267,0,-0.147406,-2.867074,1.122979,-99.31353,185.125137,352.15271,-0.143345,-2.19644,-1.277379,-302.894409,238.897308,265.629333,3.03622,0.644455,2.298338,2.569043,350.944977,464.033234
268,0,-0.151784,-2.868808,1.124652,-99.265747,186.019348,353.123108,-0.143345,-2.19644,-1.277379,-302.894409,238.897308,265.629333,3.037334,0.643525,2.295035,2.692084,351.740509,465.214783
269,0,-0.153433,-2.869913,1.124132,-99.15554,186.924088,354.083923,-0.143345,-2.19644,-1.277379,-302.894409,238.897308,265.629333,3.03444,0.64125,2.298791,2.83075,352.543823,466.413452
270,0,-0.155838,-2.871347,1.125499,-99.068619,187.838013,355.041931,-0.143345,-2.19644,-1.277379,-302.894409,238.897308,265.629333,3.032041,0.640968,2.298905,2.99591,353.336395,467.565247
271,0,-0.158977,-2.873264,1.127051,-99.041031,188.723755,356.000885,-0.143345,-2.19644,-1.277379,-302.894409,238.897308,265.629333,3.026921,0.638694,2.308122,3.146353,354.116394,468.785645
272,0,-0.160631,-2.873738,1.127383,-98.979095,189.612381,356.957092,-0.143345,-2.19644,-1.277379,-302.894409,238.897308,265.629333,3.020952,0.637542,2.315085,3.335757,354.910919,469.940186
273,0,-0.16319,-2.874955,1.127856,-98.885323,190.516434,357.903473,-0.143345,-2.19644,-1.277379,-302.894409,238.897308,265.629333,3.02069,0.636772,2.313724,3.490707,355.698303,471.112
274,0,-0.166831,-2.8773,1.128846,-98.811768,191.417465,358.837097,-0.143345,-2.19644,-1.277379,-302.894409,238.897308,265.629333,3.018467,0.636147,2.316485,3.628477,356.471832,472.293213
275,0,-0.169704,-2.877234,1.130434,-98.774048,192.310165,359.768158,-0.143345,-2.19644,-1.277379,-302.894409,238.897308,265.629333,3.020063,0.634059,2.312779,3.739511,357.259338,473.437073
276,0,-0.168987,-2.877778,1.130274,-98.705948,193.200394,360.715332,-0.143345,-2.19644,-1.277379,-302.894409,238.897308,265.629333,3.017221,0.634354,2.318403,3.877903,358.031738,474.633636
277,0,-0.172869,-2.879655,1.130877,-98.642586,194.102997,361.653931,-0.143345,-2.19644,-1.277379,-302.894409,238.897308,265.629333,3.016423,0.634331,2.318255,3.999758,358.79834,475.791107
278,0,-0.177493,-2.881745,1.131782,-98.600204,195.00061,362.573456,-0.143345,-2.19644,-1.277379,-302.894409,238.897308,265.629333,3.011983,0.632379,2.321698,4.176062,359.611206,476.923706
279,0,-0.177693,-2.882183,1.132496,-98.53154,195.892303,363.491058,-0.143345,-2.19644,-1.277379,-302.894409,238.897308,265.629333,3.011499,0.632814,2.32238,4.332032,360.373169,478.125122
280,0,-0.178174,-2.883309,1.133101,-98.499611,196.783783,364.414703,-0.143345,-2.19644,-1.277379,-302.894409,238.897308,265.629333,3.005951,0.629476,2.330985,4.494789,361.1539,479.247864
281,0,-0.182691,-2.885508,1.133745,-98.461777,197.681961,365.339508,-0.143345,-2.19644,-1.277379,-302.894409,238.897308,265.629333,3.005872,0.628831,2.329923,4.638533,361.935028,480.424133
282,0,-0.18442,-2.885748,1.133289,-98.372093,198.595627,366.245972,-0.143345,-2.19644,-1.277379,-302.894409,238.897308,265.629333,3.005491,0.628842,2.329623,4.768652,362.699585,481.572021
283,0,-0.184742,-2.887361,1.133819,-98.338669,199.4841,367.155334,-0.143345,-2.19644,-1.277379,-302.894409,238.897308,265.629333,3.005888,0.628282,2.329412,4.868869,363.466003,482.699005
284,0,-0.187834,-2.888045,1.135214,-98.321091,200.365112,368.05722,-0.143345,-2.19644,-1.277379,-302.894409,238.897308,265.629333,3.003696,0.627441,2.331913,5.038652,364.241089,483.872559
285,0,-0.191368,-2.889806,1.13542,-98.251747,201.267929,368.953949,-0.143345,-2.19644,-1.277379,-302.894409,238.897308,265.629333,3.004572,0.62806,2.330528,5.176942,364.991516,485.010071
286,0,-0.19296,-2.890463,1.136219,-98.198929,202.161652,369.857056,-0.143345,-2.19644,-1.277379,-302.894409,238.897308,265.629333,3.001883,0.626442,2.33246,5.356594,365.770752,486.128754
287,0,-0.192659,-2.892345,1.135645,-98.180161,203.044571,370.756378,-0.143345,-2.19644,-1.277379,-302.894409,238.897308,265.629333,3.002201,0.626432,2.33138,5.503315,366.534943,487.300842
288,0,-0.195514,-2.892144,1.136079,-98.142319,203.93364,371.646942,-0.143345,-2.19644,-1.277379,-302.894409,238.897308,265.629333,2.996509,0.622512,2.340548,5.653895,367.307617,488.390594
289,0,-0.198399,-2.893017,1.137995,-98.082069,204.829147,372.519287,-0.143345,-2.19644,-1.277379,-302.894409,238.897308,265.629333,2.995413,0.62195,2.341032,5.805176,368.07077,489.510162
290,0,-0.20198,-2.89509,1.13967,-98.057045,205.726059,373.405518,-0.143345,-2.19644,-1.277379,-302.894409,238.897308,265.629333,2.995937,0.623091,2.34147,5.927387,368.816742,490.661011
291,0,-0.203266,-2.896062,1.138424,-98.032028,206.605408,374.27655,-0.143345,-2.19644,-1.277379,-302.894409,238.897308,265.629333,2.994169,0.622438,2.345356,6.037109,369.554169,491.760101
292,0,-0.203823,-2.896512,1.137595,-97.999283,207.503357,375.166229,-0.143345,-2.19644,-1.277379,-302.894409,238.897308,265.629333,2.997545,0.623178,2.338979,6.161386,370.317444,492.873535
293,0,-0.20875,-2.898204,1.138916,-97.952682,208.405838,376.029877,-0.143345,-2.19644,-1.277379,-302.894409,238.897308,265.629333,2.998698,0.622994,2.336385,6.320515,371.086182,494.010193
294,0,-0.21238,-2.898203,1.140219,-97.919151,209.305328,376.90509,-0.143345,-2.19644,-1.277379,-302.894409,238.897308,265.629333,2.99504,0.618438,2.3426,6.47706,371.870392,495.083191
295,0,-0.211775,-2.899018,1.139895,-97.887718,210.192047,377.76825,-0.143345,-2.19644,-1.277379,-302.894409,238.897308,265.629333,2.990386,0.616842,2.347853,6.645136,372.652466,496.171753
296,0,-0.214405,-2.901865,1.140699,-97.888504,211.067383,378.632782,-0.143345,-2.19644,-1.277379,-302.894409,238.897308,265.629333,2.991445,0.618611,2.34697,6.770147,373.383453,497.303589
297,0,-0.217982,-2.901891,1.140887,-97.84671,211.955124,379.486145,-0.143345,-2.19644,-1.277379,-302.894409,238.897308,265.629333,2.990559,0.618014,2.349169,6.895095,374.116028,498.387848
298,0,-0.219838,-2.902049,1.141244,-97.817131,212.847366,380.35022,-0.143345,-2.19644,-1.277379,-302.894409,238.897308,265.629333,2.989651,0.617347,2.350792,7.003001,374.860382,499.47226
299,0,-0.21842,-2.903902,1.140502,-97.828621,213.714767,381.22049,-0.143345,-2.19644,-1.277379,-302.894409,238.897308,265.629333,2.993793,0.618994,2.344052,7.125781,375.594421,500.573212
300,0,-0.224034,-2.904273,1.141647,-97.789024,214.597519,382.068481,-0.143345,-2.19644,-1.277379,-302.894409,238.897308,265.629333,2.995342,0.61797,2.342892,7.255511,376.336548,501.654572
301,0,-0.226529,-2.90495,1.142253,-97.731995,215.487671,382.9151,-0.143345,-2.19644,-1.277379,-302.894409,238.897308,265.629333,2.99167,0.614644,2.348659,7.407976,377.104858,502.705811
302,0,-0.227886,-2.906788,1.143036,-97.751358,216.355392,383.769135,-0.143345,-2.19644,-1.277379,-302.894409,238.897308,265.629333,2.989684,0.61404,2.349614,7.557517,377.884888,503.763184
303,0,-0.22869,-2.906485,1.142548,-97.71933,217.240234,384.598724,-0.143345,-2.19644,-1.277379,-302.894409,238.897308,265.629333,2.990861,0.614802,2.347346,7.682882,378.624573,504.854858
304,0,-0.231835,-2.907741,1.143095,-97.694435,218.1064,385.437317,-0.143345,-2.19644,-1.277379,-302.894409,238.897308,265.629333,2.98868,0.612636,2.351743,7.789222,379.376801,505.899475
305,0,-0.232641,-2.909721,1.143246,-97.694199,218.972748,386.282776,-0.143345,-2.19644,-1.277379,-302.894409,238.897308,265.629333,2.989007,0.612432,2.352395,7.89417,380.110596,506.964203
306,0,-0.232913,-2.909417,1.14247,-97.699295,219.852219,387.134613,-0.143345,-2.19644,-1.277379,-302.894409,238.897308,265.629333,2.993102,0.613603,2.344899,8.007395,380.851105,508.042633
307,0,-0.23432,-2.910432,1.142338,-97.654587,220.734039,387.96286,-0.143345,-2.19644,-1.277379,-302.894409,238.897308,265.629333,2.993495,0.611019,2.346351,8.123169,381.589325,509.108246
308,0,-0.237894,-2.912452,1.143898,-97.640671,221.614868,388.791138,-0.143345,-2.19644,-1.277379,-302.894409,238.897308,265.629333,2.990287,0.608116,2.352336,8.2489,382.32962,510.134888
309,0,-0.237513,-2.912605,1.143119,-97.648277,222.476349,389.62146,-0.143345,-2.19644,-1.277379,-302.894409,238.897308,265.629333,2.986922,0.607488,2.35709,8.384459,383.078949,511.173492
310,0,-0.239003,-2.913746,1.143177,-97.65136,223.345001,390.435822,-0.143345,-2.19644,-1.277379,-302.894409,238.897308,265.629333,2.987582,0.60789,2.355379,8.492181,383.829803,512.233154
311,0,-0.240826,-2.915376,1.143437,-97.631233,224.207367,391.247284,-0.143345,-2.19644,-1.277379,-302.894409,238.897308,265.629333,2.990155,0.608826,2.352808,8.57156,384.558838,513.281372
312,0,-0.242555,-2.915762,1.143299,-97.607735,225.075058,392.058594,-0.143345,-2.19644,-1.277379,-302.894409,238.897308,265.629333,2.992661,0.607886,2.349196,8.661779,385.305145,514.292969
313,0,-0.243029,-2.916195,1.142435,-97.614075,225.929733,392.883057,-0.143345,-2.19644,-1.277379,-302.894409,238.897308,265.629333,2.991514,0.605898,2.352086,8.777206,386.037628,515.318237
314,0,-0.244082,-2.919218,1.141636,-97.610184,226.779373,393.693939,-0.143345,-2.19644,-1.277379,-302.894409,238.897308,265.629333,2.992082,0.60675,2.35041,8.896491,386.77533,516.337463
315,0,-0.246833,-2.917913,1.141821,-97.59314,227.639252,394.497559,-0.143345,-2.19644,-1.277379,-302.894409,238.897308,265.629333,2.991547,0.605391,2.352148,8.985158,387.514069,517.370422
316,0,-0.245787,-2.918326,1.140321,-97.608841,228.483505,395.308228,-0.143345,-2.19644,-1.277379,-302.894409,238.897308,265.629333,2.989455,0.60448,2.356087,9.083492,388.251221,518.379395
317,0,-0.246055,-2.921,1.139475,-97.620224,229.320938,396.116943,-0.143345,-2.19644,-1.277379,-302.894409,238.897308,265.629333,2.989206,0.60236,2.356608,9.162842,389.000427,519.359741
318,0,-0.249004,-2.90602,1.133771,-97.576149,230.001755,396.815613,-0.143345,-2.19644,-1.277379,-302.894409,238.897308,265.629333,2.992676,0.603288,2.352501,9.229759,389.704681,520.371216
319,0,-0.248892,-2.906282,1.132551,-97.579765,230.854614,397.598541,-0.143345,-2.19644,-1.277379,-302.894409,238.897308,265.629333,2.991692,0.602574,2.352925,9.338303,390.440033,521.374451
320,0,-0.249396,-2.908265,1.132632,-97.6007,231.697495,398.388458,-0.143345,-2.19644,-1.277379,-302.894409,238.897308,265.629333,2.991922,0.601556,2.353061,9.451427,391.182129,522.380127
321,0,-0.252692,-2.907296,1.133186,-97.569855,232.543854,399.148712,-0.143345,-2.19644,-1.277379,-302.894409,238.897308,265.629333,2.990166,0.600767,2.354502,9.548022,391.928925,523.352173
322,0,-0.254624,-2.908988,1.13216,-97.58432,233.374527,399.92749,-0.143345,-2.19644,-1.277379,-302.894409,238.897308,265.629333,2.98884,0.599495,2.359169,9.607168,392.639191,524.331604
323,0,-0.253164,-2.910798,1.13124,-97.616562,234.20108,400.712219,-0.143345,-2.19644,-1.277379,-302.894409,238.897308,265.629333,2.990441,0.598832,2.356486,9.662488,393.378754,525.299255
324,0,-0.254139,-2.910329,1.130957,-97.597549,235.038528,401.471222,-0.143345,-2.19644,-1.277379,-302.894409,238.897308,265.629333,2.991336,0.598829,2.354827,9.75706,394.10556,526.272217
325,0,-0.257202,-2.912394,1.131103,-97.621468,235.862518,402.233398,-0.143345,-2.19644,-1.277379,-302.894409,238.897308,265.629333,2.992589,0.598403,2.352386,9.849754,394.833466,527.243103
326,0,-0.256829,-2.913534,1.130046,-97.640846,236.686691,403.002319,-0.143345,-2.19644,-1.277379,-302.894409,238.897308,265.629333,2.989546,0.596,2.357208,9.944657,395.584503,528.204407
327,0,-0.256058,-2.913374,1.12972,-97.62355,237.517303,403.744995,-0.143345,-2.19644,-1.277379,-302.894409,238.897308,265.629333,2.989574,0.595982,2.358293,9.997684,396.288544,529.166748
328,0,-0.259055,-2.915276,1.129853,-97.663521,238.33313,404.50351,-0.143345,-2.19644,-1.277379,-302.894409,238.897308,265.629333,2.989992,0.595616,2.357383,10.041679,397.013,530.096008
329,0,-0.258955,-2.916897,1.128903,-97.690987,239.133911,405.25708,-0.143345,-2.19644,-1.277379,-302.894409,238.897308,265.629333,2.991589,0.594372,2.356534,10.104063,397.725342,531.036499
330,0,-0.258169,-2.916419,1.12763,-97.692337,239.951797,406.001129,-0.143345,-2.19644,-1.277379,-302.894409,238.897308,265.629333,2.988776,0.592864,2.360071,10.207794,398.458862,531.967102
331,0,-0.259866,-2.918436,1.128124,-97.71151,240.772537,406.732849,-0.143345,-2.19644,-1.277379,-302.894409,238.897308,265.629333,2.987969,0.591493,2.360349,10.29685,399.176056,532.895813
332,0,-0.260174,-2.92041,1.127094,-97.754982,241.564484,407.476959,-0.143345,-2.19644,-1.277379,-302.894409,238.897308,265.629333,2.987739,0.591716,2.360234,10.339414,399.89917,533.833801
333,0,-0.259563,-2.919658,1.126401,-97.747612,242.393906,408.201385,-0.143345,-2.19644,-1.277379,-302.894409,238.897308,265.629333,2.988062,0.591149,2.359659,10.388917,400.616211,534.747742
334,0,-0.261258,-2.921502,1.125762,-97.783394,243.1996,408.923676,-0.143345,-2.19644,-1.277379,-302.894409,238.897308,265.629333,2.990758,0.593143,2.357596,10.438337,401.286194,535.686218
335,0,-0.26226,-2.922452,1.125748,-97.803406,244.011719,409.643402,-0.143345,-2.19644,-1.277379,-302.894409,238.897308,265.629333,2.991475,0.591246,2.356401,10.516186,401.995605,536.604187
336,0,-0.260885,-2.922045,1.124844,-97.81781,244.834854,410.352692,-0.143345,-2.19644,-1.277379,-302.894409,238.897308,265.629333,2.986609,0.588535,2.362125,10.616521,402.731995,537.495056
337,0,-0.262197,-2.92408,1.124396,-97.86467,245.63974,411.065155,-0.143345,-2.19644,-1.277379,-302.894409,238.897308,265.629333,2.985008,0.588932,2.365965,10.667444,403.424652,538.394592
338,0,-0.263811,-2.924732,1.124042,-97.876762,246.443634,411.772583,-0.143345,-2.19644,-1.277379,-302.894409,238.897308,265.629333,2.985705,0.589435,2.365373,10.699864,404.121552,539.289124
339,0,-0.262345,-2.924568,1.123343,-97.898544,247.253174,412.472595,-0.143345,-2.19644,-1.277379,-302.894409,238.897308,265.629333,2.988488,0.588948,2.36203,10.759334,404.821136,540.175903
340,0,-0.265353,-2.927817,1.123017,-97.960785,248.048676,413.175507,-0.143345,-2.19644,-1.277379,-302.894409,238.897308,265.629333,2.988265,0.587374,2.362699,10.842105,405.52005,541.07019
341,0,-0.264337,-2.913586,1.117933,-97.98909,248.696884,413.75708,-0.143345,-2.19644,-1.277379,-302.894409,238.897308,265.629333,2.985737,0.585893,2.365325,10.934561,406.24173,541.946899
342,0,-0.263204,-2.913185,1.116129,-98.036194,249.473618,414.445282,-0.143345,-2.19644,-1.277379,-302.894409,238.897308,265.629333,2.983629,0.5843,2.368358,10.999658,406.959259,542.828491
343,0,-0.265609,-2.915989,1.116471,-98.10936,250.275528,415.141602,-0.143345,-2.19644,-1.277379,-302.894409,238.897308,265.629333,2.983717,0.58491,2.369099,11.042448,407.647034,543.702087
344,0,-0.267242,-2.91657,1.115946,-98.085739,251.066742,415.809875,-0.143345,-2.19644,-1.277379,-302.894409,238.897308,265.629333,2.98659,0.585496,2.364158,11.086781,408.341614,544.574158
345,0,-0.268445,-2.916018,1.115919,-98.135788,251.868729,416.477478,-0.143345,-2.19644,-1.277379,-302.894409,238.897308,265.629333,2.987538,0.586454,2.363266,11.158989,409.016418,545.444458
346,0,-0.269685,-2.918865,1.116296,-98.217789,252.655746,417.178833,-0.143345,-2.19644,-1.277379,-302.894409,238.897308,265.629333,2.986646,0.584043,2.362829,11.236647,409.74588,546.307861
347,0,-0.27137,-2.91925,1.116777,-98.208679,253.460617,417.826385,-0.143345,-2.19644,-1.277379,-302.894409,238.897308,265.629333,2.983563,0.582564,2.368422,11.284714,410.435669,547.167908
348,0,-0.272561,-2.918244,1.117018,-98.249954,254.253632,418.481628,-0.143345,-2.19644,-1.277379,-302.894409,238.897308,265.629333,2.983785,0.582599,2.368895,11.306156,411.122559,548.026306
349,0,-0.27462,-2.9214,1.117121,-98.336868,255.045685,419.164948,-0.143345,-2.19644,-1.277379,-302.894409,238.897308,265.629333,2.98552,0.582162,2.365628,11.345287,411.823364,548.870117
350,0,-0.27517,-2.919899,1.117372,-98.322319,255.871628,419.799011,-0.143345,-2.19644,-1.277379,-302.894409,238.897308,265.629333,2.985967,0.58178,2.365512,11.390483,412.51535,549.716492
351,0,-0.277501,-2.92187,1.117339,-98.381111,256.668732,420.47171,-0.143345,-2.19644,-1.277379,-302.894409,238.897308,265.629333,2.984059,0.57849,2.367535,11.467422,413.234863,550.556396
352,0,-0.277737,-2.923223,1.116272,-98.455666,257.435577,421.134857,-0.143345,-2.19644,-1.277379,-302.894409,238.897308,265.629333,2.981718,0.577666,2.370692,11.513933,413.92453,551.390503
353,0,-0.279182,-2.9223,1.116435,-98.449257,258.254181,421.779205,-0.143345,-2.19644,-1.277379,-302.894409,238.897308,265.629333,2.981012,0.577812,2.371244,11.544862,414.607208,552.221069
354,0,-0.282962,-2.925621,1.115784,-98.533676,259.029358,422.444519,-0.143345,-2.19644,-1.277379,-302.894409,238.897308,265.629333,2.983131,0.577994,2.368866,11.577434,415.276917,553.039612
355,0,-0.280962,-2.924792,1.115213,-98.568611,259.827209,423.068665,-0.143345,-2.19644,-1.277379,-302.894409,238.897308,265.629333,2.982276,0.576303,2.369355,11.630778,415.98175,553.852661
356,0,-0.28322,-2.924412,1.114853,-98.596367,260.617981,423.712189,-0.143345,-2.19644,-1.277379,-302.894409,238.897308,265.629333,2.979633,0.573827,2.371559,11.701202,416.698364,554.665649
357,0,-0.286988,-2.927547,1.116602,-98.659058,261.42926,424.348175,-0.143345,-2.19644,-1.277379,-302.894409,238.897308,265.629333,2.977119,0.572422,2.375871,11.743181,417.3862,555.477173
358,0,-0.286193,-2.926462,1.116698,-98.704552,262.229675,424.979126,-0.143345,-2.19644,-1.277379,-302.894409,238.897308,265.629333,2.977921,0.573871,2.374838,11.756819,418.052979,556.287048
359,0,-0.287136,-2.927065,1.116299,-98.73008,263.028198,425.601349,-0.143345,-2.19644,-1.277379,-302.894409,238.897308,265.629333,2.980019,0.573583,2.371218,11.793294,418.72757,557.094604
360,0,-0.292037,-2.929529,1.116458,-98.809052,263.800964,426.252655,-0.143345,-2.19644,-1.277379,-302.894409,238.897308,265.629333,2.979448,0.571636,2.370808,11.830146,419.43927,557.883362
361,0,-0.289198,-2.927842,1.114518,-98.840416,264.599365,426.879333,-0.143345,-2.19644,-1.277379,-302.894409,238.897308,265.629333,2.975047,0.569714,2.376055,11.894736,420.14859,558.663147
362,0,-0.291213,-2.929544,1.114254,-98.911171,265.392578,427.506653,-0.143345,-2.19644,-1.277379,-302.894409,238.897308,265.629333,2.972141,0.568209,2.381021,11.93969,420.808502,559.465454
363,0,-0.296245,-2.930239,1.114179,-98.942802,266.195313,428.12793,-0.143345,-2.19644,-1.277379,-302.894409,238.897308,265.629333,2.975256,0.569584,2.376441,11.949225,421.457428,560.270386
364,0,-0.294209,-2.9285,1.1135,-98.963264,266.992157,428.712738,-0.143345,-2.19644,-1.277379,-302.894409,238.897308,265.629333,2.975123,0.566914,2.375323,11.973767,422.165009,561.045776
365,0,-0.297042,-2.929995,1.114162,-99.04129,267.78418,429.340912,-0.143345,-2.19644,-1.277379,-302.894409,238.897308,265.629333,2.97472,0.56647,2.374173,12.038364,422.873352,561.820251
366,0,-0.299899,-2.930667,1.114536,-99.077324,268.590515,429.93576,-0.143345,-2.19644,-1.277379,-302.894409,238.897308,265.629333,2.969569,0.56428,2.379762,12.105271,423.5784,562.586914
367,0,-0.51061,0.325594,0.711609,-98.925323,269.784149,430.285828,-0.143345,-2.19644,-1.277379,-302.894409,238.897308,265.629333,2.969971,0.563629,2.378978,12.133754,424.258575,563.371643
368,0,-0.510374,0.322756,0.711824,-99.02282,270.559601,430.903809,-0.143345,-2.19644,-1.277379,-302.894409,238.897308,265.629333,2.971581,0.562168,2.375279,12.145568,424.960938,564.136475
369,0,-0.509757,0.321964,0.709853,-99.026245,271.350159,431.500122,-0.143345,-2.19644,-1.277379,-302.894409,238.897308,265.629333,2.974115,0.562389,2.370403,12.179616,425.63916,564.90979
370,0,-0.509333,0.322885,0.709826,-99.086014,272.120056,432.080322,-0.143345,-2.19644,-1.277379,-302.894409,238.897308,265.629333,2.973054,0.561442,2.371165,12.229084,426.315033,565.689758
371,0,-0.5096,0.320449,0.709475,-99.178482,272.897583,432.688049,-0.143345,-2.19644,-1.277379,-302.894409,238.897308,265.629333,2.968676,0.559007,2.374403,12.29367,427.024689,566.432983
372,0,-0.510018,0.320238,0.708296,-99.206352,273.701111,433.257721,-0.143345,-2.19644,-1.277379,-302.894409,238.897308,265.629333,2.96786,0.557167,2.375236,12.322641,427.698669,567.206482
373,0,-0.509037,0.320674,0.707723,-99.231163,274.493927,433.843384,-0.143345,-2.19644,-1.277379,-302.894409,238.897308,265.629333,2.971105,0.557894,2.369278,12.35515,428.369232,567.967407
374,0,-0.508771,0.318139,0.707949,-99.349113,275.264862,434.445679,-0.143345,-2.19644,-1.277379,-302.894409,238.897308,265.629333,2.971665,0.556139,2.368283,12.384814,429.047058,568.713257
375,0,-0.507676,0.318751,0.706754,-99.324791,276.056549,435.001038,-0.143345,-2.19644,-1.277379,-302.894409,238.897308,265.629333,2.970386,0.555772,2.369217,12.439372,429.721436,569.463867
376,0,-0.507913,0.318381,0.706199,-99.399284,276.829956,435.55835,-0.143345,-2.19644,-1.277379,-302.894409,238.897308,265.629333,2.965354,0.552858,2.376351,12.482272,430.410248,570.195557
377,0,-0.508322,0.315626,0.705337,-99.487244,277.601135,436.140381,-0.143345,-2.19644,-1.277379,-302.894409,238.897308,265.629333,2.966393,0.551586,2.373064,12.525557,431.094269,570.936768
378,0,-0.507433,0.317334,0.704718,-99.497208,278.388123,436.681122,-0.143345,-2.19644,-1.277379,-302.894409,238.897308,265.629333,2.968766,0.550239,2.368867,12.559468,431.764709,571.680603
379,0,-0.506923,0.314059,0.703515,-99.575539,279.150848,437.253174,-0.143345,-2.19644,-1.277379,-302.894409,238.897308,265.629333,2.973114,0.554139,2.363965,12.581792,432.375092,572.424622
380,0,-0.506577,0.313482,0.704294,-99.659309,279.906281,437.806244,-0.143345,-2.19644,-1.277379,-302.894409,238.897308,265.629333,2.970317,0.551405,2.366231,12.659357,433.064301,573.137024
381,0,-0.505524,0.314825,0.702877,-99.678268,280.683289,438.32663,-0.143345,-2.19644,-1.277379,-302.894409,238.897308,265.629333,2.968342,0.549097,2.366583,12.720312,433.755554,573.862671
382,0,-0.525809,0.319527,0.701174,-99.789452,281.491974,438.499481,-0.143345,-2.19644,-1.277379,-302.894409,238.897308,265.629333,2.967605,0.547567,2.367416,12.753811,434.414154,574.59845
383,0,-0.5239,0.318189,0.702471,-99.86528,282.266418,439.05426,-0.143345,-2.19644,-1.277379,-302.894409,238.897308,265.629333,2.969294,0.547842,2.364143,12.799149,435.061432,575.326538
384,0,-0.522045,0.318776,0.70076,-99.90033,283.029572,439.596039,-0.143345,-2.19644,-1.277379,-302.894409,238.897308,265.629333,2.971251,0.54788,2.361845,12.834529,435.693512,576.041138
385,0,-0.522206,0.315402,0.692129,-100.009911,283.917206,440.023895,-0.143345,-2.19644,-1.277379,-302.894409,238.897308,265.629333,2.969064,0.546026,2.365478,12.894429,436.344299,576.742249
386,0,-0.521149,0.315718,0.692985,-100.074425,284.646271,440.529022,-0.143345,-2.19644,-1.277379,-302.894409,238.897308,265.629333,2.967597,0.544141,2.365233,12.960124,437.023956,577.420044
387,0,-0.519972,0.316067,0.69252,-100.129761,285.432831,441.061493,-0.143345,-2.19644,-1.277379,-302.894409,238.897308,265.629333,2.967144,0.541259,2.364911,13.00906,437.70047,578.097778
388,0,-0.519481,0.311037,0.690039,-100.223839,286.117432,441.584106,-0.143345,-2.19644,-1.277379,-302.894409,238.897308,265.629333,2.967274,0.539799,2.363495,13.064927,438.354462,578.79657
389,0,-0.520937,0.313567,0.689402,-100.259346,286.914825,442.036377,-0.143345,-2.19644,-1.277379,-302.894409,238.897308,265.629333,2.97163,0.540667,2.358134,13.111022,438.972198,579.52002
390,0,-0.52154,0.312336,0.688534,-100.304573,287.693634,442.542572,-0.143345,-2.19644,-1.277379,-302.894409,238.897308,265.629333,2.973987,0.542173,2.356493,13.156062,439.572662,580.223816
391,0,-0.520474,0.308694,0.685372,-100.386147,288.45047,443.070648,-0.143345,-2.19644,-1.277379,-302.894409,238.897308,265.629333,2.971881,0.538576,2.358272,13.224651,440.23465,580.888428
392,0,-0.520137,0.311872,0.686278,-100.423271,289.185333,443.524139,-0.143345,-2.19644,-1.277379,-302.894409,238.897308,265.629333,2.96838,0.534944,2.361714,13.279516,440.905151,581.531189
393,0,-0.521501,0.309164,0.685647,-100.514954,289.916168,444.014618,-0.143345,-2.19644,-1.277379,-302.894409,238.897308,265.629333,2.968759,0.533386,2.361861,13.325569,441.536591,582.187683
394,0,-0.521096,0.306652,0.684363,-100.577209,290.666931,444.51001,-0.143345,-2.19644,-1.277379,-302.894409,238.897308,265.629333,2.969216,0.533717,2.360088,13.395164,442.157013,582.860168
395,0,-0.519882,0.307124,0.682353,-100.619331,291.389984,444.996735,-0.143345,-2.19644,-1.277379,-302.894409,238.897308,265.629333,2.974055,0.534573,2.353189,13.462366,442.762085,583.54657
396,0,-0.522472,0.305341,0.681991,-100.704147,292.164459,445.447174,-0.143345,-2.19644,-1.277379,-302.894409,238.897308,265.629333,2.972967,0.531292,2.355198,13.51458,443.407898,584.193909
397,0,-0.522159,0.30361,0.682125,-100.782227,292.874512,445.937958,-0.143345,-2.19644,-1.277379,-302.894409,238.897308,265.629333,2.972471,0.529656,2.355604,13.588356,444.037262,584.830017
398,0,-0.52105,0.303434,0.678051,-100.815506,293.63327,446.418549,-0.143345,-2.19644,-1.277379,-302.894409,238.897308,265.629333,2.970082,0.527366,2.358037,13.647243,444.684021,585.444031
399,0,-0.524364,0.301943,0.67808,-100.911224,294.408508,446.850342,-0.143345,-2.19644,-1.277379,-302.894409,238.897308,265.629333,2.971111,0.528659,2.357167,13.699238,445.277252,586.104919
400,0,-0.522901,0.302446,0.678461,-100.958969,295.145905,447.316345,-0.143345,-2.19644,-1.277379,-302.894409,238.897308,265.629333,2.974774,0.528461,2.353437,13.726106,445.87381,586.754028
401,0,-0.522922,0.300113,0.67469,-101.027321,295.884583,447.804932,-0.143345,-2.19644,-1.277379,-302.894409,238.897308,265.629333,2.974772,0.525532,2.353671,13.794429,446.500336,587.368958
402,0,-0.525063,0.299893,0.674623,-101.110634,296.627045,448.223541,-0.143345,-2.19644,-1.277379,-302.894409,238.897308,265.629333,2.973229,0.521408,2.354395,13.866272,447.152679,587.975891
403,0,-0.523344,0.300763,0.675666,-101.1595,297.335571,448.701843,-0.143345,-2.19644,-1.277379,-302.894409,238.897308,265.629333,2.972486,0.520661,2.355251,13.944497,447.763306,588.593811
404,0,-0.523007,0.2968,0.672082,-101.237541,298.030792,449.184875,-0.143345,-2.19644,-1.277379,-302.894409,238.897308,265.629333,2.974367,0.521307,2.352675,13.983644,448.362762,589.220581
405,0,-0.526065,0.297798,0.671331,-101.295639,298.777039,449.583008,-0.143345,-2.19644,-1.277379,-302.894409,238.897308,265.629333,2.975908,0.520521,2.353527,14.012477,448.938843,589.843323
406,0,-0.523815,0.298517,0.672664,-101.339493,299.511414,450.069092,-0.143345,-2.19644,-1.277379,-302.894409,238.897308,265.629333,2.977793,0.520501,2.349784,14.067349,449.542542,590.42395
407,0,-0.524272,0.295742,0.669858,-101.426514,300.231171,450.526215,-0.143345,-2.19644,-1.277379,-302.894409,238.897308,265.629333,2.975475,0.518067,2.352554,14.145868,450.161469,591.015015
408,0,-0.527303,0.296275,0.667343,-101.469536,300.982605,450.927368,-0.143345,-2.19644,-1.277379,-302.894409,238.897308,265.629333,2.976389,0.515932,2.351022,14.223752,450.771637,591.619019
409,0,-0.524118,0.296955,0.669149,-101.507324,301.700806,451.411499,-0.143345,-2.19644,-1.277379,-302.894409,238.897308,265.629333,2.977982,0.514025,2.349474,14.269405,451.367218,592.207031
410,0,-0.525931,0.294896,0.66719,-101.604332,302.413116,451.839844,-0.143345,-2.19644,-1.277379,-302.894409,238.897308,265.629333,2.977311,0.511307,2.349896,14.34412,451.978363,592.770569
411,0,-0.527485,0.294637,0.66599,-101.638199,303.114716,452.248383,-0.143345,-2.19644,-1.277379,-302.894409,238.897308,265.629333,2.977487,0.513682,2.349847,14.390105,452.534393,593.363342
412,0,-0.524589,0.29466,0.666555,-101.674622,303.794708,452.744385,-0.143345,-2.19644,-1.277379,-302.894409,238.897308,265.629333,2.97793,0.511592,2.350794,14.437201,453.129974,593.945313
413,0,-0.526399,0.294285,0.665299,-101.768524,304.522369,453.140167,-0.143345,-2.19644,-1.277379,-302.894409,238.897308,265.629333,2.977228,0.509169,2.351209,14.50156,453.740204,594.503174
414,0,-0.527243,0.29284,0.664736,-101.836334,305.206238,453.573151,-0.143345,-2.19644,-1.277379,-302.894409,238.897308,265.629333,2.975677,0.506768,2.352463,14.584941,454.35733,595.046326
415,0,-0.524889,0.293065,0.663604,-101.846504,305.906097,454.051117,-0.143345,-2.19644,-1.277379,-302.894409,238.897308,265.629333,2.975673,0.503607,2.352179,14.669984,454.948212,595.61499
416,0,-0.526847,0.293151,0.663892,-101.935692,306.60437,454.433624,-0.143345,-2.19644,-1.277379,-302.894409,238.897308,265.629333,2.97954,0.503225,2.3494,14.711093,455.48053,596.177979
417,0,-0.526023,0.291011,0.663355,-102.015617,307.276855,454.880524,-0.143345,-2.19644,-1.277379,-302.894409,238.897308,265.629333,2.980706,0.504475,2.347611,14.776844,456.033722,596.742432
418,0,-0.526099,0.292092,0.662088,-102.012054,307.985626,455.319122,-0.143345,-2.19644,-1.277379,-302.894409,238.897308,265.629333,2.979993,0.503162,2.348536,14.837899,456.621735,597.289063
419,0,-0.52665,0.292538,0.661271,-102.080231,308.686829,455.703796,-0.143345,-2.19644,-1.277379,-302.894409,238.897308,265.629333,2.981354,0.501393,2.348374,14.884666,457.200714,597.844604
420,0,-0.524741,0.29091,0.66261,-102.19062,309.373383,456.160889,-0.143345,-2.19644,-1.277379,-302.894409,238.897308,265.629333,2.979639,0.499603,2.350434,14.958757,457.797668,598.378845
421,0,-0.526511,0.292975,0.66059,-102.183372,310.07196,456.551422,-0.143345,-2.19644,-1.277379,-302.894409,238.897308,265.629333,2.97907,0.497743,2.351213,15.023503,458.358215,598.901611
422,0,-0.525507,0.29179,0.659825,-102.218788,310.738464,456.97641,-0.143345,-2.19644,-1.277379,-302.894409,238.897308,265.629333,2.981638,0.495713,2.349924,15.099127,458.919525,599.446655
423,0,-0.525683,0.289987,0.660601,-102.334381,311.395996,457.413086,-0.143345,-2.19644,-1.277379,-302.894409,238.897308,265.629333,2.983848,0.496923,2.346146,15.181264,459.484497,599.994141
424,0,-0.526697,0.291113,0.659172,-102.354248,312.085754,457.778931,-0.143345,-2.19644,-1.277379,-302.894409,238.897308,265.629333,2.983099,0.494159,2.347055,15.262384,460.068909,600.50293
425,0,-0.524039,0.289814,0.658538,-102.373138,312.724396,458.246796,-0.143345,-2.19644,-1.277379,-302.894409,238.897308,265.629333,2.985461,0.492205,2.344848,15.304612,460.622375,601.032166
426,0,-0.526564,0.288954,0.658297,-102.477615,313.411194,458.614349,-0.143345,-2.19644,-1.277379,-302.894409,238.897308,265.629333,2.983535,0.490295,2.346771,15.382067,461.204926,601.55072
427,0,-0.525175,0.288978,0.659819,-102.513138,314.073822,459.034393,-0.143345,-2.19644,-1.277379,-302.894409,238.897308,265.629333,2.983593,0.48947,2.347816,15.441183,461.768005,602.058411
428,0,-0.52254,0.288825,0.657837,-102.537201,314.692688,459.487488,-0.143345,-2.19644,-1.277379,-302.894409,238.897308,265.629333,2.985266,0.487306,2.347323,15.507241,462.317993,602.585876
429,0,-0.525762,0.289408,0.657503,-102.57843,315.39502,459.821045,-0.143345,-2.19644,-1.277379,-302.894409,238.897308,265.629333,2.984728,0.487091,2.348781,15.5849,462.859375,603.096191
430,0,-0.523233,0.287227,0.658485,-102.655113,316.018311,460.266541,-0.143345,-2.19644,-1.277379,-302.894409,238.897308,265.629333,2.985297,0.485882,2.348126,15.662707,463.407745,603.574646
431,0,-0.524124,0.290603,0.657796,-102.664444,316.70575,460.628662,-0.143345,-2.19644,-1.277379,-302.894409,238.897308,265.629333,2.990141,0.486643,2.343119,15.732247,463.945404,604.110474
432,0,-0.522842,0.289532,0.657423,-102.685829,317.332825,461.039093,-0.143345,-2.19644,-1.277379,-302.894409,238.897308,265.629333,2.989002,0.484088,2.346025,15.843131,464.498169,604.688599
433,0,-0.523908,0.28682,0.658273,-102.768692,317.968658,461.421906,-0.143345,-2.19644,-1.277379,-302.894409,238.897308,265.629333,2.988558,0.481413,2.346308,15.917459,465.056213,605.17041
434,0,-0.523878,0.287681,0.658736,-102.791153,318.635162,461.798401,-0.143345,-2.19644,-1.277379,-302.894409,238.897308,265.629333,2.990407,0.480996,2.344583,15.989491,465.589905,605.694519
435,0,-0.521023,0.287795,0.65805,-102.817696,319.239471,462.228546,-0.143345,-2.19644,-1.277379,-302.894409,238.897308,265.629333,2.986794,0.477032,2.349991,16.075502,466.180817,606.145752
436,0,-0.523727,0.288668,0.656973,-102.837334,319.859253,462.534576,-0.143345,-2.19644,-1.277379,-302.894409,238.897308,265.629333,2.989163,0.478644,2.346787,16.159803,466.702911,606.658875
437,0,-0.521428,0.28628,0.65638,-102.881149,320.51123,462.98172,-0.143345,-2.19644,-1.277379,-302.894409,238.897308,265.629333,2.992502,0.477962,2.343595,16.221319,467.207428,607.14386
