-5.329926656653903860e-01 -8.560572254718292751e-01 6.937144047350827236e-01 -1.439736347920170356e+00 -7.629583888639229370e-04 -3.821005022755458724e-01 -7.941937795674965939e-01 -7.157880894855762621e-01 -2.158201106481137943e-01 -3.176726573333205506e-03
-5.511501775430338590e-01 -8.978371952425178160e-01 6.603637608639063572e-01 -1.442246327793102578e+00 -8.799684727043539196e-04 -3.631502375528700144e-01 -8.355993954137705959e-01 -6.670128774235264402e-01 -5.019959745864494005e-02 -2.340201676808620086e-03
-5.683752476156719302e-01 -9.415099001199077611e-01 6.298495357604039224e-01 -1.436884607729638885e+00 -9.559368981527004367e-04 -3.445014014527620905e-01 -8.734540975477980140e-01 -6.102845020700476963e-01 1.072344012692756920e-01 -1.519368508966930775e-03
-5.847035086764074130e-01 -9.868898606386442562e-01 6.024616631158168367e-01 -1.424212201268763467e+00 -9.949297248031381633e-04 -3.265652212147107658e-01 -9.075992103747296813e-01 -5.477574528917426022e-01 2.534481292175082556e-01 -7.798565330087554003e-04
-6.001847725888435070e-01 -1.033786694674620588e+00 5.783773281079344075e-01 -1.404891497826650237e+00 -1.003644630271837476e-03 -3.096252782487217692e-01 -9.379366807195262945e-01 -4.816867001576492502e-01 3.864140688422641468e-01 -1.742981093739875455e-04
-6.148780970025015113e-01 -1.082009708161925321e+00 5.576664556680294149e-01 -1.379637956495603612e+00 -9.913618895125938558e-04 -2.938664882731599759e-01 -9.644602697460947782e-01 -4.142174487980994080e-01 5.050708266209336106e-01 2.456548151848717432e-04
-6.288470689176911543e-01 -1.131374104760744848e+00 5.403072274590743351e-01 -1.349174605776304547e+00 -9.521462572834681450e-04 -2.793794383037918605e-01 -9.872879319763901984e-01 -3.471845641791025394e-01 6.092670143859828524e-01 7.843126445825148677e-04
-6.421570369277420642e-01 -1.181706942155616336e+00 5.262053158894773874e-01 -1.314195880322908128e+00 -9.022291471706405264e-04 -2.661993602010191973e-01 -1.006656747897431536e+00 -2.820382313919393980e-01 6.995745090679261757e-01 9.983422022565530216e-04
-6.548743457990880978e-01 -1.232852065818537790e+00 5.152129471160256102e-01 -1.275342034450786421e+00 -8.501760078090183107e-04 -2.543461774269215048e-01 -1.022902473258430200e+00 -2.198473754690345450e-01 7.770769174424327908e-01 1.041062787232444964e-03
-6.670659546207343693e-01 -1.284673641726873372e+00 5.071475064723138804e-01 -1.233183415528552374e+00 -8.014934820922039582e-04 -2.438321764329247909e-01 -1.036431518166713861e+00 -1.613088128742347083e-01 8.431723784446807368e-01 9.736505143362860762e-04
-6.788009847229364846e-01 -1.337057078915597774e+00 5.018051538157737301e-01 -1.188217864976176541e+00 -7.598353331623781569e-04 -2.347006020440429996e-01 -1.047668743774489597e+00 -1.068470531308025467e-01 8.993110110475148744e-01 8.331629785965151587e-04
-6.901508940479555987e-01 -1.389908063667613103e+00 4.989726888619930301e-01 -1.140875682277421976e+00 -7.275126194937558098e-04 -2.269981865003821708e-01 -1.057019695040306129e+00 -5.664929907561439687e-02 9.468436539750928471e-01 6.464542733724458565e-04
-7.011818974064454313e-01 -1.443151395817709348e+00 4.984459940733503847e-01 -1.091524588330330392e+00 -7.069102782772246612e-04 -2.206200671697965410e-01 -1.064866643001923574e+00 -1.053389577285269302e-02 9.870218789418323535e-01 4.120468243306232977e-04
-7.119382795277388043e-01 -1.496729553212786001e+00 5.000574426265238515e-01 -1.040476276235356989e+00 -7.061320703788952517e-04 -2.151276424258678488e-01 -1.071563147901531954e+00 3.222897106346869767e-02 1.020966241899467830e+00 1.556415796658916582e-05
-7.224229172663408916e-01 -1.550601146725799184e+00 5.037048829201403732e-01 -9.879924966445953194e-01 -7.587668879615231234e-04 -2.096927547720418283e-01 -1.077431870260262103e+00 7.294880587233004698e-02 1.049675591815233178e+00 -1.052696351652556567e-03
-7.325830757170032070e-01 -1.604739502807403406e+00 5.093754079394100520e-01 -9.342905577551883223e-01 -1.001583292452675909e-03 0.000000000000000000e+00 0.000000000000000000e+00 0.000000000000000000e+00 0.000000000000000000e+00 0.000000000000000000e+00
-7.325830757170032070e-01 -1.604739502807403406e+00 5.093754079394100520e-01 -9.342905577551883223e-01 -1.001583292452675909e-03 0.000000000000000000e+00 0.000000000000000000e+00 0.000000000000000000e+00 0.000000000000000000e+00 0.000000000000000000e+00
-7.325830757170032070e-01 -1.604739502807403406e+00 5.093754079394100520e-01 -9.342905577551883223e-01 -1.001583292452675909e-03 0.000000000000000000e+00 0.000000000000000000e+00 0.000000000000000000e+00 0.000000000000000000e+00 0.000000000000000000e+00
-7.325830757170032070e-01 -1.604739502807403406e+00 5.093754079394100520e-01 -9.342905577551883223e-01 -1.001583292452675909e-03 0.000000000000000000e+00 0.000000000000000000e+00 0.000000000000000000e+00 0.000000000000000000e+00 0.000000000000000000e+00
-7.325830757170032070e-01 -1.604739502807403406e+00 5.093754079394100520e-01 -9.342905577551883223e-01 -1.001583292452675909e-03 0.000000000000000000e+00 0.000000000000000000e+00 0.000000000000000000e+00 0.000000000000000000e+00 0.000000000000000000e+00
-7.325830757170032070e-01 -1.604739502807403406e+00 5.093754079394100520e-01 -9.342905577551883223e-01 -1.001583292452675909e-03 0.000000000000000000e+00 0.000000000000000000e+00 0.000000000000000000e+00 0.000000000000000000e+00 0.000000000000000000e+00
-7.325830757170032070e-01 -1.604739502807403406e+00 5.093754079394100520e-01 -9.342905577551883223e-01 -1.001583292452675909e-03 0.000000000000000000e+00 0.000000000000000000e+00 0.000000000000000000e+00 0.000000000000000000e+00 0.000000000000000000e+00
-7.325830757170032070e-01 -1.604739502807403406e+00 5.093754079394100520e-01 -9.342905577551883223e-01 -1.001583292452675909e-03 0.000000000000000000e+00 0.000000000000000000e+00 0.000000000000000000e+00 0.000000000000000000e+00 0.000000000000000000e+00
-7.325830757170032070e-01 -1.604739502807403406e+00 5.093754079394100520e-01 -9.342905577551883223e-01 -1.001583292452675909e-03 0.000000000000000000e+00 0.000000000000000000e+00 0.000000000000000000e+00 0.000000000000000000e+00 0.000000000000000000e+00
-7.325830757170032070e-01 -1.604739502807403406e+00 5.093754079394100520e-01 -9.342905577551883223e-01 -1.001583292452675909e-03 0.000000000000000000e+00 0.000000000000000000e+00 0.000000000000000000e+00 0.000000000000000000e+00 0.000000000000000000e+00
-7.325830757170032070e-01 -1.604739502807403406e+00 5.093754079394100520e-01 -9.342905577551883223e-01 -1.001583292452675909e-03 0.000000000000000000e+00 0.000000000000000000e+00 0.000000000000000000e+00 0.000000000000000000e+00 0.000000000000000000e+00
-7.325830757170032070e-01 -1.604739502807403406e+00 5.093754079394100520e-01 -9.342905577551883223e-01 -1.001583292452675909e-03 0.000000000000000000e+00 0.000000000000000000e+00 0.000000000000000000e+00 0.000000000000000000e+00 0.000000000000000000e+00
-7.325830757170032070e-01 -1.604739502807403406e+00 5.093754079394100520e-01 -9.342905577551883223e-01 -1.001583292452675909e-03 0.000000000000000000e+00 0.000000000000000000e+00 0.000000000000000000e+00 0.000000000000000000e+00 0.000000000000000000e+00
-7.325830757170032070e-01 -1.604739502807403406e+00 5.093754079394100520e-01 -9.342905577551883223e-01 -1.001583292452675909e-03 0.000000000000000000e+00 0.000000000000000000e+00 0.000000000000000000e+00 0.000000000000000000e+00 0.000000000000000000e+00
-7.325830757170032070e-01 -1.604739502807403406e+00 5.093754079394100520e-01 -9.342905577551883223e-01 -1.001583292452675909e-03 0.000000000000000000e+00 0.000000000000000000e+00 0.000000000000000000e+00 0.000000000000000000e+00 0.000000000000000000e+00
-7.325830757170032070e-01 -1.604739502807403406e+00 5.093754079394100520e-01 -9.342905577551883223e-01 -1.001583292452675909e-03 0.000000000000000000e+00 0.000000000000000000e+00 0.000000000000000000e+00 0.000000000000000000e+00 0.000000000000000000e+00
