-1.619244392696848944e+00 -4.527623512870016520e-01 -5.697119290897889599e-01 -1.020389504970840466e+00 3.338878841350602453e-04 -1.550935303901466611e+00 -3.348039934349507085e-01 -4.870526690583530938e-01 1.512106184370235251e+00 1.388010081557126355e-03
-1.698158069274244619e+00 -4.677132113319338313e-01 -5.903110733380946273e-01 -9.439025906728747417e-01 1.764297802230236408e-04 -1.578273531547913500e+00 -2.990172008986433649e-01 -4.119828849661140713e-01 1.529738285959315158e+00 -3.149162078240730789e-03
-1.778259654745707463e+00 -4.808592779254659555e-01 -6.072041662619303004e-01 -8.666221471999132620e-01 -1.743928256941805564e-04 -1.602031709429255324e+00 -2.629213318706421498e-01 -3.378618584767126842e-01 1.545608869459229817e+00 -7.016452118344083076e-03
-1.859347095707378106e+00 -4.922554153656599207e-01 -6.204256800602462318e-01 -7.884665292368541190e-01 -1.061057274668429293e-03 0.000000000000000000e+00 0.000000000000000000e+00 0.000000000000000000e+00 0.000000000000000000e+00 0.000000000000000000e+00
-1.859347095707378106e+00 -4.922554153656599207e-01 -6.204256800602462318e-01 -7.884665292368541190e-01 -1.061057274668429293e-03 0.000000000000000000e+00 0.000000000000000000e+00 0.000000000000000000e+00 0.000000000000000000e+00 0.000000000000000000e+00
-1.859347095707378106e+00 -4.922554153656599207e-01 -6.204256800602462318e-01 -7.884665292368541190e-01 -1.061057274668429293e-03 0.000000000000000000e+00 0.000000000000000000e+00 0.000000000000000000e+00 0.000000000000000000e+00 0.000000000000000000e+00
-1.859347095707378106e+00 -4.922554153656599207e-01 -6.204256800602462318e-01 -7.884665292368541190e-01 -1.061057274668429293e-03 0.000000000000000000e+00 0.000000000000000000e+00 0.000000000000000000e+00 0.000000000000000000e+00 0.000000000000000000e+00
-1.859347095707378106e+00 -4.922554153656599207e-01 -6.204256800602462318e-01 -7.884665292368541190e-01 -1.061057274668429293e-03 0.000000000000000000e+00 0.000000000000000000e+00 0.000000000000000000e+00 0.000000000000000000e+00 0.000000000000000000e+00
-1.859347095707378106e+00 -4.922554153656599207e-01 -6.204256800602462318e-01 -7.884665292368541190e-01 -1.061057274668429293e-03 0.000000000000000000e+00 0.000000000000000000e+00 0.000000000000000000e+00 0.000000000000000000e+00 0.000000000000000000e+00
-1.859347095707378106e+00 -4.922554153656599207e-01 -6.204256800602462318e-01 -7.884665292368541190e-01 -1.061057274668429293e-03 0.000000000000000000e+00 0.000000000000000000e+00 0.000000000000000000e+00 0.000000000000000000e+00 0.000000000000000000e+00
-1.859347095707378106e+00 -4.922554153656599207e-01 -6.204256800602462318e-01 -7.884665292368541190e-01 -1.061057274668429293e-03 0.000000000000000000e+00 0.000000000000000000e+00 0.000000000000000000e+00 0.000000000000000000e+00 0.000000000000000000e+00
-1.859347095707378106e+00 -4.922554153656599207e-01 -6.204256800602462318e-01 -7.884665292368541190e-01 -1.061057274668429293e-03 0.000000000000000000e+00 0.000000000000000000e+00 0.000000000000000000e+00 0.000000000000000000e+00 0.000000000000000000e+00
-1.859347095707378106e+00 -4.922554153656599207e-01 -6.204256800602462318e-01 -7.884665292368541190e-01 -1.061057274668429293e-03 0.000000000000000000e+00 0.000000000000000000e+00 0.000000000000000000e+00 0.000000000000000000e+00 0.000000000000000000e+00
-1.859347095707378106e+00 -4.922554153656599207e-01 -6.204256800602462318e-01 -7.884665292368541190e-01 -1.061057274668429293e-03 0.000000000000000000e+00 0.000000000000000000e+00 0.000000000000000000e+00 0.000000000000000000e+00 0.000000000000000000e+00
-1.859347095707378106e+00 -4.922554153656599207e-01 -6.204256800602462318e-01 -7.884665292368541190e-01 -1.061057274668429293e-03 0.000000000000000000e+00 0.000000000000000000e+00 0.000000000000000000e+00 0.000000000000000000e+00 0.000000000000000000e+00
-1.859347095707378106e+00 -4.922554153656599207e-01 -6.204256800602462318e-01 -7.884665292368541190e-01 -1.061057274668429293e-03 0.000000000000000000e+00 0.000000000000000000e+00 0.000000000000000000e+00 0.000000000000000000e+00 0.000000000000000000e+00
-1.859347095707378106e+00 -4.922554153656599207e-01 -6.204256800602462318e-01 -7.884665292368541190e-01 -1.061057274668429293e-03 0.000000000000000000e+00 0.000000000000000000e+00 0.000000000000000000e+00 0.000000000000000000e+00 0.000000000000000000e+00
-1.859347095707378106e+00 -4.922554153656599207e-01 -6.204256800602462318e-01 -7.884665292368541190e-01 -1.061057274668429293e-03 0.000000000000000000e+00 0.000000000000000000e+00 0.000000000000000000e+00 0.000000000000000000e+00 0.000000000000000000e+00
-1.859347095707378106e+00 -4.922554153656599207e-01 -6.204256800602462318e-01 -7.884665292368541190e-01 -1.061057274668429293e-03 0.000000000000000000e+00 0.000000000000000000e+00 0.000000000000000000e+00 0.000000000000000000e+00 0.000000000000000000e+00
-1.859347095707378106e+00 -4.922554153656599207e-01 -6.204256800602462318e-01 -7.884665292368541190e-01 -1.061057274668429293e-03 0.000000000000000000e+00 0.000000000000000000e+00 0.000000000000000000e+00 0.000000000000000000e+00 0.000000000000000000e+00
-1.859347095707378106e+00 -4.922554153656599207e-01 -6.204256800602462318e-01 -7.884665292368541190e-01 -1.061057274668429293e-03 0.000000000000000000e+00 0.000000000000000000e+00 0.000000000000000000e+00 0.000000000000000000e+00 0.000000000000000000e+00
-1.859347095707378106e+00 -4.922554153656599207e-01 -6.204256800602462318e-01 -7.884665292368541190e-01 -1.061057274668429293e-03 0.000000000000000000e+00 0.000000000000000000e+00 0.000000000000000000e+00 0.000000000000000000e+00 0.000000000000000000e+00
-1.859347095707378106e+00 -4.922554153656599207e-01 -6.204256800602462318e-01 -7.884665292368541190e-01 -1.061057274668429293e-03 0.000000000000000000e+00 0.000000000000000000e+00 0.000000000000000000e+00 0.000000000000000000e+00 0.000000000000000000e+00
-1.859347095707378106e+00 -4.922554153656599207e-01 -6.204256800602462318e-01 -7.884665292368541190e-01 -1.061057274668429293e-03 0.000000000000000000e+00 0.000000000000000000e+00 0.000000000000000000e+00 0.000000000000000000e+00 0.000000000000000000e+00
-1.859347095707378106e+00 -4.922554153656599207e-01 -6.204256800602462318e-01 -7.884665292368541190e-01 -1.061057274668429293e-03 0.000000000000000000e+00 0.000000000000000000e+00 0.000000000000000000e+00 0.000000000000000000e+00 0.000000000000000000e+00
-1.859347095707378106e+00 -4.922554153656599207e-01 -6.204256800602462318e-01 -7.884665292368541190e-01 -1.061057274668429293e-03 0.000000000000000000e+00 0.000000000000000000e+00 0.000000000000000000e+00 0.000000000000000000e+00 0.000000000000000000e+00
-1.859347095707378106e+00 -4.922554153656599207e-01 -6.204256800602462318e-01 -7.884665292368541190e-01 -1.061057274668429293e-03 0.000000000000000000e+00 0.000000000000000000e+00 0.000000000000000000e+00 0.000000000000000000e+00 0.000000000000000000e+00
-1.859347095707378106e+00 -4.922554153656599207e-01 -6.204256800602462318e-01 -7.884665292368541190e-01 -1.061057274668429293e-03 0.000000000000000000e+00 0.000000000000000000e+00 0.000000000000000000e+00 0.000000000000000000e+00 0.000000000000000000e+00
-1.859347095707378106e+00 -4.922554153656599207e-01 -6.204256800602462318e-01 -7.884665292368541190e-01 -1.061057274668429293e-03 0.000000000000000000e+00 0.000000000000000000e+00 0.000000000000000000e+00 0.000000000000000000e+00 0.000000000000000000e+00
-1.859347095707378106e+00 -4.922554153656599207e-01 -6.204256800602462318e-01 -7.884665292368541190e-01 -1.061057274668429293e-03 0.000000000000000000e+00 0.000000000000000000e+00 0.000000000000000000e+00 0.000000000000000000e+00 0.000000000000000000e+00
-1.859347095707378106e+00 -4.922554153656599207e-01 -6.204256800602462318e-01 -7.884665292368541190e-01 -1.061057274668429293e-03 0.000000000000000000e+00 0.000000000000000000e+00 0.000000000000000000e+00 0.000000000000000000e+00 0.000000000000000000e+00
