-6.493571342607357133e-01 -2.704701180004908667e-01 5.111138894744618466e-02 -1.692876261870348342e+00 -1.035151823434929830e-03 -7.363820983251448959e-01 -4.704181364987192748e-01 -1.429838865419560401e+00 1.854892318452225353e-01 -1.311102856425072974e-03
-6.865542290867684416e-01 -2.963417498966802177e-01 -1.661767491601465196e-02 -1.671937647717690822e+00 -1.048275944540974502e-03 -7.439418965206544554e-01 -5.174326379237866869e-01 -1.354581277269216733e+00 4.187722830531514506e-01 -2.624824221208947421e-04
-7.242614466640832083e-01 -3.243604051895222495e-01 -7.974514688775277693e-02 -1.640339469877147849e+00 -1.041666122299335709e-03 -7.541443515462959990e-01 -5.603731058568409695e-01 -1.262549439434762721e+00 6.319635568108571411e-01 1.321964448327739208e-04
-7.626280659925094296e-01 -3.542317395726490847e-01 -1.378375974793885073e-01 -1.599411205129591451e+00 -1.012401889077492413e-03 -7.673323865685236500e-01 -5.974266876625363709e-01 -1.161849011832714940e+00 8.185652949511290633e-01 5.852846644368652710e-04
-8.017978294713911103e-01 -3.855935420722836349e-01 -1.908207587910983605e-01 -1.550662447514369990e+00 -9.187533391853712136e-04 -7.833952695776335018e-01 -6.272360499926904476e-01 -1.059663226234197175e+00 9.749751523044299928e-01 1.872970997842423116e-03
-8.418967081007570075e-01 -4.180458161257898375e-01 -2.388946470905627117e-01 -1.495648172430066980e+00 -7.700636707380496045e-04 -8.019775725873173888e-01 -6.490454810701234978e-01 -9.614777659892868034e-01 1.100285501686060652e+00 2.973793368946431315e-03
-8.830298750061715829e-01 -4.511814341765033598e-01 -2.824402997600278242e-01 -1.435857107762120499e+00 -5.878799823967931736e-04 -8.226633381082921748e-01 -6.627123610142702237e-01 -8.709130533893025827e-01 1.195821293358930948e+00 3.643673766825129053e-03
-9.252847557189500804e-01 -4.846111718392244194e-01 -3.219401876277264152e-01 -1.372633726096418760e+00 -3.948490558815647431e-04 -8.450976142555702841e-01 -6.685947532544208594e-01 -7.899977573539720410e-01 1.264467633314036554e+00 3.860618530304569043e-03
-9.687367941804460036e-01 -5.179831879729381860e-01 -3.579196092099597992e-01 -1.307126002063952797e+00 -2.108770361156862274e-04 -8.690407692299185749e-01 -6.674403226742754436e-01 -7.195884316446679030e-01 1.310154480649317943e+00 3.679440395317570313e-03
-1.013455669753380084e+00 -5.509952664532303812e-01 -3.909088004156975882e-01 -1.240261646680438146e+00 -5.313008559364550804e-05 -8.943775114586806074e-01 -6.602415696058435701e-01 -6.597838241147554461e-01 1.337287107670295017e+00 3.154939010440814713e-03
-1.059510975850757264e+00 -5.834006214830697035e-01 -4.214251300030399383e-01 -1.172743948503533140e+00 5.772972395346232552e-05 -9.211061219475417117e-01 -6.481071005967872223e-01 -6.103265917468467805e-01 1.350353963538100110e+00 2.217196190942156454e-03
-1.106976418154273833e+00 -6.150083851294886328e-01 -4.499677022370225932e-01 -1.105062220308653309e+00 7.031412376091845614e-05 -9.493088460703295040e-01 -6.321552729283784755e-01 -5.708514446796526531e-01 1.353634563897596177e+00 2.516879961491228293e-04
-1.155932863847068948e+00 -6.456813314474145749e-01 -4.770222080267899623e-01 -1.037504865990243053e+00 8.885520710246236548e-06 -9.791289138559015059e-01 -6.134589263585185082e-01 -5.410901157953469376e-01 1.351147086368204242e+00 -1.228572061013444121e-03
-1.206470577643057540e+00 -6.753264305774347998e-01 -5.030800471963693399e-01 -9.701901202461814533e-01 -1.034806116856111443e-04 -1.010754275919770739e+00 -5.929019826004053861e-01 -5.211567833915869974e-01 1.346294914881231986e+00 -2.247322647917147399e-03
-1.258690614479805792e+00 -7.038848173520869667e-01 -5.286633819745943930e-01 -9.030927453302354246e-01 -2.717570702359781870e-04 -1.044400736734967028e+00 -5.711677354930443373e-01 -5.116666955645010617e-01 1.341947498318919907e+00 -3.365529171007341017e-03
-1.312705478929731218e+00 -7.313234767178801166e-01 -5.543523255337057254e-01 -8.360594006396041555e-01 -5.405367400206973795e-04 -1.080297288998506522e+00 -5.487731873158631091e-01 -5.137788711822276477e-01 1.340666893812625382e+00 -5.375593395694381466e-03
-1.368639313802099577e+00 -7.576272792546243640e-01 -5.808163915655214504e-01 -7.688178437636286056e-01 -1.094298021353595600e-03 0.000000000000000000e+00 0.000000000000000000e+00 0.000000000000000000e+00 0.000000000000000000e+00 0.000000000000000000e+00
-1.368639313802099577e+00 -7.576272792546243640e-01 -5.808163915655214504e-01 -7.688178437636286056e-01 -1.094298021353595600e-03 0.000000000000000000e+00 0.000000000000000000e+00 0.000000000000000000e+00 0.000000000000000000e+00 0.000000000000000000e+00
-1.368639313802099577e+00 -7.576272792546243640e-01 -5.808163915655214504e-01 -7.688178437636286056e-01 -1.094298021353595600e-03 0.000000000000000000e+00 0.000000000000000000e+00 0.000000000000000000e+00 0.000000000000000000e+00 0.000000000000000000e+00
-1.368639313802099577e+00 -7.576272792546243640e-01 -5.808163915655214504e-01 -7.688178437636286056e-01 -1.094298021353595600e-03 0.000000000000000000e+00 0.000000000000000000e+00 0.000000000000000000e+00 0.000000000000000000e+00 0.000000000000000000e+00
-1.368639313802099577e+00 -7.576272792546243640e-01 -5.808163915655214504e-01 -7.688178437636286056e-01 -1.094298021353595600e-03 0.000000000000000000e+00 0.000000000000000000e+00 0.000000000000000000e+00 0.000000000000000000e+00 0.000000000000000000e+00
-1.368639313802099577e+00 -7.576272792546243640e-01 -5.808163915655214504e-01 -7.688178437636286056e-01 -1.094298021353595600e-03 0.000000000000000000e+00 0.000000000000000000e+00 0.000000000000000000e+00 0.000000000000000000e+00 0.000000000000000000e+00
-1.368639313802099577e+00 -7.576272792546243640e-01 -5.808163915655214504e-01 -7.688178437636286056e-01 -1.094298021353595600e-03 0.000000000000000000e+00 0.000000000000000000e+00 0.000000000000000000e+00 0.000000000000000000e+00 0.000000000000000000e+00
-1.368639313802099577e+00 -7.576272792546243640e-01 -5.808163915655214504e-01 -7.688178437636286056e-01 -1.094298021353595600e-03 0.000000000000000000e+00 0.000000000000000000e+00 0.000000000000000000e+00 0.000000000000000000e+00 0.000000000000000000e+00
-1.368639313802099577e+00 -7.576272792546243640e-01 -5.808163915655214504e-01 -7.688178437636286056e-01 -1.094298021353595600e-03 0.000000000000000000e+00 0.000000000000000000e+00 0.000000000000000000e+00 0.000000000000000000e+00 0.000000000000000000e+00
-1.368639313802099577e+00 -7.576272792546243640e-01 -5.808163915655214504e-01 -7.688178437636286056e-01 -1.094298021353595600e-03 0.000000000000000000e+00 0.000000000000000000e+00 0.000000000000000000e+00 0.000000000000000000e+00 0.000000000000000000e+00
-1.368639313802099577e+00 -7.576272792546243640e-01 -5.808163915655214504e-01 -7.688178437636286056e-01 -1.094298021353595600e-03 0.000000000000000000e+00 0.000000000000000000e+00 0.000000000000000000e+00 0.000000000000000000e+00 0.000000000000000000e+00
-1.368639313802099577e+00 -7.576272792546243640e-01 -5.808163915655214504e-01 -7.688178437636286056e-01 -1.094298021353595600e-03 0.000000000000000000e+00 0.000000000000000000e+00 0.000000000000000000e+00 0.000000000000000000e+00 0.000000000000000000e+00
-1.368639313802099577e+00 -7.576272792546243640e-01 -5.808163915655214504e-01 -7.688178437636286056e-01 -1.094298021353595600e-03 0.000000000000000000e+00 0.000000000000000000e+00 0.000000000000000000e+00 0.000000000000000000e+00 0.000000000000000000e+00
-1.368639313802099577e+00 -7.576272792546243640e-01 -5.808163915655214504e-01 -7.688178437636286056e-01 -1.094298021353595600e-03 0.000000000000000000e+00 0.000000000000000000e+00 0.000000000000000000e+00 0.000000000000000000e+00 0.000000000000000000e+00
-1.368639313802099577e+00 -7.576272792546243640e-01 -5.808163915655214504e-01 -7.688178437636286056e-01 -1.094298021353595600e-03 0.000000000000000000e+00 0.000000000000000000e+00 0.000000000000000000e+00 0.000000000000000000e+00 0.000000000000000000e+00
