-4.523075414375551384e-01 -4.286810139647878604e-01 3.719768261029363643e-01 -1.604048324013149340e+00 -3.791418016025661117e-04 -3.727791489105404810e-01 -5.885951578415046237e-01 -5.568837457418928105e-01 -8.836065259735303989e-01 -3.861410563786955939e-03
-4.711318984763277484e-01 -4.602790909516119022e-01 3.428314386018285753e-01 -1.644364391842356943e+00 -5.713984382631764891e-04 -3.764871407754527000e-01 -6.319615397364807263e-01 -5.829077500221552244e-01 -8.063213565841530484e-01 -3.845132733212207766e-03
-4.898866001410453475e-01 -4.941152634800507482e-01 3.130496537138511837e-01 -1.679463220201977469e+00 -7.467101374626070910e-04 -3.750940332943515920e-01 -6.767234505687765855e-01 -5.956356977595483881e-01 -7.019765671924115269e-01 -3.506233983988611171e-03
-5.083433595976439845e-01 -5.302506044568411347e-01 2.833980434338636001e-01 -1.708173556532966986e+00 -8.895040314731695024e-04 -3.691351891319735734e-01 -7.227068195358082869e-01 -5.930322055997521158e-01 -5.742067266197913300e-01 -2.855877880211247360e-03
-5.263128117031462549e-01 -5.687270992394890534e-01 2.546814548021448799e-01 -1.729564025529880533e+00 -9.868274592866709948e-04 -3.593890421100459087e-01 -7.695298956529592616e-01 -5.743317726343740715e-01 -4.278093799382699514e-01 -1.946468556270028764e-03
-5.436525252153928678e-01 -6.095567900305399744e-01 2.276672132553158867e-01 -1.742980444109716309e+00 -1.031101351009723653e-03 -3.467942702449323122e-01 -8.165938158210176434e-01 -5.402848309365796409e-01 -2.683283715967162975e-01 -8.854778344610538237e-04
-5.602711183363948688e-01 -6.527110297191091037e-01 2.030090117319646448e-01 -1.748066275336727760e+00 -1.025670967451985504e-03 -3.323718624200396876e-01 -8.630847937713814755e-01 -4.931640304670247277e-01 -1.017166245402302549e-01 1.086076711547638574e-04
-5.761289568887715262e-01 -6.981129318558855212e-01 1.811827566173697390e-01 -1.744760715708878918e+00 -1.002403246210741916e-03 -3.171567710475337032e-01 -9.080380427355275730e-01 -4.365251022918980595e-01 6.611119255697603392e-02 4.653544248248695815e-04
-5.912365123952066925e-01 -7.456344085508073150e-01 1.624477290717603883e-01 -1.733280348011843941e+00 -9.429529032309893989e-04 -3.021511101287027712e-01 -9.504295338984359853e-01 -3.747005509121867917e-01 2.296073539406974229e-01 1.189006859595049918e-03
-6.056519458470752681e-01 -7.950983309173975666e-01 1.468379129988146570e-01 -1.714089105214739117e+00 -8.496582855752399851e-04 -2.883086690373705685e-01 -9.892784473318042560e-01 -3.121963214589146829e-01 3.838248559420958106e-01 1.865892353114988926e-03
-6.194786836469299285e-01 -8.462865979141391826e-01 1.341811686666355141e-01 -1.687855677826669565e+00 -7.341693919193413922e-04 -2.765347559970923186e-01 -1.023765339934833429e+00 -2.531348866435828571e-01 5.246685477613901583e-01 2.309777873117971423e-03
-6.328659339116220472e-01 -8.989515475776387321e-01 1.241323353468773288e-01 -1.655405105688740219e+00 -6.097417366590025855e-04 -2.677450052938423752e-01 -1.053298993269991435e+00 -2.009766663951637333e-01 6.490114427585877976e-01 2.488553105206776569e-03
-6.460145970823238937e-01 -9.528274660351658820e-01 1.162054737821431594e-01 -1.617671619760348012e+00 -4.885880388831132870e-04 -2.629732634140373726e-01 -1.077518369150542110e+00 -1.585372312946833617e-01 7.546697185678452602e-01 2.423073955517786402e-03
-6.591885340966869844e-01 -1.007642225365813271e+00 1.097970968608256020e-01 -1.575647921392449469e+00 -3.806985567857854524e-04 -2.634787402872617035e-01 -1.096295186612949779e+00 -1.281675384263512019e-01 8.404739673579693093e-01 2.157789641946556477e-03
-6.727283332582428832e-01 -1.063129544193307963e+00 1.042003766072185922e-01 -1.530326931568196880e+00 -2.919960818380610006e-04 -2.707959832311171988e-01 -1.109746376549892055e+00 -1.119344050721400585e-01 9.064197964850519984e-01 1.774049498954489252e-03
-6.870647124392996741e-01 -1.119041270677695987e+00 9.861060328428369881e-02 -1.482636909521606539e+00 -2.188974525409936801e-04 -2.867275836211367612e-01 -1.118234529687761381e+00 -1.117954664586979230e-01 9.538004409318063814e-01 1.461972585941346409e-03
-7.027307948821517325e-01 -1.175157313572424922e+00 9.211910703202561002e-02 -1.433377597161836325e+00 -1.281408656019884459e-04 0.000000000000000000e+00 0.000000000000000000e+00 0.000000000000000000e+00 0.000000000000000000e+00 0.000000000000000000e+00
-7.027307948821517325e-01 -1.175157313572424922e+00 9.211910703202561002e-02 -1.433377597161836325e+00 -1.281408656019884459e-04 0.000000000000000000e+00 0.000000000000000000e+00 0.000000000000000000e+00 0.000000000000000000e+00 0.000000000000000000e+00
-7.027307948821517325e-01 -1.175157313572424922e+00 9.211910703202561002e-02 -1.433377597161836325e+00 -1.281408656019884459e-04 0.000000000000000000e+00 0.000000000000000000e+00 0.000000000000000000e+00 0.000000000000000000e+00 0.000000000000000000e+00
-7.027307948821517325e-01 -1.175157313572424922e+00 9.211910703202561002e-02 -1.433377597161836325e+00 -1.281408656019884459e-04 0.000000000000000000e+00 0.000000000000000000e+00 0.000000000000000000e+00 0.000000000000000000e+00 0.000000000000000000e+00
-7.027307948821517325e-01 -1.175157313572424922e+00 9.211910703202561002e-02 -1.433377597161836325e+00 -1.281408656019884459e-04 0.000000000000000000e+00 0.000000000000000000e+00 0.000000000000000000e+00 0.000000000000000000e+00 0.000000000000000000e+00
-7.027307948821517325e-01 -1.175157313572424922e+00 9.211910703202561002e-02 -1.433377597161836325e+00 -1.281408656019884459e-04 0.000000000000000000e+00 0.000000000000000000e+00 0.000000000000000000e+00 0.000000000000000000e+00 0.000000000000000000e+00
-7.027307948821517325e-01 -1.175157313572424922e+00 9.211910703202561002e-02 -1.433377597161836325e+00 -1.281408656019884459e-04 0.000000000000000000e+00 0.000000000000000000e+00 0.000000000000000000e+00 0.000000000000000000e+00 0.000000000000000000e+00
-7.027307948821517325e-01 -1.175157313572424922e+00 9.211910703202561002e-02 -1.433377597161836325e+00 -1.281408656019884459e-04 0.000000000000000000e+00 0.000000000000000000e+00 0.000000000000000000e+00 0.000000000000000000e+00 0.000000000000000000e+00
-7.027307948821517325e-01 -1.175157313572424922e+00 9.211910703202561002e-02 -1.433377597161836325e+00 -1.281408656019884459e-04 0.000000000000000000e+00 0.000000000000000000e+00 0.000000000000000000e+00 0.000000000000000000e+00 0.000000000000000000e+00
-7.027307948821517325e-01 -1.175157313572424922e+00 9.211910703202561002e-02 -1.433377597161836325e+00 -1.281408656019884459e-04 0.000000000000000000e+00 0.000000000000000000e+00 0.000000000000000000e+00 0.000000000000000000e+00 0.000000000000000000e+00
-7.027307948821517325e-01 -1.175157313572424922e+00 9.211910703202561002e-02 -1.433377597161836325e+00 -1.281408656019884459e-04 0.000000000000000000e+00 0.000000000000000000e+00 0.000000000000000000e+00 0.000000000000000000e+00 0.000000000000000000e+00
-7.027307948821517325e-01 -1.175157313572424922e+00 9.211910703202561002e-02 -1.433377597161836325e+00 -1.281408656019884459e-04 0.000000000000000000e+00 0.000000000000000000e+00 0.000000000000000000e+00 0.000000000000000000e+00 0.000000000000000000e+00
-7.027307948821517325e-01 -1.175157313572424922e+00 9.211910703202561002e-02 -1.433377597161836325e+00 -1.281408656019884459e-04 0.000000000000000000e+00 0.000000000000000000e+00 0.000000000000000000e+00 0.000000000000000000e+00 0.000000000000000000e+00
-7.027307948821517325e-01 -1.175157313572424922e+00 9.211910703202561002e-02 -1.433377597161836325e+00 -1.281408656019884459e-04 0.000000000000000000e+00 0.000000000000000000e+00 0.000000000000000000e+00 0.000000000000000000e+00 0.000000000000000000e+00
-7.027307948821517325e-01 -1.175157313572424922e+00 9.211910703202561002e-02 -1.433377597161836325e+00 -1.281408656019884459e-04 0.000000000000000000e+00 0.000000000000000000e+00 0.000000000000000000e+00 0.000000000000000000e+00 0.000000000000000000e+00
