-7.585955548891253342e-01 -3.592152515528431178e-01 5.457826243765971919e-01 -2.260592799757893623e+00 -1.072630295736234527e-03 -2.119174491029773288e-01 -8.639607451643753766e-01 -1.134378535818461708e+00 -5.189723224731010998e-01 -7.890549839029415129e-04
-7.681496557279412496e-01 -4.084226071417066395e-01 4.869326351656469987e-01 -2.276651059562445401e+00 -1.087817013200793577e-03 -1.910820167763184196e-01 -9.841471117772706556e-01 -1.176999784219004086e+00 -3.211651960910388848e-01 -3.037343492911799125e-04
-7.764650291944098504e-01 -4.633596766321425586e-01 4.285319310795014935e-01 -2.281126733792850469e+00 -1.090887676240011924e-03 -1.663074693293714601e-01 -1.098741389808718827e+00 -1.168014081722910325e+00 -8.951348460809896435e-02 -6.141326078436810227e-05
-7.835497943771019269e-01 -5.237066791092829243e-01 3.728429576552531044e-01 -2.273259856447268135e+00 -1.084976904578895595e-03 -1.416953036538405875e-01 -1.206940049542806426e+00 -1.113779468484967783e+00 1.573375469116451153e-01 1.182154332223268466e-04
-7.895627710459844906e-01 -5.890502336375798009e-01 3.215303992788094978e-01 -2.253115827311234831e+00 -1.072259055222602201e-03 -1.202595333776502878e-01 -1.306871090565937976e+00 -1.026251167528872354e+00 4.028805827206669576e-01 2.543569871258688541e-04
-7.947460579945341275e-01 -6.588618388568985296e-01 2.755395738859170995e-01 -2.221411416560213237e+00 -1.052990338100390309e-03 -1.036657389709924049e-01 -1.396232104386375017e+00 -9.198165078578482978e-01 6.340882150204285583e-01 3.853743424442373144e-04
-7.993642553344537660e-01 -7.325152744400741378e-01 2.351404778179634891e-01 -2.179300867917305151e+00 -1.018232858772929279e-03 -9.236394679839356192e-02 -1.473068711663511277e+00 -8.079819213590719862e-01 8.422109728581643751e-01 6.951495865492217851e-04
-8.036611109530311658e-01 -8.093316204414702231e-01 2.000878349424098090e-01 -2.128156391057228092e+00 -9.397315072154191528e-04 -8.593711237154889881e-02 -1.536326920027921483e+00 -7.010528575110733795e-01 1.022889537201541632e+00 1.570027031150202307e-03
-8.078367327156744659e-01 -8.886274686591006944e-01 1.698145993495211448e-01 -2.069389906588827710e+00 -8.076853154039809711e-04 -8.351243525286708436e-02 -1.585916964352609870e+00 -6.054647118577731746e-01 1.175329689368006525e+00 2.640923836228763200e-03
-8.120381797406358571e-01 -9.697555457123177014e-01 1.436041087748092526e-01 -2.004332391172457761e+00 -6.361766616693624371e-04 -8.402894049922775277e-02 -1.622561541064340807e+00 -5.242098114942377318e-01 1.301150308327399641e+00 3.430173074692371114e-03
-8.163540230851015211e-01 -1.052132728598000666e+00 1.207191092525551485e-01 -1.934164589640867682e+00 -4.398654921457780735e-04 -8.631686688931342055e-02 -1.647543657713660403e+00 -4.576999904450820278e-01 1.403356030631800699e+00 3.926223390471687488e-03
-8.208068724522538107e-01 -1.135255641001035487e+00 1.004868587639177885e-01 -1.859887200441007415e+00 -2.296875184924794587e-04 -8.905698734304522135e-02 -1.662458248060696198e+00 -4.046450097727471440e-01 1.485547783997207105e+00 4.203559473065971754e-03
-8.253425427018377114e-01 -1.218706456168576091e+00 8.234935620002714618e-02 -1.782318067853797539e+00 -1.327083915316122436e-05 -9.071340499167868110e-02 -1.669016303350813413e+00 -3.627500512778127351e-01 1.551382651744195540e+00 4.328333586786364470e-03
-8.298207379744125811e-01 -1.302152089196084273e+00 6.588699193792425801e-02 -1.702105978300482825e+00 2.036507502166669909e-04 -8.956390545149814364e-02 -1.668912660550161409e+00 -3.292472852420577634e-01 1.604241791066293388e+00 4.338431787396563981e-03
-8.340201105531082071e-01 -1.385339641173460201e+00 5.081595832826595049e-02 -1.619752921344244312e+00 4.158440284861924206e-04 -8.398745157391175609e-02 -1.663751039547518795e+00 -3.014206721931662059e-01 1.647061139124769147e+00 4.243865565390509027e-03
-8.376755316429312925e-01 -1.468090233696457414e+00 3.695156001721979638e-02 -1.535637839939530735e+00 6.173816947859528002e-04 -7.310842179646073746e-02 -1.655011850459942924e+00 -2.772879662209230545e-01 1.682301628094273083e+00 4.030753325995207158e-03
-8.405533706820808026e-01 -1.550292214580201389e+00 2.413520308405479181e-02 -1.450035705823843335e+00 7.995565760901732731e-04 -5.755678078298977207e-02 -1.644039617674880827e+00 -2.563271386633000359e-01 1.712042682313748676e+00 3.643497626084410326e-03
-8.425329667765896202e-01 -1.631893308480100613e+00 1.215246649135682394e-02 -1.363129113720263463e+00 9.418667747139938817e-04 -3.959192189017711472e-02 -1.632021877997984260e+00 -2.396547318539593574e-01 1.738131842071597211e+00 2.846203972476412606e-03
-8.436338117286482641e-01 -1.712890828161101275e+00 6.959346966305263171e-04 -1.275016349409755945e+00 9.713889010717886938e-04 -2.201689904117391447e-02 -1.619950393620011475e+00 -2.291306358945259802e-01 1.762255286210149263e+00 5.904425271558975431e-04
-8.439651393097064025e-01 -1.793320409573144980e+00 -1.060299313229106331e-02 -1.185723572992813057e+00 9.252392105941289503e-04 -6.626551621162558511e-03 -1.608591628240873206e+00 -2.259785565784317718e-01 1.785855528338855525e+00 -9.229938095531948702e-04
-8.436460455017871229e-01 -1.873245151937535491e+00 -2.211283559230818596e-02 -1.095223425472864998e+00 8.573624084773376428e-04 6.381876158384891876e-03 -1.598494847287811549e+00 -2.301968492003424738e-01 1.810002950398961863e+00 -1.357536042335827017e-03
-8.427551159575794593e-01 -1.952746412004104259e+00 -3.416540961401012821e-02 -1.003454845288858088e+00 7.863253741623442731e-04 1.781859088415280526e-02 -1.590025201331375815e+00 -2.410514804340389006e-01 1.835371603680136854e+00 -1.420740686299867828e-03
-8.413220121581466149e-01 -2.031916038119605084e+00 -4.705943040649678000e-02 -9.103379150902830563e-01 7.283909359936511672e-04 2.866207598865688072e-02 -1.583392522310020478e+00 -2.578804158497329801e-01 1.862338603971501527e+00 -1.158688763373861251e-03
-8.393412427488149419e-01 -2.110849247063073530e+00 -6.109071112597912884e-02 -8.157811165223718408e-01 7.325753264390649734e-04 3.961538818663336986e-02 -1.578664178869366053e+00 -2.806256143896468935e-01 1.891135971358223866e+00 8.368780890827634024e-05
-8.367894352071177932e-01 -2.189637377996272782e+00 -7.659649108653894534e-02 -7.196810286826927916e-01 1.000837768251298596e-03 0.000000000000000000e+00 0.000000000000000000e+00 0.000000000000000000e+00 0.000000000000000000e+00 0.000000000000000000e+00
-8.367894352071177932e-01 -2.189637377996272782e+00 -7.659649108653894534e-02 -7.196810286826927916e-01 1.000837768251298596e-03 0.000000000000000000e+00 0.000000000000000000e+00 0.000000000000000000e+00 0.000000000000000000e+00 0.000000000000000000e+00
-8.367894352071177932e-01 -2.189637377996272782e+00 -7.659649108653894534e-02 -7.196810286826927916e-01 1.000837768251298596e-03 0.000000000000000000e+00 0.000000000000000000e+00 0.000000000000000000e+00 0.000000000000000000e+00 0.000000000000000000e+00
-8.367894352071177932e-01 -2.189637377996272782e+00 -7.659649108653894534e-02 -7.196810286826927916e-01 1.000837768251298596e-03 0.000000000000000000e+00 0.000000000000000000e+00 0.000000000000000000e+00 0.000000000000000000e+00 0.000000000000000000e+00
-8.367894352071177932e-01 -2.189637377996272782e+00 -7.659649108653894534e-02 -7.196810286826927916e-01 1.000837768251298596e-03 0.000000000000000000e+00 0.000000000000000000e+00 0.000000000000000000e+00 0.000000000000000000e+00 0.000000000000000000e+00
-8.367894352071177932e-01 -2.189637377996272782e+00 -7.659649108653894534e-02 -7.196810286826927916e-01 1.000837768251298596e-03 0.000000000000000000e+00 0.000000000000000000e+00 0.000000000000000000e+00 0.000000000000000000e+00 0.000000000000000000e+00
-8.367894352071177932e-01 -2.189637377996272782e+00 -7.659649108653894534e-02 -7.196810286826927916e-01 1.000837768251298596e-03 0.000000000000000000e+00 0.000000000000000000e+00 0.000000000000000000e+00 0.000000000000000000e+00 0.000000000000000000e+00
