5.566165350751350882e-01 -3.283145438531564486e-01 2.105060393285570763e-01
5.566165350751350882e-01 -3.283145438531564486e-01 2.105060393285570763e-01
5.566165350751350882e-01 -3.283145438531564486e-01 2.105060393285570763e-01
5.566165350751350882e-01 -3.283145438531564486e-01 2.105060393285570763e-01
5.566165350751350882e-01 -3.283145438531564486e-01 2.105060393285570763e-01
5.566165350751350882e-01 -3.283145438531564486e-01 2.105060393285570763e-01
5.566165350751350882e-01 -3.283145438531564486e-01 2.105060393285570763e-01
5.566165350751350882e-01 -3.283145438531564486e-01 2.105060393285570763e-01
5.566165350751350882e-01 -3.283145438531564486e-01 2.105060393285570763e-01
5.566165350751350882e-01 -3.283145438531564486e-01 2.105060393285570763e-01
5.566165350751350882e-01 -3.283145438531564486e-01 2.105060393285570763e-01
5.566165350751350882e-01 -3.283145438531564486e-01 2.105060393285570763e-01
5.566165350751350882e-01 -3.283145438531564486e-01 2.105060393285570763e-01
5.566165350751350882e-01 -3.283145438531564486e-01 2.105060393285570763e-01
5.566165350751350882e-01 -3.283145438531564486e-01 2.105060393285570763e-01
5.566165350751350882e-01 -3.283145438531564486e-01 2.105060393285570763e-01
5.566165350751350882e-01 -3.283145438531564486e-01 2.105060393285570763e-01
5.566165350751350882e-01 -3.283145438531564486e-01 2.105060393285570763e-01
5.566165350751350882e-01 -3.283145438531564486e-01 2.105060393285570763e-01
5.566165350751350882e-01 -3.283145438531564486e-01 2.105060393285570763e-01
5.566165350751350882e-01 -3.283145438531564486e-01 2.105060393285570763e-01
5.566165350751350882e-01 -3.283145438531564486e-01 2.105060393285570763e-01
5.566165350751350882e-01 -3.283145438531564486e-01 2.105060393285570763e-01
5.566165350751350882e-01 -3.283145438531564486e-01 2.105060393285570763e-01
5.566165350751350882e-01 -3.283145438531564486e-01 2.105060393285570763e-01
5.566165350751350882e-01 -3.283145438531564486e-01 2.105060393285570763e-01
5.566165350751350882e-01 -3.283145438531564486e-01 2.105060393285570763e-01
5.566165350751350882e-01 -3.283145438531564486e-01 2.105060393285570763e-01
5.566165350751350882e-01 -3.283145438531564486e-01 2.105060393285570763e-01
5.566165350751350882e-01 -3.283145438531564486e-01 2.105060393285570763e-01
