4.007486697964063316e-02 -8.605877578567553421e-01 8.935463074885189316e-01 -1.488514875582531483e+00 -1.022235214967557671e-03 1.953895636649989331e+00 -8.451559937231978292e-01 1.214057117110734607e+00 1.371082915103836397e+00 -9.280943245595786974e-05
1.452555372416607371e-01 -8.978978723947068641e-01 9.600361063164691844e-01 -1.417640228123134394e+00 -1.026403288212458841e-03 2.103613405240402301e+00 -7.462022907590304399e-01 1.329795976559005055e+00 1.417492949187939999e+00 -8.336146489802555672e-05
2.571846435253472007e-01 -9.294788703026051202e-01 1.031121179253920772e+00 -1.345213327101803413e+00 -1.024927850040615500e-03 2.238582125673729717e+00 -6.316199581579647893e-01 1.421701458749030866e+00 1.448538020426618056e+00 2.950876343686812851e-05
3.747859174452148334e-01 -9.546783486761371007e-01 1.105212982319126125e+00 -1.271751558938625015e+00 -9.996504355716589671e-04 2.352025478397353098e+00 -5.039895674706396100e-01 1.481836061304107277e+00 1.469235363263569738e+00 5.055482893791290360e-04
4.966952174204087855e-01 -9.730107486174829345e-01 1.180395426948303239e+00 -1.197482440283030192e+00 -9.082968904525075791e-04 2.438185999503879486e+00 -3.666479988269173429e-01 1.503648892583540286e+00 1.485382373111895360e+00 1.827070902383027325e-03
6.213681075017614130e-01 -9.841930211137849271e-01 1.254574876351766788e+00 -1.122340339513320906e+00 -7.437937421655661709e-04 2.493457801627051662e+00 -2.236454499260400186e-01 1.483588988069270531e+00 1.502842015394183273e+00 3.290062965738828164e-03
7.472219356278704261e-01 -9.881675343687406077e-01 1.325678268588065922e+00 -1.046014742786772089e+00 -5.128237670800422053e-04 2.517076562522179373e+00 -7.949026509911383265e-02 1.422067844725984243e+00 1.526511934530975667e+00 4.619399501710478445e-03
8.727802587085334851e-01 -9.851045330098989750e-01 1.391852261184227002e+00 -9.680451652874531021e-01 -2.301608322679302783e-04 2.511166461613261180e+00 6.126002717683309839e-02 1.323479851923219597e+00 1.559391549986379077e+00 5.653258696242237889e-03
9.967884857605570081e-01 -9.753829779544911371e-01 1.451616928422840402e+00 -8.879340384073508563e-01 8.428216579310984910e-05 2.480164541040470905e+00 1.944311011081570340e-01 1.195293344772268451e+00 1.602222537602045138e+00 6.288859961220801681e-03
1.118280527676253300e+00 -9.595548651872072288e-01 1.503946809346333291e+00 -8.052451226264314421e-01 4.073093077996388714e-04 2.429840838313926277e+00 3.165622553456771682e-01 1.046597618469857327e+00 1.653778315618388728e+00 6.460542840130579362e-03
1.236594131016256037e+00 -9.383015317237547448e-01 1.548282776095794899e+00 -7.196669003930766806e-01 7.114604382181342196e-04 2.366272066800056528e+00 4.250666692690496240e-01 8.867193349892334986e-01 1.711564444667095453e+00 6.083022608369905229e-03
1.351344141382341268e+00 -9.123883332150077852e-01 1.584491638761136301e+00 -6.310358059895966321e-01 9.570244447697587873e-04 2.295000207321703289e+00 5.182639701749390815e-01 7.241772533068269180e-01 1.772621888069600526e+00 4.911280131032490920e-03
1.462368223497529041e+00 -8.826209388182524318e-01 1.612794743734717207e+00 -5.393312476447296167e-01 1.058669779033281390e-03 2.220481642303754555e+00 5.953478879351081776e-01 5.660620994716172305e-01 1.834091166897339864e+00 2.032906685270453786e-03
1.569655498288711648e+00 -8.498025671046361973e-01 1.633664521421419824e+00 -4.446572257505314596e-01 1.000990228280707267e-03 0.000000000000000000e+00 0.000000000000000000e+00 0.000000000000000000e+00 0.000000000000000000e+00 0.000000000000000000e+00
1.569655498288711648e+00 -8.498025671046361973e-01 1.633664521421419824e+00 -4.446572257505314596e-01 1.000990228280707267e-03 0.000000000000000000e+00 0.000000000000000000e+00 0.000000000000000000e+00 0.000000000000000000e+00 0.000000000000000000e+00
1.569655498288711648e+00 -8.498025671046361973e-01 1.633664521421419824e+00 -4.446572257505314596e-01 1.000990228280707267e-03 0.000000000000000000e+00 0.000000000000000000e+00 0.000000000000000000e+00 0.000000000000000000e+00 0.000000000000000000e+00
1.569655498288711648e+00 -8.498025671046361973e-01 1.633664521421419824e+00 -4.446572257505314596e-01 1.000990228280707267e-03 0.000000000000000000e+00 0.000000000000000000e+00 0.000000000000000000e+00 0.000000000000000000e+00 0.000000000000000000e+00
1.569655498288711648e+00 -8.498025671046361973e-01 1.633664521421419824e+00 -4.446572257505314596e-01 1.000990228280707267e-03 0.000000000000000000e+00 0.000000000000000000e+00 0.000000000000000000e+00 0.000000000000000000e+00 0.000000000000000000e+00
1.569655498288711648e+00 -8.498025671046361973e-01 1.633664521421419824e+00 -4.446572257505314596e-01 1.000990228280707267e-03 0.000000000000000000e+00 0.000000000000000000e+00 0.000000000000000000e+00 0.000000000000000000e+00 0.000000000000000000e+00
1.569655498288711648e+00 -8.498025671046361973e-01 1.633664521421419824e+00 -4.446572257505314596e-01 1.000990228280707267e-03 0.000000000000000000e+00 0.000000000000000000e+00 0.000000000000000000e+00 0.000000000000000000e+00 0.000000000000000000e+00
1.569655498288711648e+00 -8.498025671046361973e-01 1.633664521421419824e+00 -4.446572257505314596e-01 1.000990228280707267e-03 0.000000000000000000e+00 0.000000000000000000e+00 0.000000000000000000e+00 0.000000000000000000e+00 0.000000000000000000e+00
1.569655498288711648e+00 -8.498025671046361973e-01 1.633664521421419824e+00 -4.446572257505314596e-01 1.000990228280707267e-03 0.000000000000000000e+00 0.000000000000000000e+00 0.000000000000000000e+00 0.000000000000000000e+00 0.000000000000000000e+00
1.569655498288711648e+00 -8.498025671046361973e-01 1.633664521421419824e+00 -4.446572257505314596e-01 1.000990228280707267e-03 0.000000000000000000e+00 0.000000000000000000e+00 0.000000000000000000e+00 0.000000000000000000e+00 0.000000000000000000e+00
1.569655498288711648e+00 -8.498025671046361973e-01 1.633664521421419824e+00 -4.446572257505314596e-01 1.000990228280707267e-03 0.000000000000000000e+00 0.000000000000000000e+00 0.000000000000000000e+00 0.000000000000000000e+00 0.000000000000000000e+00
1.569655498288711648e+00 -8.498025671046361973e-01 1.633664521421419824e+00 -4.446572257505314596e-01 1.000990228280707267e-03 0.000000000000000000e+00 0.000000000000000000e+00 0.000000000000000000e+00 0.000000000000000000e+00 0.000000000000000000e+00
1.569655498288711648e+00 -8.498025671046361973e-01 1.633664521421419824e+00 -4.446572257505314596e-01 1.000990228280707267e-03 0.000000000000000000e+00 0.000000000000000000e+00 0.000000000000000000e+00 0.000000000000000000e+00 0.000000000000000000e+00
1.569655498288711648e+00 -8.498025671046361973e-01 1.633664521421419824e+00 -4.446572257505314596e-01 1.000990228280707267e-03 0.000000000000000000e+00 0.000000000000000000e+00 0.000000000000000000e+00 0.000000000000000000e+00 0.000000000000000000e+00
1.569655498288711648e+00 -8.498025671046361973e-01 1.633664521421419824e+00 -4.446572257505314596e-01 1.000990228280707267e-03 0.000000000000000000e+00 0.000000000000000000e+00 0.000000000000000000e+00 0.000000000000000000e+00 0.000000000000000000e+00
1.569655498288711648e+00 -8.498025671046361973e-01 1.633664521421419824e+00 -4.446572257505314596e-01 1.000990228280707267e-03 0.000000000000000000e+00 0.000000000000000000e+00 0.000000000000000000e+00 0.000000000000000000e+00 0.000000000000000000e+00
1.569655498288711648e+00 -8.498025671046361973e-01 1.633664521421419824e+00 -4.446572257505314596e-01 1.000990228280707267e-03 0.000000000000000000e+00 0.000000000000000000e+00 0.000000000000000000e+00 0.000000000000000000e+00 0.000000000000000000e+00
1.569655498288711648e+00 -8.498025671046361973e-01 1.633664521421419824e+00 -4.446572257505314596e-01 1.000990228280707267e-03 0.000000000000000000e+00 0.000000000000000000e+00 0.000000000000000000e+00 0.000000000000000000e+00 0.000000000000000000e+00
