-1.145042169173394742e+00 -1.316877598833158913e+00 -1.434301524769989733e-01 -1.336716001242877372e+00 7.121761150588627395e-04 -3.786274259107388906e-02 -1.796321395056939663e+00 -6.823456183404167374e-01 1.421515906642121241e+00 4.706384826076522379e-03
-1.143167621228330377e+00 -1.408607672609509143e+00 -1.720374955413692952e-01 -1.257613648040809995e+00 8.786669569188190927e-04 3.749095890128592568e-02 -1.834601475527005032e+00 -5.721468612874062165e-01 1.582047064041346207e+00 3.329816837199126630e-03
-1.137421283559248986e+00 -1.501860428239647716e+00 -1.959729781668161919e-01 -1.171452165907095333e+00 9.735222856624514785e-04 1.149267533816285408e-01 -1.865055112602773235e+00 -4.787096525089375998e-01 1.723229642674291018e+00 1.897106574872648582e-03
-1.128190961994783637e+00 -1.596304976181143420e+00 -2.163883615215264344e-01 -1.079054146514866419e+00 1.001506084800164818e-03 1.846064312893082593e-01 -1.888890958829912092e+00 -4.083076670942047404e-01 1.847960387844578500e+00 5.596759827542683013e-04
-1.116391423233311420e+00 -1.691658794432605584e+00 -2.348719351685899792e-01 -9.811429110962346378e-01 9.685151685577008708e-04 2.359907752294460037e-01 -1.907076365029242160e+00 -3.696714729412710621e-01 1.958224708372635181e+00 -6.598183248492791534e-04
-1.103167499958906284e+00 -1.787658237896351920e+00 -2.533135028969368263e-01 -8.784183891032425473e-01 8.529857818366606316e-04 2.644784654881035535e-01 -1.919988869274925847e+00 -3.688313545669368310e-01 2.054490439859840922e+00 -2.310587734420803049e-03
-1.089488101826511013e+00 -1.884025731108651902e+00 -2.736357268375350094e-01 -7.716171609539398402e-01 7.135319681975630258e-04 2.735879626479055804e-01 -1.927349864245998301e+00 -4.064444788119631613e-01 2.136024562986053255e+00 -2.789076272781950815e-03
-1.075956129105885450e+00 -1.980443669173746812e+00 -2.976845600262948976e-01 -6.615346590996289411e-01 6.397044224635068310e-04 2.706394544125113599e-01 -1.928358761301899316e+00 -4.809766637751979879e-01 2.201650037086217537e+00 -1.476550914681123029e-03
-1.062865434779019402e+00 -2.076531469781727868e+00 -3.273710040144948152e-01 -5.490203492165417476e-01 9.999710272410662799e-04 0.000000000000000000e+00 0.000000000000000000e+00 0.000000000000000000e+00 0.000000000000000000e+00 0.000000000000000000e+00
-1.062865434779019402e+00 -2.076531469781727868e+00 -3.273710040144948152e-01 -5.490203492165417476e-01 9.999710272410662799e-04 0.000000000000000000e+00 0.000000000000000000e+00 0.000000000000000000e+00 0.000000000000000000e+00 0.000000000000000000e+00
-1.062865434779019402e+00 -2.076531469781727868e+00 -3.273710040144948152e-01 -5.490203492165417476e-01 9.999710272410662799e-04 0.000000000000000000e+00 0.000000000000000000e+00 0.000000000000000000e+00 0.000000000000000000e+00 0.000000000000000000e+00
-1.062865434779019402e+00 -2.076531469781727868e+00 -3.273710040144948152e-01 -5.490203492165417476e-01 9.999710272410662799e-04 0.000000000000000000e+00 0.000000000000000000e+00 0.000000000000000000e+00 0.000000000000000000e+00 0.000000000000000000e+00
-1.062865434779019402e+00 -2.076531469781727868e+00 -3.273710040144948152e-01 -5.490203492165417476e-01 9.999710272410662799e-04 0.000000000000000000e+00 0.000000000000000000e+00 0.000000000000000000e+00 0.000000000000000000e+00 0.000000000000000000e+00
-1.062865434779019402e+00 -2.076531469781727868e+00 -3.273710040144948152e-01 -5.490203492165417476e-01 9.999710272410662799e-04 0.000000000000000000e+00 0.000000000000000000e+00 0.000000000000000000e+00 0.000000000000000000e+00 0.000000000000000000e+00
-1.062865434779019402e+00 -2.076531469781727868e+00 -3.273710040144948152e-01 -5.490203492165417476e-01 9.999710272410662799e-04 0.000000000000000000e+00 0.000000000000000000e+00 0.000000000000000000e+00 0.000000000000000000e+00 0.000000000000000000e+00
-1.062865434779019402e+00 -2.076531469781727868e+00 -3.273710040144948152e-01 -5.490203492165417476e-01 9.999710272410662799e-04 0.000000000000000000e+00 0.000000000000000000e+00 0.000000000000000000e+00 0.000000000000000000e+00 0.000000000000000000e+00
-1.062865434779019402e+00 -2.076531469781727868e+00 -3.273710040144948152e-01 -5.490203492165417476e-01 9.999710272410662799e-04 0.000000000000000000e+00 0.000000000000000000e+00 0.000000000000000000e+00 0.000000000000000000e+00 0.000000000000000000e+00
-1.062865434779019402e+00 -2.076531469781727868e+00 -3.273710040144948152e-01 -5.490203492165417476e-01 9.999710272410662799e-04 0.000000000000000000e+00 0.000000000000000000e+00 0.000000000000000000e+00 0.000000000000000000e+00 0.000000000000000000e+00
-1.062865434779019402e+00 -2.076531469781727868e+00 -3.273710040144948152e-01 -5.490203492165417476e-01 9.999710272410662799e-04 0.000000000000000000e+00 0.000000000000000000e+00 0.000000000000000000e+00 0.000000000000000000e+00 0.000000000000000000e+00
-1.062865434779019402e+00 -2.076531469781727868e+00 -3.273710040144948152e-01 -5.490203492165417476e-01 9.999710272410662799e-04 0.000000000000000000e+00 0.000000000000000000e+00 0.000000000000000000e+00 0.000000000000000000e+00 0.000000000000000000e+00
-1.062865434779019402e+00 -2.076531469781727868e+00 -3.273710040144948152e-01 -5.490203492165417476e-01 9.999710272410662799e-04 0.000000000000000000e+00 0.000000000000000000e+00 0.000000000000000000e+00 0.000000000000000000e+00 0.000000000000000000e+00
-1.062865434779019402e+00 -2.076531469781727868e+00 -3.273710040144948152e-01 -5.490203492165417476e-01 9.999710272410662799e-04 0.000000000000000000e+00 0.000000000000000000e+00 0.000000000000000000e+00 0.000000000000000000e+00 0.000000000000000000e+00
-1.062865434779019402e+00 -2.076531469781727868e+00 -3.273710040144948152e-01 -5.490203492165417476e-01 9.999710272410662799e-04 0.000000000000000000e+00 0.000000000000000000e+00 0.000000000000000000e+00 0.000000000000000000e+00 0.000000000000000000e+00
-1.062865434779019402e+00 -2.076531469781727868e+00 -3.273710040144948152e-01 -5.490203492165417476e-01 9.999710272410662799e-04 0.000000000000000000e+00 0.000000000000000000e+00 0.000000000000000000e+00 0.000000000000000000e+00 0.000000000000000000e+00
-1.062865434779019402e+00 -2.076531469781727868e+00 -3.273710040144948152e-01 -5.490203492165417476e-01 9.999710272410662799e-04 0.000000000000000000e+00 0.000000000000000000e+00 0.000000000000000000e+00 0.000000000000000000e+00 0.000000000000000000e+00
-1.062865434779019402e+00 -2.076531469781727868e+00 -3.273710040144948152e-01 -5.490203492165417476e-01 9.999710272410662799e-04 0.000000000000000000e+00 0.000000000000000000e+00 0.000000000000000000e+00 0.000000000000000000e+00 0.000000000000000000e+00
-1.062865434779019402e+00 -2.076531469781727868e+00 -3.273710040144948152e-01 -5.490203492165417476e-01 9.999710272410662799e-04 0.000000000000000000e+00 0.000000000000000000e+00 0.000000000000000000e+00 0.000000000000000000e+00 0.000000000000000000e+00
-1.062865434779019402e+00 -2.076531469781727868e+00 -3.273710040144948152e-01 -5.490203492165417476e-01 9.999710272410662799e-04 0.000000000000000000e+00 0.000000000000000000e+00 0.000000000000000000e+00 0.000000000000000000e+00 0.000000000000000000e+00
-1.062865434779019402e+00 -2.076531469781727868e+00 -3.273710040144948152e-01 -5.490203492165417476e-01 9.999710272410662799e-04 0.000000000000000000e+00 0.000000000000000000e+00 0.000000000000000000e+00 0.000000000000000000e+00 0.000000000000000000e+00
-1.062865434779019402e+00 -2.076531469781727868e+00 -3.273710040144948152e-01 -5.490203492165417476e-01 9.999710272410662799e-04 0.000000000000000000e+00 0.000000000000000000e+00 0.000000000000000000e+00 0.000000000000000000e+00 0.000000000000000000e+00
-1.062865434779019402e+00 -2.076531469781727868e+00 -3.273710040144948152e-01 -5.490203492165417476e-01 9.999710272410662799e-04 0.000000000000000000e+00 0.000000000000000000e+00 0.000000000000000000e+00 0.000000000000000000e+00 0.000000000000000000e+00
