-5.303635286976621233e-01 -5.223625895379307993e-01 6.424380545571902745e-01 -1.466256342328303930e+00 3.044784242245836920e-04 3.104809349983638778e-01 -7.362437664246656022e-01 1.836680501032972590e-01 7.429435925787194472e-01 3.146160797262334552e-03
-5.143590126883055280e-01 -5.591659280943930277e-01 6.528395530466899466e-01 -1.428440240361873670e+00 5.250446939941430871e-04 3.200903201871319603e-01 -7.360667711292436799e-01 2.080299697899937739e-01 7.563220393286059773e-01 4.411325395391186600e-03
-4.978332028420831001e-01 -5.959991460362863425e-01 6.645293287084254041e-01 -1.390094512715353225e+00 9.986915488198512287e-04 0.000000000000000000e+00 0.000000000000000000e+00 0.000000000000000000e+00 0.000000000000000000e+00 0.000000000000000000e+00
-4.978332028420831001e-01 -5.959991460362863425e-01 6.645293287084254041e-01 -1.390094512715353225e+00 9.986915488198512287e-04 0.000000000000000000e+00 0.000000000000000000e+00 0.000000000000000000e+00 0.000000000000000000e+00 0.000000000000000000e+00
-4.978332028420831001e-01 -5.959991460362863425e-01 6.645293287084254041e-01 -1.390094512715353225e+00 9.986915488198512287e-04 0.000000000000000000e+00 0.000000000000000000e+00 0.000000000000000000e+00 0.000000000000000000e+00 0.000000000000000000e+00
-4.978332028420831001e-01 -5.959991460362863425e-01 6.645293287084254041e-01 -1.390094512715353225e+00 9.986915488198512287e-04 0.000000000000000000e+00 0.000000000000000000e+00 0.000000000000000000e+00 0.000000000000000000e+00 0.000000000000000000e+00
-4.978332028420831001e-01 -5.959991460362863425e-01 6.645293287084254041e-01 -1.390094512715353225e+00 9.986915488198512287e-04 0.000000000000000000e+00 0.000000000000000000e+00 0.000000000000000000e+00 0.000000000000000000e+00 0.000000000000000000e+00
-4.978332028420831001e-01 -5.959991460362863425e-01 6.645293287084254041e-01 -1.390094512715353225e+00 9.986915488198512287e-04 0.000000000000000000e+00 0.000000000000000000e+00 0.000000000000000000e+00 0.000000000000000000e+00 0.000000000000000000e+00
-4.978332028420831001e-01 -5.959991460362863425e-01 6.645293287084254041e-01 -1.390094512715353225e+00 9.986915488198512287e-04 0.000000000000000000e+00 0.000000000000000000e+00 0.000000000000000000e+00 0.000000000000000000e+00 0.000000000000000000e+00
-4.978332028420831001e-01 -5.959991460362863425e-01 6.645293287084254041e-01 -1.390094512715353225e+00 9.986915488198512287e-04 0.000000000000000000e+00 0.000000000000000000e+00 0.000000000000000000e+00 0.000000000000000000e+00 0.000000000000000000e+00
-4.978332028420831001e-01 -5.959991460362863425e-01 6.645293287084254041e-01 -1.390094512715353225e+00 9.986915488198512287e-04 0.000000000000000000e+00 0.000000000000000000e+00 0.000000000000000000e+00 0.000000000000000000e+00 0.000000000000000000e+00
-4.978332028420831001e-01 -5.959991460362863425e-01 6.645293287084254041e-01 -1.390094512715353225e+00 9.986915488198512287e-04 0.000000000000000000e+00 0.000000000000000000e+00 0.000000000000000000e+00 0.000000000000000000e+00 0.000000000000000000e+00
-4.978332028420831001e-01 -5.959991460362863425e-01 6.645293287084254041e-01 -1.390094512715353225e+00 9.986915488198512287e-04 0.000000000000000000e+00 0.000000000000000000e+00 0.000000000000000000e+00 0.000000000000000000e+00 0.000000000000000000e+00
-4.978332028420831001e-01 -5.959991460362863425e-01 6.645293287084254041e-01 -1.390094512715353225e+00 9.986915488198512287e-04 0.000000000000000000e+00 0.000000000000000000e+00 0.000000000000000000e+00 0.000000000000000000e+00 0.000000000000000000e+00
-4.978332028420831001e-01 -5.959991460362863425e-01 6.645293287084254041e-01 -1.390094512715353225e+00 9.986915488198512287e-04 0.000000000000000000e+00 0.000000000000000000e+00 0.000000000000000000e+00 0.000000000000000000e+00 0.000000000000000000e+00
-4.978332028420831001e-01 -5.959991460362863425e-01 6.645293287084254041e-01 -1.390094512715353225e+00 9.986915488198512287e-04 0.000000000000000000e+00 0.000000000000000000e+00 0.000000000000000000e+00 0.000000000000000000e+00 0.000000000000000000e+00
-4.978332028420831001e-01 -5.959991460362863425e-01 6.645293287084254041e-01 -1.390094512715353225e+00 9.986915488198512287e-04 0.000000000000000000e+00 0.000000000000000000e+00 0.000000000000000000e+00 0.000000000000000000e+00 0.000000000000000000e+00
-4.978332028420831001e-01 -5.959991460362863425e-01 6.645293287084254041e-01 -1.390094512715353225e+00 9.986915488198512287e-04 0.000000000000000000e+00 0.000000000000000000e+00 0.000000000000000000e+00 0.000000000000000000e+00 0.000000000000000000e+00
-4.978332028420831001e-01 -5.959991460362863425e-01 6.645293287084254041e-01 -1.390094512715353225e+00 9.986915488198512287e-04 0.000000000000000000e+00 0.000000000000000000e+00 0.000000000000000000e+00 0.000000000000000000e+00 0.000000000000000000e+00
-4.978332028420831001e-01 -5.959991460362863425e-01 6.645293287084254041e-01 -1.390094512715353225e+00 9.986915488198512287e-04 0.000000000000000000e+00 0.000000000000000000e+00 0.000000000000000000e+00 0.000000000000000000e+00 0.000000000000000000e+00
-4.978332028420831001e-01 -5.959991460362863425e-01 6.645293287084254041e-01 -1.390094512715353225e+00 9.986915488198512287e-04 0.000000000000000000e+00 0.000000000000000000e+00 0.000000000000000000e+00 0.000000000000000000e+00 0.000000000000000000e+00
-4.978332028420831001e-01 -5.959991460362863425e-01 6.645293287084254041e-01 -1.390094512715353225e+00 9.986915488198512287e-04 0.000000000000000000e+00 0.000000000000000000e+00 0.000000000000000000e+00 0.000000000000000000e+00 0.000000000000000000e+00
-4.978332028420831001e-01 -5.959991460362863425e-01 6.645293287084254041e-01 -1.390094512715353225e+00 9.986915488198512287e-04 0.000000000000000000e+00 0.000000000000000000e+00 0.000000000000000000e+00 0.000000000000000000e+00 0.000000000000000000e+00
-4.978332028420831001e-01 -5.959991460362863425e-01 6.645293287084254041e-01 -1.390094512715353225e+00 9.986915488198512287e-04 0.000000000000000000e+00 0.000000000000000000e+00 0.000000000000000000e+00 0.000000000000000000e+00 0.000000000000000000e+00
-4.978332028420831001e-01 -5.959991460362863425e-01 6.645293287084254041e-01 -1.390094512715353225e+00 9.986915488198512287e-04 0.000000000000000000e+00 0.000000000000000000e+00 0.000000000000000000e+00 0.000000000000000000e+00 0.000000000000000000e+00
-4.978332028420831001e-01 -5.959991460362863425e-01 6.645293287084254041e-01 -1.390094512715353225e+00 9.986915488198512287e-04 0.000000000000000000e+00 0.000000000000000000e+00 0.000000000000000000e+00 0.000000000000000000e+00 0.000000000000000000e+00
-4.978332028420831001e-01 -5.959991460362863425e-01 6.645293287084254041e-01 -1.390094512715353225e+00 9.986915488198512287e-04 0.000000000000000000e+00 0.000000000000000000e+00 0.000000000000000000e+00 0.000000000000000000e+00 0.000000000000000000e+00
-4.978332028420831001e-01 -5.959991460362863425e-01 6.645293287084254041e-01 -1.390094512715353225e+00 9.986915488198512287e-04 0.000000000000000000e+00 0.000000000000000000e+00 0.000000000000000000e+00 0.000000000000000000e+00 0.000000000000000000e+00
-4.978332028420831001e-01 -5.959991460362863425e-01 6.645293287084254041e-01 -1.390094512715353225e+00 9.986915488198512287e-04 0.000000000000000000e+00 0.000000000000000000e+00 0.000000000000000000e+00 0.000000000000000000e+00 0.000000000000000000e+00
-4.978332028420831001e-01 -5.959991460362863425e-01 6.645293287084254041e-01 -1.390094512715353225e+00 9.986915488198512287e-04 0.000000000000000000e+00 0.000000000000000000e+00 0.000000000000000000e+00 0.000000000000000000e+00 0.000000000000000000e+00
-4.978332028420831001e-01 -5.959991460362863425e-01 6.645293287084254041e-01 -1.390094512715353225e+00 9.986915488198512287e-04 0.000000000000000000e+00 0.000000000000000000e+00 0.000000000000000000e+00 0.000000000000000000e+00 0.000000000000000000e+00
