-3.791743823678672687e-01 -4.182290980303602912e-01 4.529397920404719113e-01 -1.583241459951958863e+00 -8.188825830382221371e-04 2.778826258472349292e-02 -3.589441260557708624e-01 1.057216961691584967e-01 -2.026609297810302857e-03 8.336120198119568309e-04
-3.771358726355514834e-01 -4.367492697206377117e-01 4.586314286781286720e-01 -1.579397002945015727e+00 -7.758280694995276601e-04 4.077019464631624623e-02 -3.704034338055485209e-01 1.138327327531353517e-01 7.688914013886480325e-02 8.610902707738885649e-04
-3.745380896357111689e-01 -4.557071796584404311e-01 4.646531656845143132e-01 -1.572151333629349335e+00 -7.323779632907156251e-04 5.195565999680613889e-02 -3.791581987560539990e-01 1.204347401277129637e-01 1.449133863133260092e-01 8.690021241762402662e-04
-3.714628477606030099e-01 -4.749890809710663464e-01 4.709455333904608576e-01 -1.562018201084681923e+00 -6.888775633352282489e-04 6.150483750216357431e-02 -3.856380262525185287e-01 1.258473541189303879e-01 2.026626508933461746e-01 8.700079991097475242e-04
-3.679829529204439731e-01 -4.945024372285556913e-01 4.774663404112752252e-01 -1.549473034317466080e+00 -6.453921314513901952e-04 6.959789680318033411e-02 -3.902671251497863980e-01 1.304161404162874627e-01 2.509033353443174130e-01 8.697086376767602066e-04
-3.641616498105927358e-01 -5.141751358826138762e-01 4.841905921018683778e-01 -1.534947473249438810e+00 -6.019393285575302607e-04 7.642606219702433035e-02 -3.934539730811640323e-01 1.344850338118627475e-01 2.905112213605437477e-01 8.690560578771978212e-04
-3.600524053215694020e-01 -5.339541473650103454e-01 4.911096268453263858e-01 -1.518826156566690511e+00 -5.585312540096682484e-04 8.218488978046638305e-02 -3.955802296479295488e-01 1.383806948691598260e-01 3.224263336549643144e-01 8.681614909572401379e-04
-3.556990981108081873e-01 -5.538036087454297762e-01 4.982298181950844951e-01 -1.501446789357810063e+00 -5.150986455683173029e-04 8.706614421522375358e-02 -3.969892276083895055e-01 1.424038269951627134e-01 3.475873441776086703e-01 8.686521688270184768e-04
-3.511364359914544986e-01 -5.737025827990704929e-01 5.055712536385691402e-01 -1.483102624631985611e+00 -4.710412004632461599e-04 9.125324238707352431e-02 -3.979794810728139454e-01 1.468287088696935971e-01 3.668832945164904880e-01 8.811489021014230760e-04
-3.463906975755149387e-01 -5.936426850154395973e-01 5.131655729443402869e-01 -1.464046184563163155e+00 -4.235773667177010872e-04 9.491476831879147591e-02 -3.988020443273811444e-01 1.518863861154219064e-01 3.811288013764482230e-01 9.492766749109011288e-04
-3.414806335228696699e-01 -6.136256185992965406e-01 5.210535723944085262e-01 -1.444493827141679843e+00 -3.608285464848764979e-04 9.820128105290502896e-02 -3.996586716771383108e-01 1.577599890013655359e-01 3.910471484296665357e-01 1.254976404656491570e-03
-3.364186144639725873e-01 -6.336606103746253993e-01 5.292823122941632263e-01 -1.424631120346610214e+00 -2.339626367874909766e-04 0.000000000000000000e+00 0.000000000000000000e+00 0.000000000000000000e+00 0.000000000000000000e+00 0.000000000000000000e+00
-3.364186144639725873e-01 -6.336606103746253993e-01 5.292823122941632263e-01 -1.424631120346610214e+00 -2.339626367874909766e-04 0.000000000000000000e+00 0.000000000000000000e+00 0.000000000000000000e+00 0.000000000000000000e+00 0.000000000000000000e+00
-3.364186144639725873e-01 -6.336606103746253993e-01 5.292823122941632263e-01 -1.424631120346610214e+00 -2.339626367874909766e-04 0.000000000000000000e+00 0.000000000000000000e+00 0.000000000000000000e+00 0.000000000000000000e+00 0.000000000000000000e+00
-3.364186144639725873e-01 -6.336606103746253993e-01 5.292823122941632263e-01 -1.424631120346610214e+00 -2.339626367874909766e-04 0.000000000000000000e+00 0.000000000000000000e+00 0.000000000000000000e+00 0.000000000000000000e+00 0.000000000000000000e+00
-3.364186144639725873e-01 -6.336606103746253993e-01 5.292823122941632263e-01 -1.424631120346610214e+00 -2.339626367874909766e-04 0.000000000000000000e+00 0.000000000000000000e+00 0.000000000000000000e+00 0.000000000000000000e+00 0.000000000000000000e+00
-3.364186144639725873e-01 -6.336606103746253993e-01 5.292823122941632263e-01 -1.424631120346610214e+00 -2.339626367874909766e-04 0.000000000000000000e+00 0.000000000000000000e+00 0.000000000000000000e+00 0.000000000000000000e+00 0.000000000000000000e+00
-3.364186144639725873e-01 -6.336606103746253993e-01 5.292823122941632263e-01 -1.424631120346610214e+00 -2.339626367874909766e-04 0.000000000000000000e+00 0.000000000000000000e+00 0.000000000000000000e+00 0.000000000000000000e+00 0.000000000000000000e+00
-3.364186144639725873e-01 -6.336606103746253993e-01 5.292823122941632263e-01 -1.424631120346610214e+00 -2.339626367874909766e-04 0.000000000000000000e+00 0.000000000000000000e+00 0.000000000000000000e+00 0.000000000000000000e+00 0.000000000000000000e+00
-3.364186144639725873e-01 -6.336606103746253993e-01 5.292823122941632263e-01 -1.424631120346610214e+00 -2.339626367874909766e-04 0.000000000000000000e+00 0.000000000000000000e+00 0.000000000000000000e+00 0.000000000000000000e+00 0.000000000000000000e+00
-3.364186144639725873e-01 -6.336606103746253993e-01 5.292823122941632263e-01 -1.424631120346610214e+00 -2.339626367874909766e-04 0.000000000000000000e+00 0.000000000000000000e+00 0.000000000000000000e+00 0.000000000000000000e+00 0.000000000000000000e+00
-3.364186144639725873e-01 -6.336606103746253993e-01 5.292823122941632263e-01 -1.424631120346610214e+00 -2.339626367874909766e-04 0.000000000000000000e+00 0.000000000000000000e+00 0.000000000000000000e+00 0.000000000000000000e+00 0.000000000000000000e+00
-3.364186144639725873e-01 -6.336606103746253993e-01 5.292823122941632263e-01 -1.424631120346610214e+00 -2.339626367874909766e-04 0.000000000000000000e+00 0.000000000000000000e+00 0.000000000000000000e+00 0.000000000000000000e+00 0.000000000000000000e+00
-3.364186144639725873e-01 -6.336606103746253993e-01 5.292823122941632263e-01 -1.424631120346610214e+00 -2.339626367874909766e-04 0.000000000000000000e+00 0.000000000000000000e+00 0.000000000000000000e+00 0.000000000000000000e+00 0.000000000000000000e+00
-3.364186144639725873e-01 -6.336606103746253993e-01 5.292823122941632263e-01 -1.424631120346610214e+00 -2.339626367874909766e-04 0.000000000000000000e+00 0.000000000000000000e+00 0.000000000000000000e+00 0.000000000000000000e+00 0.000000000000000000e+00
-3.364186144639725873e-01 -6.336606103746253993e-01 5.292823122941632263e-01 -1.424631120346610214e+00 -2.339626367874909766e-04 0.000000000000000000e+00 0.000000000000000000e+00 0.000000000000000000e+00 0.000000000000000000e+00 0.000000000000000000e+00
-3.364186144639725873e-01 -6.336606103746253993e-01 5.292823122941632263e-01 -1.424631120346610214e+00 -2.339626367874909766e-04 0.000000000000000000e+00 0.000000000000000000e+00 0.000000000000000000e+00 0.000000000000000000e+00 0.000000000000000000e+00
-3.364186144639725873e-01 -6.336606103746253993e-01 5.292823122941632263e-01 -1.424631120346610214e+00 -2.339626367874909766e-04 0.000000000000000000e+00 0.000000000000000000e+00 0.000000000000000000e+00 0.000000000000000000e+00 0.000000000000000000e+00
-3.364186144639725873e-01 -6.336606103746253993e-01 5.292823122941632263e-01 -1.424631120346610214e+00 -2.339626367874909766e-04 0.000000000000000000e+00 0.000000000000000000e+00 0.000000000000000000e+00 0.000000000000000000e+00 0.000000000000000000e+00
-3.364186144639725873e-01 -6.336606103746253993e-01 5.292823122941632263e-01 -1.424631120346610214e+00 -2.339626367874909766e-04 0.000000000000000000e+00 0.000000000000000000e+00 0.000000000000000000e+00 0.000000000000000000e+00 0.000000000000000000e+00
-3.364186144639725873e-01 -6.336606103746253993e-01 5.292823122941632263e-01 -1.424631120346610214e+00 -2.339626367874909766e-04 0.000000000000000000e+00 0.000000000000000000e+00 0.000000000000000000e+00 0.000000000000000000e+00 0.000000000000000000e+00
