-7.673616457933107871e-01 1.992508873245813494e-01 3.363517473639928701e-01 -1.410433601854593100e+00 -1.877071204708682635e-04 -2.471883871533347432e-01 2.748000666197281672e-01 -9.069595237802822174e-01 -1.781685181309740962e+00 -6.818382882412061391e-03
-7.780435607393239028e-01 2.093812669201661203e-01 2.951035934819170592e-01 -1.488236028687982770e+00 -4.880872975976082362e-04 -2.136382989202618987e-01 2.026075919116955282e-01 -8.249630776415165512e-01 -1.556048536667794080e+00 -6.007603542534798585e-03
-7.871494518014264807e-01 2.160247372403325539e-01 2.577159420235536347e-01 -1.554406510033401467e+00 -7.223848637660629755e-04 -1.821178212420522247e-01 1.328694064033287825e-01 -7.477530291672682683e-01 -1.323409626908373493e+00 -4.685951323369094354e-03
-7.948020203009505957e-01 2.193696733569137081e-01 2.241285279813735321e-01 -1.609087989226948068e+00 -8.775612628181499566e-04 -1.530513699904818004e-01 6.689872233162333370e-02 -6.717482808436019415e-01 -1.093629583870932009e+00 -3.103527981041739187e-03
-8.011443162046590905e-01 2.196562930859982110e-01 1.943476357910108865e-01 -1.652819174767192978e+00 -9.526480244617409592e-04 -1.268459180741696446e-01 5.732394581690281044e-03 -5.956178438072530223e-01 -8.746237108048988684e-01 -1.501735232871819620e-03
-8.063313382893452230e-01 2.171598807018282895e-01 1.683655410578660527e-01 -1.686418776774473383e+00 -9.558304985132473532e-04 -1.037404416937228457e-01 -4.992824768339844399e-02 -5.196418946628966751e-01 -6.719920401456103143e-01 -6.364948103012874753e-05
-8.105193012207199121e-01 2.121746221256106124e-01 1.461114438659727177e-01 -1.710870954118526521e+00 -8.995464020012799034e-04 -8.375925862749276918e-02 -9.970517152435348640e-02 -4.450819438378667559e-01 -4.890435468810642172e-01 1.125681930239349213e-03
-8.138573281337952992e-01 2.050023889169756142e-01 1.274259289421260100e-01 -1.727238873040172207e+00 -7.977387019587798243e-04 -6.676053826150804560e-02 -1.434446641726998817e-01 -3.737102984769340996e-01 -3.273583784329122115e-01 2.036154000850001582e-03
-8.164829213021741472e-01 1.959439766430834395e-01 1.120612932995856403e-01 -1.736606343911134553e+00 -6.638165674126564808e-04 -5.251186336757633633e-02 -1.811682454778434925e-01 -3.072927128508073924e-01 -1.873494174192483763e-01 2.678442690922467305e-03
-8.185198911961538704e-01 1.852912840911048187e-01 9.969480417836150410e-02 -1.740034335891754047e+00 -5.100401903566747748e-04 -4.073939787959436620e-02 -2.130538510395724727e-01 -2.473297824244828358e-01 -6.855983961238899804e-02 3.075527541119634119e-03
-8.200783070099834093e-01 1.733205323544158849e-01 8.995125007550042184e-02 -1.738530482592304693e+00 -3.468943112008783698e-04 -3.116831627659073095e-02 -2.394150347337786200e-01 -1.948710820572215618e-01 3.007706598898866879e-02 3.262917583115927667e-03
-8.212554732625916287e-01 1.602865880222538730e-01 8.242774017624225624e-02 -1.733026962988824193e+00 -1.824046636831705653e-04 -2.354332505216411367e-02 -2.606788866432404594e-01 -1.504701979851633675e-01 1.100703920696081139e-01 3.289792950354155331e-03
-8.221376358491687686e-01 1.464200489850923936e-01 7.671466641932497832e-02 -1.724370164086681090e+00 -2.168938462616081106e-05 -1.764325173154304705e-02 -2.773307807432297545e-01 -1.142614751383455030e-01 1.731359780428617934e-01 3.214305581140194761e-03
-8.228017858964298270e-01 1.319263245411904095e-01 7.241110026158070756e-02 -1.713317835804377909e+00 1.345622420267510611e-04 -1.328300094522055774e-02 -2.898744888780397932e-01 -8.607132315488548457e-02 2.210465656460622319e-01 3.125032533058237118e-03
-8.233173068893154811e-01 1.169864253294244927e-01 6.913439716597082063e-02 -1.700542013590991886e+00 2.969129374562149023e-04 -1.031041985771295050e-02 -2.987979842353183368e-01 -6.553406191219769694e-02 2.555164442677184677e-01 3.247013908589276715e-03
-8.237472670872617586e-01 1.017589147104348835e-01 6.652492427138945175e-02 -1.686635180182358251e+00 5.160664884813274652e-04 -8.599203958926056324e-03 -3.045502123797922955e-01 -5.218945789162741239e-02 2.781366681726717971e-01 4.383071020502251475e-03
-8.241493505503261208e-01 8.638275718819471427e-02 6.424682387955266138e-02 -1.672118800563322738e+00 1.000346456598041759e-03 0.000000000000000000e+00 0.000000000000000000e+00 0.000000000000000000e+00 0.000000000000000000e+00 0.000000000000000000e+00
-8.241493505503261208e-01 8.638275718819471427e-02 6.424682387955266138e-02 -1.672118800563322738e+00 1.000346456598041759e-03 0.000000000000000000e+00 0.000000000000000000e+00 0.000000000000000000e+00 0.000000000000000000e+00 0.000000000000000000e+00
-8.241493505503261208e-01 8.638275718819471427e-02 6.424682387955266138e-02 -1.672118800563322738e+00 1.000346456598041759e-03 0.000000000000000000e+00 0.000000000000000000e+00 0.000000000000000000e+00 0.000000000000000000e+00 0.000000000000000000e+00
-8.241493505503261208e-01 8.638275718819471427e-02 6.424682387955266138e-02 -1.672118800563322738e+00 1.000346456598041759e-03 0.000000000000000000e+00 0.000000000000000000e+00 0.000000000000000000e+00 0.000000000000000000e+00 0.000000000000000000e+00
-8.241493505503261208e-01 8.638275718819471427e-02 6.424682387955266138e-02 -1.672118800563322738e+00 1.000346456598041759e-03 0.000000000000000000e+00 0.000000000000000000e+00 0.000000000000000000e+00 0.000000000000000000e+00 0.000000000000000000e+00
-8.241493505503261208e-01 8.638275718819471427e-02 6.424682387955266138e-02 -1.672118800563322738e+00 1.000346456598041759e-03 0.000000000000000000e+00 0.000000000000000000e+00 0.000000000000000000e+00 0.000000000000000000e+00 0.000000000000000000e+00
-8.241493505503261208e-01 8.638275718819471427e-02 6.424682387955266138e-02 -1.672118800563322738e+00 1.000346456598041759e-03 0.000000000000000000e+00 0.000000000000000000e+00 0.000000000000000000e+00 0.000000000000000000e+00 0.000000000000000000e+00
-8.241493505503261208e-01 8.638275718819471427e-02 6.424682387955266138e-02 -1.672118800563322738e+00 1.000346456598041759e-03 0.000000000000000000e+00 0.000000000000000000e+00 0.000000000000000000e+00 0.000000000000000000e+00 0.000000000000000000e+00
-8.241493505503261208e-01 8.638275718819471427e-02 6.424682387955266138e-02 -1.672118800563322738e+00 1.000346456598041759e-03 0.000000000000000000e+00 0.000000000000000000e+00 0.000000000000000000e+00 0.000000000000000000e+00 0.000000000000000000e+00
-8.241493505503261208e-01 8.638275718819471427e-02 6.424682387955266138e-02 -1.672118800563322738e+00 1.000346456598041759e-03 0.000000000000000000e+00 0.000000000000000000e+00 0.000000000000000000e+00 0.000000000000000000e+00 0.000000000000000000e+00
-8.241493505503261208e-01 8.638275718819471427e-02 6.424682387955266138e-02 -1.672118800563322738e+00 1.000346456598041759e-03 0.000000000000000000e+00 0.000000000000000000e+00 0.000000000000000000e+00 0.000000000000000000e+00 0.000000000000000000e+00
-8.241493505503261208e-01 8.638275718819471427e-02 6.424682387955266138e-02 -1.672118800563322738e+00 1.000346456598041759e-03 0.000000000000000000e+00 0.000000000000000000e+00 0.000000000000000000e+00 0.000000000000000000e+00 0.000000000000000000e+00
-8.241493505503261208e-01 8.638275718819471427e-02 6.424682387955266138e-02 -1.672118800563322738e+00 1.000346456598041759e-03 0.000000000000000000e+00 0.000000000000000000e+00 0.000000000000000000e+00 0.000000000000000000e+00 0.000000000000000000e+00
-8.241493505503261208e-01 8.638275718819471427e-02 6.424682387955266138e-02 -1.672118800563322738e+00 1.000346456598041759e-03 0.000000000000000000e+00 0.000000000000000000e+00 0.000000000000000000e+00 0.000000000000000000e+00 0.000000000000000000e+00
-8.241493505503261208e-01 8.638275718819471427e-02 6.424682387955266138e-02 -1.672118800563322738e+00 1.000346456598041759e-03 0.000000000000000000e+00 0.000000000000000000e+00 0.000000000000000000e+00 0.000000000000000000e+00 0.000000000000000000e+00
