-7.224372729865651266e-01 2.366654159237615296e-01 7.385104693836243295e-02 -1.820281711244162048e+00 -3.782936552651538012e-06 -7.058099805476214517e-02 -1.961532515237653651e-01 -2.545891356368564229e-01 -2.225549498200160847e-01 3.369333413338329239e-03
-7.253204237597354886e-01 2.252725407066342445e-01 6.361739707340818839e-02 -1.824946192484525609e+00 1.846903164987117284e-04 -5.766301546340774076e-02 -2.278575043425458135e-01 -2.046729972990847801e-01 -9.328962480727329143e-02 3.769465061027265328e-03
-7.276617180035968024e-01 2.125874539863150670e-01 5.562261601972869063e-02 -1.824237057315954535e+00 3.831803753451049868e-04 -4.682588487722573467e-02 -2.537017344063833280e-01 -1.598956210735898997e-01 1.418270337141941395e-02 3.969801176927864952e-03
-7.295524917852171942e-01 1.988727919800170607e-01 4.957583634113636728e-02 -1.819140925915612161e+00 5.831090913154543878e-04 -3.781547563240758580e-02 -2.742932401259600694e-01 -1.209355935718464670e-01 1.019226280068483426e-01 3.998574319406988237e-03
-7.310727858091478071e-01 1.843575744166366659e-01 4.517700275967796719e-02 -1.810529957071659091e+00 7.746787028970680226e-04 -3.040588047861315923e-02 -2.903043512676081184e-01 -8.797667162916802952e-02 1.722193768790632462e-01 3.831392231632270960e-03
-7.322930084512035975e-01 1.692361077604740138e-01 4.213537653665923310e-02 -1.799158716621252818e+00 9.361337984955761006e-04 -2.440445284111530597e-02 -3.024293331232528192e-01 -6.083252446037465400e-02 2.274248090081250062e-01 3.229101911970160260e-03
-7.332754992213158518e-01 1.536685897390080990e-01 4.018161734280475267e-02 -1.785666808181717302e+00 9.912948864250260318e-04 -1.964981540224541856e-02 -3.113503604293182958e-01 -3.907518387708966423e-02 2.698381687907123183e-01 1.103221758589000359e-03
-7.340757632430476853e-01 1.377831095065509825e-01 3.907404579590103427e-02 -1.770585801071663079e+00 1.003032582633417479e-03 -1.600528043463604611e-02 -3.177096046491421633e-01 -2.215143093807431587e-02 3.016201422010855171e-01 2.347539241678283988e-04
-7.347436082686785719e-01 1.216786343811755156e-01 3.860047594900598011e-02 -1.754348977351139816e+00 1.003872282119790040e-03 -1.335690051261864339e-02 -3.220895025075093399e-01 -9.471396937901051943e-03 3.247364744104670464e-01 1.679398972745128069e-05
-7.353240013575846890e-01 1.054287054078156399e-01 3.857704074150385132e-02 -1.737303042560908173e+00 1.003155773406934131e-03 -1.160786177812239695e-02 -3.249985794671975681e-01 -4.687041500426227664e-04 3.409186958046317995e-01 -1.433017425711864955e-05
-7.358577494007028097e-01 8.908547428273541624e-02 3.884509289935968168e-02 -1.719720586074701130e+00 1.002469741825896691e-03 -1.067496086236135663e-02 -3.268646225016046403e-01 5.361043157116641110e-03 3.516491297241423064e-01 -1.372063162074976594e-05
-7.363821033288627804e-01 7.268408241732582376e-02 3.926689666510031762e-02 -1.701813473279954136e+00 1.001698504768124953e-03 0.000000000000000000e+00 0.000000000000000000e+00 0.000000000000000000e+00 0.000000000000000000e+00 0.000000000000000000e+00
-7.363821033288627804e-01 7.268408241732582376e-02 3.926689666510031762e-02 -1.701813473279954136e+00 1.001698504768124953e-03 0.000000000000000000e+00 0.000000000000000000e+00 0.000000000000000000e+00 0.000000000000000000e+00 0.000000000000000000e+00
-7.363821033288627804e-01 7.268408241732582376e-02 3.926689666510031762e-02 -1.701813473279954136e+00 1.001698504768124953e-03 0.000000000000000000e+00 0.000000000000000000e+00 0.000000000000000000e+00 0.000000000000000000e+00 0.000000000000000000e+00
-7.363821033288627804e-01 7.268408241732582376e-02 3.926689666510031762e-02 -1.701813473279954136e+00 1.001698504768124953e-03 0.000000000000000000e+00 0.000000000000000000e+00 0.000000000000000000e+00 0.000000000000000000e+00 0.000000000000000000e+00
-7.363821033288627804e-01 7.268408241732582376e-02 3.926689666510031762e-02 -1.701813473279954136e+00 1.001698504768124953e-03 0.000000000000000000e+00 0.000000000000000000e+00 0.000000000000000000e+00 0.000000000000000000e+00 0.000000000000000000e+00
-7.363821033288627804e-01 7.268408241732582376e-02 3.926689666510031762e-02 -1.701813473279954136e+00 1.001698504768124953e-03 0.000000000000000000e+00 0.000000000000000000e+00 0.000000000000000000e+00 0.000000000000000000e+00 0.000000000000000000e+00
-7.363821033288627804e-01 7.268408241732582376e-02 3.926689666510031762e-02 -1.701813473279954136e+00 1.001698504768124953e-03 0.000000000000000000e+00 0.000000000000000000e+00 0.000000000000000000e+00 0.000000000000000000e+00 0.000000000000000000e+00
-7.363821033288627804e-01 7.268408241732582376e-02 3.926689666510031762e-02 -1.701813473279954136e+00 1.001698504768124953e-03 0.000000000000000000e+00 0.000000000000000000e+00 0.000000000000000000e+00 0.000000000000000000e+00 0.000000000000000000e+00
-7.363821033288627804e-01 7.268408241732582376e-02 3.926689666510031762e-02 -1.701813473279954136e+00 1.001698504768124953e-03 0.000000000000000000e+00 0.000000000000000000e+00 0.000000000000000000e+00 0.000000000000000000e+00 0.000000000000000000e+00
-7.363821033288627804e-01 7.268408241732582376e-02 3.926689666510031762e-02 -1.701813473279954136e+00 1.001698504768124953e-03 0.000000000000000000e+00 0.000000000000000000e+00 0.000000000000000000e+00 0.000000000000000000e+00 0.000000000000000000e+00
-7.363821033288627804e-01 7.268408241732582376e-02 3.926689666510031762e-02 -1.701813473279954136e+00 1.001698504768124953e-03 0.000000000000000000e+00 0.000000000000000000e+00 0.000000000000000000e+00 0.000000000000000000e+00 0.000000000000000000e+00
-7.363821033288627804e-01 7.268408241732582376e-02 3.926689666510031762e-02 -1.701813473279954136e+00 1.001698504768124953e-03 0.000000000000000000e+00 0.000000000000000000e+00 0.000000000000000000e+00 0.000000000000000000e+00 0.000000000000000000e+00
-7.363821033288627804e-01 7.268408241732582376e-02 3.926689666510031762e-02 -1.701813473279954136e+00 1.001698504768124953e-03 0.000000000000000000e+00 0.000000000000000000e+00 0.000000000000000000e+00 0.000000000000000000e+00 0.000000000000000000e+00
-7.363821033288627804e-01 7.268408241732582376e-02 3.926689666510031762e-02 -1.701813473279954136e+00 1.001698504768124953e-03 0.000000000000000000e+00 0.000000000000000000e+00 0.000000000000000000e+00 0.000000000000000000e+00 0.000000000000000000e+00
-7.363821033288627804e-01 7.268408241732582376e-02 3.926689666510031762e-02 -1.701813473279954136e+00 1.001698504768124953e-03 0.000000000000000000e+00 0.000000000000000000e+00 0.000000000000000000e+00 0.000000000000000000e+00 0.000000000000000000e+00
-7.363821033288627804e-01 7.268408241732582376e-02 3.926689666510031762e-02 -1.701813473279954136e+00 1.001698504768124953e-03 0.000000000000000000e+00 0.000000000000000000e+00 0.000000000000000000e+00 0.000000000000000000e+00 0.000000000000000000e+00
-7.363821033288627804e-01 7.268408241732582376e-02 3.926689666510031762e-02 -1.701813473279954136e+00 1.001698504768124953e-03 0.000000000000000000e+00 0.000000000000000000e+00 0.000000000000000000e+00 0.000000000000000000e+00 0.000000000000000000e+00
-7.363821033288627804e-01 7.268408241732582376e-02 3.926689666510031762e-02 -1.701813473279954136e+00 1.001698504768124953e-03 0.000000000000000000e+00 0.000000000000000000e+00 0.000000000000000000e+00 0.000000000000000000e+00 0.000000000000000000e+00
-7.363821033288627804e-01 7.268408241732582376e-02 3.926689666510031762e-02 -1.701813473279954136e+00 1.001698504768124953e-03 0.000000000000000000e+00 0.000000000000000000e+00 0.000000000000000000e+00 0.000000000000000000e+00 0.000000000000000000e+00
-7.363821033288627804e-01 7.268408241732582376e-02 3.926689666510031762e-02 -1.701813473279954136e+00 1.001698504768124953e-03 0.000000000000000000e+00 0.000000000000000000e+00 0.000000000000000000e+00 0.000000000000000000e+00 0.000000000000000000e+00
