-6.168827210140658268e-01 -1.483765833913603949e+00 6.126853221509467318e-01 -1.359553501902532435e+00 -5.962386041046577019e-04 -3.906242450561164814e-01 -1.434180755609976154e+00 1.697677133586847908e-01 1.068069697026833076e+00 1.131817833813746803e-03
-6.369439944634552875e-01 -1.555873303278556330e+00 6.229865066918617300e-01 -1.304159562798469008e+00 -5.775286518414856317e-04 -4.012254689877893798e-01 -1.442149387299048069e+00 2.060236908182991600e-01 1.107878782081267222e+00 3.741990452634407546e-04
-6.567538754043453775e-01 -1.628345528075049398e+00 6.360538686105534634e-01 -1.247393531109900700e+00 -6.968198689283984157e-04 0.000000000000000000e+00 0.000000000000000000e+00 0.000000000000000000e+00 0.000000000000000000e+00 0.000000000000000000e+00
-6.567538754043453775e-01 -1.628345528075049398e+00 6.360538686105534634e-01 -1.247393531109900700e+00 -6.968198689283984157e-04 0.000000000000000000e+00 0.000000000000000000e+00 0.000000000000000000e+00 0.000000000000000000e+00 0.000000000000000000e+00
-6.567538754043453775e-01 -1.628345528075049398e+00 6.360538686105534634e-01 -1.247393531109900700e+00 -6.968198689283984157e-04 0.000000000000000000e+00 0.000000000000000000e+00 0.000000000000000000e+00 0.000000000000000000e+00 0.000000000000000000e+00
-6.567538754043453775e-01 -1.628345528075049398e+00 6.360538686105534634e-01 -1.247393531109900700e+00 -6.968198689283984157e-04 0.000000000000000000e+00 0.000000000000000000e+00 0.000000000000000000e+00 0.000000000000000000e+00 0.000000000000000000e+00
-6.567538754043453775e-01 -1.628345528075049398e+00 6.360538686105534634e-01 -1.247393531109900700e+00 -6.968198689283984157e-04 0.000000000000000000e+00 0.000000000000000000e+00 0.000000000000000000e+00 0.000000000000000000e+00 0.000000000000000000e+00
-6.567538754043453775e-01 -1.628345528075049398e+00 6.360538686105534634e-01 -1.247393531109900700e+00 -6.968198689283984157e-04 0.000000000000000000e+00 0.000000000000000000e+00 0.000000000000000000e+00 0.000000000000000000e+00 0.000000000000000000e+00
-6.567538754043453775e-01 -1.628345528075049398e+00 6.360538686105534634e-01 -1.247393531109900700e+00 -6.968198689283984157e-04 0.000000000000000000e+00 0.000000000000000000e+00 0.000000000000000000e+00 0.000000000000000000e+00 0.000000000000000000e+00
-6.567538754043453775e-01 -1.628345528075049398e+00 6.360538686105534634e-01 -1.247393531109900700e+00 -6.968198689283984157e-04 0.000000000000000000e+00 0.000000000000000000e+00 0.000000000000000000e+00 0.000000000000000000e+00 0.000000000000000000e+00
-6.567538754043453775e-01 -1.628345528075049398e+00 6.360538686105534634e-01 -1.247393531109900700e+00 -6.968198689283984157e-04 0.000000000000000000e+00 0.000000000000000000e+00 0.000000000000000000e+00 0.000000000000000000e+00 0.000000000000000000e+00
-6.567538754043453775e-01 -1.628345528075049398e+00 6.360538686105534634e-01 -1.247393531109900700e+00 -6.968198689283984157e-04 0.000000000000000000e+00 0.000000000000000000e+00 0.000000000000000000e+00 0.000000000000000000e+00 0.000000000000000000e+00
-6.567538754043453775e-01 -1.628345528075049398e+00 6.360538686105534634e-01 -1.247393531109900700e+00 -6.968198689283984157e-04 0.000000000000000000e+00 0.000000000000000000e+00 0.000000000000000000e+00 0.000000000000000000e+00 0.000000000000000000e+00
-6.567538754043453775e-01 -1.628345528075049398e+00 6.360538686105534634e-01 -1.247393531109900700e+00 -6.968198689283984157e-04 0.000000000000000000e+00 0.000000000000000000e+00 0.000000000000000000e+00 0.000000000000000000e+00 0.000000000000000000e+00
-6.567538754043453775e-01 -1.628345528075049398e+00 6.360538686105534634e-01 -1.247393531109900700e+00 -6.968198689283984157e-04 0.000000000000000000e+00 0.000000000000000000e+00 0.000000000000000000e+00 0.000000000000000000e+00 0.000000000000000000e+00
-6.567538754043453775e-01 -1.628345528075049398e+00 6.360538686105534634e-01 -1.247393531109900700e+00 -6.968198689283984157e-04 0.000000000000000000e+00 0.000000000000000000e+00 0.000000000000000000e+00 0.000000000000000000e+00 0.000000000000000000e+00
-6.567538754043453775e-01 -1.628345528075049398e+00 6.360538686105534634e-01 -1.247393531109900700e+00 -6.968198689283984157e-04 0.000000000000000000e+00 0.000000000000000000e+00 0.000000000000000000e+00 0.000000000000000000e+00 0.000000000000000000e+00
-6.567538754043453775e-01 -1.628345528075049398e+00 6.360538686105534634e-01 -1.247393531109900700e+00 -6.968198689283984157e-04 0.000000000000000000e+00 0.000000000000000000e+00 0.000000000000000000e+00 0.000000000000000000e+00 0.000000000000000000e+00
-6.567538754043453775e-01 -1.628345528075049398e+00 6.360538686105534634e-01 -1.247393531109900700e+00 -6.968198689283984157e-04 0.000000000000000000e+00 0.000000000000000000e+00 0.000000000000000000e+00 0.000000000000000000e+00 0.000000000000000000e+00
-6.567538754043453775e-01 -1.628345528075049398e+00 6.360538686105534634e-01 -1.247393531109900700e+00 -6.968198689283984157e-04 0.000000000000000000e+00 0.000000000000000000e+00 0.000000000000000000e+00 0.000000000000000000e+00 0.000000000000000000e+00
-6.567538754043453775e-01 -1.628345528075049398e+00 6.360538686105534634e-01 -1.247393531109900700e+00 -6.968198689283984157e-04 0.000000000000000000e+00 0.000000000000000000e+00 0.000000000000000000e+00 0.000000000000000000e+00 0.000000000000000000e+00
-6.567538754043453775e-01 -1.628345528075049398e+00 6.360538686105534634e-01 -1.247393531109900700e+00 -6.968198689283984157e-04 0.000000000000000000e+00 0.000000000000000000e+00 0.000000000000000000e+00 0.000000000000000000e+00 0.000000000000000000e+00
-6.567538754043453775e-01 -1.628345528075049398e+00 6.360538686105534634e-01 -1.247393531109900700e+00 -6.968198689283984157e-04 0.000000000000000000e+00 0.000000000000000000e+00 0.000000000000000000e+00 0.000000000000000000e+00 0.000000000000000000e+00
-6.567538754043453775e-01 -1.628345528075049398e+00 6.360538686105534634e-01 -1.247393531109900700e+00 -6.968198689283984157e-04 0.000000000000000000e+00 0.000000000000000000e+00 0.000000000000000000e+00 0.000000000000000000e+00 0.000000000000000000e+00
-6.567538754043453775e-01 -1.628345528075049398e+00 6.360538686105534634e-01 -1.247393531109900700e+00 -6.968198689283984157e-04 0.000000000000000000e+00 0.000000000000000000e+00 0.000000000000000000e+00 0.000000000000000000e+00 0.000000000000000000e+00
-6.567538754043453775e-01 -1.628345528075049398e+00 6.360538686105534634e-01 -1.247393531109900700e+00 -6.968198689283984157e-04 0.000000000000000000e+00 0.000000000000000000e+00 0.000000000000000000e+00 0.000000000000000000e+00 0.000000000000000000e+00
-6.567538754043453775e-01 -1.628345528075049398e+00 6.360538686105534634e-01 -1.247393531109900700e+00 -6.968198689283984157e-04 0.000000000000000000e+00 0.000000000000000000e+00 0.000000000000000000e+00 0.000000000000000000e+00 0.000000000000000000e+00
-6.567538754043453775e-01 -1.628345528075049398e+00 6.360538686105534634e-01 -1.247393531109900700e+00 -6.968198689283984157e-04 0.000000000000000000e+00 0.000000000000000000e+00 0.000000000000000000e+00 0.000000000000000000e+00 0.000000000000000000e+00
-6.567538754043453775e-01 -1.628345528075049398e+00 6.360538686105534634e-01 -1.247393531109900700e+00 -6.968198689283984157e-04 0.000000000000000000e+00 0.000000000000000000e+00 0.000000000000000000e+00 0.000000000000000000e+00 0.000000000000000000e+00
-6.567538754043453775e-01 -1.628345528075049398e+00 6.360538686105534634e-01 -1.247393531109900700e+00 -6.968198689283984157e-04 0.000000000000000000e+00 0.000000000000000000e+00 0.000000000000000000e+00 0.000000000000000000e+00 0.000000000000000000e+00
-6.567538754043453775e-01 -1.628345528075049398e+00 6.360538686105534634e-01 -1.247393531109900700e+00 -6.968198689283984157e-04 0.000000000000000000e+00 0.000000000000000000e+00 0.000000000000000000e+00 0.000000000000000000e+00 0.000000000000000000e+00
