-5.134248484091028519e-01 -3.503598164634921797e-01 4.166738585847768461e-01 -8.367686860438576790e-01 1.013766196400144991e-03 -2.129096905812986606e-01 -1.117980334273463106e+00 1.567922093621187396e-01 -6.815782743380912612e-01 -1.136568750558131940e-04
-5.254369825262509286e-01 -4.100179095243703387e-01 4.261661935370880672e-01 -8.705459209444612600e-01 1.001289809933067270e-03 -2.402426823429610336e-01 -1.193161861217563402e+00 1.898466990462240322e-01 -6.755446980120706213e-01 -2.495277293415523062e-04
-5.387389652795024908e-01 -4.733799288411752459e-01 4.365836024425744921e-01 -9.030130677395494798e-01 9.696391426476857686e-04 -2.660396550650304115e-01 -1.267240386336098368e+00 2.083481781097279995e-01 -6.493429359017649505e-01 -6.330133457076300360e-04
-5.532625975134417562e-01 -5.403494865896780741e-01 4.472765710776955284e-01 -9.332209850154028485e-01 9.197505966523196680e-04 -2.904726446787855854e-01 -1.339391154970057451e+00 2.138593727024211966e-01 -6.041583455170681516e-01 -9.977709199073220118e-04
-5.689638011743285428e-01 -6.107836937989725712e-01 4.576897653501329488e-01 -9.603313550594431147e-01 8.559787552504115500e-04 -3.140240732177360661e-01 -1.408684144185889275e+00 2.082638854487480484e-01 -5.422074008808055456e-01 -1.275436828038163228e-03
-5.858386796045614853e-01 -6.844895594207228706e-01 4.673536346257234908e-01 -9.836607433349151552e-01 7.818427626985399986e-04 -3.374975686046577938e-01 -1.474117312435005989e+00 1.932773855118107564e-01 -4.665877655094397003e-01 -1.482719851037430812e-03
-6.039402101588532412e-01 -7.612228144029792309e-01 4.758559114082803743e-01 -1.002712010182469138e+00 6.987477064836439353e-04 -3.620306110858348969e-01 -1.534665099645127428e+00 1.700455356511375582e-01 -3.810253369510816501e-01 -1.661901124297920180e-03
-6.233961136979554452e-01 -8.406893173596429181e-01 4.827957593721940999e-01 -1.017187073722229496e+00 6.055834682355246048e-04 -3.891180707820438012e-01 -1.589330059133272854e+00 1.387969592782740957e-01 -2.895012707952056008e-01 -1.863284764962387261e-03
-6.444293142091674920e-01 -9.225484352972306290e-01 4.877228434153546011e-01 -1.026977616839653384e+00 4.990159410512369411e-04 -4.206640102242406032e-01 -1.637182358751753997e+00 9.854168086320999609e-02 -1.958108623484757782e-01 -2.131350543685752406e-03
-6.673821911785954297e-01 -1.006418056823046303e+00 4.900657538401813063e-01 -1.032133295695346398e+00 3.733959739709558599e-04 -4.590575393885595878e-01 -1.677392430516312594e+00 4.685820849653374309e-02 -1.031135771138584761e-01 -2.512399341605621624e-03
-6.927447240521058536e-01 -1.091880139329217902e+00 4.890525513626444165e-01 -1.032810183667137061e+00 2.188361311856232131e-04 -5.072506574702088100e-01 -1.709241650123431766e+00 -2.026404955073814185e-02 -1.353775943581121688e-02 -3.091196855706653153e-03
-7.211834819807046992e-01 -1.178485451832398612e+00 4.836250935529535222e-01 -1.029202565959948412e+00 1.309787998599048911e-05 -5.687751585719776903e-01 -1.732106250063615738e+00 -1.085491561938182192e-01 7.215235414377091372e-02 -4.114765023992653613e-03
-7.535601525909466636e-01 -1.265756791611192034e+00 4.723552705377314087e-01 -1.021462282965215795e+00 -3.116956842137293647e-04 -6.475334122048385099e-01 -1.745426795575867995e+00 -2.253964603044421589e-01 1.548056598946519757e-01 -6.495871283994395992e-03
-7.909175359976131636e-01 -1.353190222672518095e+00 4.533782522900804968e-01 -1.009614557719231032e+00 -1.001617577663462422e-03 0.000000000000000000e+00 0.000000000000000000e+00 0.000000000000000000e+00 0.000000000000000000e+00 0.000000000000000000e+00
-7.909175359976131636e-01 -1.353190222672518095e+00 4.533782522900804968e-01 -1.009614557719231032e+00 -1.001617577663462422e-03 0.000000000000000000e+00 0.000000000000000000e+00 0.000000000000000000e+00 0.000000000000000000e+00 0.000000000000000000e+00
-7.909175359976131636e-01 -1.353190222672518095e+00 4.533782522900804968e-01 -1.009614557719231032e+00 -1.001617577663462422e-03 0.000000000000000000e+00 0.000000000000000000e+00 0.000000000000000000e+00 0.000000000000000000e+00 0.000000000000000000e+00
-7.909175359976131636e-01 -1.353190222672518095e+00 4.533782522900804968e-01 -1.009614557719231032e+00 -1.001617577663462422e-03 0.000000000000000000e+00 0.000000000000000000e+00 0.000000000000000000e+00 0.000000000000000000e+00 0.000000000000000000e+00
-7.909175359976131636e-01 -1.353190222672518095e+00 4.533782522900804968e-01 -1.009614557719231032e+00 -1.001617577663462422e-03 0.000000000000000000e+00 0.000000000000000000e+00 0.000000000000000000e+00 0.000000000000000000e+00 0.000000000000000000e+00
-7.909175359976131636e-01 -1.353190222672518095e+00 4.533782522900804968e-01 -1.009614557719231032e+00 -1.001617577663462422e-03 0.000000000000000000e+00 0.000000000000000000e+00 0.000000000000000000e+00 0.000000000000000000e+00 0.000000000000000000e+00
-7.909175359976131636e-01 -1.353190222672518095e+00 4.533782522900804968e-01 -1.009614557719231032e+00 -1.001617577663462422e-03 0.000000000000000000e+00 0.000000000000000000e+00 0.000000000000000000e+00 0.000000000000000000e+00 0.000000000000000000e+00
-7.909175359976131636e-01 -1.353190222672518095e+00 4.533782522900804968e-01 -1.009614557719231032e+00 -1.001617577663462422e-03 0.000000000000000000e+00 0.000000000000000000e+00 0.000000000000000000e+00 0.000000000000000000e+00 0.000000000000000000e+00
-7.909175359976131636e-01 -1.353190222672518095e+00 4.533782522900804968e-01 -1.009614557719231032e+00 -1.001617577663462422e-03 0.000000000000000000e+00 0.000000000000000000e+00 0.000000000000000000e+00 0.000000000000000000e+00 0.000000000000000000e+00
-7.909175359976131636e-01 -1.353190222672518095e+00 4.533782522900804968e-01 -1.009614557719231032e+00 -1.001617577663462422e-03 0.000000000000000000e+00 0.000000000000000000e+00 0.000000000000000000e+00 0.000000000000000000e+00 0.000000000000000000e+00
-7.909175359976131636e-01 -1.353190222672518095e+00 4.533782522900804968e-01 -1.009614557719231032e+00 -1.001617577663462422e-03 0.000000000000000000e+00 0.000000000000000000e+00 0.000000000000000000e+00 0.000000000000000000e+00 0.000000000000000000e+00
-7.909175359976131636e-01 -1.353190222672518095e+00 4.533782522900804968e-01 -1.009614557719231032e+00 -1.001617577663462422e-03 0.000000000000000000e+00 0.000000000000000000e+00 0.000000000000000000e+00 0.000000000000000000e+00 0.000000000000000000e+00
-7.909175359976131636e-01 -1.353190222672518095e+00 4.533782522900804968e-01 -1.009614557719231032e+00 -1.001617577663462422e-03 0.000000000000000000e+00 0.000000000000000000e+00 0.000000000000000000e+00 0.000000000000000000e+00 0.000000000000000000e+00
-7.909175359976131636e-01 -1.353190222672518095e+00 4.533782522900804968e-01 -1.009614557719231032e+00 -1.001617577663462422e-03 0.000000000000000000e+00 0.000000000000000000e+00 0.000000000000000000e+00 0.000000000000000000e+00 0.000000000000000000e+00
-7.909175359976131636e-01 -1.353190222672518095e+00 4.533782522900804968e-01 -1.009614557719231032e+00 -1.001617577663462422e-03 0.000000000000000000e+00 0.000000000000000000e+00 0.000000000000000000e+00 0.000000000000000000e+00 0.000000000000000000e+00
-7.909175359976131636e-01 -1.353190222672518095e+00 4.533782522900804968e-01 -1.009614557719231032e+00 -1.001617577663462422e-03 0.000000000000000000e+00 0.000000000000000000e+00 0.000000000000000000e+00 0.000000000000000000e+00 0.000000000000000000e+00
-7.909175359976131636e-01 -1.353190222672518095e+00 4.533782522900804968e-01 -1.009614557719231032e+00 -1.001617577663462422e-03 0.000000000000000000e+00 0.000000000000000000e+00 0.000000000000000000e+00 0.000000000000000000e+00 0.000000000000000000e+00
-7.909175359976131636e-01 -1.353190222672518095e+00 4.533782522900804968e-01 -1.009614557719231032e+00 -1.001617577663462422e-03 0.000000000000000000e+00 0.000000000000000000e+00 0.000000000000000000e+00 0.000000000000000000e+00 0.000000000000000000e+00
