-8.145655258114222752e-01 -2.654607460422153675e-01 -8.210145127820570043e-02 -1.317485741737975280e+00 -1.094752497251478109e-03 -2.116180929953745127e-01 -5.320190358236192019e-01 -2.177936421675610856e-01 9.424776161949310893e-01 7.407452591695994201e-04
-8.253324513149559172e-01 -2.920865536716472088e-01 -9.076264099521919038e-02 -1.271288138842007642e+00 -1.064287421456858694e-03 -2.153385100706735056e-01 -5.325161525886372704e-01 -1.732237943402697711e-01 9.239520579193545302e-01 6.093015158923874297e-04
-8.362754172844419909e-01 -3.186618413007846207e-01 -9.740586453088219410e-02 -1.226109717979912750e+00 -1.041475102377635489e-03 -2.188593193897218903e-01 -5.315057525827479035e-01 -1.328644707132600189e-01 9.035684172418998461e-01 4.562463815844626991e-04
-8.473871530549605957e-01 -3.451325757345210521e-01 -1.022354889101954600e-01 -1.181992528642770379e+00 -1.026580571743190796e-03 -2.222347154103711253e-01 -5.294146886747288505e-01 -9.659248758626545750e-02 8.823437867428483017e-01 2.978906126888917366e-04
-8.586638660189406247e-01 -3.714645759749006793e-01 -1.054502194868993797e-01 -1.138931908802825577e+00 -1.019254463907032617e-03 -2.255342592795998857e-01 -5.266400048075922102e-01 -6.429461153407831087e-02 8.612123967988976059e-01 1.465221567231619047e-04
-8.701058536109891328e-01 -3.976420088352758953e-01 -1.072436089469841480e-01 -1.096879651412683065e+00 -1.018755859466797089e-03 -2.288397518409702180e-01 -5.235486572075036538e-01 -3.586778920169532425e-02 8.410451478028511119e-01 9.972088804710430498e-06
-8.817179988121885970e-01 -4.236655549359250594e-01 -1.078045410578945540e-01 -1.055747799644997764e+00 -1.024276805087786764e-03 -2.322429040239893105e-01 -5.204709220129835057e-01 -1.121864221820804974e-02 8.226370353537064695e-01 -1.104189124197955599e-04
-8.935100767090592422e-01 -4.495508066588163043e-01 -1.073177904536961880e-01 -1.015410892909823781e+00 -1.035287944890212700e-03 -2.358415579374135429e-01 -5.177050344578248975e-01 9.735012083967195529e-03 8.067381347034804362e-01 -2.202227960485192101e-04
-9.054969483411896558e-01 -4.753260481969634466e-01 -1.059646998572311843e-01 -9.757102154150136819e-01 -1.052578677103790331e-03 -2.397374326426091606e-01 -5.155048307629428450e-01 2.706181192930008292e-02 7.940135498962023197e-01 -3.458146442715522386e-04
-9.176985730411482134e-01 -5.010301317510845731e-01 -1.039232696229550057e-01 -9.364579218506510205e-01 -1.082144009119402443e-03 -2.440324939991702635e-01 -5.140816710824231972e-01 4.082860468552356598e-02 7.850458712872524503e-01 -5.913066403122409394e-04
-9.301398808801196738e-01 -5.267104237928383892e-01 -1.013691256448290279e-01 -8.974403792252759748e-01 -1.149921450720876349e-03 -2.488261567794283757e-01 -5.136058408350756554e-01 5.108287956251949397e-02 7.803508525075010249e-01 -1.355548832029478557e-03
-9.428504975766527352e-01 -5.524210459818346131e-01 -9.847737360636005244e-02 -8.584198975546787347e-01 -1.360522562345759228e-03 0.000000000000000000e+00 0.000000000000000000e+00 0.000000000000000000e+00 0.000000000000000000e+00 0.000000000000000000e+00
-9.428504975766527352e-01 -5.524210459818346131e-01 -9.847737360636005244e-02 -8.584198975546787347e-01 -1.360522562345759228e-03 0.000000000000000000e+00 0.000000000000000000e+00 0.000000000000000000e+00 0.000000000000000000e+00 0.000000000000000000e+00
-9.428504975766527352e-01 -5.524210459818346131e-01 -9.847737360636005244e-02 -8.584198975546787347e-01 -1.360522562345759228e-03 0.000000000000000000e+00 0.000000000000000000e+00 0.000000000000000000e+00 0.000000000000000000e+00 0.000000000000000000e+00
-9.428504975766527352e-01 -5.524210459818346131e-01 -9.847737360636005244e-02 -8.584198975546787347e-01 -1.360522562345759228e-03 0.000000000000000000e+00 0.000000000000000000e+00 0.000000000000000000e+00 0.000000000000000000e+00 0.000000000000000000e+00
-9.428504975766527352e-01 -5.524210459818346131e-01 -9.847737360636005244e-02 -8.584198975546787347e-01 -1.360522562345759228e-03 0.000000000000000000e+00 0.000000000000000000e+00 0.000000000000000000e+00 0.000000000000000000e+00 0.000000000000000000e+00
-9.428504975766527352e-01 -5.524210459818346131e-01 -9.847737360636005244e-02 -8.584198975546787347e-01 -1.360522562345759228e-03 0.000000000000000000e+00 0.000000000000000000e+00 0.000000000000000000e+00 0.000000000000000000e+00 0.000000000000000000e+00
-9.428504975766527352e-01 -5.524210459818346131e-01 -9.847737360636005244e-02 -8.584198975546787347e-01 -1.360522562345759228e-03 0.000000000000000000e+00 0.000000000000000000e+00 0.000000000000000000e+00 0.000000000000000000e+00 0.000000000000000000e+00
-9.428504975766527352e-01 -5.524210459818346131e-01 -9.847737360636005244e-02 -8.584198975546787347e-01 -1.360522562345759228e-03 0.000000000000000000e+00 0.000000000000000000e+00 0.000000000000000000e+00 0.000000000000000000e+00 0.000000000000000000e+00
-9.428504975766527352e-01 -5.524210459818346131e-01 -9.847737360636005244e-02 -8.584198975546787347e-01 -1.360522562345759228e-03 0.000000000000000000e+00 0.000000000000000000e+00 0.000000000000000000e+00 0.000000000000000000e+00 0.000000000000000000e+00
-9.428504975766527352e-01 -5.524210459818346131e-01 -9.847737360636005244e-02 -8.584198975546787347e-01 -1.360522562345759228e-03 0.000000000000000000e+00 0.000000000000000000e+00 0.000000000000000000e+00 0.000000000000000000e+00 0.000000000000000000e+00
-9.428504975766527352e-01 -5.524210459818346131e-01 -9.847737360636005244e-02 -8.584198975546787347e-01 -1.360522562345759228e-03 0.000000000000000000e+00 0.000000000000000000e+00 0.000000000000000000e+00 0.000000000000000000e+00 0.000000000000000000e+00
-9.428504975766527352e-01 -5.524210459818346131e-01 -9.847737360636005244e-02 -8.584198975546787347e-01 -1.360522562345759228e-03 0.000000000000000000e+00 0.000000000000000000e+00 0.000000000000000000e+00 0.000000000000000000e+00 0.000000000000000000e+00
-9.428504975766527352e-01 -5.524210459818346131e-01 -9.847737360636005244e-02 -8.584198975546787347e-01 -1.360522562345759228e-03 0.000000000000000000e+00 0.000000000000000000e+00 0.000000000000000000e+00 0.000000000000000000e+00 0.000000000000000000e+00
-9.428504975766527352e-01 -5.524210459818346131e-01 -9.847737360636005244e-02 -8.584198975546787347e-01 -1.360522562345759228e-03 0.000000000000000000e+00 0.000000000000000000e+00 0.000000000000000000e+00 0.000000000000000000e+00 0.000000000000000000e+00
-9.428504975766527352e-01 -5.524210459818346131e-01 -9.847737360636005244e-02 -8.584198975546787347e-01 -1.360522562345759228e-03 0.000000000000000000e+00 0.000000000000000000e+00 0.000000000000000000e+00 0.000000000000000000e+00 0.000000000000000000e+00
-9.428504975766527352e-01 -5.524210459818346131e-01 -9.847737360636005244e-02 -8.584198975546787347e-01 -1.360522562345759228e-03 0.000000000000000000e+00 0.000000000000000000e+00 0.000000000000000000e+00 0.000000000000000000e+00 0.000000000000000000e+00
-9.428504975766527352e-01 -5.524210459818346131e-01 -9.847737360636005244e-02 -8.584198975546787347e-01 -1.360522562345759228e-03 0.000000000000000000e+00 0.000000000000000000e+00 0.000000000000000000e+00 0.000000000000000000e+00 0.000000000000000000e+00
-9.428504975766527352e-01 -5.524210459818346131e-01 -9.847737360636005244e-02 -8.584198975546787347e-01 -1.360522562345759228e-03 0.000000000000000000e+00 0.000000000000000000e+00 0.000000000000000000e+00 0.000000000000000000e+00 0.000000000000000000e+00
-9.428504975766527352e-01 -5.524210459818346131e-01 -9.847737360636005244e-02 -8.584198975546787347e-01 -1.360522562345759228e-03 0.000000000000000000e+00 0.000000000000000000e+00 0.000000000000000000e+00 0.000000000000000000e+00 0.000000000000000000e+00
-9.428504975766527352e-01 -5.524210459818346131e-01 -9.847737360636005244e-02 -8.584198975546787347e-01 -1.360522562345759228e-03 0.000000000000000000e+00 0.000000000000000000e+00 0.000000000000000000e+00 0.000000000000000000e+00 0.000000000000000000e+00
