-9.176564016391173251e-01 1.147675477866408889e-01 5.447440991242857855e-01 -1.375713430771043244e+00 1.093747834083475413e-03 -9.852573424771540189e-01 3.924256877718613756e-01 -1.550153032800239528e+00 -1.968922105133076528e+00 -1.237916698873139357e-05
-9.685322013258057527e-01 1.321324572826886867e-01 4.661064637289676904e-01 -1.469444310577742163e+00 1.082269344763865096e-03 -1.017515993733769664e+00 3.472981899209556800e-01 -1.572752707906361680e+00 -1.874617596133979047e+00 -2.295697863922051491e-04
-1.020746927333587406e+00 1.468446861297529327e-01 3.857802962367835597e-01 -1.555125484806232805e+00 1.037883506432754101e-03 -1.044294520155634176e+00 2.942445769412848633e-01 -1.606523349843683057e+00 -1.713623484569814837e+00 -8.877167666222209822e-04
-1.074015094340142307e+00 1.586024834876949841e-01 3.036629167981418354e-01 -1.629781066043209048e+00 8.836686792727814661e-04 -1.065363340131098235e+00 2.351559471588409167e-01 -1.642347588772834044e+00 -1.493111624739524190e+00 -3.084296543199452692e-03
-1.128066402931844570e+00 1.671490035953984987e-01 2.202876230157475579e-01 -1.690902051544270979e+00 4.701320956180800271e-04 -1.081026171834045035e+00 1.709304021540702379e-01 -1.667505875647885771e+00 -1.222419710021236394e+00 -8.270731673094028347e-03
-1.182689404420474988e+00 1.722423576371606424e-01 1.368699860592602902e-01 -1.736555835075732634e+00 -2.203689198563662903e-05 -1.092460029772609253e+00 1.018670808352430540e-01 -1.668352739129745466e+00 -9.130756706292346703e-01 -9.843379752074332689e-03
-1.237774192731190714e+00 1.736588541360055138e-01 5.519497894504192537e-02 -1.765493707318447791e+00 -4.941069573346310723e-04 -1.101695766214314309e+00 2.832992997689746939e-02 -1.633500142284367129e+00 -5.787574448543015837e-01 -9.441401306979887997e-03
-1.293332927717946612e+00 1.712312250479940678e-01 -2.264642496710768393e-02 -1.777242075709489333e+00 -8.757749168713874688e-04 -1.111174699735119509e+00 -4.855258176022879402e-02 -1.556828078242992186e+00 -2.349673678208313854e-01 -7.633359190735127496e-03
-1.349483868152903776e+00 1.649014753594904015e-01 -9.460701950834952967e-02 -1.772131995502326474e+00 -1.118653625912859354e-03 -1.123018808699144389e+00 -1.265949937700734940e-01 -1.439211890824836804e+00 1.022016041432555200e-01 -4.857574180829436414e-03
-1.406403744599350691e+00 1.547639472022683538e-01 -1.590187072841843519e-01 -1.751245792336325602e+00 -1.198416668248259787e-03 -1.138397528928936309e+00 -2.027505631444410650e-01 -1.288233755516696499e+00 4.177240633200160480e-01 -1.595260846708010383e-03
-1.464268610859522202e+00 1.410784622839598157e-01 -2.148169762628906743e-01 -1.716275234234630576e+00 -1.116399669093429874e-03 -1.157297325203431981e+00 -2.737096983661707061e-01 -1.115965379574126670e+00 6.994111620339018565e-01 1.640339983096596524e-03
-1.523206779205310779e+00 1.242464593630940861e-01 -2.615979425472588216e-01 -1.669307512832876261e+00 -8.964319807600711889e-04 -1.178763366915772659e+00 -3.366400584173144805e-01 -9.356193256873628350e-01 9.393544280350871745e-01 4.399353766667172400e-03
-1.583277477620006035e+00 1.047576114272111558e-01 -2.995200314617740278e-01 -1.612572356407985907e+00 -5.743155471284761438e-04 -1.201413968293905343e+00 -3.897769587176583839e-01 -7.584417782903037919e-01 1.134703128497808411e+00 6.442328672631901336e-03
-1.644473531351810625e+00 8.313544338781743426e-02 -3.291381593025612395e-01 -1.548237314604331560e+00 -1.923691506867895580e-04 -1.223921074636089568e+00 -4.324433607878744867e-01 -5.923625568157444565e-01 1.286700836073086052e+00 7.638927928833731500e-03
-1.706738032510119796e+00 5.988413360846746997e-02 -3.512193869918768252e-01 -1.478239752750617697e+00 2.081571401907318999e-04 -1.245290023166182314e+00 -4.650261955869992581e-01 -4.416245537863119353e-01 1.399951237074279042e+00 8.010525817550429376e-03
-1.769984482329172826e+00 3.545031186285760999e-02 -3.665935429887458019e-01 -1.404189063962362205e+00 5.880580014266238199e-04 -1.264928996381062598e+00 -4.886764349121971440e-01 -3.074831199373794233e-01 1.481013775765110951e+00 7.598017224717836665e-03
-1.834112888772684968e+00 1.020193137923754156e-02 -3.760585118213912725e-01 -1.327330633672748839e+00 8.939236917618989834e-04 -1.282568128870241742e+00 -5.049676096724012853e-01 -1.892993766529099675e-01 1.537168605792265774e+00 6.117313806705503704e-03
-1.899020090292746543e+00 -1.558047860777184157e-02 -3.803302182561127398e-01 -1.248549074530008962e+00 9.845754024036187935e-04 -1.298144030401229498e+00 -5.156481997401876072e-01 -8.543412869442934543e-02 1.575631182854799084e+00 1.813034212834397502e-03
-1.964604428410237524e+00 -4.170481110636070632e-02 -3.800243786299796200e-01 -1.168389116610631717e+00 9.381736249085290483e-04 -1.311686762349817403e+00 -5.224866499717772950e-01 6.116792522661854137e-03 1.603199158387544010e+00 -9.280355499017944702e-04
-2.030766593451417190e+00 -6.806332465177283852e-02 -3.756558544539572164e-01 -1.087084885252020516e+00 7.202985328836518852e-04 -1.323243300823589319e+00 -5.271702709082427551e-01 8.737048352044800292e-02 1.626084627172223351e+00 -4.357501840497542828e-03
-2.097407850695464759e+00 -9.462648106429843997e-02 -3.676426513224253512e-01 -1.004590916367566589e+00 9.169248235422621136e-06 0.000000000000000000e+00 0.000000000000000000e+00 0.000000000000000000e+00 0.000000000000000000e+00 0.000000000000000000e+00
-2.097407850695464759e+00 -9.462648106429843997e-02 -3.676426513224253512e-01 -1.004590916367566589e+00 9.169248235422621136e-06 0.000000000000000000e+00 0.000000000000000000e+00 0.000000000000000000e+00 0.000000000000000000e+00 0.000000000000000000e+00
-2.097407850695464759e+00 -9.462648106429843997e-02 -3.676426513224253512e-01 -1.004590916367566589e+00 9.169248235422621136e-06 0.000000000000000000e+00 0.000000000000000000e+00 0.000000000000000000e+00 0.000000000000000000e+00 0.000000000000000000e+00
-2.097407850695464759e+00 -9.462648106429843997e-02 -3.676426513224253512e-01 -1.004590916367566589e+00 9.169248235422621136e-06 0.000000000000000000e+00 0.000000000000000000e+00 0.000000000000000000e+00 0.000000000000000000e+00 0.000000000000000000e+00
-2.097407850695464759e+00 -9.462648106429843997e-02 -3.676426513224253512e-01 -1.004590916367566589e+00 9.169248235422621136e-06 0.000000000000000000e+00 0.000000000000000000e+00 0.000000000000000000e+00 0.000000000000000000e+00 0.000000000000000000e+00
-2.097407850695464759e+00 -9.462648106429843997e-02 -3.676426513224253512e-01 -1.004590916367566589e+00 9.169248235422621136e-06 0.000000000000000000e+00 0.000000000000000000e+00 0.000000000000000000e+00 0.000000000000000000e+00 0.000000000000000000e+00
-2.097407850695464759e+00 -9.462648106429843997e-02 -3.676426513224253512e-01 -1.004590916367566589e+00 9.169248235422621136e-06 0.000000000000000000e+00 0.000000000000000000e+00 0.000000000000000000e+00 0.000000000000000000e+00 0.000000000000000000e+00
-2.097407850695464759e+00 -9.462648106429843997e-02 -3.676426513224253512e-01 -1.004590916367566589e+00 9.169248235422621136e-06 0.000000000000000000e+00 0.000000000000000000e+00 0.000000000000000000e+00 0.000000000000000000e+00 0.000000000000000000e+00
-2.097407850695464759e+00 -9.462648106429843997e-02 -3.676426513224253512e-01 -1.004590916367566589e+00 9.169248235422621136e-06 0.000000000000000000e+00 0.000000000000000000e+00 0.000000000000000000e+00 0.000000000000000000e+00 0.000000000000000000e+00
-2.097407850695464759e+00 -9.462648106429843997e-02 -3.676426513224253512e-01 -1.004590916367566589e+00 9.169248235422621136e-06 0.000000000000000000e+00 0.000000000000000000e+00 0.000000000000000000e+00 0.000000000000000000e+00 0.000000000000000000e+00
-2.097407850695464759e+00 -9.462648106429843997e-02 -3.676426513224253512e-01 -1.004590916367566589e+00 9.169248235422621136e-06 0.000000000000000000e+00 0.000000000000000000e+00 0.000000000000000000e+00 0.000000000000000000e+00 0.000000000000000000e+00
