-6.942585209709878358e-01 3.924216449532035023e-02 1.016971232973079564e+00 -1.058441198429935559e+00 9.056337678204591035e-04 -2.047199400680496384e-01 -2.684951107691749828e-01 -4.922068111905323340e-01 -9.299830019770095602e-01 3.691260057172910530e-03
-7.058777149677496476e-01 2.142144458012374547e-02 9.895135295968133793e-01 -1.112617519283506162e+00 1.009536241403634826e-03 -2.323838799352359596e-01 -3.564143983039320673e-01 -5.491540675253225867e-01 -1.083526417071413839e+00 2.078049471663514017e-03
-7.185494769161159256e-01 -1.079501236165705119e-03 9.597029772035083894e-01 -1.172795130117294304e+00 1.041328978383040385e-03 -2.534352389673262818e-01 -4.500189163257889424e-01 -5.962110478660990198e-01 -1.203552216675762176e+00 6.358547395881109562e-04
-7.320040697767505877e-01 -2.845215624025813905e-02 9.276434568888101140e-01 -1.237258617554787055e+00 1.043531114674271917e-03 -2.690918572126939079e-01 -5.474531000818486648e-01 -6.411904062939661753e-01 -1.289269748749853672e+00 4.404272582463075476e-05
-7.460182946035063267e-01 -6.078766820492402523e-02 8.931476729575889006e-01 -1.304272353821161801e+00 1.024301540862665449e-03 -2.802844965351152795e-01 -6.467102392933177235e-01 -6.899156786244252659e-01 -1.340274725327495808e+00 -3.845914762321277257e-04
-7.604009261181292612e-01 -9.807898697077942207e-02 8.558595876547860914e-01 -1.372097473112673161e+00 9.584814409653114259e-04 -2.876526302924578005e-01 -7.458263753171079369e-01 -7.457617060560559619e-01 -1.356502385830226531e+00 -1.316401997947079820e-03
-7.749806096312914505e-01 -1.402320637619797472e-01 8.153814510165259266e-01 -1.439007303932763548e+00 8.177192025221433243e-04 -2.915936702632448418e-01 -8.430615358240066692e-01 -8.095627327652026306e-01 -1.338196616401805761e+00 -2.815244768863361599e-03
-7.895968145123386517e-01 -1.870843462946492897e-01 7.713934646228548520e-01 -1.503303806496616879e+00 6.095819150722414951e-04 -2.923240976209448005e-01 -9.370456506533906271e-01 -8.797597278734206050e-01 -1.285930051277064390e+00 -4.162745748998037017e-03
-8.040931077579941411e-01 -2.384286317184984849e-01 7.237576295817536032e-01 -1.563335180406013603e+00 3.521553629580334664e-04 -2.899258649131088994e-01 -1.026885708476984016e+00 -9.527167008220249755e-01 -1.200627478187934694e+00 -5.148531042284160142e-03
-8.183136439153173569e-01 -2.940389930033562860e-01 6.725986386520024229e-01 -1.617522630291117869e+00 6.704898178822927320e-05 -2.844107231464650387e-01 -1.112207225697156465e+00 -1.023179818595023827e+00 -1.083748997702085104e+00 -5.702127623396083429e-03
-8.321035630660743587e-01 -3.536947504748919613e-01 6.183505850195200049e-01 -1.664397350804857290e+00 -2.228050378382900290e-04 -2.757983830151398696e-01 -1.193115149430712840e+00 -1.084961072649647917e+00 -9.374944102747879704e-01 -5.797080392530385394e-03
-8.453127773301383208e-01 -4.171991618446763694e-01 5.617639170001664795e-01 -1.702645453168230905e+00 -4.940332428760550471e-04 -2.641842852812792963e-01 -1.270088227395687719e+00 -1.131733360387069620e+00 -7.649620472674716343e-01 -5.424564100755300579e-03
-8.578037425230974344e-01 -4.843876812312452595e-01 5.038642372277262194e-01 -1.731165396492071018e+00 -7.240250511625945544e-04 -2.498193038591813575e-01 -1.343770387731378024e+00 -1.157993595448805646e+00 -5.703988664768014916e-01 -4.599836165730791446e-03
-8.694611189087558811e-01 -5.551230583721835643e-01 4.458585568673582578e-01 -1.749128004838021111e+00 -8.931805573358197851e-04 -2.331475277131694335e-01 -1.414707542818766317e+00 -1.160113607207359232e+00 -3.592521669190029687e-01 -3.383110123464504182e-03
-8.801989889137238343e-01 -6.292791143950837718e-01 3.890015551138036876e-01 -1.756021361956068949e+00 -9.878731665865581393e-04 -2.147574000993589249e-01 -1.483121120458004594e+00 -1.137140035071090960e+00 -1.378671423609552915e-01 -1.893852185014768819e-03
-8.899604259747075918e-01 -7.067197066620727330e-01 3.344533674328058481e-01 -1.751664498597792496e+00 -1.002684121763975419e-03 -1.952287412196758998e-01 -1.548811845339780113e+00 -1.090963753619956345e+00 8.713726716552874785e-02 -2.962191035483455887e-04
-8.987080097539645873e-01 -7.872788003145027025e-01 2.831617190234397285e-01 -1.736191003014681211e+00 -9.409327407842400575e-04 -1.749516755851404926e-01 -1.611181873048600055e+00 -1.025832968187322614e+00 3.094699116622238177e-01 1.235027619594707441e-03
-9.064055062881636315e-01 -8.707484036626595980e-01 2.357934672933439113e-01 -1.710003626317355696e+00 -8.133966760344385830e-04 -1.539499306839806625e-01 -1.669392066963138577e+00 -9.473650346019163448e-01 5.237475339465117452e-01 2.550721294996029058e-03
-9.129941401714214422e-01 -9.568764701779985948e-01 1.927237958964298503e-01 -1.673713714335697267e+00 -6.359632767883662300e-04 -1.317726776651562126e-01 -1.722561330306780158e+00 -8.613934279382809978e-01 7.257982396331689179e-01 3.548667984921446625e-03
-9.183678411492031124e-01 -1.045373904785255492e+00 1.540744402594075302e-01 -1.628076585944117749e+00 -4.269815883659848358e-04 -1.074740195556325856e-01 -1.769948692145137503e+00 -7.729871127404461806e-01 9.127425678315898017e-01 4.179633768447627018e-03
-9.223538486722178131e-01 -1.135926984980454968e+00 1.197815066324380423e-01 -1.573936556027821343e+00 -2.051252613126747443e-04 -7.972015046029509722e-02 -1.811061603903987738e+00 -6.858586725393895911e-01 1.082800598325929453e+00 4.437126541066201829e-03
-9.247106197605632349e-01 -1.228211961792012197e+00 8.966512249316374583e-02 -1.512185930261826350e+00 1.193522094357978383e-05 -4.713542176690913021e-02 -1.845699536231145910e+00 -6.023276827854857629e-01 1.235012515319897863e+00 4.341209645125090888e-03
-9.251690050312255664e-01 -1.321907456349048937e+00 6.346136340240746132e-02 -1.443744992536817984e+00 2.080556560058516768e-04 -9.167705413247406732e-03 -1.873909891140735917e+00 -5.240751818151256902e-01 1.368818754500165324e+00 3.922408701245438077e-03
-9.235517488387137153e-01 -1.416704977819176037e+00 4.077101123122860160e-02 -1.369549499685349003e+00 3.699809725046316255e-04 3.234512385023612796e-02 -1.895950429402541104e+00 -4.538070434235771389e-01 1.483909857029380497e+00 3.238506329975597998e-03
-9.199595695759973379e-01 -1.512322026482104675e+00 2.092430818375303966e-02 -1.290495785473162238e+00 4.970911518260654610e-04 7.184358525432787967e-02 -1.912340973258574328e+00 -3.969340609495111694e-01 1.581074284243733530e+00 2.542203586428677144e-03
-9.149529601298727055e-01 -1.608504125945828589e+00 2.788527205037607398e-03 -1.207392540839238526e+00 6.336292269373363555e-04 1.001321889224926487e-01 -1.923641989274478714e+00 -3.627156195743087008e-01 1.662064892678472239e+00 2.730761502225417456e-03
-9.095265650640492749e-01 -1.705010808610445627e+00 -1.530434354992862150e-02 -1.120926874205070423e+00 9.984624239591545491e-04 0.000000000000000000e+00 0.000000000000000000e+00 0.000000000000000000e+00 0.000000000000000000e+00 0.000000000000000000e+00
-9.095265650640492749e-01 -1.705010808610445627e+00 -1.530434354992862150e-02 -1.120926874205070423e+00 9.984624239591545491e-04 0.000000000000000000e+00 0.000000000000000000e+00 0.000000000000000000e+00 0.000000000000000000e+00 0.000000000000000000e+00
-9.095265650640492749e-01 -1.705010808610445627e+00 -1.530434354992862150e-02 -1.120926874205070423e+00 9.984624239591545491e-04 0.000000000000000000e+00 0.000000000000000000e+00 0.000000000000000000e+00 0.000000000000000000e+00 0.000000000000000000e+00
-9.095265650640492749e-01 -1.705010808610445627e+00 -1.530434354992862150e-02 -1.120926874205070423e+00 9.984624239591545491e-04 0.000000000000000000e+00 0.000000000000000000e+00 0.000000000000000000e+00 0.000000000000000000e+00 0.000000000000000000e+00
-9.095265650640492749e-01 -1.705010808610445627e+00 -1.530434354992862150e-02 -1.120926874205070423e+00 9.984624239591545491e-04 0.000000000000000000e+00 0.000000000000000000e+00 0.000000000000000000e+00 0.000000000000000000e+00 0.000000000000000000e+00
