-5.868865040047017700e-01 -1.464211793852657206e-01 9.479511158430375950e-01 -7.774346064573720572e-01 0.000000000000000000e+00 -7.617043706583045970e-04 -1.999147487439048056e-04 1.535190032169167149e-03 -4.640024714718587670e-04 0.000000000000000000e+00
-5.962467841426466464e-01 -1.390984156214493672e-01 9.156277456400035986e-01 -7.987769727763468497e-01 3.221231387545860601e-04 -1.872056027588981930e-01 1.464552752763269572e-01 -6.464674040606789296e-01 -4.268473263794962391e-01 6.442462775091720335e-03
-6.131705840337562385e-01 -1.259839204381088262e-01 8.583575820967924708e-01 -8.389475254937956983e-01 7.275008296953655368e-04 -3.384759978221918431e-01 2.622899036668107087e-01 -1.145403270864223000e+00 -8.034110543489760836e-01 8.107553818815588231e-03
-6.354969265040166793e-01 -1.086143461016123024e-01 7.843100606228786686e-01 -8.954127717516934259e-01 1.026793601181124433e-03 -4.465268494052082038e-01 3.473914867299303655e-01 -1.480950429478276043e+00 -1.129304925157955219e+00 5.985855429715176632e-03
-6.611759752962922398e-01 -8.865906517826238620e-02 7.008386786736807705e-01 -9.649699655503524154e-01 1.141388144002273338e-03 -5.135809758455122109e-01 3.991056184669984352e-01 -1.669427638983957740e+00 -1.391143875973179567e+00 2.291890856422978528e-03
-6.886010506458352110e-01 -6.786093952355634618e-02 6.135001799869668204e-01 -1.043566179975852659e+00 1.165060296399772878e-03 -5.485015069908587559e-01 4.159625130941209115e-01 -1.746769973734279668e+00 -1.571924288510005541e+00 4.734430479499925418e-04
-7.167011743070446084e-01 -4.784888299907785747e-02 5.258110671709672612e-01 -1.126572642682004632e+00 1.147241331460868968e-03 -5.620024732241879484e-01 4.002411304895697741e-01 -1.753782256319990296e+00 -1.660129254123038578e+00 -3.563792987780770244e-04
-7.448544151166941463e-01 -2.996917615400759155e-02 4.396276097580312792e-01 -1.209302437392890894e+00 1.095409764608253761e-03 -5.630648161929899809e-01 3.575941369014052906e-01 -1.723669148258719419e+00 -1.654595894217723684e+00 -1.036631337052305434e-03
-7.727399840257718200e-01 -1.521752452716064116e-02 3.558026460898212617e-01 -1.287501735181616702e+00 9.662934090101790371e-04 -5.577113781815539184e-01 2.950330325369389661e-01 -1.676499273364199460e+00 -1.563985955774514602e+00 -2.582327111961492741e-03
-8.002161832384566686e-01 -4.259912889225076632e-03 2.747928654308098850e-01 -1.357673510861220567e+00 6.531478788331413236e-04 -5.495239842536969732e-01 2.191522327587113184e-01 -1.620195613180227534e+00 -1.403435513592077744e+00 -6.262910603540753837e-03
-8.272490777867944622e-01 2.509995045562677003e-03 1.970480466319278201e-01 -1.417229721642844664e+00 2.464552141179548908e-04 -5.406578909667552058e-01 1.353981586957550554e-01 -1.554896375977641743e+00 -1.191124215632483718e+00 -8.133853294303727138e-03
-8.538782853643771542e-01 4.913150887766093086e-03 1.231705759825015428e-01 -1.464515462211749997e+00 -1.726533628720012615e-04 -5.325841515516528402e-01 4.806311684406833207e-02 -1.477549412988525379e+00 -9.457148113781048693e-01 -8.382171539799122828e-03
-8.801988452916321704e-01 2.943135222364316565e-03 5.390021828349650379e-02 -1.498753617573870045e+00 -5.400954296408710421e-04 -5.264111985450999898e-01 -3.940031330803553389e-02 -1.385407153980100725e+00 -6.847631072424009702e-01 -7.348841335377396047e-03
-9.063441322326777350e-01 -3.261319372012168837e-03 -1.000046396914644475e-02 -1.519936142555517122e+00 -8.131479240323565569e-04 -5.229057388209107371e-01 -1.240890918875296733e-01 -1.278013645052858971e+00 -4.236504996329436001e-01 -5.461049887829710729e-03
-9.324649924992892691e-01 -1.343642770407769971e-02 -6.788685081014091127e-02 -1.528683948945155580e+00 -9.730453102732637520e-04 -5.224172053322300169e-01 -2.035021666413106278e-01 -1.157727736819889497e+00 -1.749561277927688674e-01 -3.197947724818143034e-03
-9.587068304141086461e-01 -2.721601709941732367e-02 -1.193472211761931745e-01 -1.526080242896281414e+00 -1.029105156219415002e-03 -5.248367582963879840e-01 -2.755917879067924514e-01 -1.029207407321045320e+00 5.207412097748542745e-02 -1.121196918923024130e-03
-9.851913938879575117e-01 -4.416197736988646677e-02 -1.642475087249146704e-01 -1.513500690096834411e+00 -1.038530522683355981e-03 -5.296912694769778662e-01 -3.389192054093828621e-01 -8.980057509744296951e-01 2.515910559889397158e-01 -1.885073292788213076e-04
-1.012006706625134589e+00 -6.379848690627694385e-02 -2.027184351993355227e-01 -1.492455370449528695e+00 -1.034277451335103518e-03 -5.363062547435410998e-01 -3.927301907278095694e-01 -7.694185294884171578e-01 4.209063929461135389e-01 8.506142696504794334e-05
-1.039206046519392190e+00 -8.564643789556665443e-02 -2.350995872413572108e-01 -1.464455366076463871e+00 -9.896221794743738451e-04 -5.439867978851510300e-01 -4.369590197857941005e-01 -6.476230408404339833e-01 5.600000874612962587e-01 8.931054372145925957e-04
-1.066813861044044964e+00 -1.092526324667057736e-01 -2.618659311102974896e-01 -1.430914591635862765e+00 -9.149992728229119389e-04 -5.521562904930574778e-01 -4.721238914227822159e-01 -5.353268773788052437e-01 6.708154888120203552e-01 1.492458133029238559e-03
-1.094834843652793710e+00 -1.342107489060663239e-01 -2.835595940172206397e-01 -1.393086274933631463e+00 -8.261098586163768921e-04 -5.604196521749760240e-01 -4.991623287872110626e-01 -4.338732581384628362e-01 7.565663340446280305e-01 1.777788284130700286e-03
-1.123263148609111806e+00 -1.601722621462954854e-01 -3.007389593655935278e-01 -1.352034208740090060e+00 -7.357461070237663811e-04 -5.685660991263601360e-01 -5.192302648045833413e-01 -3.435873069674582059e-01 8.210413238708287320e-01 1.807275031852211087e-03
-1.152089893813912802e+00 -1.868468683554092569e-01 -3.139481853498414243e-01 -1.308638832008028885e+00 -6.529174935986206728e-04 -5.765349040960183746e-01 -5.334921241822754290e-01 -2.641845196849577637e-01 8.679075346412252756e-01 1.656572268502913949e-03
-1.181308577897160594e+00 -2.140001340854393308e-01 -3.237006341708516532e-01 -1.263608529131760694e+00 -5.831798556544509063e-04 -5.843736816649538479e-01 -5.430653146006017007e-01 -1.950489764202041343e-01 9.006060575253658218e-01 1.394752758883395982e-03
-1.210918642272056145e+00 -2.414489995447024751e-01 -3.304725801642263150e-01 -1.217494681804502932e+00 -5.293610706673726723e-04 -5.922012874979131203e-01 -5.489773091852627740e-01 -1.354389198674935679e-01 9.222769465451564619e-01 1.076375699741564896e-03
-1.240927472249939933e+00 -2.690552717750063216e-01 -3.347047912238891310e-01 -1.170710589152679670e+00 -4.924558014148373115e-04 -6.001765995576767709e-01 -5.521254446060767096e-01 -8.464422119325673566e-02 9.356818530364632291e-01 7.381053850507069986e-04
-1.271351312232948949e+00 -2.967184215609399156e-01 -3.368081531966244935e-01 -1.123550664908687713e+00 -4.726275750660728181e-04 -6.084767996601814222e-01 -5.532629957186716574e-01 -4.206723945470765280e-02 9.431984848798383725e-01 3.965645269752901938e-04
-1.302215464609201678e+00 -3.243684751831752977e-01 -3.371705096383594835e-01 -1.076208029510119069e+00 -4.710377564104385674e-04 -6.172830475250550286e-01 -5.530010724447074200e-01 -7.247128834699849420e-03 9.468527079713736638e-01 3.179637311268512182e-05
-1.333554017682081261e+00 -3.519594780610781348e-01 -3.361640307484138335e-01 -1.028788978524022513e+00 -4.952024768036142029e-04 -6.267710614575898731e-01 -5.518200575580571865e-01 2.012957779891265397e-02 9.483810197219292304e-01 -4.832944078635118424e-04
-1.365409264891217722e+00 -3.794638578468072510e-01 -3.341527853946856252e-01 -9.813233805612261440e-01 -5.788079149582322017e-04 -6.371049441827272286e-01 -5.500875957145817674e-01 4.022490707456413683e-02 9.493119592559273734e-01 -1.672108763092359325e-03
