5.854788266080798165e-01 8.095364195335003066e-02 3.499945485515887911e-01
5.854788266080798165e-01 8.095364195335003066e-02 3.499945485515887911e-01
5.854788266080798165e-01 8.095364195335003066e-02 3.499945485515887911e-01
5.854788266080798165e-01 8.095364195335003066e-02 3.499945485515887911e-01
5.854788266080798165e-01 8.095364195335003066e-02 3.499945485515887911e-01
5.854788266080798165e-01 8.095364195335003066e-02 3.499945485515887911e-01
5.854788266080798165e-01 8.095364195335003066e-02 3.499945485515887911e-01
5.854788266080798165e-01 8.095364195335003066e-02 3.499945485515887911e-01
5.854788266080798165e-01 8.095364195335003066e-02 3.499945485515887911e-01
5.854788266080798165e-01 8.095364195335003066e-02 3.499945485515887911e-01
5.854788266080798165e-01 8.095364195335003066e-02 3.499945485515887911e-01
5.854788266080798165e-01 8.095364195335003066e-02 3.499945485515887911e-01
5.854788266080798165e-01 8.095364195335003066e-02 3.499945485515887911e-01
5.854788266080798165e-01 8.095364195335003066e-02 3.499945485515887911e-01
5.854788266080798165e-01 8.095364195335003066e-02 3.499945485515887911e-01
5.854788266080798165e-01 8.095364195335003066e-02 3.499945485515887911e-01
5.854788266080798165e-01 8.095364195335003066e-02 3.499945485515887911e-01
5.854788266080798165e-01 8.095364195335003066e-02 3.499945485515887911e-01
5.854788266080798165e-01 8.095364195335003066e-02 3.499945485515887911e-01
5.854788266080798165e-01 8.095364195335003066e-02 3.499945485515887911e-01
5.854788266080798165e-01 8.095364195335003066e-02 3.499945485515887911e-01
5.854788266080798165e-01 8.095364195335003066e-02 3.499945485515887911e-01
5.854788266080798165e-01 8.095364195335003066e-02 3.499945485515887911e-01
5.854788266080798165e-01 8.095364195335003066e-02 3.499945485515887911e-01
5.854788266080798165e-01 8.095364195335003066e-02 3.499945485515887911e-01
5.854788266080798165e-01 8.095364195335003066e-02 3.499945485515887911e-01
5.854788266080798165e-01 8.095364195335003066e-02 3.499945485515887911e-01
5.854788266080798165e-01 8.095364195335003066e-02 3.499945485515887911e-01
5.854788266080798165e-01 8.095364195335003066e-02 3.499945485515887911e-01
5.854788266080798165e-01 8.095364195335003066e-02 3.499945485515887911e-01
