-9.341861420423512863e-01 -3.216060388305392870e-01 -4.631864949566227851e-01 -1.976598089493350363e+00 4.572333081856415349e-04 -3.573935962202550720e-01 -4.879060674708681211e-01 -3.423659082297189626e-01 6.617515869367592840e-01 2.652794420694005225e-03
-9.524177116080334571e-01 -3.458595018323144532e-01 -4.803791340276222233e-01 -1.943124513988411017e+00 6.832423455229493653e-04 0.000000000000000000e+00 0.000000000000000000e+00 0.000000000000000000e+00 0.000000000000000000e+00 0.000000000000000000e+00
-9.524177116080334571e-01 -3.458595018323144532e-01 -4.803791340276222233e-01 -1.943124513988411017e+00 6.832423455229493653e-04 0.000000000000000000e+00 0.000000000000000000e+00 0.000000000000000000e+00 0.000000000000000000e+00 0.000000000000000000e+00
-9.524177116080334571e-01 -3.458595018323144532e-01 -4.803791340276222233e-01 -1.943124513988411017e+00 6.832423455229493653e-04 0.000000000000000000e+00 0.000000000000000000e+00 0.000000000000000000e+00 0.000000000000000000e+00 0.000000000000000000e+00
-9.524177116080334571e-01 -3.458595018323144532e-01 -4.803791340276222233e-01 -1.943124513988411017e+00 6.832423455229493653e-04 0.000000000000000000e+00 0.000000000000000000e+00 0.000000000000000000e+00 0.000000000000000000e+00 0.000000000000000000e+00
-9.524177116080334571e-01 -3.458595018323144532e-01 -4.803791340276222233e-01 -1.943124513988411017e+00 6.832423455229493653e-04 0.000000000000000000e+00 0.000000000000000000e+00 0.000000000000000000e+00 0.000000000000000000e+00 0.000000000000000000e+00
-9.524177116080334571e-01 -3.458595018323144532e-01 -4.803791340276222233e-01 -1.943124513988411017e+00 6.832423455229493653e-04 0.000000000000000000e+00 0.000000000000000000e+00 0.000000000000000000e+00 0.000000000000000000e+00 0.000000000000000000e+00
-9.524177116080334571e-01 -3.458595018323144532e-01 -4.803791340276222233e-01 -1.943124513988411017e+00 6.832423455229493653e-04 0.000000000000000000e+00 0.000000000000000000e+00 0.000000000000000000e+00 0.000000000000000000e+00 0.000000000000000000e+00
-9.524177116080334571e-01 -3.458595018323144532e-01 -4.803791340276222233e-01 -1.943124513988411017e+00 6.832423455229493653e-04 0.000000000000000000e+00 0.000000000000000000e+00 0.000000000000000000e+00 0.000000000000000000e+00 0.000000000000000000e+00
-9.524177116080334571e-01 -3.458595018323144532e-01 -4.803791340276222233e-01 -1.943124513988411017e+00 6.832423455229493653e-04 0.000000000000000000e+00 0.000000000000000000e+00 0.000000000000000000e+00 0.000000000000000000e+00 0.000000000000000000e+00
-9.524177116080334571e-01 -3.458595018323144532e-01 -4.803791340276222233e-01 -1.943124513988411017e+00 6.832423455229493653e-04 0.000000000000000000e+00 0.000000000000000000e+00 0.000000000000000000e+00 0.000000000000000000e+00 0.000000000000000000e+00
-9.524177116080334571e-01 -3.458595018323144532e-01 -4.803791340276222233e-01 -1.943124513988411017e+00 6.832423455229493653e-04 0.000000000000000000e+00 0.000000000000000000e+00 0.000000000000000000e+00 0.000000000000000000e+00 0.000000000000000000e+00
-9.524177116080334571e-01 -3.458595018323144532e-01 -4.803791340276222233e-01 -1.943124513988411017e+00 6.832423455229493653e-04 0.000000000000000000e+00 0.000000000000000000e+00 0.000000000000000000e+00 0.000000000000000000e+00 0.000000000000000000e+00
-9.524177116080334571e-01 -3.458595018323144532e-01 -4.803791340276222233e-01 -1.943124513988411017e+00 6.832423455229493653e-04 0.000000000000000000e+00 0.000000000000000000e+00 0.000000000000000000e+00 0.000000000000000000e+00 0.000000000000000000e+00
-9.524177116080334571e-01 -3.458595018323144532e-01 -4.803791340276222233e-01 -1.943124513988411017e+00 6.832423455229493653e-04 0.000000000000000000e+00 0.000000000000000000e+00 0.000000000000000000e+00 0.000000000000000000e+00 0.000000000000000000e+00
-9.524177116080334571e-01 -3.458595018323144532e-01 -4.803791340276222233e-01 -1.943124513988411017e+00 6.832423455229493653e-04 0.000000000000000000e+00 0.000000000000000000e+00 0.000000000000000000e+00 0.000000000000000000e+00 0.000000000000000000e+00
-9.524177116080334571e-01 -3.458595018323144532e-01 -4.803791340276222233e-01 -1.943124513988411017e+00 6.832423455229493653e-04 0.000000000000000000e+00 0.000000000000000000e+00 0.000000000000000000e+00 0.000000000000000000e+00 0.000000000000000000e+00
-9.524177116080334571e-01 -3.458595018323144532e-01 -4.803791340276222233e-01 -1.943124513988411017e+00 6.832423455229493653e-04 0.000000000000000000e+00 0.000000000000000000e+00 0.000000000000000000e+00 0.000000000000000000e+00 0.000000000000000000e+00
-9.524177116080334571e-01 -3.458595018323144532e-01 -4.803791340276222233e-01 -1.943124513988411017e+00 6.832423455229493653e-04 0.000000000000000000e+00 0.000000000000000000e+00 0.000000000000000000e+00 0.000000000000000000e+00 0.000000000000000000e+00
-9.524177116080334571e-01 -3.458595018323144532e-01 -4.803791340276222233e-01 -1.943124513988411017e+00 6.832423455229493653e-04 0.000000000000000000e+00 0.000000000000000000e+00 0.000000000000000000e+00 0.000000000000000000e+00 0.000000000000000000e+00
-9.524177116080334571e-01 -3.458595018323144532e-01 -4.803791340276222233e-01 -1.943124513988411017e+00 6.832423455229493653e-04 0.000000000000000000e+00 0.000000000000000000e+00 0.000000000000000000e+00 0.000000000000000000e+00 0.000000000000000000e+00
-9.524177116080334571e-01 -3.458595018323144532e-01 -4.803791340276222233e-01 -1.943124513988411017e+00 6.832423455229493653e-04 0.000000000000000000e+00 0.000000000000000000e+00 0.000000000000000000e+00 0.000000000000000000e+00 0.000000000000000000e+00
-9.524177116080334571e-01 -3.458595018323144532e-01 -4.803791340276222233e-01 -1.943124513988411017e+00 6.832423455229493653e-04 0.000000000000000000e+00 0.000000000000000000e+00 0.000000000000000000e+00 0.000000000000000000e+00 0.000000000000000000e+00
-9.524177116080334571e-01 -3.458595018323144532e-01 -4.803791340276222233e-01 -1.943124513988411017e+00 6.832423455229493653e-04 0.000000000000000000e+00 0.000000000000000000e+00 0.000000000000000000e+00 0.000000000000000000e+00 0.000000000000000000e+00
-9.524177116080334571e-01 -3.458595018323144532e-01 -4.803791340276222233e-01 -1.943124513988411017e+00 6.832423455229493653e-04 0.000000000000000000e+00 0.000000000000000000e+00 0.000000000000000000e+00 0.000000000000000000e+00 0.000000000000000000e+00
-9.524177116080334571e-01 -3.458595018323144532e-01 -4.803791340276222233e-01 -1.943124513988411017e+00 6.832423455229493653e-04 0.000000000000000000e+00 0.000000000000000000e+00 0.000000000000000000e+00 0.000000000000000000e+00 0.000000000000000000e+00
-9.524177116080334571e-01 -3.458595018323144532e-01 -4.803791340276222233e-01 -1.943124513988411017e+00 6.832423455229493653e-04 0.000000000000000000e+00 0.000000000000000000e+00 0.000000000000000000e+00 0.000000000000000000e+00 0.000000000000000000e+00
-9.524177116080334571e-01 -3.458595018323144532e-01 -4.803791340276222233e-01 -1.943124513988411017e+00 6.832423455229493653e-04 0.000000000000000000e+00 0.000000000000000000e+00 0.000000000000000000e+00 0.000000000000000000e+00 0.000000000000000000e+00
-9.524177116080334571e-01 -3.458595018323144532e-01 -4.803791340276222233e-01 -1.943124513988411017e+00 6.832423455229493653e-04 0.000000000000000000e+00 0.000000000000000000e+00 0.000000000000000000e+00 0.000000000000000000e+00 0.000000000000000000e+00
-9.524177116080334571e-01 -3.458595018323144532e-01 -4.803791340276222233e-01 -1.943124513988411017e+00 6.832423455229493653e-04 0.000000000000000000e+00 0.000000000000000000e+00 0.000000000000000000e+00 0.000000000000000000e+00 0.000000000000000000e+00
-9.524177116080334571e-01 -3.458595018323144532e-01 -4.803791340276222233e-01 -1.943124513988411017e+00 6.832423455229493653e-04 0.000000000000000000e+00 0.000000000000000000e+00 0.000000000000000000e+00 0.000000000000000000e+00 0.000000000000000000e+00
