5.149663041150805975e-01 -9.393540928969230652e-01 1.176542756596147044e+00 -4.900195171743513822e-01 8.244371929899225668e-04 2.051107982191459733e+00 -3.907188010393147781e-01 9.563520121717927758e-01 1.753047469997054630e+00 7.756062621749351856e-03
6.209221316676671876e-01 -9.556449390937618027e-01 1.226276951785362668e+00 -4.016143129016000457e-01 1.003128189850673643e-03 0.000000000000000000e+00 0.000000000000000000e+00 0.000000000000000000e+00 0.000000000000000000e+00 0.000000000000000000e+00
6.209221316676671876e-01 -9.556449390937618027e-01 1.226276951785362668e+00 -4.016143129016000457e-01 1.003128189850673643e-03 0.000000000000000000e+00 0.000000000000000000e+00 0.000000000000000000e+00 0.000000000000000000e+00 0.000000000000000000e+00
6.209221316676671876e-01 -9.556449390937618027e-01 1.226276951785362668e+00 -4.016143129016000457e-01 1.003128189850673643e-03 0.000000000000000000e+00 0.000000000000000000e+00 0.000000000000000000e+00 0.000000000000000000e+00 0.000000000000000000e+00
6.209221316676671876e-01 -9.556449390937618027e-01 1.226276951785362668e+00 -4.016143129016000457e-01 1.003128189850673643e-03 0.000000000000000000e+00 0.000000000000000000e+00 0.000000000000000000e+00 0.000000000000000000e+00 0.000000000000000000e+00
6.209221316676671876e-01 -9.556449390937618027e-01 1.226276951785362668e+00 -4.016143129016000457e-01 1.003128189850673643e-03 0.000000000000000000e+00 0.000000000000000000e+00 0.000000000000000000e+00 0.000000000000000000e+00 0.000000000000000000e+00
6.209221316676671876e-01 -9.556449390937618027e-01 1.226276951785362668e+00 -4.016143129016000457e-01 1.003128189850673643e-03 0.000000000000000000e+00 0.000000000000000000e+00 0.000000000000000000e+00 0.000000000000000000e+00 0.000000000000000000e+00
6.209221316676671876e-01 -9.556449390937618027e-01 1.226276951785362668e+00 -4.016143129016000457e-01 1.003128189850673643e-03 0.000000000000000000e+00 0.000000000000000000e+00 0.000000000000000000e+00 0.000000000000000000e+00 0.000000000000000000e+00
6.209221316676671876e-01 -9.556449390937618027e-01 1.226276951785362668e+00 -4.016143129016000457e-01 1.003128189850673643e-03 0.000000000000000000e+00 0.000000000000000000e+00 0.000000000000000000e+00 0.000000000000000000e+00 0.000000000000000000e+00
6.209221316676671876e-01 -9.556449390937618027e-01 1.226276951785362668e+00 -4.016143129016000457e-01 1.003128189850673643e-03 0.000000000000000000e+00 0.000000000000000000e+00 0.000000000000000000e+00 0.000000000000000000e+00 0.000000000000000000e+00
6.209221316676671876e-01 -9.556449390937618027e-01 1.226276951785362668e+00 -4.016143129016000457e-01 1.003128189850673643e-03 0.000000000000000000e+00 0.000000000000000000e+00 0.000000000000000000e+00 0.000000000000000000e+00 0.000000000000000000e+00
6.209221316676671876e-01 -9.556449390937618027e-01 1.226276951785362668e+00 -4.016143129016000457e-01 1.003128189850673643e-03 0.000000000000000000e+00 0.000000000000000000e+00 0.000000000000000000e+00 0.000000000000000000e+00 0.000000000000000000e+00
6.209221316676671876e-01 -9.556449390937618027e-01 1.226276951785362668e+00 -4.016143129016000457e-01 1.003128189850673643e-03 0.000000000000000000e+00 0.000000000000000000e+00 0.000000000000000000e+00 0.000000000000000000e+00 0.000000000000000000e+00
6.209221316676671876e-01 -9.556449390937618027e-01 1.226276951785362668e+00 -4.016143129016000457e-01 1.003128189850673643e-03 0.000000000000000000e+00 0.000000000000000000e+00 0.000000000000000000e+00 0.000000000000000000e+00 0.000000000000000000e+00
6.209221316676671876e-01 -9.556449390937618027e-01 1.226276951785362668e+00 -4.016143129016000457e-01 1.003128189850673643e-03 0.000000000000000000e+00 0.000000000000000000e+00 0.000000000000000000e+00 0.000000000000000000e+00 0.000000000000000000e+00
6.209221316676671876e-01 -9.556449390937618027e-01 1.226276951785362668e+00 -4.016143129016000457e-01 1.003128189850673643e-03 0.000000000000000000e+00 0.000000000000000000e+00 0.000000000000000000e+00 0.000000000000000000e+00 0.000000000000000000e+00
6.209221316676671876e-01 -9.556449390937618027e-01 1.226276951785362668e+00 -4.016143129016000457e-01 1.003128189850673643e-03 0.000000000000000000e+00 0.000000000000000000e+00 0.000000000000000000e+00 0.000000000000000000e+00 0.000000000000000000e+00
6.209221316676671876e-01 -9.556449390937618027e-01 1.226276951785362668e+00 -4.016143129016000457e-01 1.003128189850673643e-03 0.000000000000000000e+00 0.000000000000000000e+00 0.000000000000000000e+00 0.000000000000000000e+00 0.000000000000000000e+00
6.209221316676671876e-01 -9.556449390937618027e-01 1.226276951785362668e+00 -4.016143129016000457e-01 1.003128189850673643e-03 0.000000000000000000e+00 0.000000000000000000e+00 0.000000000000000000e+00 0.000000000000000000e+00 0.000000000000000000e+00
6.209221316676671876e-01 -9.556449390937618027e-01 1.226276951785362668e+00 -4.016143129016000457e-01 1.003128189850673643e-03 0.000000000000000000e+00 0.000000000000000000e+00 0.000000000000000000e+00 0.000000000000000000e+00 0.000000000000000000e+00
6.209221316676671876e-01 -9.556449390937618027e-01 1.226276951785362668e+00 -4.016143129016000457e-01 1.003128189850673643e-03 0.000000000000000000e+00 0.000000000000000000e+00 0.000000000000000000e+00 0.000000000000000000e+00 0.000000000000000000e+00
6.209221316676671876e-01 -9.556449390937618027e-01 1.226276951785362668e+00 -4.016143129016000457e-01 1.003128189850673643e-03 0.000000000000000000e+00 0.000000000000000000e+00 0.000000000000000000e+00 0.000000000000000000e+00 0.000000000000000000e+00
6.209221316676671876e-01 -9.556449390937618027e-01 1.226276951785362668e+00 -4.016143129016000457e-01 1.003128189850673643e-03 0.000000000000000000e+00 0.000000000000000000e+00 0.000000000000000000e+00 0.000000000000000000e+00 0.000000000000000000e+00
6.209221316676671876e-01 -9.556449390937618027e-01 1.226276951785362668e+00 -4.016143129016000457e-01 1.003128189850673643e-03 0.000000000000000000e+00 0.000000000000000000e+00 0.000000000000000000e+00 0.000000000000000000e+00 0.000000000000000000e+00
6.209221316676671876e-01 -9.556449390937618027e-01 1.226276951785362668e+00 -4.016143129016000457e-01 1.003128189850673643e-03 0.000000000000000000e+00 0.000000000000000000e+00 0.000000000000000000e+00 0.000000000000000000e+00 0.000000000000000000e+00
6.209221316676671876e-01 -9.556449390937618027e-01 1.226276951785362668e+00 -4.016143129016000457e-01 1.003128189850673643e-03 0.000000000000000000e+00 0.000000000000000000e+00 0.000000000000000000e+00 0.000000000000000000e+00 0.000000000000000000e+00
6.209221316676671876e-01 -9.556449390937618027e-01 1.226276951785362668e+00 -4.016143129016000457e-01 1.003128189850673643e-03 0.000000000000000000e+00 0.000000000000000000e+00 0.000000000000000000e+00 0.000000000000000000e+00 0.000000000000000000e+00
6.209221316676671876e-01 -9.556449390937618027e-01 1.226276951785362668e+00 -4.016143129016000457e-01 1.003128189850673643e-03 0.000000000000000000e+00 0.000000000000000000e+00 0.000000000000000000e+00 0.000000000000000000e+00 0.000000000000000000e+00
6.209221316676671876e-01 -9.556449390937618027e-01 1.226276951785362668e+00 -4.016143129016000457e-01 1.003128189850673643e-03 0.000000000000000000e+00 0.000000000000000000e+00 0.000000000000000000e+00 0.000000000000000000e+00 0.000000000000000000e+00
6.209221316676671876e-01 -9.556449390937618027e-01 1.226276951785362668e+00 -4.016143129016000457e-01 1.003128189850673643e-03 0.000000000000000000e+00 0.000000000000000000e+00 0.000000000000000000e+00 0.000000000000000000e+00 0.000000000000000000e+00
6.209221316676671876e-01 -9.556449390937618027e-01 1.226276951785362668e+00 -4.016143129016000457e-01 1.003128189850673643e-03 0.000000000000000000e+00 0.000000000000000000e+00 0.000000000000000000e+00 0.000000000000000000e+00 0.000000000000000000e+00
