-1.126486100505556864e+00 -1.695037428759017528e-01 4.896705374399354938e-01 -1.580871287439535644e+00 6.496296284839004308e-04 -1.314284173900702068e+00 -3.131039965583610196e-01 -1.605443242288963734e+00 -1.735139677554761395e+00 -5.141742835021687573e-03
-1.193802603570252696e+00 -1.873464233908777310e-01 4.035588841213629818e-01 -1.656126650547455670e+00 2.938732041487178924e-04 -1.346330061293914859e+00 -3.568536102995193970e-01 -1.722233066371449794e+00 -1.505107262158399184e+00 -7.115128486703651417e-03
-1.262373776540483217e+00 -2.071691571663941134e-01 3.123940979147921126e-01 -1.717797971668997281e+00 -1.061839114335329042e-04 -1.371423459404609746e+00 -3.964546755103273701e-01 -1.823295724131417384e+00 -1.233426422430834002e+00 -8.001142311645014632e-03
-1.331925911947749341e+00 -2.288171423158041617e-01 2.176506210860310597e-01 -1.764302161812252967e+00 -4.882159852327966733e-04 -1.391042708145320939e+00 -4.329597029882009118e-01 -1.894869536575221280e+00 -9.300838028651154943e-01 -7.640641475985275599e-03
-1.402312060112265835e+00 -2.521805951253448530e-01 1.212962659403518662e-01 -1.794678181573013953e+00 -7.943342054718843543e-04 -1.407722963290331419e+00 -4.672690561908131590e-01 -1.927087102913583649e+00 -6.075203952152201659e-01 -6.122364404781751451e-03
-1.473542697892095799e+00 -2.771514253453208898e-01 2.548170955604203702e-02 -1.808663194673598928e+00 -9.832774578244520263e-04 -1.424612755596599944e+00 -4.994166043995202919e-01 -1.916291127686196250e+00 -2.797002620117014504e-01 -3.778865047051353874e-03
-1.545779066849833683e+00 -3.035615236723925858e-01 -6.781117447280354815e-02 -1.806695989140430614e+00 -1.046762195463129532e-03 -1.444727379154758129e+00 -5.282019665414342535e-01 -1.865857680576911592e+00 3.934411066336790386e-02 -1.269694752773552291e-03
-1.619290206939421495e+00 -3.311308525339254349e-01 -1.570645284586587032e-01 -1.789833380639905602e+00 -1.050778213427650161e-03 -1.470222801791758016e+00 -5.513865772306572044e-01 -1.785067079717103322e+00 3.372521700105000630e-01 -8.032035929041473829e-05
-1.694391083847189172e+00 -3.594460571783152925e-01 -2.413858030427183388e-01 -1.759595001207388210e+00 -1.023991895422699232e-03 -1.502017538155355547e+00 -5.663040928877968172e-01 -1.686425491681192934e+00 6.047675886503491860e-01 5.357263600990195456e-04
-1.771383847699282699e+00 -3.879753334133456688e-01 -3.205133111807900725e-01 -1.717764352096558866e+00 -9.547923266641641319e-04 -1.539855277041868531e+00 -5.705855247006077491e-01 -1.582550162761435342e+00 8.366129822165846441e-01 1.383991375170702878e-03
-1.850516648011696796e+00 -4.161088916482328925e-01 -3.946999010254123030e-01 -1.666185626781311546e+00 -8.371885218399003877e-04 -1.582656006248283065e+00 -5.626711646977448078e-01 -1.483731796892444610e+00 1.031574506304947514e+00 2.352076096485274884e-03
-1.931962654052496564e+00 -4.432071805832136224e-01 -4.645386818112843819e-01 -1.606596210755013132e+00 -6.990700688039039670e-04 -1.628920120815993577e+00 -5.419657786996148197e-01 -1.396775615717441577e+00 1.191788320525966505e+00 2.762369060719929714e-03
-2.015813201888006390e+00 -4.686445114533565048e-01 -5.307880613999226282e-01 -1.540509669539753768e+00 -5.722593275043950066e-04 -1.677010956710196066e+00 -5.087466174028575372e-01 -1.324987591772764484e+00 1.321730824305185514e+00 2.536214825990178341e-03
-2.102078012512382799e+00 -4.918421747944377587e-01 -5.942313764694455713e-01 -1.469150122486743149e+00 -4.841985525546296841e-04 -1.725296212487527736e+00 -4.639532668216245770e-01 -1.268866301390458418e+00 1.427190941060210383e+00 1.761215498995305582e-03
-2.190687651621426202e+00 -5.122928765909652293e-01 -6.555802857104642278e-01 -1.393419303311148827e+00 -4.554879882607533676e-04 -1.772192782180864956e+00 -4.090140359305504125e-01 -1.226978184820372464e+00 1.514616383511885100e+00 5.742112858775258975e-04
-2.281496913056817899e+00 -5.295779896491719096e-01 -7.154203774223493184e-01 -1.313885612451719309e+00 -4.990405312516295669e-04 -1.816185228707832611e+00 -3.457022611641337173e-01 -1.196801834237702700e+00 1.590673817188588579e+00 -8.710508598175242031e-04
-2.374289392402696208e+00 -5.433778969344906784e-01 -7.741928573676810643e-01 -1.230793696302758589e+00 -6.188408691482079988e-04 0.000000000000000000e+00 0.000000000000000000e+00 0.000000000000000000e+00 0.000000000000000000e+00 0.000000000000000000e+00
-2.374289392402696208e+00 -5.433778969344906784e-01 -7.741928573676810643e-01 -1.230793696302758589e+00 -6.188408691482079988e-04 0.000000000000000000e+00 0.000000000000000000e+00 0.000000000000000000e+00 0.000000000000000000e+00 0.000000000000000000e+00
-2.374289392402696208e+00 -5.433778969344906784e-01 -7.741928573676810643e-01 -1.230793696302758589e+00 -6.188408691482079988e-04 0.000000000000000000e+00 0.000000000000000000e+00 0.000000000000000000e+00 0.000000000000000000e+00 0.000000000000000000e+00
-2.374289392402696208e+00 -5.433778969344906784e-01 -7.741928573676810643e-01 -1.230793696302758589e+00 -6.188408691482079988e-04 0.000000000000000000e+00 0.000000000000000000e+00 0.000000000000000000e+00 0.000000000000000000e+00 0.000000000000000000e+00
-2.374289392402696208e+00 -5.433778969344906784e-01 -7.741928573676810643e-01 -1.230793696302758589e+00 -6.188408691482079988e-04 0.000000000000000000e+00 0.000000000000000000e+00 0.000000000000000000e+00 0.000000000000000000e+00 0.000000000000000000e+00
-2.374289392402696208e+00 -5.433778969344906784e-01 -7.741928573676810643e-01 -1.230793696302758589e+00 -6.188408691482079988e-04 0.000000000000000000e+00 0.000000000000000000e+00 0.000000000000000000e+00 0.000000000000000000e+00 0.000000000000000000e+00
-2.374289392402696208e+00 -5.433778969344906784e-01 -7.741928573676810643e-01 -1.230793696302758589e+00 -6.188408691482079988e-04 0.000000000000000000e+00 0.000000000000000000e+00 0.000000000000000000e+00 0.000000000000000000e+00 0.000000000000000000e+00
-2.374289392402696208e+00 -5.433778969344906784e-01 -7.741928573676810643e-01 -1.230793696302758589e+00 -6.188408691482079988e-04 0.000000000000000000e+00 0.000000000000000000e+00 0.000000000000000000e+00 0.000000000000000000e+00 0.000000000000000000e+00
-2.374289392402696208e+00 -5.433778969344906784e-01 -7.741928573676810643e-01 -1.230793696302758589e+00 -6.188408691482079988e-04 0.000000000000000000e+00 0.000000000000000000e+00 0.000000000000000000e+00 0.000000000000000000e+00 0.000000000000000000e+00
-2.374289392402696208e+00 -5.433778969344906784e-01 -7.741928573676810643e-01 -1.230793696302758589e+00 -6.188408691482079988e-04 0.000000000000000000e+00 0.000000000000000000e+00 0.000000000000000000e+00 0.000000000000000000e+00 0.000000000000000000e+00
-2.374289392402696208e+00 -5.433778969344906784e-01 -7.741928573676810643e-01 -1.230793696302758589e+00 -6.188408691482079988e-04 0.000000000000000000e+00 0.000000000000000000e+00 0.000000000000000000e+00 0.000000000000000000e+00 0.000000000000000000e+00
-2.374289392402696208e+00 -5.433778969344906784e-01 -7.741928573676810643e-01 -1.230793696302758589e+00 -6.188408691482079988e-04 0.000000000000000000e+00 0.000000000000000000e+00 0.000000000000000000e+00 0.000000000000000000e+00 0.000000000000000000e+00
-2.374289392402696208e+00 -5.433778969344906784e-01 -7.741928573676810643e-01 -1.230793696302758589e+00 -6.188408691482079988e-04 0.000000000000000000e+00 0.000000000000000000e+00 0.000000000000000000e+00 0.000000000000000000e+00 0.000000000000000000e+00
-2.374289392402696208e+00 -5.433778969344906784e-01 -7.741928573676810643e-01 -1.230793696302758589e+00 -6.188408691482079988e-04 0.000000000000000000e+00 0.000000000000000000e+00 0.000000000000000000e+00 0.000000000000000000e+00 0.000000000000000000e+00
-2.374289392402696208e+00 -5.433778969344906784e-01 -7.741928573676810643e-01 -1.230793696302758589e+00 -6.188408691482079988e-04 0.000000000000000000e+00 0.000000000000000000e+00 0.000000000000000000e+00 0.000000000000000000e+00 0.000000000000000000e+00
