1.193337659326960898e+00 -9.631036418116963871e-01 1.469695409010111087e+00 -1.038790490383731724e+00 -2.002274833882444500e-04 3.186886903805909110e+00 1.772562459231249166e-01 1.987966439168020738e+00 1.720265939914566777e+00 6.729406802117745764e-03
1.350472156779291666e+00 -9.441760937903861395e-01 1.563279715685971016e+00 -9.477777433981746658e-01 2.055098118964517485e-04 3.142689949046615805e+00 3.785509604262058403e-01 1.871686133517198813e+00 1.820254939711142050e+00 8.114745905693923969e-03
1.503549274961959004e+00 -9.158759679664513209e-01 1.649548149260116725e+00 -8.509874354874666924e-01 6.440387881737560678e-04 3.061542363653348975e+00 5.660025164786960383e-01 1.725368671482916172e+00 1.935806158214158801e+00 8.770579525546084651e-03
1.651387318017047967e+00 -8.791593279501633829e-01 1.728062664029524464e+00 -7.479816239659189403e-01 1.019892658406848247e-03 2.956760861101779714e+00 7.343328003257589831e-01 1.570290295388155677e+00 2.060116230430955486e+00 7.517077404661843577e-03
1.793487246440326865e+00 -8.351265340109988999e-01 1.799523407978258938e+00 -6.387188201975111390e-01 1.001378256952665125e-03 0.000000000000000000e+00 0.000000000000000000e+00 0.000000000000000000e+00 0.000000000000000000e+00 0.000000000000000000e+00
1.793487246440326865e+00 -8.351265340109988999e-01 1.799523407978258938e+00 -6.387188201975111390e-01 1.001378256952665125e-03 0.000000000000000000e+00 0.000000000000000000e+00 0.000000000000000000e+00 0.000000000000000000e+00 0.000000000000000000e+00
1.793487246440326865e+00 -8.351265340109988999e-01 1.799523407978258938e+00 -6.387188201975111390e-01 1.001378256952665125e-03 0.000000000000000000e+00 0.000000000000000000e+00 0.000000000000000000e+00 0.000000000000000000e+00 0.000000000000000000e+00
1.793487246440326865e+00 -8.351265340109988999e-01 1.799523407978258938e+00 -6.387188201975111390e-01 1.001378256952665125e-03 0.000000000000000000e+00 0.000000000000000000e+00 0.000000000000000000e+00 0.000000000000000000e+00 0.000000000000000000e+00
1.793487246440326865e+00 -8.351265340109988999e-01 1.799523407978258938e+00 -6.387188201975111390e-01 1.001378256952665125e-03 0.000000000000000000e+00 0.000000000000000000e+00 0.000000000000000000e+00 0.000000000000000000e+00 0.000000000000000000e+00
1.793487246440326865e+00 -8.351265340109988999e-01 1.799523407978258938e+00 -6.387188201975111390e-01 1.001378256952665125e-03 0.000000000000000000e+00 0.000000000000000000e+00 0.000000000000000000e+00 0.000000000000000000e+00 0.000000000000000000e+00
1.793487246440326865e+00 -8.351265340109988999e-01 1.799523407978258938e+00 -6.387188201975111390e-01 1.001378256952665125e-03 0.000000000000000000e+00 0.000000000000000000e+00 0.000000000000000000e+00 0.000000000000000000e+00 0.000000000000000000e+00
1.793487246440326865e+00 -8.351265340109988999e-01 1.799523407978258938e+00 -6.387188201975111390e-01 1.001378256952665125e-03 0.000000000000000000e+00 0.000000000000000000e+00 0.000000000000000000e+00 0.000000000000000000e+00 0.000000000000000000e+00
1.793487246440326865e+00 -8.351265340109988999e-01 1.799523407978258938e+00 -6.387188201975111390e-01 1.001378256952665125e-03 0.000000000000000000e+00 0.000000000000000000e+00 0.000000000000000000e+00 0.000000000000000000e+00 0.000000000000000000e+00
1.793487246440326865e+00 -8.351265340109988999e-01 1.799523407978258938e+00 -6.387188201975111390e-01 1.001378256952665125e-03 0.000000000000000000e+00 0.000000000000000000e+00 0.000000000000000000e+00 0.000000000000000000e+00 0.000000000000000000e+00
1.793487246440326865e+00 -8.351265340109988999e-01 1.799523407978258938e+00 -6.387188201975111390e-01 1.001378256952665125e-03 0.000000000000000000e+00 0.000000000000000000e+00 0.000000000000000000e+00 0.000000000000000000e+00 0.000000000000000000e+00
1.793487246440326865e+00 -8.351265340109988999e-01 1.799523407978258938e+00 -6.387188201975111390e-01 1.001378256952665125e-03 0.000000000000000000e+00 0.000000000000000000e+00 0.000000000000000000e+00 0.000000000000000000e+00 0.000000000000000000e+00
1.793487246440326865e+00 -8.351265340109988999e-01 1.799523407978258938e+00 -6.387188201975111390e-01 1.001378256952665125e-03 0.000000000000000000e+00 0.000000000000000000e+00 0.000000000000000000e+00 0.000000000000000000e+00 0.000000000000000000e+00
1.793487246440326865e+00 -8.351265340109988999e-01 1.799523407978258938e+00 -6.387188201975111390e-01 1.001378256952665125e-03 0.000000000000000000e+00 0.000000000000000000e+00 0.000000000000000000e+00 0.000000000000000000e+00 0.000000000000000000e+00
1.793487246440326865e+00 -8.351265340109988999e-01 1.799523407978258938e+00 -6.387188201975111390e-01 1.001378256952665125e-03 0.000000000000000000e+00 0.000000000000000000e+00 0.000000000000000000e+00 0.000000000000000000e+00 0.000000000000000000e+00
1.793487246440326865e+00 -8.351265340109988999e-01 1.799523407978258938e+00 -6.387188201975111390e-01 1.001378256952665125e-03 0.000000000000000000e+00 0.000000000000000000e+00 0.000000000000000000e+00 0.000000000000000000e+00 0.000000000000000000e+00
1.793487246440326865e+00 -8.351265340109988999e-01 1.799523407978258938e+00 -6.387188201975111390e-01 1.001378256952665125e-03 0.000000000000000000e+00 0.000000000000000000e+00 0.000000000000000000e+00 0.000000000000000000e+00 0.000000000000000000e+00
1.793487246440326865e+00 -8.351265340109988999e-01 1.799523407978258938e+00 -6.387188201975111390e-01 1.001378256952665125e-03 0.000000000000000000e+00 0.000000000000000000e+00 0.000000000000000000e+00 0.000000000000000000e+00 0.000000000000000000e+00
1.793487246440326865e+00 -8.351265340109988999e-01 1.799523407978258938e+00 -6.387188201975111390e-01 1.001378256952665125e-03 0.000000000000000000e+00 0.000000000000000000e+00 0.000000000000000000e+00 0.000000000000000000e+00 0.000000000000000000e+00
1.793487246440326865e+00 -8.351265340109988999e-01 1.799523407978258938e+00 -6.387188201975111390e-01 1.001378256952665125e-03 0.000000000000000000e+00 0.000000000000000000e+00 0.000000000000000000e+00 0.000000000000000000e+00 0.000000000000000000e+00
1.793487246440326865e+00 -8.351265340109988999e-01 1.799523407978258938e+00 -6.387188201975111390e-01 1.001378256952665125e-03 0.000000000000000000e+00 0.000000000000000000e+00 0.000000000000000000e+00 0.000000000000000000e+00 0.000000000000000000e+00
1.793487246440326865e+00 -8.351265340109988999e-01 1.799523407978258938e+00 -6.387188201975111390e-01 1.001378256952665125e-03 0.000000000000000000e+00 0.000000000000000000e+00 0.000000000000000000e+00 0.000000000000000000e+00 0.000000000000000000e+00
1.793487246440326865e+00 -8.351265340109988999e-01 1.799523407978258938e+00 -6.387188201975111390e-01 1.001378256952665125e-03 0.000000000000000000e+00 0.000000000000000000e+00 0.000000000000000000e+00 0.000000000000000000e+00 0.000000000000000000e+00
1.793487246440326865e+00 -8.351265340109988999e-01 1.799523407978258938e+00 -6.387188201975111390e-01 1.001378256952665125e-03 0.000000000000000000e+00 0.000000000000000000e+00 0.000000000000000000e+00 0.000000000000000000e+00 0.000000000000000000e+00
1.793487246440326865e+00 -8.351265340109988999e-01 1.799523407978258938e+00 -6.387188201975111390e-01 1.001378256952665125e-03 0.000000000000000000e+00 0.000000000000000000e+00 0.000000000000000000e+00 0.000000000000000000e+00 0.000000000000000000e+00
1.793487246440326865e+00 -8.351265340109988999e-01 1.799523407978258938e+00 -6.387188201975111390e-01 1.001378256952665125e-03 0.000000000000000000e+00 0.000000000000000000e+00 0.000000000000000000e+00 0.000000000000000000e+00 0.000000000000000000e+00
1.793487246440326865e+00 -8.351265340109988999e-01 1.799523407978258938e+00 -6.387188201975111390e-01 1.001378256952665125e-03 0.000000000000000000e+00 0.000000000000000000e+00 0.000000000000000000e+00 0.000000000000000000e+00 0.000000000000000000e+00
