-1.554759378626000776e+00 1.095199643556172414e-01 -5.283473014631863141e-01 -1.512116727764628354e+00 4.615192432640973126e-04 -9.530479509429035101e-01 -5.986745748460671201e-01 -2.043479507166325038e-01 1.570540208397804616e+00 4.617474074172262834e-03
-1.602777035831452590e+00 7.956207235823925528e-02 -5.332757749678176395e-01 -1.434926223311312476e+00 6.440836873881361502e-04 -9.603531441090363829e-01 -5.991578399475596672e-01 -9.856947009262626014e-02 1.543810089066315783e+00 3.651288882480776751e-03
-1.651058324499494079e+00 4.980132375718848009e-02 -5.336774397480170684e-01 -1.359695436073059760e+00 7.804211713714038308e-04 -9.656257733608295535e-01 -5.952149720210154760e-01 -8.033295603987772315e-03 1.504615744765054552e+00 2.726749679665354045e-03
-1.699538376000623519e+00 2.036672402541938806e-02 -5.301283008842186950e-01 -1.286761414142709059e+00 8.762554212544200645e-04 -9.696010300225870182e-01 -5.886919946353817990e-01 7.098277727596682962e-02 1.458680438607013796e+00 1.916684997660325976e-03
-1.748182169201903502e+00 -8.686189411417688522e-03 -5.230695628335618741e-01 -1.216247302108388606e+00 9.391893431045701419e-04 -9.728758640256000012e-01 -5.810582687367414900e-01 1.411747610131366404e-01 1.410282240686407951e+00 1.258678437003002849e-03
-1.796977982367946369e+00 -3.735905015563714682e-02 -5.128471421949075681e-01 -1.148117369816595179e+00 9.774602334815783462e-04 -9.759162633208581239e-01 -5.734572148843890549e-01 2.044484127730862300e-01 1.362598645835868760e+00 7.654178075401631099e-04
-1.845932013160545004e+00 -6.569741891491588659e-02 -4.997389439085999085e-01 -1.082216134666817764e+00 9.986031710216469650e-04 -9.790806158519708147e-01 -5.667673751855747399e-01 2.621639657261533030e-01 1.318024702995549413e+00 4.228587508013737862e-04
-1.895064194697064108e+00 -9.378027052169091160e-02 -4.839708211879249489e-01 -1.018295819006342029e+00 1.006091707713355123e-03 -9.826436307303840767e-01 -5.616570321355004447e-01 3.153624544134993601e-01 1.278406313209514034e+00 1.497707338341626774e-04
-1.944404933871775487e+00 -1.217115591728285540e-01 -4.657226485442932384e-01 -9.560373845922007785e-01 9.945082302103382729e-04 -9.868147834942284646e-01 -5.586257730227527363e-01 3.649634528726337090e-01 1.245168688282825231e+00 -2.316695500603371707e-04
-1.993992684069440635e+00 -1.496144645193281386e-01 -4.451247902752233365e-01 -8.950648865948420685e-01 8.741241225528656369e-04 -9.917550039533042927e-01 -5.580581069299918040e-01 4.119571653813977608e-01 1.219449959947173978e+00 -2.407682153149450985e-03
-2.043871675576380387e+00 -1.776282300492514621e-01 -4.222470585306790092e-01 -8.349547057305791720e-01 3.131413142529045849e-04 0.000000000000000000e+00 0.000000000000000000e+00 0.000000000000000000e+00 0.000000000000000000e+00 0.000000000000000000e+00
-2.043871675576380387e+00 -1.776282300492514621e-01 -4.222470585306790092e-01 -8.349547057305791720e-01 3.131413142529045849e-04 0.000000000000000000e+00 0.000000000000000000e+00 0.000000000000000000e+00 0.000000000000000000e+00 0.000000000000000000e+00
-2.043871675576380387e+00 -1.776282300492514621e-01 -4.222470585306790092e-01 -8.349547057305791720e-01 3.131413142529045849e-04 0.000000000000000000e+00 0.000000000000000000e+00 0.000000000000000000e+00 0.000000000000000000e+00 0.000000000000000000e+00
-2.043871675576380387e+00 -1.776282300492514621e-01 -4.222470585306790092e-01 -8.349547057305791720e-01 3.131413142529045849e-04 0.000000000000000000e+00 0.000000000000000000e+00 0.000000000000000000e+00 0.000000000000000000e+00 0.000000000000000000e+00
-2.043871675576380387e+00 -1.776282300492514621e-01 -4.222470585306790092e-01 -8.349547057305791720e-01 3.131413142529045849e-04 0.000000000000000000e+00 0.000000000000000000e+00 0.000000000000000000e+00 0.000000000000000000e+00 0.000000000000000000e+00
-2.043871675576380387e+00 -1.776282300492514621e-01 -4.222470585306790092e-01 -8.349547057305791720e-01 3.131413142529045849e-04 0.000000000000000000e+00 0.000000000000000000e+00 0.000000000000000000e+00 0.000000000000000000e+00 0.000000000000000000e+00
-2.043871675576380387e+00 -1.776282300492514621e-01 -4.222470585306790092e-01 -8.349547057305791720e-01 3.131413142529045849e-04 0.000000000000000000e+00 0.000000000000000000e+00 0.000000000000000000e+00 0.000000000000000000e+00 0.000000000000000000e+00
-2.043871675576380387e+00 -1.776282300492514621e-01 -4.222470585306790092e-01 -8.349547057305791720e-01 3.131413142529045849e-04 0.000000000000000000e+00 0.000000000000000000e+00 0.000000000000000000e+00 0.000000000000000000e+00 0.000000000000000000e+00
-2.043871675576380387e+00 -1.776282300492514621e-01 -4.222470585306790092e-01 -8.349547057305791720e-01 3.131413142529045849e-04 0.000000000000000000e+00 0.000000000000000000e+00 0.000000000000000000e+00 0.000000000000000000e+00 0.000000000000000000e+00
-2.043871675576380387e+00 -1.776282300492514621e-01 -4.222470585306790092e-01 -8.349547057305791720e-01 3.131413142529045849e-04 0.000000000000000000e+00 0.000000000000000000e+00 0.000000000000000000e+00 0.000000000000000000e+00 0.000000000000000000e+00
-2.043871675576380387e+00 -1.776282300492514621e-01 -4.222470585306790092e-01 -8.349547057305791720e-01 3.131413142529045849e-04 0.000000000000000000e+00 0.000000000000000000e+00 0.000000000000000000e+00 0.000000000000000000e+00 0.000000000000000000e+00
-2.043871675576380387e+00 -1.776282300492514621e-01 -4.222470585306790092e-01 -8.349547057305791720e-01 3.131413142529045849e-04 0.000000000000000000e+00 0.000000000000000000e+00 0.000000000000000000e+00 0.000000000000000000e+00 0.000000000000000000e+00
-2.043871675576380387e+00 -1.776282300492514621e-01 -4.222470585306790092e-01 -8.349547057305791720e-01 3.131413142529045849e-04 0.000000000000000000e+00 0.000000000000000000e+00 0.000000000000000000e+00 0.000000000000000000e+00 0.000000000000000000e+00
-2.043871675576380387e+00 -1.776282300492514621e-01 -4.222470585306790092e-01 -8.349547057305791720e-01 3.131413142529045849e-04 0.000000000000000000e+00 0.000000000000000000e+00 0.000000000000000000e+00 0.000000000000000000e+00 0.000000000000000000e+00
-2.043871675576380387e+00 -1.776282300492514621e-01 -4.222470585306790092e-01 -8.349547057305791720e-01 3.131413142529045849e-04 0.000000000000000000e+00 0.000000000000000000e+00 0.000000000000000000e+00 0.000000000000000000e+00 0.000000000000000000e+00
-2.043871675576380387e+00 -1.776282300492514621e-01 -4.222470585306790092e-01 -8.349547057305791720e-01 3.131413142529045849e-04 0.000000000000000000e+00 0.000000000000000000e+00 0.000000000000000000e+00 0.000000000000000000e+00 0.000000000000000000e+00
-2.043871675576380387e+00 -1.776282300492514621e-01 -4.222470585306790092e-01 -8.349547057305791720e-01 3.131413142529045849e-04 0.000000000000000000e+00 0.000000000000000000e+00 0.000000000000000000e+00 0.000000000000000000e+00 0.000000000000000000e+00
-2.043871675576380387e+00 -1.776282300492514621e-01 -4.222470585306790092e-01 -8.349547057305791720e-01 3.131413142529045849e-04 0.000000000000000000e+00 0.000000000000000000e+00 0.000000000000000000e+00 0.000000000000000000e+00 0.000000000000000000e+00
-2.043871675576380387e+00 -1.776282300492514621e-01 -4.222470585306790092e-01 -8.349547057305791720e-01 3.131413142529045849e-04 0.000000000000000000e+00 0.000000000000000000e+00 0.000000000000000000e+00 0.000000000000000000e+00 0.000000000000000000e+00
-2.043871675576380387e+00 -1.776282300492514621e-01 -4.222470585306790092e-01 -8.349547057305791720e-01 3.131413142529045849e-04 0.000000000000000000e+00 0.000000000000000000e+00 0.000000000000000000e+00 0.000000000000000000e+00 0.000000000000000000e+00
-2.043871675576380387e+00 -1.776282300492514621e-01 -4.222470585306790092e-01 -8.349547057305791720e-01 3.131413142529045849e-04 0.000000000000000000e+00 0.000000000000000000e+00 0.000000000000000000e+00 0.000000000000000000e+00 0.000000000000000000e+00
