-4.224101246345749461e-01 -3.343009771960630538e-01 6.494712793820696106e-01 -8.360235800164476094e-01 1.023955835037633445e-03 2.446114402128073961e-01 -1.069088114889493180e-01 -4.940476267193308346e-01 -5.371602294460190441e-01 2.700902104696122899e-04
-4.077154595051555863e-01 -3.415865834692867753e-01 6.272348243112001454e-01 -8.647948848619202433e-01 1.024413473448085700e-03 2.938933025883873063e-01 -1.457121254644739294e-01 -4.447291014173882506e-01 -5.754260969094519007e-01 9.152768209044618349e-06
-3.904075796809929888e-01 -3.509806390579405799e-01 6.083809428091827565e-01 -8.947623147154768475e-01 1.009930209830583276e-03 3.461575964832518948e-01 -1.878811117730756486e-01 -3.770776300403470560e-01 -5.993485970711329713e-01 -2.896652723500492367e-04
-3.703169221339762118e-01 -3.626114949205040405e-01 5.936594075503701662e-01 -9.250633382533107740e-01 9.567211606905065861e-04 4.018131509403359836e-01 -2.326171172512689345e-01 -2.944307051762525829e-01 -6.060204707566786420e-01 -1.064180982801534239e-03
-3.472423946372360515e-01 -3.765640449343520268e-01 5.836663678801141675e-01 -9.546854997625255912e-01 8.496803240648257653e-04 4.614905499348036511e-01 -2.790510002769600595e-01 -1.998607934051201407e-01 -5.924432301842973425e-01 -2.140816732513615983e-03
-3.209470159447116999e-01 -3.928737258491095119e-01 5.788597812530636988e-01 -9.824882700211023945e-01 6.942743312193160130e-04 5.259075738504873643e-01 -3.261936182951499230e-01 -9.613173254100866594e-02 -5.560554051715357327e-01 -3.108119856910195912e-03
-2.911604546155706075e-01 -4.115190039189789983e-01 5.795772953953511886e-01 -1.007248672894506925e+00 5.042530847813716730e-04 5.957312265828224040e-01 -3.729055613973902839e-01 1.435028284574960122e-02 -4.952080574680919334e-01 -3.800424928758885934e-03
-2.575877841970051763e-01 -4.324131320992355421e-01 5.860530718960971219e-01 -1.027724966524186989e+00 2.964920647014390644e-04 6.714534083713087353e-01 -4.178825636051310966e-01 1.295155300149187783e-01 -4.095258725936013477e-01 -4.155220401598651303e-03
-2.199223673537546997e-01 -4.553967747102437014e-01 5.984295967508816982e-01 -1.042726314366954510e+00 8.792314116242742829e-05 7.533083368650094203e-01 -4.596728522201635192e-01 2.475304970956925532e-01 -3.000269568553517452e-01 -4.171378470780232398e-03
-1.778612126952959227e-01 -4.802328706326259300e-01 6.167644313183922034e-01 -1.051181087827134819e+00 -1.068294994528630633e-04 8.412230931691755398e-01 -4.967219184476441285e-01 3.666966913502107128e-01 -1.690954692036041596e-01 -3.895052812305809832e-03
-1.311209858004782625e-01 -5.066050799629780999e-01 6.410329405246731893e-01 -1.052194968367884842e+00 -2.769184103171814029e-04 9.348045378963532048e-01 -5.274441866070439522e-01 4.853701841256205518e-01 -2.027761081499893092e-02 -3.401778217286367118e-03
-7.945401780842670236e-02 -5.341200413792753787e-01 6.711276092068281240e-01 -1.045094334245426637e+00 -4.155033129900657864e-04 1.033339359841030980e+00 -5.502992283259453554e-01 6.018933736430982506e-01 1.420126824491659834e-01 -2.771698053457687886e-03
-2.266475507164415759e-02 -5.623132053478283598e-01 7.068543404430841504e-01 -1.029454379224229887e+00 -5.189141455545550480e-04 1.135785254735650840e+00 -5.638632793710607327e-01 7.145346247251213034e-01 3.127991004239341066e-01 -2.068216651289784148e-03
3.937323384803526755e-02 -5.906585029071762527e-01 7.479272623334514147e-01 -1.005110668964284804e+00 -5.850573199216561621e-04 1.240759778393588419e+00 -5.669059511869584123e-01 8.214584378073449544e-01 4.868742051989024544e-01 -1.322863487342022283e-03
1.066997890172766139e-01 -6.185821188428533013e-01 7.939648326955237589e-01 -9.721560102177621010e-01 -6.119693707590985205e-04 1.346531103384827066e+00 -5.584723187135418598e-01 9.207514072414468842e-01 6.590931749304547171e-01 -5.382410167488469507e-04
1.792519863939153746e-01 -6.454813588080170472e-01 8.444887599074267781e-01 -9.309193551828048863e-01 -5.966529835520639367e-04 1.451043947532775658e+00 -5.379847993032759179e-01 1.010478544238060161e+00 8.247331006991435176e-01 3.063277441406916761e-04
2.568515892828514557e-01 -6.707489693848451839e-01 8.989281282506568216e-01 -8.819271034858677805e-01 -5.340145263752261486e-04 1.551992057778721623e+00 -5.053522115365630674e-01 1.088787366864599981e+00 9.798450339387415609e-01 1.252769143536755329e-03
3.391995706470065652e-01 -6.938034062988394091e-01 9.566375303460520341e-01 -8.258524707845263935e-01 -4.166084934088566932e-04 1.646959627283101746e+00 -4.610887382798835588e-01 1.154188041907904250e+00 1.121492654026828406e+00 2.348120659327389108e-03
4.258820187783949329e-01 -7.141245532702735765e-01 1.016940994376703600e+00 -7.634605919508316019e-01 -2.351943778651829756e-04 1.733648962627767354e+00 -4.064229394286831831e-01 1.206069280613029759e+00 1.247837576673895832e+00 3.628282310873474567e-03
5.163926509080505323e-01 -7.312928712458741654e-01 1.079218273808793427e+00 -6.955581469943984407e-01 1.939544812634875917e-05 1.810212642593110655e+00 -3.433663595120125533e-01 1.245545588641798318e+00 1.358048899128663001e+00 5.091796519830634263e-03
6.101777172934916837e-01 -7.450267581823999397e-01 1.143050530488784799e+00 -6.229522371158562333e-01 3.515670673786350643e-04 1.875701327708822364e+00 -2.746777387305147644e-01 1.276645133599829451e+00 1.452118197570844593e+00 6.643432385045725669e-03
7.067048975362619778e-01 -7.552071188061257878e-01 1.208434507498655108e+00 -5.464268671168911462e-01 7.456223875261932480e-04 1.930543604855406326e+00 -2.036072124745164635e-01 1.307679540197405510e+00 1.530507399979301741e+00 7.881106402951164325e-03
8.055537423016578824e-01 -7.618742917386351898e-01 1.276064236608856373e+00 -4.667403999109982493e-01 1.104571280545810913e-03 1.976976895307917870e+00 -1.333434586501875962e-01 1.352594582204027507e+00 1.593729344117857938e+00 7.178977860392351563e-03
9.065196507158442829e-01 -7.651799490335257081e-01 1.347664197314591528e+00 -3.846419659883165698e-01 9.983992346583631279e-04 0.000000000000000000e+00 0.000000000000000000e+00 0.000000000000000000e+00 0.000000000000000000e+00 0.000000000000000000e+00
9.065196507158442829e-01 -7.651799490335257081e-01 1.347664197314591528e+00 -3.846419659883165698e-01 9.983992346583631279e-04 0.000000000000000000e+00 0.000000000000000000e+00 0.000000000000000000e+00 0.000000000000000000e+00 0.000000000000000000e+00
9.065196507158442829e-01 -7.651799490335257081e-01 1.347664197314591528e+00 -3.846419659883165698e-01 9.983992346583631279e-04 0.000000000000000000e+00 0.000000000000000000e+00 0.000000000000000000e+00 0.000000000000000000e+00 0.000000000000000000e+00
9.065196507158442829e-01 -7.651799490335257081e-01 1.347664197314591528e+00 -3.846419659883165698e-01 9.983992346583631279e-04 0.000000000000000000e+00 0.000000000000000000e+00 0.000000000000000000e+00 0.000000000000000000e+00 0.000000000000000000e+00
9.065196507158442829e-01 -7.651799490335257081e-01 1.347664197314591528e+00 -3.846419659883165698e-01 9.983992346583631279e-04 0.000000000000000000e+00 0.000000000000000000e+00 0.000000000000000000e+00 0.000000000000000000e+00 0.000000000000000000e+00
9.065196507158442829e-01 -7.651799490335257081e-01 1.347664197314591528e+00 -3.846419659883165698e-01 9.983992346583631279e-04 0.000000000000000000e+00 0.000000000000000000e+00 0.000000000000000000e+00 0.000000000000000000e+00 0.000000000000000000e+00
9.065196507158442829e-01 -7.651799490335257081e-01 1.347664197314591528e+00 -3.846419659883165698e-01 9.983992346583631279e-04 0.000000000000000000e+00 0.000000000000000000e+00 0.000000000000000000e+00 0.000000000000000000e+00 0.000000000000000000e+00
9.065196507158442829e-01 -7.651799490335257081e-01 1.347664197314591528e+00 -3.846419659883165698e-01 9.983992346583631279e-04 0.000000000000000000e+00 0.000000000000000000e+00 0.000000000000000000e+00 0.000000000000000000e+00 0.000000000000000000e+00
