-1.123695008336716983e+00 5.917986496410395508e-02 -5.464764818828747595e-02 -1.941774727157618008e+00 -1.110243575030643668e-03 -9.558270395176992063e-01 -4.633953108623091732e-01 -1.715370319569436308e+00 -7.686568630609944552e-01 -2.336776343428566445e-03
-1.170970480960136006e+00 3.055636203583007859e-02 -1.346980889203715503e-01 -1.957053196183883959e+00 -1.122834007267506547e-03 -9.455094524683794743e-01 -5.724700585654773910e-01 -1.601008814641681433e+00 -3.055693805253210105e-01 -2.518086447372584399e-04
-1.218169298266597922e+00 -3.048136471601181618e-03 -2.066048189021044146e-01 -1.951565818342555492e+00 -1.087763742346860036e-03 -9.439763461292369762e-01 -6.720899701486252598e-01 -1.438134599634657729e+00 1.097475568265713353e-01 7.014052984129280459e-04
-1.265726406643969959e+00 -4.094795033338497620e-02 -2.691844293690445755e-01 -1.928339723141385909e+00 -9.944857307194756267e-04 -9.511421675474408532e-01 -7.579962772356758638e-01 -1.251592209338802997e+00 4.645219040233927177e-01 1.865560232547690137e-03
-1.313987445097726470e+00 -8.231536926803792453e-02 -3.224384818978253686e-01 -1.890626518532794176e+00 -7.806683079533112760e-04 -9.652207690751288816e-01 -8.273483786930588835e-01 -1.065081050575615862e+00 7.542640921718322122e-01 4.276348455323287015e-03
-1.363189967491656995e+00 -1.262772000260369565e-01 -3.672197799901462112e-01 -1.841555647135427742e+00 -4.882341260774619349e-04 -9.840504478786112896e-01 -8.792366151599806390e-01 -8.956259618464174066e-01 9.814174279473266704e-01 5.848683637516986604e-03
-1.413487889694620803e+00 -1.719969723818920437e-01 -4.048297257761523937e-01 -1.783911498924028338e+00 -1.702724362698317963e-04 -1.005958444059274814e+00 -9.143954471171016340e-01 -7.521989157201238729e-01 1.152882964227988971e+00 6.359233796152601904e-03
-1.464989272034760370e+00 -2.187290089841625040e-01 -4.366927759464491743e-01 -1.720019635699704175e+00 1.325338668212748604e-04 -1.030027646802790242e+00 -9.346407320454090950e-01 -6.372610034059358330e-01 1.277837264486484381e+00 6.056126061822131833e-03
-1.517788168403681581e+00 -2.658430344073438034e-01 -4.641512300939426572e-01 -1.651725092294076935e+00 3.962907419027671824e-04 -1.055977927378424663e+00 -9.422805084636256545e-01 -5.491690829498702131e-01 1.365890868112545453e+00 5.275137501629846223e-03
-1.571984749545743298e+00 -3.128255846966560560e-01 -4.883708966283244468e-01 -1.580433647595273161e+00 6.114068031689609117e-04 -1.083931622841234788e+00 -9.396510057862453857e-01 -4.843933306876354594e-01 1.425828893976073042e+00 4.302321225323873718e-03
-1.627695805641647064e+00 -3.592660500143640689e-01 -5.103263258996681984e-01 -1.507189297550184603e+00 7.763261917131804128e-04 -1.114221121918076651e+00 -9.288093063541602579e-01 -4.391085854268758082e-01 1.464887000901770708e+00 3.298387770884389156e-03
-1.685059191498449405e+00 -4.048396722603397335e-01 -5.308214871304915983e-01 -1.432747000951065663e+00 8.935474382331975215e-04 -1.147267717136047249e+00 -9.114724449195131806e-01 -4.099032246164685533e-01 1.488845931982379911e+00 2.344424930400342607e-03
-1.744234720960308627e+00 -4.492899178370075020e-01 -5.505240873121650669e-01 -1.357636248549888291e+00 9.673969743234474760e-04 -1.183510589237183108e+00 -8.890049115333553686e-01 -3.940520036334697052e-01 1.502215048023548771e+00 1.476990721804999959e-03
-1.805403294758821220e+00 -4.924123541193591302e-01 -5.700019744287190271e-01 -1.282211182431482577e+00 1.003563699396782093e-03 -1.223371475970251199e+00 -8.624487256470323437e-01 -3.895577423310788712e-01 1.508501322368112296e+00 7.233345014666906110e-04
-1.868765183817823416e+00 -5.340408533252432033e-01 -5.897571275497288656e-01 -1.206686816436820076e+00 1.012098500935588487e-03 -1.267237781180044376e+00 -8.325699841176804616e-01 -3.951030624201958830e-01 1.510487319893250469e+00 1.706960307761297120e-04
-1.934537653222891063e+00 -5.740362028151010376e-01 -6.102555937216800341e-01 -1.131163108751844337e+00 1.001974946970369184e-03 -1.315449388101352923e+00 -7.999069897971564647e-01 -4.099693234390222596e-01 1.510474153699514988e+00 -2.024710793043840436e-04
-2.002951820650347603e+00 -6.122768138245787695e-01 -6.319543895979861103e-01 -1.055639025882793680e+00 9.476983583817549014e-04 -1.368283348549133915e+00 -7.648122201895540817e-01 -4.339759175261218571e-01 1.510481657381014253e+00 -1.085531771772284574e-03
-2.074248457070800189e+00 -6.486517801583708831e-01 -6.553260718708874277e-01 -9.800162533114824548e-01 7.872000631649040238e-04 0.000000000000000000e+00 0.000000000000000000e+00 0.000000000000000000e+00 0.000000000000000000e+00 0.000000000000000000e+00
-2.074248457070800189e+00 -6.486517801583708831e-01 -6.553260718708874277e-01 -9.800162533114824548e-01 7.872000631649040238e-04 0.000000000000000000e+00 0.000000000000000000e+00 0.000000000000000000e+00 0.000000000000000000e+00 0.000000000000000000e+00
-2.074248457070800189e+00 -6.486517801583708831e-01 -6.553260718708874277e-01 -9.800162533114824548e-01 7.872000631649040238e-04 0.000000000000000000e+00 0.000000000000000000e+00 0.000000000000000000e+00 0.000000000000000000e+00 0.000000000000000000e+00
-2.074248457070800189e+00 -6.486517801583708831e-01 -6.553260718708874277e-01 -9.800162533114824548e-01 7.872000631649040238e-04 0.000000000000000000e+00 0.000000000000000000e+00 0.000000000000000000e+00 0.000000000000000000e+00 0.000000000000000000e+00
-2.074248457070800189e+00 -6.486517801583708831e-01 -6.553260718708874277e-01 -9.800162533114824548e-01 7.872000631649040238e-04 0.000000000000000000e+00 0.000000000000000000e+00 0.000000000000000000e+00 0.000000000000000000e+00 0.000000000000000000e+00
-2.074248457070800189e+00 -6.486517801583708831e-01 -6.553260718708874277e-01 -9.800162533114824548e-01 7.872000631649040238e-04 0.000000000000000000e+00 0.000000000000000000e+00 0.000000000000000000e+00 0.000000000000000000e+00 0.000000000000000000e+00
-2.074248457070800189e+00 -6.486517801583708831e-01 -6.553260718708874277e-01 -9.800162533114824548e-01 7.872000631649040238e-04 0.000000000000000000e+00 0.000000000000000000e+00 0.000000000000000000e+00 0.000000000000000000e+00 0.000000000000000000e+00
-2.074248457070800189e+00 -6.486517801583708831e-01 -6.553260718708874277e-01 -9.800162533114824548e-01 7.872000631649040238e-04 0.000000000000000000e+00 0.000000000000000000e+00 0.000000000000000000e+00 0.000000000000000000e+00 0.000000000000000000e+00
-2.074248457070800189e+00 -6.486517801583708831e-01 -6.553260718708874277e-01 -9.800162533114824548e-01 7.872000631649040238e-04 0.000000000000000000e+00 0.000000000000000000e+00 0.000000000000000000e+00 0.000000000000000000e+00 0.000000000000000000e+00
-2.074248457070800189e+00 -6.486517801583708831e-01 -6.553260718708874277e-01 -9.800162533114824548e-01 7.872000631649040238e-04 0.000000000000000000e+00 0.000000000000000000e+00 0.000000000000000000e+00 0.000000000000000000e+00 0.000000000000000000e+00
-2.074248457070800189e+00 -6.486517801583708831e-01 -6.553260718708874277e-01 -9.800162533114824548e-01 7.872000631649040238e-04 0.000000000000000000e+00 0.000000000000000000e+00 0.000000000000000000e+00 0.000000000000000000e+00 0.000000000000000000e+00
-2.074248457070800189e+00 -6.486517801583708831e-01 -6.553260718708874277e-01 -9.800162533114824548e-01 7.872000631649040238e-04 0.000000000000000000e+00 0.000000000000000000e+00 0.000000000000000000e+00 0.000000000000000000e+00 0.000000000000000000e+00
-2.074248457070800189e+00 -6.486517801583708831e-01 -6.553260718708874277e-01 -9.800162533114824548e-01 7.872000631649040238e-04 0.000000000000000000e+00 0.000000000000000000e+00 0.000000000000000000e+00 0.000000000000000000e+00 0.000000000000000000e+00
-2.074248457070800189e+00 -6.486517801583708831e-01 -6.553260718708874277e-01 -9.800162533114824548e-01 7.872000631649040238e-04 0.000000000000000000e+00 0.000000000000000000e+00 0.000000000000000000e+00 0.000000000000000000e+00 0.000000000000000000e+00
