-7.942196241087419173e-01 -8.062103348415475268e-02 3.805898107015371346e-01 -1.568059343243339177e+00 -5.137986859231152793e-04 -4.663770445930929820e-01 -5.239725778144265211e-01 -7.875825484825036416e-01 -1.197361135081805861e+00 -6.255726877681076770e-03
-8.164929323639336101e-01 -1.102358242143020306e-01 3.408513392258308294e-01 -1.615287094695406767e+00 -7.665981268076616558e-04 -4.454661651038349657e-01 -5.922958146029456694e-01 -7.947694295141262133e-01 -9.445550290413504690e-01 -5.055988817690927964e-03
-8.376735717118147795e-01 -1.430693936339209604e-01 3.017518347502493592e-01 -1.649536618579025449e+00 -9.367366289031721317e-04 -4.236127869576224447e-01 -6.566713883923784856e-01 -7.819900895116299600e-01 -6.849904776723723110e-01 -3.402770041910209951e-03
-8.577863176418778490e-01 -1.788956473207603537e-01 2.642741312971396139e-01 -1.670938604659726323e+00 -1.016962201712675370e-03 -4.022549186012615019e-01 -7.165250737367878653e-01 -7.495540690621943503e-01 -4.280397216140180983e-01 -1.604511456190066930e-03
-8.769172942488727696e-01 -2.174509238478123940e-01 2.292567517385913911e-01 -1.680062490052018020e+00 -1.034777301589513308e-03 -3.826195321398990212e-01 -7.711055305410404737e-01 -7.003475911709647894e-01 -1.824777078458338919e-01 -3.563019975367589815e-04
-8.952006714854156000e-01 -2.584256834108700218e-01 1.972966419873295740e-01 -1.677873264699360822e+00 -1.029394580164782417e-03 -3.656675447308558313e-01 -8.194951912611531109e-01 -6.392021950252363416e-01 4.378450705314193558e-02 1.076544284946197197e-04
-9.127931235070095850e-01 -3.014831878119524355e-01 1.687222757253422634e-01 -1.665570000178898447e+00 -1.007612707690888707e-03 -3.518490404318802001e-01 -8.611500880216482745e-01 -5.714873252397462133e-01 2.460652904092490989e-01 4.356374494778744114e-04
-9.298563615579806818e-01 -3.462785252120810786e-01 1.436137625040432020e-01 -1.644453326243081603e+00 -9.451332086763079149e-04 -3.412647610194224357e-01 -8.959067480025730834e-01 -5.021702644259813386e-01 4.223334787163377513e-01 1.249589980291614761e-03
-9.465473744216512664e-01 -3.924765817384676114e-01 1.218517268421063504e-01 -1.615824113137659834e+00 -8.499803304778543551e-04 -3.338202572734112472e-01 -9.239611305277307673e-01 -4.352407132387369204e-01 5.725842621084338280e-01 1.903057563969072063e-03
-9.630148560248431577e-01 -4.397670214978420256e-01 1.031759348078168936e-01 -1.580912638518436442e+00 -7.356290153016071089e-04 -3.293496320638373831e-01 -9.458087951874881716e-01 -3.735158406857890800e-01 6.982294923844662993e-01 2.287026303524945358e-03
-9.794000141629272127e-01 -4.878749760871597951e-01 8.723941529400891515e-02 -1.540834630720139042e+00 -6.140532120885691843e-04 -3.277031627616805998e-01 -9.621590917863557246e-01 -3.187303902761595142e-01 8.015601559659487618e-01 2.431516064260758926e-03
-9.958401200214457294e-01 -5.365670956161482374e-01 7.365035326795847659e-02 -1.496568818749184793e+00 -4.942574660509289767e-04 -3.288021171703692236e-01 -9.738423905797695124e-01 -2.717812405210088822e-01 8.853162394190827733e-01 2.395914920752803719e-03
-1.012473688715962883e+00 -5.856533834975037323e-01 6.199943652860243765e-02 -1.448950228352491987e+00 -3.824473858178981437e-04 -3.326713738903419593e-01 -9.817257576271101183e-01 -2.330183347871207233e-01 9.523718079338538978e-01 2.236201604660616443e-03
-1.029446729782589554e+00 -6.349856360879835293e-01 5.187359267380908801e-02 -1.398674022158317820e+00 -2.826902297460472113e-04 -3.394608213325343571e-01 -9.866450518095969402e-01 -2.025168770958669651e-01 1.005524123883484222e+00 1.995143121437018430e-03
-1.046919942414309412e+00 -6.844533919846982339e-01 4.285834339108784974e-02 -1.346305667811045659e+00 -1.976564489038438316e-04 -3.494642526343985645e-01 -9.893551179342949808e-01 -1.803049856544246543e-01 1.047367086945441894e+00 1.700675616844067595e-03
-1.065077041172852290e+00 -7.339781910991667324e-01 3.453097790432996944e-02 -1.292294242745749555e+00 -1.292443745209814591e-04 -3.631419751708579446e-01 -9.904959822893687482e-01 -1.665473097351575782e-01 1.080228501305920963e+00 1.368241487657247558e-03
-1.084134627372679294e+00 -7.835067591728251957e-01 2.644602355759245044e-02 -1.236986547969881611e+00 -7.883849660770350664e-05 -3.811517239965392378e-01 -9.905713614731693761e-01 -1.616990869347503523e-01 1.106153895517357100e+00 1.008117558265558995e-03
-1.104354223094680787e+00 -8.330035342512006613e-01 1.811346737095710993e-02 -1.180640348192933953e+00 -4.637283324928688657e-05 -4.043919144400300314e-01 -9.899355015675098679e-01 -1.666511237327068240e-01 1.126923995538954504e+00 6.493132671683323745e-04
-1.126057303690164213e+00 -8.824427649652276662e-01 8.969032952410711107e-03 -1.123435502537902142e+00 -2.486146103411025299e-05 0.000000000000000000e+00 0.000000000000000000e+00 0.000000000000000000e+00 0.000000000000000000e+00 0.000000000000000000e+00
-1.126057303690164213e+00 -8.824427649652276662e-01 8.969032952410711107e-03 -1.123435502537902142e+00 -2.486146103411025299e-05 0.000000000000000000e+00 0.000000000000000000e+00 0.000000000000000000e+00 0.000000000000000000e+00 0.000000000000000000e+00
-1.126057303690164213e+00 -8.824427649652276662e-01 8.969032952410711107e-03 -1.123435502537902142e+00 -2.486146103411025299e-05 0.000000000000000000e+00 0.000000000000000000e+00 0.000000000000000000e+00 0.000000000000000000e+00 0.000000000000000000e+00
-1.126057303690164213e+00 -8.824427649652276662e-01 8.969032952410711107e-03 -1.123435502537902142e+00 -2.486146103411025299e-05 0.000000000000000000e+00 0.000000000000000000e+00 0.000000000000000000e+00 0.000000000000000000e+00 0.000000000000000000e+00
-1.126057303690164213e+00 -8.824427649652276662e-01 8.969032952410711107e-03 -1.123435502537902142e+00 -2.486146103411025299e-05 0.000000000000000000e+00 0.000000000000000000e+00 0.000000000000000000e+00 0.000000000000000000e+00 0.000000000000000000e+00
-1.126057303690164213e+00 -8.824427649652276662e-01 8.969032952410711107e-03 -1.123435502537902142e+00 -2.486146103411025299e-05 0.000000000000000000e+00 0.000000000000000000e+00 0.000000000000000000e+00 0.000000000000000000e+00 0.000000000000000000e+00
-1.126057303690164213e+00 -8.824427649652276662e-01 8.969032952410711107e-03 -1.123435502537902142e+00 -2.486146103411025299e-05 0.000000000000000000e+00 0.000000000000000000e+00 0.000000000000000000e+00 0.000000000000000000e+00 0.000000000000000000e+00
-1.126057303690164213e+00 -8.824427649652276662e-01 8.969032952410711107e-03 -1.123435502537902142e+00 -2.486146103411025299e-05 0.000000000000000000e+00 0.000000000000000000e+00 0.000000000000000000e+00 0.000000000000000000e+00 0.000000000000000000e+00
-1.126057303690164213e+00 -8.824427649652276662e-01 8.969032952410711107e-03 -1.123435502537902142e+00 -2.486146103411025299e-05 0.000000000000000000e+00 0.000000000000000000e+00 0.000000000000000000e+00 0.000000000000000000e+00 0.000000000000000000e+00
-1.126057303690164213e+00 -8.824427649652276662e-01 8.969032952410711107e-03 -1.123435502537902142e+00 -2.486146103411025299e-05 0.000000000000000000e+00 0.000000000000000000e+00 0.000000000000000000e+00 0.000000000000000000e+00 0.000000000000000000e+00
-1.126057303690164213e+00 -8.824427649652276662e-01 8.969032952410711107e-03 -1.123435502537902142e+00 -2.486146103411025299e-05 0.000000000000000000e+00 0.000000000000000000e+00 0.000000000000000000e+00 0.000000000000000000e+00 0.000000000000000000e+00
-1.126057303690164213e+00 -8.824427649652276662e-01 8.969032952410711107e-03 -1.123435502537902142e+00 -2.486146103411025299e-05 0.000000000000000000e+00 0.000000000000000000e+00 0.000000000000000000e+00 0.000000000000000000e+00 0.000000000000000000e+00
-1.126057303690164213e+00 -8.824427649652276662e-01 8.969032952410711107e-03 -1.123435502537902142e+00 -2.486146103411025299e-05 0.000000000000000000e+00 0.000000000000000000e+00 0.000000000000000000e+00 0.000000000000000000e+00 0.000000000000000000e+00
