-3.138563241099627810e-01 -1.896689126500078482e-01 8.127621619556797405e-01 -1.186627477062232261e+00 1.724598575738927816e-05 -9.394997025606297014e-02 -1.052412480866893735e-01 -2.480310920576440370e-01 -2.072894361720041545e-01 1.881828690426281788e-04
-3.205329439529019941e-01 -1.976705623755374841e-01 7.953374528014517386e-01 -1.201022703779923040e+00 2.183033921597311345e-05 -1.335323968587847632e-01 -1.600329945105925522e-01 -3.484941830845593724e-01 -2.879045343538150226e-01 9.168706917167666513e-05
-3.289853194226786681e-01 -2.084399998977379820e-01 7.735098021481027208e-01 -1.218693002741385367e+00 1.633082586914880603e-05 -1.690475093955338959e-01 -2.153887504440102352e-01 -4.365530130669809106e-01 -3.534059792292464364e-01 -1.099902669364861079e-04
-3.390368979686453343e-01 -2.219778962843527437e-01 7.478041688585026492e-01 -1.238883532803067178e+00 -3.685459333085574346e-06 -2.010315709193328249e-01 -2.707579277322950118e-01 -5.141126657920015441e-01 -4.038106012336376005e-01 -4.003257040446875532e-04
-3.505316051996960613e-01 -2.382627336762588588e-01 7.186825302991765030e-01 -1.260831619097621648e+00 -4.216541075878236855e-05 -2.298941446210150952e-01 -3.256967478381222469e-01 -5.824327711865238122e-01 -4.389617258910915032e-01 -7.695990285139357213e-04
-3.633250113144906868e-01 -2.572571005007160405e-01 6.865788604409541751e-01 -1.283751140559577619e+00 -1.022486996707011651e-04 -2.558681222958929524e-01 -3.798873364891441895e-01 -6.420733971644472238e-01 -4.583904292391197122e-01 -1.201665778238375634e-03
-3.772754995054086180e-01 -2.789141447207603153e-01 6.519345968610950059e-01 -1.306820632618147071e+00 -1.858163939511051337e-04 -2.790097638183585138e-01 -4.331408844008851622e-01 -6.928852715971834941e-01 -4.613898411713881487e-01 -1.671353885608079046e-03
-3.922383730309955130e-01 -3.031819511088779118e-01 6.152257839185386601e-01 -1.329185238461263463e+00 -2.928249642065224186e-04 -2.992574705117382883e-01 -4.853561277623522074e-01 -7.341762588511279164e-01 -4.472921168623262833e-01 -2.140171405108345481e-03
-4.080634847133391974e-01 -3.300053439077126893e-01 5.769775800220475759e-01 -1.349972716688533358e+00 -4.204855530054671126e-04 -3.165022336468742425e-01 -5.364678559766953292e-01 -7.649640779298213511e-01 -4.157495645453967437e-01 -2.553211775978894097e-03
-4.245955459626707396e-01 -3.593264290837600572e-01 5.377660814349486396e-01 -1.368317557943150797e+00 -5.628339705356810068e-04 -3.306412249866308994e-01 -5.864217035209471351e-01 -7.842299717419787264e-01 -3.668968250923486663e-01 -2.846968350604277449e-03
-4.416762613111155922e-01 -3.910847476783229082e-01 4.982106415867652016e-01 -1.383388808745939169e+00 -7.106559162016551573e-04 -3.416143069688974410e-01 -6.351663718912576861e-01 -7.911087969636689810e-01 -3.014250160557684355e-01 -2.956438913319483011e-03
-4.591488442176657192e-01 -4.252159452934804462e-01 4.589558563724026041e-01 -1.394423662074448567e+00 -8.512692016196455507e-04 -3.494516581310028180e-01 -6.826239523031504275e-01 -7.850957042872522829e-01 -2.206970665701863121e-01 -2.812265708359807867e-03
-4.768637797889621610e-01 -4.616492768882405340e-01 4.206438089594438656e-01 -1.400759835626484540e+00 -9.648100999299318156e-04 -3.542987114259287251e-01 -7.286666318952010890e-01 -7.662409482591751031e-01 -1.267234710407200982e-01 -2.270817966205724864e-03
-4.946850395592630734e-01 -5.003038546420868204e-01 3.838793827924988356e-01 -1.401863182749202075e+00 -1.004600459922979500e-03 -3.564251954060181360e-01 -7.730915550769255074e-01 -7.352885233389009345e-01 -2.206694245435182611e-02 -7.958071998609519450e-04
-5.124951586669252990e-01 -5.410855722384455557e-01 3.491957658836162270e-01 -1.397344089154989755e+00 -1.013769823088753489e-03 -3.562023821532450119e-01 -8.156343519271740394e-01 -6.936723381776521702e-01 9.038187188424837148e-02 -1.833872633154796884e-04
-5.302001274064142011e-01 -5.838829781748331449e-01 3.170230034586717927e-01 -1.386971670357168840e+00 -1.014310072045478996e-03 -3.540993747897783761e-01 -8.559481187277516723e-01 -6.434552484988889098e-01 2.074483759564164087e-01 -1.080497913450828140e-05
-5.477318426156062570e-01 -6.285656430374171322e-01 2.876658672579209819e-01 -1.370671482056400770e+00 -1.012750198733976953e-03 -3.506343041838415608e-01 -8.936532972516794127e-01 -5.871427240150165483e-01 3.260037660153607963e-01 3.119746623004166088e-05
-5.650482239065397483e-01 -6.749867806154357108e-01 2.612948627170347260e-01 -1.348506209557382540e+00 -1.010585244602753242e-03 -3.463276258186705481e-01 -9.284227515603709069e-01 -5.274200908177256730e-01 4.433054499803642523e-01 4.329908262447398762e-05
-5.821340428268244604e-01 -7.229856343237833771e-01 2.379478785912332028e-01 -1.320660558055696709e+00 -1.008242875352915709e-03 -3.417163784056939102e-01 -9.599770741669531038e-01 -4.669396825160306297e-01 5.569130300337152839e-01 4.684738499675216437e-05
-5.990003340705545298e-01 -7.723927293140806505e-01 2.175453289949009217e-01 -1.287420195677596579e+00 -1.005591881521708617e-03 -3.373258248746005550e-01 -9.881418998059463554e-01 -4.080509919266457897e-01 6.648072475620021571e-01 5.301987662414178173e-05
-6.156839198780699185e-01 -8.230360885652775460e-01 1.999116183693006032e-01 -1.249150107634130036e+00 -1.000548276034342278e-03 -3.336717161503071072e-01 -1.012867185023938355e+00 -3.526742125120064242e-01 7.654017608693322039e-01 1.008721097473260468e-04
-6.322477829406092376e-01 -8.747468020545430267e-01 1.847973608766555753e-01 -1.206275102911781971e+00 -9.851924384074721864e-04 -3.312772612507870473e-01 -1.034214269785310503e+00 -3.022851498529004477e-01 8.575000944469612918e-01 3.071167525374030169e-04
-6.487817122538885872e-01 -9.273645206011060793e-01 1.719003710811786434e-01 -1.159258941298275225e+00 -9.443076171497309743e-04 -3.306785862655871600e-01 -1.052354370931260164e+00 -2.579397959095386939e-01 9.403232322701355894e-01 8.176964251548245665e-04
-6.654057081070646751e-01 -9.807401678890248498e-01 1.608781233294855340e-01 -1.108590295783307367e+00 -8.987460054427476698e-04 -3.324799170635207579e-01 -1.067512945758374521e+00 -2.204449550338619668e-01 1.013372910299356722e+00 9.112322341396654393e-04
-6.822789123885973916e-01 -1.034735060798995132e+00 1.513432721355528476e-01 -1.054773294518364990e+00 -8.586778241905530101e-04 -3.374640856306547754e-01 -1.079897858199405647e+00 -1.906970238786534766e-01 1.076340025298845537e+00 8.013636250438941700e-04
-6.996134620983698316e-01 -1.089219952236317734e+00 1.428424232017841411e-01 -9.983064881488407094e-01 -8.322905961366777435e-04 -3.466909941954495200e-01 -1.089697828746449826e+00 -1.700169786753740475e-01 1.129336127390485833e+00 5.277445610775053329e-04
-7.176946134945892952e-01 -1.144073456294362412e+00 1.348200451114981435e-01 -9.396601036323161127e-01 -8.293970834600294158e-04 -3.616230279243882184e-01 -1.097070081160892663e+00 -1.604475618057199238e-01 1.172927690330492156e+00 5.787025353296714912e-05
-7.369112732395941556e-01 -1.199176807249260568e+00 1.265598948154142422e-01 -8.792629453453499888e-01 -8.685372324224546097e-04 -3.843331949000968750e-01 -1.102067019097961342e+00 -1.652030059216779423e-01 1.207943165739321811e+00 -7.828029792485047440e-04
-7.577983398978352936e-01 -1.254406199111578024e+00 1.170959535387876005e-01 -8.174885712729889065e-01 -1.000514159895837980e-03 0.000000000000000000e+00 0.000000000000000000e+00 0.000000000000000000e+00 0.000000000000000000e+00 0.000000000000000000e+00
-7.577983398978352936e-01 -1.254406199111578024e+00 1.170959535387876005e-01 -8.174885712729889065e-01 -1.000514159895837980e-03 0.000000000000000000e+00 0.000000000000000000e+00 0.000000000000000000e+00 0.000000000000000000e+00 0.000000000000000000e+00
-7.577983398978352936e-01 -1.254406199111578024e+00 1.170959535387876005e-01 -8.174885712729889065e-01 -1.000514159895837980e-03 0.000000000000000000e+00 0.000000000000000000e+00 0.000000000000000000e+00 0.000000000000000000e+00 0.000000000000000000e+00
