-7.465784702074189649e-01 -2.773050540657052698e-01 5.952278293538761922e-01 -1.431610057179061979e+00 -9.763612193799609462e-04 -1.016154485093751086e-01 -9.095326472002446261e-01 -3.887550562185977387e-01 -3.841057300982157474e-01 -2.898633136639110035e-03
-7.494880892247680615e-01 -3.255007018856033163e-01 5.790600385515599635e-01 -1.438437612365584650e+00 -1.019710527780726302e-03 -5.819238034698184098e-02 -9.639129563979607074e-01 -3.233558160463243514e-01 -1.365511037304542874e-01 -8.669861680153071078e-04
-7.502519078803968622e-01 -3.761436584347525591e-01 5.666761398894681889e-01 -1.433465582752249556e+00 -1.024284171790455431e-03 -1.527637311257631220e-02 -1.012859130982984412e+00 -2.476779732418359914e-01 9.944059226670401430e-02 -9.147288019458171132e-05
-7.489203357896448976e-01 -4.289473306444749334e-01 5.584373293481497136e-01 -1.417562465521098325e+00 -1.019322249666767535e-03 2.663144181503877134e-02 -1.056073444194447264e+00 -1.647762108263687297e-01 3.180623446230245177e-01 9.923844247375758574e-05
-7.455537377973890933e-01 -4.836201126457313482e-01 5.545588063512330024e-01 -1.391797312033182576e+00 -1.012485946657691507e-03 6.733195984511694543e-02 -1.093455640025127629e+00 -7.757045993833318331e-02 5.153030697583135256e-01 1.367260601815204033e-04
-7.402082273727736972e-01 -5.398775099016475121e-01 5.551436182527569319e-01 -1.357350654014841007e+00 -1.000241528025512007e-03 1.069102084923069240e-01 -1.125147945118322612e+00 1.169623803047907529e-02 6.889331603668319426e-01 2.448883726435921080e-04
-7.329208171197953980e-01 -5.974562162380753216e-01 5.602352394297459570e-01 -1.315427398351015187e+00 -9.633677182171483189e-04 1.457482050595665657e-01 -1.151574126728555747e+00 1.018324235397807670e-01 8.384651132765164050e-01 7.374761961672741950e-04
-7.237003918841583561e-01 -6.561210704199946786e-01 5.698673656900975493e-01 -1.267209047582358528e+00 -8.642159358229969945e-04 1.844085047127414501e-01 -1.173297083638388028e+00 1.926425252070324834e-01 9.643670153731322969e-01 1.983035647883026054e-03
-7.125202807652660786e-01 -7.156684189080697589e-01 5.841056499045909067e-01 -1.213821787737847657e+00 -7.488927923743780510e-04 2.236022223778452445e-01 -1.190946969761502716e+00 2.847656842898665941e-01 1.067745196890218295e+00 2.306462868972378871e-03
-6.993115796257262096e-01 -7.759262221949079219e-01 6.030819577801624920e-01 -1.156322332763832561e+00 -6.306402808497356318e-04 2.641740227907971583e-01 -1.205156065736763260e+00 3.795261575114305952e-01 1.149989099480301480e+00 2.365050230492849251e-03
-6.839557312167098280e-01 -8.367513970639131049e-01 6.270248641215049323e-01 -1.095699979438191640e+00 -5.150982506072355593e-04 3.071169681803274099e-01 -1.216503497380102994e+00 4.788581268268480295e-01 1.212447066512817972e+00 2.310840604850000583e-03
-6.662733514615293284e-01 -8.980254938284852884e-01 6.562910385890315945e-01 -1.032887248451598294e+00 -4.149358745367870199e-04 3.536475951036106569e-01 -1.225481935291443447e+00 5.853234893505327996e-01 1.256254619731867805e+00 2.003247521408970788e-03
-6.460058156843260235e-01 -9.596499308339474510e-01 6.914029162578386734e-01 -9.687725996369680459e-01 -3.862231362574804422e-04 4.053507155440670973e-01 -1.232488740109242586e+00 7.022375533761415767e-01 1.282292976292605413e+00 5.742547655861315534e-04
-6.227855523749213917e-01 -1.021541322852105749e+00 7.331013923157608803e-01 -9.042172303678073231e-01 -6.706895323908116952e-04 0.000000000000000000e+00 0.000000000000000000e+00 0.000000000000000000e+00 0.000000000000000000e+00 0.000000000000000000e+00
-6.227855523749213917e-01 -1.021541322852105749e+00 7.331013923157608803e-01 -9.042172303678073231e-01 -6.706895323908116952e-04 0.000000000000000000e+00 0.000000000000000000e+00 0.000000000000000000e+00 0.000000000000000000e+00 0.000000000000000000e+00
-6.227855523749213917e-01 -1.021541322852105749e+00 7.331013923157608803e-01 -9.042172303678073231e-01 -6.706895323908116952e-04 0.000000000000000000e+00 0.000000000000000000e+00 0.000000000000000000e+00 0.000000000000000000e+00 0.000000000000000000e+00
-6.227855523749213917e-01 -1.021541322852105749e+00 7.331013923157608803e-01 -9.042172303678073231e-01 -6.706895323908116952e-04 0.000000000000000000e+00 0.000000000000000000e+00 0.000000000000000000e+00 0.000000000000000000e+00 0.000000000000000000e+00
-6.227855523749213917e-01 -1.021541322852105749e+00 7.331013923157608803e-01 -9.042172303678073231e-01 -6.706895323908116952e-04 0.000000000000000000e+00 0.000000000000000000e+00 0.000000000000000000e+00 0.000000000000000000e+00 0.000000000000000000e+00
-6.227855523749213917e-01 -1.021541322852105749e+00 7.331013923157608803e-01 -9.042172303678073231e-01 -6.706895323908116952e-04 0.000000000000000000e+00 0.000000000000000000e+00 0.000000000000000000e+00 0.000000000000000000e+00 0.000000000000000000e+00
-6.227855523749213917e-01 -1.021541322852105749e+00 7.331013923157608803e-01 -9.042172303678073231e-01 -6.706895323908116952e-04 0.000000000000000000e+00 0.000000000000000000e+00 0.000000000000000000e+00 0.000000000000000000e+00 0.000000000000000000e+00
-6.227855523749213917e-01 -1.021541322852105749e+00 7.331013923157608803e-01 -9.042172303678073231e-01 -6.706895323908116952e-04 0.000000000000000000e+00 0.000000000000000000e+00 0.000000000000000000e+00 0.000000000000000000e+00 0.000000000000000000e+00
-6.227855523749213917e-01 -1.021541322852105749e+00 7.331013923157608803e-01 -9.042172303678073231e-01 -6.706895323908116952e-04 0.000000000000000000e+00 0.000000000000000000e+00 0.000000000000000000e+00 0.000000000000000000e+00 0.000000000000000000e+00
-6.227855523749213917e-01 -1.021541322852105749e+00 7.331013923157608803e-01 -9.042172303678073231e-01 -6.706895323908116952e-04 0.000000000000000000e+00 0.000000000000000000e+00 0.000000000000000000e+00 0.000000000000000000e+00 0.000000000000000000e+00
-6.227855523749213917e-01 -1.021541322852105749e+00 7.331013923157608803e-01 -9.042172303678073231e-01 -6.706895323908116952e-04 0.000000000000000000e+00 0.000000000000000000e+00 0.000000000000000000e+00 0.000000000000000000e+00 0.000000000000000000e+00
-6.227855523749213917e-01 -1.021541322852105749e+00 7.331013923157608803e-01 -9.042172303678073231e-01 -6.706895323908116952e-04 0.000000000000000000e+00 0.000000000000000000e+00 0.000000000000000000e+00 0.000000000000000000e+00 0.000000000000000000e+00
-6.227855523749213917e-01 -1.021541322852105749e+00 7.331013923157608803e-01 -9.042172303678073231e-01 -6.706895323908116952e-04 0.000000000000000000e+00 0.000000000000000000e+00 0.000000000000000000e+00 0.000000000000000000e+00 0.000000000000000000e+00
-6.227855523749213917e-01 -1.021541322852105749e+00 7.331013923157608803e-01 -9.042172303678073231e-01 -6.706895323908116952e-04 0.000000000000000000e+00 0.000000000000000000e+00 0.000000000000000000e+00 0.000000000000000000e+00 0.000000000000000000e+00
-6.227855523749213917e-01 -1.021541322852105749e+00 7.331013923157608803e-01 -9.042172303678073231e-01 -6.706895323908116952e-04 0.000000000000000000e+00 0.000000000000000000e+00 0.000000000000000000e+00 0.000000000000000000e+00 0.000000000000000000e+00
-6.227855523749213917e-01 -1.021541322852105749e+00 7.331013923157608803e-01 -9.042172303678073231e-01 -6.706895323908116952e-04 0.000000000000000000e+00 0.000000000000000000e+00 0.000000000000000000e+00 0.000000000000000000e+00 0.000000000000000000e+00
-6.227855523749213917e-01 -1.021541322852105749e+00 7.331013923157608803e-01 -9.042172303678073231e-01 -6.706895323908116952e-04 0.000000000000000000e+00 0.000000000000000000e+00 0.000000000000000000e+00 0.000000000000000000e+00 0.000000000000000000e+00
-6.227855523749213917e-01 -1.021541322852105749e+00 7.331013923157608803e-01 -9.042172303678073231e-01 -6.706895323908116952e-04 0.000000000000000000e+00 0.000000000000000000e+00 0.000000000000000000e+00 0.000000000000000000e+00 0.000000000000000000e+00
