-7.487065315182025449e-01 -3.461384962633674844e-02 4.248738787045439058e-01 -1.237059890812741925e+00 1.065993464384040225e-03 -5.736953215698125108e-01 2.558429110070422063e-01 -1.495692546363114994e+00 -1.467483508595284869e+00 -2.395535746453013293e-04
-7.775270248250479854e-01 -2.444013275862817747e-02 3.512885073852284878e-01 -1.306203495127694403e+00 1.031052260764582637e-03 -5.764098661369098098e-01 2.034743373541714750e-01 -1.471707426386308359e+00 -1.382872086299051340e+00 -6.988240723891498123e-04
-8.063390357726405444e-01 -1.731518593116172788e-02 2.792461465540955756e-01 -1.368650586611916742e+00 9.208240165272228326e-04 -5.762402189518521789e-01 1.424989365493290472e-01 -1.440847216622658022e+00 -1.248941829684448557e+00 -2.204564884747196082e-03
-8.350481891905543463e-01 -1.354501943064304742e-02 2.092049174539369616e-01 -1.422372033861402318e+00 6.327102156997138193e-04 -5.741830683582770378e-01 7.540333001037359539e-02 -1.400824582003172170e+00 -1.074428944989709755e+00 -5.762276016550178966e-03
-8.636079646578703750e-01 -1.332716690950051450e-02 1.417907203785768178e-01 -1.465851402121282732e+00 2.928428394014791236e-04 -5.711955093463203514e-01 4.357050422850672344e-03 -1.348283941507202988e+00 -8.695873651976062657e-01 -6.797347525964694132e-03
-8.920216788102366401e-01 -1.675685075614831085e-02 7.776269363980022054e-02 -1.498130935870484626e+00 -3.111295315354596852e-05 -5.682742830473241913e-01 -6.859367693295591317e-02 -1.280560534775531778e+00 -6.455906749840365499e-01 -6.479115851100501408e-03
-9.203399187494589739e-01 -2.382593392124640608e-02 1.791920817076182032e-02 -1.518821679070088804e+00 -2.938338044623607843e-04 -5.663647987844468989e-01 -1.413816633019619462e-01 -1.196869709380767866e+00 -4.138148639920823380e-01 -5.254417026176296315e-03
-9.486507409752739095e-01 -3.441771338206997544e-02 -3.702240854684564486e-02 -1.528084569697568229e+00 -4.672851738103679089e-04 -5.662164445162993776e-01 -2.118355892164712762e-01 -1.098832334352149331e+00 -1.852578125495893679e-01 -3.469027386960143143e-03
-9.770625537703192531e-01 -4.830891301496454543e-02 -8.653289306582909179e-02 -1.526564056220532040e+00 -5.406323902345000791e-04 -5.682362559009066505e-01 -2.778239926578913721e-01 -9.902096903796687721e-01 3.041026954072217903e-02 -1.466944328482642970e-03
-1.005684878536347249e+00 -6.518535370683634089e-02 -1.303340398985753379e-01 -1.515274747800140709e+00 -5.182959168067307904e-04 -5.724464953205580242e-01 -3.375288138374358260e-01 -8.760229366549248109e-01 2.257861684078252829e-01 4.467294685553855563e-04
-1.034613110602020436e+00 -8.466918027378542155e-02 -1.684095823089408472e-01 -1.495462344117804099e+00 -4.157570754255094769e-04 -5.785646413134624133e-01 -3.896765313389816687e-01 -7.615108482073099649e-01 3.962480736467324793e-01 2.050776827624426271e-03
-1.063920580942123717e+00 -1.063518327272896524e-01 -2.009719391103137465e-01 -1.468463635362478037e+00 -2.541259467160930088e-04 -5.861494068020649539e-01 -4.336530490700847285e-01 -6.512471360274582066e-01 5.399741751065230133e-01 3.232622574188328927e-03
-1.093658030476708731e+00 -1.298258764904986762e-01 -2.284012874785044389e-01 -1.435589309166563909e+00 -5.491027693270710041e-05 -5.947489906917000635e-01 -4.694808752641803085e-01 -5.485869673638135158e-01 6.574865239182811072e-01 3.984313395667717951e-03
-1.123857992355754565e+00 -1.547075535672018387e-01 -2.511817964877817722e-01 -1.398050372863335999e+00 1.629060765140099328e-04 -6.039992375809182246e-01 -4.976335415340633062e-01 -4.556101801855471090e-01 7.507787260645564231e-01 4.356327068934340123e-03
-1.154541027651040608e+00 -1.806523470450669133e-01 -2.698474490500255563e-01 -1.356911896854628097e+00 3.842103362261489827e-04 -6.136607059057229696e-01 -5.188958695573013813e-01 -3.733130512448750715e-01 8.227695201741581643e-01 4.426085194242781323e-03
-1.185721745671160177e+00 -2.073625034614504647e-01 -2.849454708963689020e-01 -1.313072577246881645e+00 5.973364585474229748e-04 -6.236143604023925979e-01 -5.342031283276706954e-01 -3.019604369268667488e-01 8.767863921549301498e-01 4.262522446425478541e-03
-1.217413487394660487e+00 -2.345879250178975195e-01 -2.970161702428252837e-01 -1.267263795269598647e+00 7.913670381020005730e-04 -6.338348344700059922e-01 -5.445084311289412060e-01 -2.414139869291278551e-01 9.161756395456618352e-01 3.880611591091552830e-03
-1.249631642807762288e+00 -2.621244721467619887e-01 -3.065835250998971140e-01 -1.220054481676345004e+00 9.469781374848486050e-04 -6.443631082620355777e-01 -5.507309425772891620e-01 -1.913470971414362176e-01 9.441862718650742003e-01 3.112221987656960207e-03
-1.282395671993587838e+00 -2.898094434123805740e-01 -3.141551166309987653e-01 -1.171862721606081736e+00 1.001444802359176701e-03 -6.552805837165123215e-01 -5.536994253123721510e-01 -1.514318306220331922e-01 9.638352014052631311e-01 1.089333297486563216e-03
-1.315730070735692481e+00 -3.175157803610469398e-01 -3.202259428842703648e-01 -1.122970800012577541e+00 1.011492624725745648e-03 -6.666879748420915242e-01 -5.541267389733274262e-01 -1.214165250654315742e-01 9.778384318700822364e-01 2.009564473313806693e-04
-1.349664682017420514e+00 -3.451455913728046498e-01 -3.252848233727216321e-01 -1.073541127892658542e+00 9.735414861923477430e-04 -6.786922256345591098e-01 -5.525962202351537567e-01 -1.011776097690255394e-01 9.885934423983793184e-01 -7.590227706679572237e-04
-1.384234368670596904e+00 -3.726243514537894153e-01 -3.298219584925573544e-01 -1.023628721925819551e+00 7.581167264502455296e-04 0.000000000000000000e+00 0.000000000000000000e+00 0.000000000000000000e+00 0.000000000000000000e+00 0.000000000000000000e+00
-1.384234368670596904e+00 -3.726243514537894153e-01 -3.298219584925573544e-01 -1.023628721925819551e+00 7.581167264502455296e-04 0.000000000000000000e+00 0.000000000000000000e+00 0.000000000000000000e+00 0.000000000000000000e+00 0.000000000000000000e+00
-1.384234368670596904e+00 -3.726243514537894153e-01 -3.298219584925573544e-01 -1.023628721925819551e+00 7.581167264502455296e-04 0.000000000000000000e+00 0.000000000000000000e+00 0.000000000000000000e+00 0.000000000000000000e+00 0.000000000000000000e+00
-1.384234368670596904e+00 -3.726243514537894153e-01 -3.298219584925573544e-01 -1.023628721925819551e+00 7.581167264502455296e-04 0.000000000000000000e+00 0.000000000000000000e+00 0.000000000000000000e+00 0.000000000000000000e+00 0.000000000000000000e+00
-1.384234368670596904e+00 -3.726243514537894153e-01 -3.298219584925573544e-01 -1.023628721925819551e+00 7.581167264502455296e-04 0.000000000000000000e+00 0.000000000000000000e+00 0.000000000000000000e+00 0.000000000000000000e+00 0.000000000000000000e+00
-1.384234368670596904e+00 -3.726243514537894153e-01 -3.298219584925573544e-01 -1.023628721925819551e+00 7.581167264502455296e-04 0.000000000000000000e+00 0.000000000000000000e+00 0.000000000000000000e+00 0.000000000000000000e+00 0.000000000000000000e+00
-1.384234368670596904e+00 -3.726243514537894153e-01 -3.298219584925573544e-01 -1.023628721925819551e+00 7.581167264502455296e-04 0.000000000000000000e+00 0.000000000000000000e+00 0.000000000000000000e+00 0.000000000000000000e+00 0.000000000000000000e+00
-1.384234368670596904e+00 -3.726243514537894153e-01 -3.298219584925573544e-01 -1.023628721925819551e+00 7.581167264502455296e-04 0.000000000000000000e+00 0.000000000000000000e+00 0.000000000000000000e+00 0.000000000000000000e+00 0.000000000000000000e+00
-1.384234368670596904e+00 -3.726243514537894153e-01 -3.298219584925573544e-01 -1.023628721925819551e+00 7.581167264502455296e-04 0.000000000000000000e+00 0.000000000000000000e+00 0.000000000000000000e+00 0.000000000000000000e+00 0.000000000000000000e+00
-1.384234368670596904e+00 -3.726243514537894153e-01 -3.298219584925573544e-01 -1.023628721925819551e+00 7.581167264502455296e-04 0.000000000000000000e+00 0.000000000000000000e+00 0.000000000000000000e+00 0.000000000000000000e+00 0.000000000000000000e+00
