5.236332888979016165e-01 1.338506888993688804e-01 4.597380240876668411e-01
5.236332888979016165e-01 1.338506888993688804e-01 4.597380240876668411e-01
5.236332888979016165e-01 1.338506888993688804e-01 4.597380240876668411e-01
5.236332888979016165e-01 1.338506888993688804e-01 4.597380240876668411e-01
5.236332888979016165e-01 1.338506888993688804e-01 4.597380240876668411e-01
5.236332888979016165e-01 1.338506888993688804e-01 4.597380240876668411e-01
5.236332888979016165e-01 1.338506888993688804e-01 4.597380240876668411e-01
5.236332888979016165e-01 1.338506888993688804e-01 4.597380240876668411e-01
5.236332888979016165e-01 1.338506888993688804e-01 4.597380240876668411e-01
5.236332888979016165e-01 1.338506888993688804e-01 4.597380240876668411e-01
5.236332888979016165e-01 1.338506888993688804e-01 4.597380240876668411e-01
5.236332888979016165e-01 1.338506888993688804e-01 4.597380240876668411e-01
5.236332888979016165e-01 1.338506888993688804e-01 4.597380240876668411e-01
5.236332888979016165e-01 1.338506888993688804e-01 4.597380240876668411e-01
5.236332888979016165e-01 1.338506888993688804e-01 4.597380240876668411e-01
5.236332888979016165e-01 1.338506888993688804e-01 4.597380240876668411e-01
5.236332888979016165e-01 1.338506888993688804e-01 4.597380240876668411e-01
5.236332888979016165e-01 1.338506888993688804e-01 4.597380240876668411e-01
5.236332888979016165e-01 1.338506888993688804e-01 4.597380240876668411e-01
5.236332888979016165e-01 1.338506888993688804e-01 4.597380240876668411e-01
5.236332888979016165e-01 1.338506888993688804e-01 4.597380240876668411e-01
5.236332888979016165e-01 1.338506888993688804e-01 4.597380240876668411e-01
5.236332888979016165e-01 1.338506888993688804e-01 4.597380240876668411e-01
5.236332888979016165e-01 1.338506888993688804e-01 4.597380240876668411e-01
5.236332888979016165e-01 1.338506888993688804e-01 4.597380240876668411e-01
5.236332888979016165e-01 1.338506888993688804e-01 4.597380240876668411e-01
5.236332888979016165e-01 1.338506888993688804e-01 4.597380240876668411e-01
5.236332888979016165e-01 1.338506888993688804e-01 4.597380240876668411e-01
5.236332888979016165e-01 1.338506888993688804e-01 4.597380240876668411e-01
5.236332888979016165e-01 1.338506888993688804e-01 4.597380240876668411e-01
