-6.977941982630398998e-01 -8.357911162759559809e-02 7.770720709856679953e-01 -1.083030126771906909e+00 0.000000000000000000e+00 -4.625625286177941983e-04 6.681813088467631646e-05 2.858359499023181705e-04 -4.350529997963349226e-04 0.000000000000000000e+00
-7.073001153609094205e-01 -8.497748084680656344e-02 7.660095236323299916e-01 -1.127310343775616452e+00 2.368186773148172101e-04 -1.901183419573903022e-01 -2.796738438421935910e-02 -2.212509470667589906e-01 -8.856043400741901994e-01 4.736373546296343551e-03
-7.240123000310569878e-01 -8.908625355221537478e-02 7.453272337996544872e-01 -1.205627298612700127e+00 5.903237670354236945e-04 -3.342436934029502371e-01 -8.217545410817625462e-02 -4.136457966535099229e-01 -1.566339096741673043e+00 7.070101794412128604e-03
-7.457622733502595747e-01 -9.717493068971211345e-02 7.155547267280758517e-01 -1.307846496286806826e+00 8.930574390890820948e-04 -4.349994663840524578e-01 -1.617735427499347456e-01 -5.954501414315722663e-01 -2.044383953482131755e+00 6.054673441073168440e-03
-7.705810442736910071e-01 -1.103257310197451463e-01 6.763811897917078042e-01 -1.424243169949016563e+00 1.027871248083289451e-03 -4.963754184686295368e-01 -2.630160066006605457e-01 -7.834707387273619483e-01 -2.327933473244193419e+00 2.696276179884145828e-03
-7.967478075921059499e-01 -1.293276664320058000e-01 6.270024839238402814e-01 -1.545811490576737501e+00 9.696060522602924746e-04 -5.233352663682980799e-01 -3.800387082452130194e-01 -9.875741173573509002e-01 -2.431366412554417433e+00 -1.165303916459938232e-03
-8.228049745708081453e-01 -1.546527535352816840e-01 5.666714463998258067e-01 -1.664503672690427871e+00 6.928081539009819630e-04 -5.211433395740431296e-01 -5.065017420655175684e-01 -1.206620750480288606e+00 -2.373843642273808729e+00 -5.535957967186208931e-03
-8.475490829672382986e-01 -1.865187013976039865e-01 4.953072246047263705e-01 -1.773378686790363146e+00 2.469674398285153058e-04 -4.948821679286041775e-01 -6.373189572464458275e-01 -1.427284435901988946e+00 -2.177500281998706377e+00 -8.916814281449332927e-03
-8.700181214908963012e-01 -2.250135001900769038e-01 4.140214755800777358e-01 -1.866697353003172744e+00 -2.708557117708168950e-04 -4.493807704731604402e-01 -7.698959758494582362e-01 -1.625714980492972916e+00 -1.866373324256189514e+00 -1.035646303198664402e-02
-8.895070770649748937e-01 -2.702246750210249848e-01 3.253873433773220025e-01 -1.940035823605320120e+00 -7.355311863995685120e-04 -3.897791114815716274e-01 -9.042234966189612866e-01 -1.772682644055114665e+00 -1.466769412042945309e+00 -9.293509492575034725e-03
-9.056182650150208513e-01 -3.222981067939167943e-01 2.332677791899609998e-01 -1.990443844161984055e+00 -1.030574037398154482e-03 -3.222237590009192632e-01 -1.041468635457836411e+00 -1.842391283747220276e+00 -1.008160411133279144e+00 -5.900857019971720262e-03
-9.183009305652850562e-01 -3.813750323596285519e-01 1.421414857398474729e-01 -2.016596744578822431e+00 -1.129207908155487137e-03 -2.536533110052850981e-01 -1.181538511314234707e+00 -1.822525869002270760e+00 -5.230580083367664113e-01 -1.972677415146652236e-03
-9.278090948480421929e-01 -4.474389837512611212e-01 5.613344343400322733e-02 -2.018818993085538693e+00 -1.137895731379813145e-03 -1.901632856551424000e-01 -1.321279027832650943e+00 -1.720160846116884912e+00 -4.444497013432935351e-02 -1.737564644865199470e-04
-9.345574662572339042e-01 -5.201814675145038924e-01 -2.182890008820302652e-02 -1.998867661153947317e+00 -1.104103911710394405e-03 -1.349674281838346424e-01 -1.454849675264855868e+00 -1.559246870444125133e+00 3.990266386318260805e-01 6.758363933883752318e-04
-9.389369706804321369e-01 -5.989802213064667757e-01 -9.037551473568500304e-02 -1.959477932555533375e+00 -1.023870254168649744e-03 -8.759008846396526549e-02 -1.575975075839258777e+00 -1.370932292949639253e+00 7.877945719682770687e-01 1.604673150834894958e-03
-9.411722295252170634e-01 -6.829713390448802768e-01 -1.495244268013154465e-01 -1.903880700706176432e+00 -8.455641855459988506e-04 -4.470517689569941666e-02 -1.679822354768269355e+00 -1.182978241312608869e+00 1.111944636987137969e+00 3.566121372453017434e-03
-9.412463950378127109e-01 -7.711855880385596329e-01 -2.001877654014936336e-01 -1.835323651248283561e+00 -5.838069830666726360e-04 -1.483310251914025935e-03 -1.764284979873586900e+00 -1.013266772003563743e+00 1.371140989157855650e+00 5.235144049586523858e-03
-9.388758602990036062e-01 -8.626604709193541609e-01 -2.436311133843645504e-01 -1.756784969016808695e+00 -2.866660384683378184e-04 4.741069477618149730e-02 -1.829497657615889228e+00 -8.688669596574185583e-01 1.570773644629497756e+00 5.942818891966696569e-03
-9.334972600155565514e-01 -9.565211750998400264e-01 -2.810334943035001642e-01 -1.670806076868004419e+00 7.335150581371668605e-06 1.075720056689415255e-01 -1.877214083609717532e+00 -7.480476183827120540e-01 1.719577842976086179e+00 5.880023780994188438e-03
-9.242538855256027253e-01 -1.052011275799692225e+00 -3.132002779306846674e-01 -1.579468315417778435e+00 2.737311693091867186e-04 1.848674897990774946e-01 -1.909802013997043968e+00 -6.433356725436899515e-01 1.826755229004521475e+00 5.327920374556300784e-03
-9.100057035410037409e-01 -1.148522785251493428e+00 -3.404013874772163772e-01 -1.484316412648963412e+00 5.005203020139587216e-04 2.849636396919806858e-01 -1.930230189036026056e+00 -5.440221909306346415e-01 1.903038055376301330e+00 4.535782654095439625e-03
-8.894185846364390802e-01 -1.245585496951820748e+00 -3.623478267381081697e-01 -1.386387367064561893e+00 6.822463563550138161e-04 4.117423780912928821e-01 -1.941254234006545509e+00 -4.389287852178359595e-01 1.958580911688030390e+00 3.634521086821101022e-03
-8.612421916687659218e-01 -1.342860527374426516e+00 -3.783563632717895642e-01 -1.286209612844970263e+00 8.159394139697797969e-04 5.635278593534633895e-01 -1.945500608452114921e+00 -3.201707306736281122e-01 2.003555084391832164e+00 2.673861152295319184e-03
-8.248704165211723227e-01 -1.440149191752863711e+00 -3.878144276464234874e-01 -1.183794506476313124e+00 9.003365382095388468e-04 7.274355029518719817e-01 -1.945773287568743237e+00 -1.891612874926783538e-01 2.048302127373142767e+00 1.687942484795181214e-03
-7.810624752161100526e-01 -1.537410989591094568e+00 -3.909397903007271746e-01 -1.078713280911302030e+00 9.379947676794228974e-04 8.761588261012456247e-01 -1.945235956764616692e+00 -6.250725308607393838e-02 2.101624511300223208e+00 7.531645893976817710e-04
-7.322726048008234567e-01 -1.634759013383540349e+00 -3.894191239120267101e-01 -9.703421357133230618e-01 9.377143447492815049e-04 9.757974083057313619e-01 -1.946960475848913852e+00 3.041332777400973519e-02 2.167422903959580260e+00 -5.608458602827525070e-06
-6.819820331617544307e-01 -1.732387613039296559e+00 -3.862518891569593493e-01 -8.582058886499002170e-01 9.115763921450853804e-04 1.005811432781380077e+00 -1.952571993115123972e+00 6.334469510134690950e-02 2.242724941268457339e+00 -5.227590520839232478e-04
-6.333442512335033525e-01 -1.830442875078642340e+00 -3.847817366000488848e-01 -7.421906277473241387e-01 8.677377229767198764e-04 9.727556385650217852e-01 -1.961105240786917170e+00 2.940305113820941563e-02 2.320305218051521567e+00 -8.767733833673094310e-04
-5.882358849669676593e-01 -1.928916033354290960e+00 -3.877860438485174477e-01 -6.225294594997359265e-01 8.107743316349934467e-04 9.021673253307130880e-01 -1.969463165512974179e+00 -6.008614496937078608e-02 2.393223364951763354e+00 -1.139267826834529027e-03
-5.472166767058591619e-01 -2.027617472781304997e+00 -3.972606462701540053e-01 -4.996682813304668125e-01 7.779843473849081762e-04 8.203841652221705028e-01 -1.974028788540283852e+00 -1.894920484327312915e-01 2.457223563385381393e+00 -6.557996850017049767e-04
