-2.806659190644379409e-01 -1.051383386862788788e-01 6.828261265164152771e-01 -1.353523113182539150e+00 3.180620429305337261e-04 -2.935400542226655474e-01 6.815745725018514112e-02 -7.634665453010873737e-01 -7.102333324122174218e-01 1.602221013655349231e-03
-2.980818803642221737e-01 -1.021395583166497256e-01 6.364644713175883206e-01 -1.393169756981818663e+00 3.069080390923596626e-04 -3.483192259956842118e-01 5.997560739258298718e-02 -9.272331039765387972e-01 -7.929328759855887032e-01 -2.230800767634812717e-04
-3.173261208614070461e-01 -1.002111582207093898e-01 5.837735850051070097e-01 -1.433383180550971359e+00 1.893359537914254267e-04 -3.848848099436971149e-01 3.856800191880663253e-02 -1.053817726249625775e+00 -8.042684713830523524e-01 -2.351441706018684609e-03
-3.376423986694600532e-01 -9.993031010330266639e-02 5.264095365203471655e-01 -1.470939584571281156e+00 -2.642228653230090942e-05 -4.063255561610604749e-01 5.616962348134593719e-03 -1.147280969695197328e+00 -7.511280804061959415e-01 -4.315164806474525855e-03
-3.584370948054815820e-01 -1.017835372405672262e-01 4.659110855296867970e-01 -1.503078631530075260e+00 -3.134317148545935714e-04 -4.158939227204307976e-01 -3.706454274529126514e-02 -1.209969019813207147e+00 -6.427809391758814161e-01 -5.740188566445853131e-03
-3.792767322187036161e-01 -1.061626326963136108e-01 4.037651931426100571e-01 -1.527601561485447235e+00 -6.288346527950694010e-04 -4.167927482644411818e-01 -8.758190911492774733e-02 -1.242917847741534354e+00 -4.904585991074401630e-01 -6.308058758809516157e-03
-3.998794055733809749e-01 -1.133590703820721302e-01 3.414234760024878468e-01 -1.542941690418615730e+00 -9.068691238766711082e-04 -4.120534670935466770e-01 -1.439287537151703045e-01 -1.246834342802444207e+00 -3.068025786633696295e-01 -5.560689421632035445e-03
-4.200995846708824866e-01 -1.235564114486123605e-01 2.802645745693522206e-01 -1.548192088963387558e+00 -1.009619295666071715e-03 -4.044035819500301221e-01 -2.039468213308044953e-01 -1.223178028662712302e+00 -1.050079708954373414e-01 -2.055003435788011271e-03
-4.399059419604327004e-01 -1.368226558938706872e-01 2.215221263219512293e-01 -1.543086137942670355e+00 -1.036757461103507720e-03 -3.961271457910039429e-01 -2.653248889051665893e-01 -1.174848964948019381e+00 1.021190204143447300e-01 -5.427633087487192254e-04
-4.593526631015393824e-01 -1.531074548039053906e-01 1.662098609927555315e-01 -1.527930539633348905e+00 -1.040989155498821695e-03 -3.889344228221332522e-01 -3.256959782006941251e-01 -1.106245306583914179e+00 3.031119661864308812e-01 -8.463388790627950770e-05
-4.785489479988458417e-01 -1.722463729278260747e-01 1.150694978735252588e-01 -1.503507135150967455e+00 -1.038196349012215740e-03 -3.839256979461296293e-01 -3.827783624784134586e-01 -1.022807262384605398e+00 4.884680896476273348e-01 5.585612973211810293e-05
-4.976301933696722912e-01 -1.939755321714178027e-01 6.855716378033177572e-02 -1.470949496963829484e+00 -1.032303713447771821e-03 -3.816249074165286581e-01 -4.345831848718344492e-01 -9.302466818638696067e-01 6.511527637427593218e-01 1.178527112888767657e-04
-5.167346514817644509e-01 -2.179562228786020572e-01 2.686861421368846869e-02 -1.431607869924093723e+00 -1.024763580273301347e-03 -3.820891622418428057e-01 -4.796138141436849800e-01 -8.337709913328660294e-01 7.868325407947145411e-01 1.508026634894076858e-04
-5.359879467888674087e-01 -2.438039807583853302e-01 -1.000919245847359945e-02 -1.386924544127033476e+00 -1.015912398440665986e-03 -3.850659061420583784e-01 -5.169551575956655709e-01 -7.375561334432412242e-01 8.936665159412044979e-01 1.770236366527061424e-04
-5.554947700752450590e-01 -2.711188660376795956e-01 -4.223611313896825231e-02 -1.338325419251198412e+00 -1.001632915877358025e-03 -3.901364657275538939e-01 -5.462977055858854181e-01 -6.445384136098930572e-01 9.719824975167001835e-01 2.855896512661584537e-04
-5.753365027136149168e-01 -2.995113516890679506e-01 -7.006083154793943391e-02 -1.287140800175095467e+00 -9.649504511865909188e-04 -3.968346527673961566e-01 -5.678497130277666560e-01 -5.564943681794236596e-01 1.023692381522058437e+00 7.336492938153425618e-04
-5.955725332819690188e-01 -3.286223745687193443e-01 -9.377527039229457961e-02 -1.234552790873482353e+00 -8.733894507707776070e-04 -4.047206113670830940e-01 -5.822204575930280956e-01 -4.742887768871029142e-01 1.051760186032264066e+00 1.831220008316266235e-03
-6.162434792259600114e-01 -3.581378276435464025e-01 -1.136844370969943008e-01 -1.181561976580384643e+00 -7.763520924937947513e-04 -4.134189188798200743e-01 -5.903090614965409433e-01 -3.981833340939945343e-01 1.059816285861952201e+00 1.940747165539657331e-03
-6.373751262288405162e-01 -3.877977158495968801e-01 -1.300892629943189160e-01 -1.128970473491977877e+00 -6.909599886439907798e-04 -4.226329400576090967e-01 -5.931977641210098851e-01 -3.280965179464924164e-01 1.051830061768136204e+00 1.707842076996078998e-03
-6.589825333405019414e-01 -4.174003534435328233e-01 -1.432804149051453979e-01 -1.077377229276227366e+00 -6.235903265553882375e-04 -4.321481422332295041e-01 -5.920527518787194188e-01 -2.638230382165298593e-01 1.031864884315010666e+00 1.347393241772050412e-03
-6.810738402810402325e-01 -4.468034395635676059e-01 -1.535383440432991908e-01 -1.027179278583360666e+00 -5.755945554456662599e-04 -4.418261388107651566e-01 -5.880617224006952082e-01 -2.051585827630760805e-01 1.003959013857333993e+00 9.599154221944395521e-04
-7.036545171013086630e-01 -4.759152815952613635e-01 -1.611421148778675316e-01 -9.786043830193117410e-01 -5.461860156758680928e-04 -4.516135364053686096e-01 -5.822368406338754854e-01 -1.520754166913666217e-01 9.714979112809793982e-01 5.881707953959631249e-04
-7.267306973753547839e-01 -5.046882781792897399e-01 -1.663775398743737588e-01 -9.317309984563534320e-01 -5.337960137665910673e-04 -4.615236054809229160e-01 -5.754599316805664166e-01 -1.047084999301247654e-01 9.374676912591651812e-01 2.478000381855398598e-04
-7.503119482522110362e-01 -5.331121182867823993e-01 -1.695458197521566568e-01 -8.865054207351643623e-01 -5.370574583693912352e-04 -4.716250175371256570e-01 -5.684768021498527446e-01 -6.336559755565818186e-02 9.045115544237819494e-01 -6.522889205600341253e-05
-7.744135572432871983e-01 -5.612083870969641897e-01 -1.709714988577825667e-01 -8.427514295796185717e-01 -5.560271431515384282e-04 -4.820321798215226328e-01 -5.619253762036356958e-01 -2.851358211251806690e-02 8.750798231109164771e-01 -3.793936956429428851e-04
-7.990587150142424155e-01 -5.890246277014122844e-01 -1.710079594667238412e-01 -8.001828385516598363e-01 -5.978243633376169926e-04 -4.929031554191040110e-01 -5.563248120889618953e-01 -7.292121788255619130e-04 8.513718205591742638e-01 -8.359444037215706374e-04
-8.242806077751247962e-01 -6.166269362912633056e-01 -1.700433742405950965e-01 -7.584212554850181531e-01 -6.973304998636301088e-04 -5.044378552176473907e-01 -5.520461717970197579e-01 1.929170452257471247e-02 8.352316613328329975e-01 -1.990122730520262322e-03
-8.501240875219991944e-01 -6.440930201158845403e-01 -1.685025291395175484e-01 -7.170143863916351723e-01 -1.001407981941665514e-03 0.000000000000000000e+00 0.000000000000000000e+00 0.000000000000000000e+00 0.000000000000000000e+00 0.000000000000000000e+00
-8.501240875219991944e-01 -6.440930201158845403e-01 -1.685025291395175484e-01 -7.170143863916351723e-01 -1.001407981941665514e-03 0.000000000000000000e+00 0.000000000000000000e+00 0.000000000000000000e+00 0.000000000000000000e+00 0.000000000000000000e+00
-8.501240875219991944e-01 -6.440930201158845403e-01 -1.685025291395175484e-01 -7.170143863916351723e-01 -1.001407981941665514e-03 0.000000000000000000e+00 0.000000000000000000e+00 0.000000000000000000e+00 0.000000000000000000e+00 0.000000000000000000e+00
-8.501240875219991944e-01 -6.440930201158845403e-01 -1.685025291395175484e-01 -7.170143863916351723e-01 -1.001407981941665514e-03 0.000000000000000000e+00 0.000000000000000000e+00 0.000000000000000000e+00 0.000000000000000000e+00 0.000000000000000000e+00
