-1.391354020852572315e+00 -3.037638576794026157e-01 -3.909787345244208345e-01 -1.165367542009017932e+00 -2.505379262563191663e-05 -6.568930287952857716e-01 -5.806984048867972481e-01 5.302689116099660455e-03 9.412731132715294047e-01 8.875075212656265275e-05
-1.424703497582622713e+00 -3.324793506979651370e-01 -3.903236022852399900e-01 -1.118637786195166184e+00 -4.903066222834195681e-05 -6.669895346010068504e-01 -5.743098603712503136e-01 1.310264478361678267e-02 9.345951162770358422e-01 -4.795373920542006139e-04
-1.458634534472050603e+00 -3.609400299132696777e-01 -3.894946897370075156e-01 -1.071973257066047402e+00 -1.639078508321598006e-04 0.000000000000000000e+00 0.000000000000000000e+00 0.000000000000000000e+00 0.000000000000000000e+00 0.000000000000000000e+00
-1.458634534472050603e+00 -3.609400299132696777e-01 -3.894946897370075156e-01 -1.071973257066047402e+00 -1.639078508321598006e-04 0.000000000000000000e+00 0.000000000000000000e+00 0.000000000000000000e+00 0.000000000000000000e+00 0.000000000000000000e+00
-1.458634534472050603e+00 -3.609400299132696777e-01 -3.894946897370075156e-01 -1.071973257066047402e+00 -1.639078508321598006e-04 0.000000000000000000e+00 0.000000000000000000e+00 0.000000000000000000e+00 0.000000000000000000e+00 0.000000000000000000e+00
-1.458634534472050603e+00 -3.609400299132696777e-01 -3.894946897370075156e-01 -1.071973257066047402e+00 -1.639078508321598006e-04 0.000000000000000000e+00 0.000000000000000000e+00 0.000000000000000000e+00 0.000000000000000000e+00 0.000000000000000000e+00
-1.458634534472050603e+00 -3.609400299132696777e-01 -3.894946897370075156e-01 -1.071973257066047402e+00 -1.639078508321598006e-04 0.000000000000000000e+00 0.000000000000000000e+00 0.000000000000000000e+00 0.000000000000000000e+00 0.000000000000000000e+00
-1.458634534472050603e+00 -3.609400299132696777e-01 -3.894946897370075156e-01 -1.071973257066047402e+00 -1.639078508321598006e-04 0.000000000000000000e+00 0.000000000000000000e+00 0.000000000000000000e+00 0.000000000000000000e+00 0.000000000000000000e+00
-1.458634534472050603e+00 -3.609400299132696777e-01 -3.894946897370075156e-01 -1.071973257066047402e+00 -1.639078508321598006e-04 0.000000000000000000e+00 0.000000000000000000e+00 0.000000000000000000e+00 0.000000000000000000e+00 0.000000000000000000e+00
-1.458634534472050603e+00 -3.609400299132696777e-01 -3.894946897370075156e-01 -1.071973257066047402e+00 -1.639078508321598006e-04 0.000000000000000000e+00 0.000000000000000000e+00 0.000000000000000000e+00 0.000000000000000000e+00 0.000000000000000000e+00
-1.458634534472050603e+00 -3.609400299132696777e-01 -3.894946897370075156e-01 -1.071973257066047402e+00 -1.639078508321598006e-04 0.000000000000000000e+00 0.000000000000000000e+00 0.000000000000000000e+00 0.000000000000000000e+00 0.000000000000000000e+00
-1.458634534472050603e+00 -3.609400299132696777e-01 -3.894946897370075156e-01 -1.071973257066047402e+00 -1.639078508321598006e-04 0.000000000000000000e+00 0.000000000000000000e+00 0.000000000000000000e+00 0.000000000000000000e+00 0.000000000000000000e+00
-1.458634534472050603e+00 -3.609400299132696777e-01 -3.894946897370075156e-01 -1.071973257066047402e+00 -1.639078508321598006e-04 0.000000000000000000e+00 0.000000000000000000e+00 0.000000000000000000e+00 0.000000000000000000e+00 0.000000000000000000e+00
-1.458634534472050603e+00 -3.609400299132696777e-01 -3.894946897370075156e-01 -1.071973257066047402e+00 -1.639078508321598006e-04 0.000000000000000000e+00 0.000000000000000000e+00 0.000000000000000000e+00 0.000000000000000000e+00 0.000000000000000000e+00
-1.458634534472050603e+00 -3.609400299132696777e-01 -3.894946897370075156e-01 -1.071973257066047402e+00 -1.639078508321598006e-04 0.000000000000000000e+00 0.000000000000000000e+00 0.000000000000000000e+00 0.000000000000000000e+00 0.000000000000000000e+00
-1.458634534472050603e+00 -3.609400299132696777e-01 -3.894946897370075156e-01 -1.071973257066047402e+00 -1.639078508321598006e-04 0.000000000000000000e+00 0.000000000000000000e+00 0.000000000000000000e+00 0.000000000000000000e+00 0.000000000000000000e+00
-1.458634534472050603e+00 -3.609400299132696777e-01 -3.894946897370075156e-01 -1.071973257066047402e+00 -1.639078508321598006e-04 0.000000000000000000e+00 0.000000000000000000e+00 0.000000000000000000e+00 0.000000000000000000e+00 0.000000000000000000e+00
-1.458634534472050603e+00 -3.609400299132696777e-01 -3.894946897370075156e-01 -1.071973257066047402e+00 -1.639078508321598006e-04 0.000000000000000000e+00 0.000000000000000000e+00 0.000000000000000000e+00 0.000000000000000000e+00 0.000000000000000000e+00
-1.458634534472050603e+00 -3.609400299132696777e-01 -3.894946897370075156e-01 -1.071973257066047402e+00 -1.639078508321598006e-04 0.000000000000000000e+00 0.000000000000000000e+00 0.000000000000000000e+00 0.000000000000000000e+00 0.000000000000000000e+00
-1.458634534472050603e+00 -3.609400299132696777e-01 -3.894946897370075156e-01 -1.071973257066047402e+00 -1.639078508321598006e-04 0.000000000000000000e+00 0.000000000000000000e+00 0.000000000000000000e+00 0.000000000000000000e+00 0.000000000000000000e+00
-1.458634534472050603e+00 -3.609400299132696777e-01 -3.894946897370075156e-01 -1.071973257066047402e+00 -1.639078508321598006e-04 0.000000000000000000e+00 0.000000000000000000e+00 0.000000000000000000e+00 0.000000000000000000e+00 0.000000000000000000e+00
-1.458634534472050603e+00 -3.609400299132696777e-01 -3.894946897370075156e-01 -1.071973257066047402e+00 -1.639078508321598006e-04 0.000000000000000000e+00 0.000000000000000000e+00 0.000000000000000000e+00 0.000000000000000000e+00 0.000000000000000000e+00
-1.458634534472050603e+00 -3.609400299132696777e-01 -3.894946897370075156e-01 -1.071973257066047402e+00 -1.639078508321598006e-04 0.000000000000000000e+00 0.000000000000000000e+00 0.000000000000000000e+00 0.000000000000000000e+00 0.000000000000000000e+00
-1.458634534472050603e+00 -3.609400299132696777e-01 -3.894946897370075156e-01 -1.071973257066047402e+00 -1.639078508321598006e-04 0.000000000000000000e+00 0.000000000000000000e+00 0.000000000000000000e+00 0.000000000000000000e+00 0.000000000000000000e+00
-1.458634534472050603e+00 -3.609400299132696777e-01 -3.894946897370075156e-01 -1.071973257066047402e+00 -1.639078508321598006e-04 0.000000000000000000e+00 0.000000000000000000e+00 0.000000000000000000e+00 0.000000000000000000e+00 0.000000000000000000e+00
-1.458634534472050603e+00 -3.609400299132696777e-01 -3.894946897370075156e-01 -1.071973257066047402e+00 -1.639078508321598006e-04 0.000000000000000000e+00 0.000000000000000000e+00 0.000000000000000000e+00 0.000000000000000000e+00 0.000000000000000000e+00
-1.458634534472050603e+00 -3.609400299132696777e-01 -3.894946897370075156e-01 -1.071973257066047402e+00 -1.639078508321598006e-04 0.000000000000000000e+00 0.000000000000000000e+00 0.000000000000000000e+00 0.000000000000000000e+00 0.000000000000000000e+00
-1.458634534472050603e+00 -3.609400299132696777e-01 -3.894946897370075156e-01 -1.071973257066047402e+00 -1.639078508321598006e-04 0.000000000000000000e+00 0.000000000000000000e+00 0.000000000000000000e+00 0.000000000000000000e+00 0.000000000000000000e+00
-1.458634534472050603e+00 -3.609400299132696777e-01 -3.894946897370075156e-01 -1.071973257066047402e+00 -1.639078508321598006e-04 0.000000000000000000e+00 0.000000000000000000e+00 0.000000000000000000e+00 0.000000000000000000e+00 0.000000000000000000e+00
-1.458634534472050603e+00 -3.609400299132696777e-01 -3.894946897370075156e-01 -1.071973257066047402e+00 -1.639078508321598006e-04 0.000000000000000000e+00 0.000000000000000000e+00 0.000000000000000000e+00 0.000000000000000000e+00 0.000000000000000000e+00
-1.458634534472050603e+00 -3.609400299132696777e-01 -3.894946897370075156e-01 -1.071973257066047402e+00 -1.639078508321598006e-04 0.000000000000000000e+00 0.000000000000000000e+00 0.000000000000000000e+00 0.000000000000000000e+00 0.000000000000000000e+00
