-3.642967473438385451e-01 -5.401148974952899584e-01 9.798871848451824462e-01 -1.028427937702626638e+00 6.223459421928768378e-04 -3.176219039543592415e-01 1.705726848324798373e-02 -7.460522488822144416e-01 -6.699316034421365362e-01 6.719805288689687309e-03
-3.851758719475579240e-01 -5.399590158730626088e-01 9.310303718717839461e-01 -1.072880369115002397e+00 8.855156759510718302e-04 -4.175824920743880231e-01 3.117632444546941314e-03 -9.771362594679708913e-01 -8.890486282475136282e-01 5.263394675163899847e-03
-4.093709739751257293e-01 -5.411265001995022583e-01 8.744839312305832113e-01 -1.124567353433881811e+00 1.022154449343456485e-03 -4.839020405513564937e-01 -2.334968652879292755e-02 -1.130928812824014029e+00 -1.033739686377586731e+00 2.732775467847692666e-03
-4.355083929348760319e-01 -5.441592505817980374e-01 8.131956811956484454e-01 -1.179934705966228625e+00 1.054169328660551448e-03 -5.227483791950064962e-01 -6.065500764591577609e-02 -1.225765000698695983e+00 -1.107347050646934505e+00 6.402975863418996876e-04
-4.625228858006484867e-01 -5.494968988544050026e-01 7.492953214319140187e-01 -1.235734335738721157e+00 1.036229821171542713e-03 -5.402898573154486517e-01 -1.067529654521391091e-01 -1.278007195274688534e+00 -1.115992595449849967e+00 -3.587901497801766499e-04
-4.896174203327936514e-01 -5.574629560724690958e-01 6.843114297653118960e-01 -1.289155902670524600e+00 9.614136606967609109e-04 -5.418906906429028503e-01 -1.593211443612828071e-01 -1.299677833332042232e+00 -1.068431338636067318e+00 -1.496323209495636257e-03
-5.162115909983824302e-01 -5.682642544630984727e-01 6.193954224309269341e-01 -1.337919033231414812e+00 7.678394795860691863e-04 -5.318834133117762430e-01 -2.160259678125872052e-01 -1.298320146687700349e+00 -9.752626112178044426e-01 -3.871483622213833624e-03
-5.418942698582221995e-01 -5.820020099653834267e-01 5.554880746242522038e-01 -1.380310763521644057e+00 5.255531714576225149e-04 -5.136535771967952746e-01 -2.747551100456983586e-01 -1.278146956133494827e+00 -8.478346058045850286e-01 -4.845726162568932995e-03
-5.663861055797215771e-01 -5.986885155037069417e-01 4.934105483579080964e-01 -1.415172398384417551e+00 2.784505665189037477e-04 -4.898367144299877185e-01 -3.337301107664705224e-01 -1.241550525326881926e+00 -6.972326972554705460e-01 -4.942052098774374694e-03
-5.895123089649307868e-01 -6.182624395432934072e-01 4.338897139621128440e-01 -1.441855458606269069e+00 5.732487979563885712e-05 -4.625240677041835835e-01 -3.914784807917287557e-01 -1.190416687915904381e+00 -5.336612044370315777e-01 -4.422513734465297053e-03
-6.111805985968196131e-01 -6.406019425471598527e-01 3.775449697036436514e-01 -1.460151986804864244e+00 -1.179384732107598783e-04 -4.333657926377764147e-01 -4.467900600773281328e-01 -1.126894885169383631e+00 -3.659305639719027115e-01 -3.505267060127974493e-03
-6.313609130067165953e-01 -6.655366680195127227e-01 3.248622956356347347e-01 -1.470205520529563659e+00 -2.372590725542938442e-04 -4.036062881979386452e-01 -4.986945094470571216e-01 -1.053653481360178112e+00 -2.010706744939863844e-01 -2.386411986870679534e-03
-6.500667372628384788e-01 -6.928591159910889585e-01 2.761739163872512504e-01 -1.472417653061871778e+00 -2.986442679817637690e-04 -3.741164851224367816e-01 -5.464489594315242726e-01 -9.737675849676699080e-01 -4.424265064616159093e-02 -1.227703908549399254e-03
-6.673392242858287027e-01 -7.223353464388859724e-01 2.316516433367144523e-01 -1.467363168665686501e+00 -3.059884752422167668e-04 -3.454497404598040888e-01 -5.895246089559394997e-01 -8.904454610107359613e-01 1.010896879237048740e-01 -1.468841452090595238e-04
-6.832345076932777594e-01 -7.537153719295347498e-01 1.913161947530000184e-01 -1.455719486957169906e+00 -2.668251675962231891e-04 -3.179056681489803027e-01 -6.276005098129747717e-01 -8.067089716742885663e-01 2.328736341703339929e-01 7.832661529198711205e-04
-6.978139588935176052e-01 -7.867436361990558513e-01 1.550604615067837921e-01 -1.438210598136446583e+00 -1.903732039056605329e-04 -2.915890240047969151e-01 -6.605652853904224742e-01 -7.251146649243243036e-01 3.501777764144670124e-01 1.529039273811253017e-03
-7.111368251969826249e-01 -8.211698820480205496e-01 1.226818586321922200e-01 -1.415561667609785523e+00 -8.594044159636327063e-05 -2.664573260693002266e-01 -6.885249169792948543e-01 -6.475720574918314432e-01 4.529786105332201385e-01 2.088655246185944919e-03
-7.232566995461040538e-01 -8.567572620137402506e-01 9.391412121557816961e-02 -1.388471077333876424e+00 3.791950787468349846e-05 -2.423974869824280509e-01 -7.117475993143939084e-01 -5.753547483322810630e-01 5.418118055181797565e-01 2.477198989420935273e-03
-7.342211759245376168e-01 -8.932877777252321572e-01 6.845367782587766237e-02 -1.357593858444065216e+00 1.737409553427905805e-04 -2.192895275686703171e-01 -7.306103142298373543e-01 -5.092088677940100894e-01 6.175443777962248415e-01 2.716428949362141316e-03
-7.440754981669431833e-01 -9.305653286619024467e-01 4.597520634161074427e-02 -1.323531454457920642e+00 3.152907273534271337e-04 -1.970864448481107201e-01 -7.455510187334055683e-01 -4.495694296853382510e-01 6.812480797228906981e-01 2.830995440212730630e-03
-7.528667455437979550e-01 -9.684194738231087785e-01 2.614374955824344537e-02 -1.286817990275813672e+00 4.577574755901190869e-04 -1.758249475370952664e-01 -7.570829032241269685e-01 -3.966291356673459223e-01 7.342692836421385039e-01 2.849334964733839497e-03
-7.606491916226516548e-01 -1.006706812924841765e+00 8.621773272956961831e-03 -1.247914570213678909e+00 5.977216355528284153e-04 -1.556489215770745782e-01 -7.657467820346599563e-01 -3.504395257057296154e-01 7.780684012426960505e-01 2.799283199254185700e-03
-7.674898572107735628e-01 -1.045311259308987495e+00 -6.926976924093292826e-03 -1.207207964534336320e+00 7.324098180601179651e-04 -1.368133117624383277e-01 -7.720889276829140391e-01 -3.109750039410050793e-01 8.141321135868516690e-01 2.693763650145791430e-03
-7.734764214347112921e-01 -1.084141598641464199e+00 -2.084132370598679174e-02 -1.165017851096036505e+00 8.575746971810236860e-04 -1.197312844787543629e-01 -7.766067866495335315e-01 -2.782869356378699921e-01 8.438022687659961774e-01 2.503297582418115286e-03
-7.787268010539208918e-01 -1.123128694018327156e+00 -3.347246832892855628e-02 -1.121603200543028978e+00 9.607567291735778564e-04 -1.050075923841930770e-01 -7.797419075372573616e-01 -2.526228924588352909e-01 8.682930110601493334e-01 2.063640639851082974e-03
-7.834009132373417339e-01 -1.162221974354920695e+00 -4.519977442291413239e-02 -1.077169835446133872e+00 9.950822669725551718e-04 -9.348224366841587085e-02 -7.818656067318691116e-01 -2.345461218797114389e-01 8.886673019379027760e-01 6.865107559795467426e-04
-7.877145729726859891e-01 -1.201385582173405409e+00 -5.645269412835738493e-02 -1.031877209280073870e+00 9.982636968405575809e-04 -8.627319470688510350e-02 -7.832721563696932732e-01 -2.250583941088650508e-01 9.058525233211990324e-01 6.362859736004633764e-05
-7.919568536858109242e-01 -1.240594274565854693e+00 -6.774102735729491120e-02 -9.858436143409509134e-01 9.868203569903368291e-04 -8.484561426249959126e-02 -7.841738478489874709e-01 -2.257666645787504978e-01 9.206718987824596967e-01 -2.288667970044169862e-04
-7.965127016595233700e-01 -1.279828656164512468e+00 -7.969772734722799234e-02 -9.391504225224542868e-01 9.814600638203077338e-04 0.000000000000000000e+00 0.000000000000000000e+00 0.000000000000000000e+00 0.000000000000000000e+00 0.000000000000000000e+00
-7.965127016595233700e-01 -1.279828656164512468e+00 -7.969772734722799234e-02 -9.391504225224542868e-01 9.814600638203077338e-04 0.000000000000000000e+00 0.000000000000000000e+00 0.000000000000000000e+00 0.000000000000000000e+00 0.000000000000000000e+00
-7.965127016595233700e-01 -1.279828656164512468e+00 -7.969772734722799234e-02 -9.391504225224542868e-01 9.814600638203077338e-04 0.000000000000000000e+00 0.000000000000000000e+00 0.000000000000000000e+00 0.000000000000000000e+00 0.000000000000000000e+00
