-5.469149628926878171e-01 -1.462607200592669632e-01 3.570550782664145828e-01 -1.236736470798021958e+00 8.997770066773522896e-04 -3.319688305774444737e-01 2.104804827880812357e-01 -9.235867358117625381e-01 -1.049180662487076088e+00 5.622469133585205996e-03
-5.670048703800621981e-01 -1.349722930326006931e-01 3.026317769043777028e-01 -1.298056600983847897e+00 1.037540142526917342e-03 -4.017981497474882868e-01 2.257685405333252071e-01 -1.088466027240737155e+00 -1.226402603716520989e+00 2.755262716991298873e-03
-5.897416463719495905e-01 -1.240685022575601648e-01 2.424803726862789222e-01 -1.363916461509065092e+00 1.050693033558269341e-03 -4.547355198377486252e-01 2.180758155008106214e-01 -1.203028084361975392e+00 -1.317197210504344795e+00 2.630578206270421486e-04
-6.144399100980072470e-01 -1.144830586548602341e-01 1.784627534156533191e-01 -1.430266366788766286e+00 9.521823878019694499e-04 -4.939652745211521312e-01 1.917088720539986135e-01 -1.280352385412512284e+00 -1.326998105594024979e+00 -1.970212915125997815e-03
-6.405575276401215268e-01 -1.069310541628064881e-01 1.120182244011108108e-01 -1.493525452224427452e+00 6.629876948716850130e-04 -5.223523508422844852e-01 1.510400898410748094e-01 -1.328890580290850165e+00 -1.265181708713221775e+00 -5.783893858605687437e-03
-6.676768156092122153e-01 -1.019298277243870232e-01 4.439760941945634920e-02 -1.550727543518314988e+00 2.802660379554221064e-04 -5.423857593818137701e-01 1.000245287683893397e-01 -1.352412299633089399e+00 -1.144041825877749829e+00 -7.654433138325257915e-03
-6.954928344139981178e-01 -9.982558833111701557e-02 -2.318253242314174956e-02 -1.599612427437694606e+00 -1.231814623225348411e-04 -5.563203760957180499e-01 4.208478786540021527e-02 -1.351602836851961920e+00 -9.776976783875916954e-01 -8.068950005559138300e-03
-7.238053448180519212e-01 -1.008140226316229932e-01 -8.948892824608399577e-02 -1.638667834301641202e+00 -4.907242183365624795e-04 -5.662502080810766225e-01 -1.976868601011942672e-02 -1.326127916458844869e+00 -7.811081372789332455e-01 -7.350855120280553635e-03
-7.525052555886059258e-01 -1.049606005660320696e-01 -1.533061317229704734e-01 -1.667084538622910062e+00 -7.857074941020066689e-04 -5.739982154110802037e-01 -8.293155868818155585e-02 -1.276344069537729720e+00 -5.683340864253788594e-01 -5.899665515308883355e-03
-7.815503116562940722e-01 -1.122543514576787305e-01 -2.134641528159181290e-01 -1.684530654988189990e+00 -9.664857721611769042e-04 -5.809011213537629281e-01 -1.458750178329332736e-01 -1.203160421858953333e+00 -3.489223273055984120e-01 -3.615565561183405139e-03
-8.109549903020684125e-01 -1.225350269633478373e-01 -2.690454357192371138e-01 -1.691364032161376540e+00 -1.031872812470338054e-03 -5.880935729154860292e-01 -2.056135101133819698e-01 -1.111625658066379474e+00 -1.366675434637322772e-01 -1.307740806183225156e-03
-8.407563680787681903e-01 -1.355197128134516815e-01 -3.194593421317559745e-01 -1.688464629031652509e+00 -1.040477007942003330e-03 -5.960275555339958897e-01 -2.596937170020766628e-01 -1.008278128250377659e+00 5.798806259447950029e-02 -1.720839094333048800e-04
-8.709873070479715595e-01 -1.508476696812238727e-01 -3.644484935846312168e-01 -1.677017054676048780e+00 -1.032800635002900473e-03 -6.046187793840681612e-01 -3.065591373554436005e-01 -8.997830290575046241e-01 2.289514871120761352e-01 1.535274587820555678e-04
-9.016625725535044600e-01 -1.681211107646792824e-01 -4.040475400693500641e-01 -1.658334734494721019e+00 -1.021915783456589510e-03 -6.135053101106587858e-01 -3.454688216691081393e-01 -7.919809296943773891e-01 3.736464036265565447e-01 2.176970309262171667e-04
-9.327758518174305014e-01 -1.869389672171406502e-01 -4.385137044139986173e-01 -1.633730015861333040e+00 -1.005769890463225616e-03 -6.222655852785214936e-01 -3.763571290492270793e-01 -6.893232868929709545e-01 4.920943726677590724e-01 3.229178598672799569e-04
-9.643038038306896986e-01 -2.069217972103532810e-01 -4.682505188277186758e-01 -1.604428025074079445e+00 -9.653990285313798726e-04 -6.305590402651847226e-01 -3.996565998642527817e-01 -5.947362882744010593e-01 5.860398157450730228e-01 8.074172386369143179e-04
-9.962132579576724600e-01 -2.277277771389042416e-01 -4.937402638775830743e-01 -1.571517218630618551e+00 -8.630413263666542349e-04 -6.381890825396560052e-01 -4.161195985710191003e-01 -5.097949009972877477e-01 6.582161288692195411e-01 2.047154043294512320e-03
-1.028468786726781881e+00 -2.490610354159045747e-01 -5.154926002023481058e-01 -1.535927474165790674e+00 -7.464880451100759521e-04 -6.451105753821880784e-01 -4.266651655400064413e-01 -4.350467264952997959e-01 7.117948892965580976e-01 2.331065625131565223e-03
-1.061038990577024332e+00 -2.706742571152870869e-01 -5.340104676483062862e-01 -1.498426793036419680e+00 -6.329008674980022946e-04 -6.514040770048510343e-01 -4.322644339876498543e-01 -3.703573489191627766e-01 7.500136225874214357e-01 2.271743552241474017e-03
-1.093901111948087701e+00 -2.923673143786700845e-01 -5.497707350642496715e-01 -1.459629364784037264e+00 -5.295380227501510174e-04 -6.572424274212684825e-01 -4.338611452676600644e-01 -3.152053483188687055e-01 7.759485650476483087e-01 2.067256894957024676e-03
-1.127043965302773287e+00 -3.139834700896059760e-01 -5.632157420585010010e-01 -1.420009628065852958e+00 -4.395480583592981886e-04 -6.628570670937131704e-01 -4.323231142187180520e-01 -2.689001398850262570e-01 7.923947343636839058e-01 1.799799287817057010e-03
-1.160469484533010798e+00 -3.354042808522793573e-01 -5.747519965415757159e-01 -1.379918741563772366e+00 -3.639678214958572675e-04 -6.685103846047507625e-01 -4.284162152534672918e-01 -2.307250896614944369e-01 8.018177300416132747e-01 1.511604737268818204e-03
-1.194193233948857458e+00 -3.565439834932661589e-01 -5.847530210463489642e-01 -1.339601213868297780e+00 -3.026630606543023803e-04 -6.744749883169339766e-01 -4.227940528197363657e-01 -2.000204900954639931e-01 8.063505539094899532e-01 1.226095216831097744e-03
-1.228244183994595007e+00 -3.773438852543460897e-01 -5.935642008077584020e-01 -1.299210364864945788e+00 -2.548894394152374917e-04 -6.810190009147525370e-01 -4.159980352215987831e-01 -1.762235952281882012e-01 8.078169800670403911e-01 9.554724247812977720e-04
-1.262663980379081563e+00 -3.977670899627269163e-01 -6.015082403762109786e-01 -1.258821887237683068e+00 -2.196303642966919434e-04 -6.883959276897296808e-01 -4.084640941676165871e-01 -1.588807913690506446e-01 8.077695525452542880e-01 7.051815023709114005e-04
-1.297505866064977198e+00 -4.177937650959414606e-01 -6.088904075861991672e-01 -1.218445143583064549e+00 -1.956631758125793930e-04 -6.968377137179121439e-01 -4.005335026642908858e-01 -1.476433441997638263e-01 8.075348730923709306e-01 4.793437696822513863e-04
-1.332833360689447355e+00 -4.374170708274508490e-01 -6.160031390763430759e-01 -1.178032053885339714e+00 -1.809372333882833825e-04 -7.065498924894012545e-01 -3.924661146301874348e-01 -1.422546298028788125e-01 8.082617939544988195e-01 2.945188484859204278e-04
-1.368718762468626560e+00 -4.566398163721624437e-01 -6.231298385613969204e-01 -1.137483564015790538e+00 -1.694757603964047092e-04 0.000000000000000000e+00 0.000000000000000000e+00 0.000000000000000000e+00 0.000000000000000000e+00 0.000000000000000000e+00
-1.368718762468626560e+00 -4.566398163721624437e-01 -6.231298385613969204e-01 -1.137483564015790538e+00 -1.694757603964047092e-04 0.000000000000000000e+00 0.000000000000000000e+00 0.000000000000000000e+00 0.000000000000000000e+00 0.000000000000000000e+00
-1.368718762468626560e+00 -4.566398163721624437e-01 -6.231298385613969204e-01 -1.137483564015790538e+00 -1.694757603964047092e-04 0.000000000000000000e+00 0.000000000000000000e+00 0.000000000000000000e+00 0.000000000000000000e+00 0.000000000000000000e+00
-1.368718762468626560e+00 -4.566398163721624437e-01 -6.231298385613969204e-01 -1.137483564015790538e+00 -1.694757603964047092e-04 0.000000000000000000e+00 0.000000000000000000e+00 0.000000000000000000e+00 0.000000000000000000e+00 0.000000000000000000e+00
