-9.061494763510123951e-01 -7.011090558924802929e-01 -8.435911430218472062e-02 -5.505328279427244009e-01 -6.077117897419181654e-04 -4.267455678296512844e-01 -6.508818162983202038e-01 1.897801145513126897e-02 1.012489046174163354e+00 -3.265671973618361219e-04
-9.279125078810044336e-01 -7.339216642520578482e-01 -8.204196144352715603e-02 -4.992046059416292980e-01 -6.307259371358942251e-04 -4.352606305998416580e-01 -6.562521671915516608e-01 4.634305717315119477e-02 1.026564440021902502e+00 -4.602829478795203259e-04
-9.501704230325633826e-01 -7.669419086487017090e-01 -7.863478623672995327e-02 -4.473452479544167693e-01 -7.008646998497474259e-04 -4.451583030311794809e-01 -6.604048879328759947e-01 6.814350413594416622e-02 1.037187159744249909e+00 -1.402775254277064450e-03
-9.730069155554988969e-01 -8.001083758653118050e-01 -7.446879070067140283e-02 -3.950928020622108128e-01 -9.772911082356850951e-04 0.000000000000000000e+00 0.000000000000000000e+00 0.000000000000000000e+00 0.000000000000000000e+00 0.000000000000000000e+00
-9.730069155554988969e-01 -8.001083758653118050e-01 -7.446879070067140283e-02 -3.950928020622108128e-01 -9.772911082356850951e-04 0.000000000000000000e+00 0.000000000000000000e+00 0.000000000000000000e+00 0.000000000000000000e+00 0.000000000000000000e+00
-9.730069155554988969e-01 -8.001083758653118050e-01 -7.446879070067140283e-02 -3.950928020622108128e-01 -9.772911082356850951e-04 0.000000000000000000e+00 0.000000000000000000e+00 0.000000000000000000e+00 0.000000000000000000e+00 0.000000000000000000e+00
-9.730069155554988969e-01 -8.001083758653118050e-01 -7.446879070067140283e-02 -3.950928020622108128e-01 -9.772911082356850951e-04 0.000000000000000000e+00 0.000000000000000000e+00 0.000000000000000000e+00 0.000000000000000000e+00 0.000000000000000000e+00
-9.730069155554988969e-01 -8.001083758653118050e-01 -7.446879070067140283e-02 -3.950928020622108128e-01 -9.772911082356850951e-04 0.000000000000000000e+00 0.000000000000000000e+00 0.000000000000000000e+00 0.000000000000000000e+00 0.000000000000000000e+00
-9.730069155554988969e-01 -8.001083758653118050e-01 -7.446879070067140283e-02 -3.950928020622108128e-01 -9.772911082356850951e-04 0.000000000000000000e+00 0.000000000000000000e+00 0.000000000000000000e+00 0.000000000000000000e+00 0.000000000000000000e+00
-9.730069155554988969e-01 -8.001083758653118050e-01 -7.446879070067140283e-02 -3.950928020622108128e-01 -9.772911082356850951e-04 0.000000000000000000e+00 0.000000000000000000e+00 0.000000000000000000e+00 0.000000000000000000e+00 0.000000000000000000e+00
-9.730069155554988969e-01 -8.001083758653118050e-01 -7.446879070067140283e-02 -3.950928020622108128e-01 -9.772911082356850951e-04 0.000000000000000000e+00 0.000000000000000000e+00 0.000000000000000000e+00 0.000000000000000000e+00 0.000000000000000000e+00
-9.730069155554988969e-01 -8.001083758653118050e-01 -7.446879070067140283e-02 -3.950928020622108128e-01 -9.772911082356850951e-04 0.000000000000000000e+00 0.000000000000000000e+00 0.000000000000000000e+00 0.000000000000000000e+00 0.000000000000000000e+00
-9.730069155554988969e-01 -8.001083758653118050e-01 -7.446879070067140283e-02 -3.950928020622108128e-01 -9.772911082356850951e-04 0.000000000000000000e+00 0.000000000000000000e+00 0.000000000000000000e+00 0.000000000000000000e+00 0.000000000000000000e+00
-9.730069155554988969e-01 -8.001083758653118050e-01 -7.446879070067140283e-02 -3.950928020622108128e-01 -9.772911082356850951e-04 0.000000000000000000e+00 0.000000000000000000e+00 0.000000000000000000e+00 0.000000000000000000e+00 0.000000000000000000e+00
-9.730069155554988969e-01 -8.001083758653118050e-01 -7.446879070067140283e-02 -3.950928020622108128e-01 -9.772911082356850951e-04 0.000000000000000000e+00 0.000000000000000000e+00 0.000000000000000000e+00 0.000000000000000000e+00 0.000000000000000000e+00
-9.730069155554988969e-01 -8.001083758653118050e-01 -7.446879070067140283e-02 -3.950928020622108128e-01 -9.772911082356850951e-04 0.000000000000000000e+00 0.000000000000000000e+00 0.000000000000000000e+00 0.000000000000000000e+00 0.000000000000000000e+00
-9.730069155554988969e-01 -8.001083758653118050e-01 -7.446879070067140283e-02 -3.950928020622108128e-01 -9.772911082356850951e-04 0.000000000000000000e+00 0.000000000000000000e+00 0.000000000000000000e+00 0.000000000000000000e+00 0.000000000000000000e+00
-9.730069155554988969e-01 -8.001083758653118050e-01 -7.446879070067140283e-02 -3.950928020622108128e-01 -9.772911082356850951e-04 0.000000000000000000e+00 0.000000000000000000e+00 0.000000000000000000e+00 0.000000000000000000e+00 0.000000000000000000e+00
-9.730069155554988969e-01 -8.001083758653118050e-01 -7.446879070067140283e-02 -3.950928020622108128e-01 -9.772911082356850951e-04 0.000000000000000000e+00 0.000000000000000000e+00 0.000000000000000000e+00 0.000000000000000000e+00 0.000000000000000000e+00
-9.730069155554988969e-01 -8.001083758653118050e-01 -7.446879070067140283e-02 -3.950928020622108128e-01 -9.772911082356850951e-04 0.000000000000000000e+00 0.000000000000000000e+00 0.000000000000000000e+00 0.000000000000000000e+00 0.000000000000000000e+00
-9.730069155554988969e-01 -8.001083758653118050e-01 -7.446879070067140283e-02 -3.950928020622108128e-01 -9.772911082356850951e-04 0.000000000000000000e+00 0.000000000000000000e+00 0.000000000000000000e+00 0.000000000000000000e+00 0.000000000000000000e+00
-9.730069155554988969e-01 -8.001083758653118050e-01 -7.446879070067140283e-02 -3.950928020622108128e-01 -9.772911082356850951e-04 0.000000000000000000e+00 0.000000000000000000e+00 0.000000000000000000e+00 0.000000000000000000e+00 0.000000000000000000e+00
-9.730069155554988969e-01 -8.001083758653118050e-01 -7.446879070067140283e-02 -3.950928020622108128e-01 -9.772911082356850951e-04 0.000000000000000000e+00 0.000000000000000000e+00 0.000000000000000000e+00 0.000000000000000000e+00 0.000000000000000000e+00
-9.730069155554988969e-01 -8.001083758653118050e-01 -7.446879070067140283e-02 -3.950928020622108128e-01 -9.772911082356850951e-04 0.000000000000000000e+00 0.000000000000000000e+00 0.000000000000000000e+00 0.000000000000000000e+00 0.000000000000000000e+00
-9.730069155554988969e-01 -8.001083758653118050e-01 -7.446879070067140283e-02 -3.950928020622108128e-01 -9.772911082356850951e-04 0.000000000000000000e+00 0.000000000000000000e+00 0.000000000000000000e+00 0.000000000000000000e+00 0.000000000000000000e+00
-9.730069155554988969e-01 -8.001083758653118050e-01 -7.446879070067140283e-02 -3.950928020622108128e-01 -9.772911082356850951e-04 0.000000000000000000e+00 0.000000000000000000e+00 0.000000000000000000e+00 0.000000000000000000e+00 0.000000000000000000e+00
-9.730069155554988969e-01 -8.001083758653118050e-01 -7.446879070067140283e-02 -3.950928020622108128e-01 -9.772911082356850951e-04 0.000000000000000000e+00 0.000000000000000000e+00 0.000000000000000000e+00 0.000000000000000000e+00 0.000000000000000000e+00
-9.730069155554988969e-01 -8.001083758653118050e-01 -7.446879070067140283e-02 -3.950928020622108128e-01 -9.772911082356850951e-04 0.000000000000000000e+00 0.000000000000000000e+00 0.000000000000000000e+00 0.000000000000000000e+00 0.000000000000000000e+00
-9.730069155554988969e-01 -8.001083758653118050e-01 -7.446879070067140283e-02 -3.950928020622108128e-01 -9.772911082356850951e-04 0.000000000000000000e+00 0.000000000000000000e+00 0.000000000000000000e+00 0.000000000000000000e+00 0.000000000000000000e+00
-9.730069155554988969e-01 -8.001083758653118050e-01 -7.446879070067140283e-02 -3.950928020622108128e-01 -9.772911082356850951e-04 0.000000000000000000e+00 0.000000000000000000e+00 0.000000000000000000e+00 0.000000000000000000e+00 0.000000000000000000e+00
-9.730069155554988969e-01 -8.001083758653118050e-01 -7.446879070067140283e-02 -3.950928020622108128e-01 -9.772911082356850951e-04 0.000000000000000000e+00 0.000000000000000000e+00 0.000000000000000000e+00 0.000000000000000000e+00 0.000000000000000000e+00
