-5.352843213174357517e-01 -2.268728720060483595e-01 8.785984676480608213e-01 -8.387194176067844786e-01 7.150863148571618040e-04 -2.525070969056035231e-01 -2.922888960658127921e-02 -4.619341740125018081e-01 -8.575329919280219038e-01 4.807071959378446911e-03
-5.508252413844056949e-01 -2.298732576578411124e-01 8.514802717836054136e-01 -8.919895681032338208e-01 8.988376674843552095e-04 -3.108184013393994194e-01 -6.000771303585529515e-02 -5.423639172891072668e-01 -1.065403009928987732e+00 3.675027052543868109e-03
-5.687493877678891918e-01 -2.348528793076127830e-01 8.215186540507646296e-01 -9.536745348931735533e-01 1.005770590781527012e-03 -3.584829276696706035e-01 -9.959243299543328598e-02 -5.992323546568162351e-01 -1.233699335798793761e+00 2.138658465943435189e-03
-5.885974417716951512e-01 -2.421906316790510272e-01 7.894083823635338337e-01 -1.021733136963956623e+00 1.039574074531233322e-03 -3.969610800761184666e-01 -1.467550474287647733e-01 -6.422054337446159167e-01 -1.361172041415660061e+00 6.760696749941274945e-04
-6.099647028264403303e-01 -2.521947723023128529e-01 7.554344094773858265e-01 -1.094053702044088361e+00 1.041704060676918852e-03 -4.273452210949031937e-01 -2.000828124652369866e-01 -6.794794577229600341e-01 -1.446411301602634980e+00 4.259972291371200929e-05
-6.324791554746139743e-01 -2.651000983213626094e-01 7.196011074430802568e-01 -1.168457877181560134e+00 1.015365962347710913e-03 -4.502890529634728800e-01 -2.581065203809955189e-01 -7.166660406861110610e-01 -1.488083502749435461e+00 -5.267619665841585721e-04
-6.557849571886904538e-01 -2.810722416271106416e-01 6.817838061623207047e-01 -1.242722516785092157e+00 9.253647318864515348e-04 -4.661160342815305335e-01 -3.194428661149607551e-01 -7.563460256151904870e-01 -1.485292792070642465e+00 -1.800024609225187554e-03
-6.795375413257207509e-01 -3.002156017747370509e-01 6.418739588518769246e-01 -1.314636318701744688e+00 7.527870303244058427e-04 -4.750516827406057740e-01 -3.828672029525279630e-01 -7.981969462088761569e-01 -1.438276038333050844e+00 -3.451554031240912975e-03
-7.034068329645910556e-01 -3.225837772425234617e-01 5.998968316621527963e-01 -1.382073755250949887e+00 5.089781862274284346e-04 -4.773858327774054278e-01 -4.473635093557281062e-01 -8.395425437944833424e-01 -1.348748730984102417e+00 -4.876176881939548596e-03
-7.270859990117948257e-01 -3.481904297581818186e-01 5.560897782308580339e-01 -1.443078718558961526e+00 2.168331972794503601e-04 -4.735833209440746261e-01 -5.121330503131668044e-01 -8.761410686258955804e-01 -1.220099266160231899e+00 -5.842899778959562140e-03
-7.503030970851172210e-01 -3.770190063651093770e-01 5.109347801834798197e-01 -1.495949246109956388e+00 -9.522068657424588795e-05 -4.643419614664487938e-01 -5.765715321385507242e-01 -9.030999609475651724e-01 -1.057410551019896561e+00 -6.241077677073924093e-03
-7.728344244864646662e-01 -4.090278186730880727e-01 4.651394941427461349e-01 -1.539318588385702347e+00 -3.968717949589595836e-04 -4.506265480269493473e-01 -6.401762461595736919e-01 -9.159057208146736961e-01 -8.673868455149176260e-01 -6.033022167694272395e-03
-7.945166137237468229e-01 -4.441495788645916099e-01 4.195697182949564841e-01 -1.572219364195953872e+00 -6.597715605533057814e-04 -4.336437847456431349e-01 -7.024352038300710754e-01 -9.113955169557931280e-01 -6.580155162050307371e-01 -5.257995311886923089e-03
-8.152536457308746654e-01 -4.822872467597169588e-01 3.751474283449253155e-01 -1.594113777552349065e+00 -8.612206333276834803e-04 -4.147406401425561273e-01 -7.627533579025070898e-01 -8.884457990006232597e-01 -4.378882671279055727e-01 -4.028981455487553112e-03
-8.350173020996890516e-01 -5.233077892755408911e-01 3.327360868263528060e-01 -1.604885761100451225e+00 -9.857978998112492276e-04 -3.952731273762866704e-01 -8.204108503164775357e-01 -8.482268303714504132e-01 -2.154396709620448602e-01 -2.491545329671314944e-03
-8.538415208292030600e-01 -5.670364427168974597e-01 2.930392387897904904e-01 -1.604802548680368091e+00 -1.022061440553355188e-03 -3.764843745902800021e-01 -8.745730688271304842e-01 -7.939369607312459776e-01 1.664248401664680799e-03 -7.252708148421207254e-04
-8.718116445709301887e-01 -6.132557899897074227e-01 2.565337043906104619e-01 -1.594449448550705695e+00 -1.024872984953374309e-03 -3.594024748345429621e-01 -9.243869454561994825e-01 -7.301106879836003483e-01 2.070620025932457531e-01 -5.623088800038209770e-05
-8.890509013957006434e-01 -6.617117545379711530e-01 2.234470968052875706e-01 -1.574646751368785180e+00 -1.019229378735261220e-03 -3.447851364954093722e-01 -9.691192909652757148e-01 -6.617321517064579384e-01 3.960539436384112877e-01 1.128721243622620514e-04
-9.057095034449303972e-01 -7.121234562718248284e-01 1.937697884608447774e-01 -1.546369240152494440e+00 -1.011777346815476673e-03 -3.331720409845949638e-01 -1.008234034677074176e+00 -5.935461668888559750e-01 5.655502243258142547e-01 1.490406383956901755e-04
-9.219563928262541896e-01 -7.641973882080965730e-01 1.672929090391662155e-01 -1.510666795918361283e+00 -1.000127768613738371e-03 -3.249377876264762377e-01 -1.041478638725434003e+00 -5.295375884335715710e-01 7.140488846826643643e-01 2.329915640347643619e-04
-9.379749437800862788e-01 -8.176427761934648153e-01 1.436566971626812572e-01 -1.468593966592599553e+00 -9.705098237055676631e-04 -3.203710190766414501e-01 -1.068907759707363736e+00 -4.727242375296991650e-01 8.414565865152329183e-01 5.923588981634135119e-04
-9.539618247330836631e-01 -8.721865313204835157e-01 1.223980096303460552e-01 -1.421148475289848223e+00 -8.967285569853930939e-04 -3.197376190599479640e-01 -1.090875102540374009e+00 -4.251737506467039851e-01 9.489098260550249408e-01 1.475625334403490516e-03
-9.701310882805868063e-01 -9.275839980457764034e-01 1.029834582651456693e-01 -1.369228230153098247e+00 -8.203903026654236997e-04 -3.233852709500619205e-01 -1.107949334505858419e+00 -3.882910273040075522e-01 1.038404902735000856e+00 1.526765086399387234e-03
-9.867257580874899681e-01 -9.836220762853372657e-01 8.481943489814186554e-02 -1.313615091512811306e+00 -7.567343371984641470e-04 -3.318933961380636233e-01 -1.120761564791216580e+00 -3.632804673400759632e-01 1.112262772805736599e+00 1.273119309339190838e-03
-1.004037005954668160e+00 -1.040115758648805677e+00 6.723980146770722199e-02 -1.254980052729778306e+00 -7.138268490825084916e-04 -3.462249573435656758e-01 -1.129873647269368453e+00 -3.515926686086928155e-01 1.172700775660659334e+00 8.581497623191140832e-04
-1.022429873862059413e+00 -1.096902110108593842e+00 4.947391930956095835e-02 -1.193892409401655197e+00 -6.980432283982016895e-04 -3.678573581478232768e-01 -1.135727029195761739e+00 -3.553176431629253007e-01 1.221752866562460849e+00 3.156724136861364764e-04
-1.042378357444448511e+00 -1.153832420636268674e+00 3.059035328285980224e-02 -1.130828568244518495e+00 -7.158787316495959221e-04 -3.989696716477799665e-01 -1.138606210553497089e+00 -3.776713205340230806e-01 1.261276823142733150e+00 -3.567100650278853032e-04
-1.064514539780366587e+00 -1.210761400683216138e+00 9.407373630621034682e-03 -1.066183441462141168e+00 -7.736745612752556761e-04 0.000000000000000000e+00 0.000000000000000000e+00 0.000000000000000000e+00 0.000000000000000000e+00 0.000000000000000000e+00
-1.064514539780366587e+00 -1.210761400683216138e+00 9.407373630621034682e-03 -1.066183441462141168e+00 -7.736745612752556761e-04 0.000000000000000000e+00 0.000000000000000000e+00 0.000000000000000000e+00 0.000000000000000000e+00 0.000000000000000000e+00
-1.064514539780366587e+00 -1.210761400683216138e+00 9.407373630621034682e-03 -1.066183441462141168e+00 -7.736745612752556761e-04 0.000000000000000000e+00 0.000000000000000000e+00 0.000000000000000000e+00 0.000000000000000000e+00 0.000000000000000000e+00
-1.064514539780366587e+00 -1.210761400683216138e+00 9.407373630621034682e-03 -1.066183441462141168e+00 -7.736745612752556761e-04 0.000000000000000000e+00 0.000000000000000000e+00 0.000000000000000000e+00 0.000000000000000000e+00 0.000000000000000000e+00
