-4.638851128459457462e-01 5.643103779067662820e-03 3.469685080560510060e-01 -9.776999803185710824e-01 6.035144655546806174e-04 -1.420385393042050137e-01 6.483273634639789840e-02 -4.195755513582480334e-01 -4.873608660740081922e-01 4.123696275885553597e-03
-4.727979183679483222e-01 9.026497885004506824e-03 3.214337586859084550e-01 -1.007207699274757839e+00 7.772794685953516181e-04 -1.782561104400512964e-01 6.766788211873686620e-02 -5.106949874028510195e-01 -5.901543791237343628e-01 3.475300060813420449e-03
-4.832464860000367790e-01 1.211326869591432438e-02 2.923966537636217278e-01 -1.040325336427774694e+00 9.066964164414614141e-04 -2.089713526417687206e-01 6.173541621819635117e-02 -5.807420984457345448e-01 -6.623527430603353139e-01 2.588338956922197221e-03
-4.949727199996429294e-01 1.448426128596632702e-02 2.607930386237289899e-01 -1.075472800765323811e+00 9.835505994554793151e-04 -2.345246799921233138e-01 4.741985180104004577e-02 -6.320723027978548680e-01 -7.029492867509812282e-01 1.537083660280355634e-03
-5.077394725596879876e-01 1.574127090768331211e-02 2.274575654685416781e-01 -1.111024686225720259e+00 1.000795252225658181e-03 -2.553350512009001649e-01 2.514019243433973302e-02 -6.667094631037464580e-01 -7.110377092079275263e-01 3.448930554035760203e-04
-5.213332169643475345e-01 1.551404344695801740e-02 1.931431555646544729e-01 -1.145345414226148328e+00 9.458207292434989144e-04 -2.718748880931898815e-01 -4.544549214505883700e-03 -6.862881980777439939e-01 -6.864145600085618248e-01 -1.099490459643185768e-03
-5.355665871827784974e-01 1.347210068883096697e-02 1.585367261213952716e-01 -1.176851947828548184e+00 7.650715782645999214e-04 -2.846674043686196476e-01 -4.083885516254100179e-02 -6.921285888651840246e-01 -6.301306720479975532e-01 -3.614983019577979427e-03
-5.502824683945477524e-01 9.342884529149409270e-03 1.242687265871816882e-01 -1.204111722868538514e+00 5.342995411140667641e-04 -2.943176242353847671e-01 -8.258432319363115393e-02 -6.853599906842717804e-01 -5.451955007998072755e-01 -4.615440743010663580e-03
-5.653568317389554565e-01 2.929361386889602070e-03 9.091567800440267244e-02 -1.225941479232750764e+00 2.873692841707792397e-04 -3.014872668881540263e-01 -1.282704628451961371e-01 -6.670609716555800928e-01 -4.365951272842434894e-01 -4.938605138865750054e-03
-5.806993164990988943e-01 -5.877368953722417882e-03 5.899570384013480551e-02 -1.241487441216553744e+00 4.702061622064313690e-05 -3.068496952028698099e-01 -1.761346068122403574e-01 -6.383994832853573387e-01 -3.109192396760598331e-01 -4.806973359002721623e-03
-5.962505125986561350e-01 -1.709225071833135601e-02 2.895313959866658432e-02 -1.250270530475612318e+00 -1.699713652232439439e-04 -3.110239219911457020e-01 -2.242976352921787209e-01 -6.008512848293643405e-01 -1.756617851811708153e-01 -4.339839628877741398e-03
-6.119758052570036799e-01 -3.064263979504722180e-02 1.141757967973902610e-03 -1.252176258042556611e+00 -3.528219294089052129e-04 -3.145058531669499557e-01 -2.710077815343173158e-01 -5.562276326138536620e-01 -3.811455133888735913e-02 -3.657011283713225598e-03
-6.278578340847918993e-01 -4.638496707512712591e-02 -2.418533256284175273e-02 -1.247398923333384424e+00 -4.967505878684907701e-04 -3.176405765557641647e-01 -3.148465456015981934e-01 -5.065418106163130929e-01 9.554669418344530207e-02 -2.878573169191710277e-03
-6.438897960500327144e-01 -6.412470059879303574e-02 -4.687652289459053045e-02 -1.236368341736747700e+00 -6.022800074509324086e-04 -3.206392393048166367e-01 -3.547946704733182521e-01 -4.538238066349755684e-01 2.206116319327326991e-01 -2.110588391648831469e-03
-6.600702029475530308e-01 -8.363731567189908178e-02 -6.687282021925444742e-02 -1.219669517999680153e+00 -6.736527345388595945e-04 -3.236081379504058275e-01 -3.902523014621209207e-01 -3.999259464932781172e-01 3.339764747413509482e-01 -1.427454541758544151e-03
-6.763995891679545069e-01 -1.046868502649639376e-01 -8.419274951310382060e-02 -1.197970197179304863e+00 -7.172693038745771733e-04 -3.265877244080302999e-01 -4.209906918612972282e-01 -3.463985858769875747e-01 4.339864164075072361e-01 -8.723313867143509242e-04
-6.928788131766014935e-01 -1.270409451751042529e-01 -9.891532213775892923e-02 -1.171960709317859450e+00 -7.403624407627041638e-04 -3.295844801729403972e-01 -4.470818982028061384e-01 -2.944514524931022281e-01 5.201897572289068128e-01 -4.618627377625387272e-04
-7.095083323713106127e-01 -1.504828442439124780e-01 -1.111648791039032830e-01 -1.142303821852174162e+00 -7.493779048630986933e-04 -3.325903838941829949e-01 -4.688379813761645032e-01 -2.449911393228870193e-01 5.931377493137059975e-01 -1.803092820078909682e-04
-7.262887717727659620e-01 -1.748181710766358588e-01 -1.210973985668262060e-01 -1.109606577406839323e+00 -7.493465566188327494e-04 -3.356087880291075409e-01 -4.867065366544674476e-01 -1.986503892584584041e-01 6.539448889066955539e-01 6.269648853186881882e-07
-7.432221956599547319e-01 -1.998772536414623879e-01 -1.288883791297226189e-01 -1.074410717522130687e+00 -7.440954565200566312e-04 -3.386684777437755645e-01 -5.011816512965305837e-01 -1.558196112579280923e-01 7.039171976941707154e-01 1.050220019755218360e-04
-7.603133699417603530e-01 -2.255147376027113459e-01 -1.347239197802762578e-01 -1.037192805811936624e+00 -7.367727343567115209e-04 -3.418234856361121454e-01 -5.127496792249793822e-01 -1.167108130110730418e-01 7.443582342038831401e-01 1.464544432669029643e-04
-7.775704802065496191e-01 -2.516085468203535513e-01 -1.387958948005648674e-01 -9.983641964091626297e-01 -7.298888496221562008e-04 -3.451422052957848208e-01 -5.218761843528437749e-01 -8.143950040577201122e-02 7.765721880554802281e-01 1.376776946911074310e-04
-7.950055015667503167e-01 -2.780584835243370967e-01 -1.413000042225028285e-01 -9.582709309935919517e-01 -7.252550206572989586e-04 -3.487004272040140074e-01 -5.289987340796710180e-01 -5.008218843875928555e-02 8.018653083114123392e-01 9.267657929714439820e-05
-8.126344576939631414e-01 -3.047839398192062066e-01 -1.424353904400700588e-01 -9.171967512076407703e-01 -7.243290816801615595e-04 -3.525791225442569399e-01 -5.345091258973820869e-01 -2.270772435134481640e-02 8.214835957190237403e-01 1.851877954274848252e-05
-8.304776030671525699e-01 -3.317210160445745459e-01 -1.424054358668523090e-01 -8.753682765717951675e-01 -7.293993089085107915e-04 -3.568629074637880150e-01 -5.387415245073671199e-01 5.990914643550122876e-04 8.365694927169112782e-01 -1.014045445669839750e-04
-8.485594007798638039e-01 -3.588197889661056128e-01 -1.414199660636742406e-01 -8.329589225520274143e-01 -7.470509548257676848e-04 -3.616359542542250116e-01 -5.419754584306210043e-01 1.970939606356140669e-02 8.481870803953539539e-01 -3.530329183451388973e-04
-8.669084391030105197e-01 -3.860416905243064245e-01 -1.396981186574785261e-01 -7.900923886190358569e-01 -8.019072322239553753e-04 -3.669807664629352040e-01 -5.444380311640162340e-01 3.443694812391444315e-02 8.573306786598318130e-01 -1.097125547963753809e-03
-8.855573474870188644e-01 -4.133567660052041570e-01 -1.374718652078407155e-01 -7.468466847128790720e-01 -9.915631916560369540e-04 0.000000000000000000e+00 0.000000000000000000e+00 0.000000000000000000e+00 0.000000000000000000e+00 0.000000000000000000e+00
-8.855573474870188644e-01 -4.133567660052041570e-01 -1.374718652078407155e-01 -7.468466847128790720e-01 -9.915631916560369540e-04 0.000000000000000000e+00 0.000000000000000000e+00 0.000000000000000000e+00 0.000000000000000000e+00 0.000000000000000000e+00
-8.855573474870188644e-01 -4.133567660052041570e-01 -1.374718652078407155e-01 -7.468466847128790720e-01 -9.915631916560369540e-04 0.000000000000000000e+00 0.000000000000000000e+00 0.000000000000000000e+00 0.000000000000000000e+00 0.000000000000000000e+00
-8.855573474870188644e-01 -4.133567660052041570e-01 -1.374718652078407155e-01 -7.468466847128790720e-01 -9.915631916560369540e-04 0.000000000000000000e+00 0.000000000000000000e+00 0.000000000000000000e+00 0.000000000000000000e+00 0.000000000000000000e+00
