6.039224111312735399e-01 3.229155743227433706e-01 1.502702634566823181e-01
6.039224111312735399e-01 3.229155743227433706e-01 1.502702634566823181e-01
6.039224111312735399e-01 3.229155743227433706e-01 1.502702634566823181e-01
6.039224111312735399e-01 3.229155743227433706e-01 1.502702634566823181e-01
6.039224111312735399e-01 3.229155743227433706e-01 1.502702634566823181e-01
6.039224111312735399e-01 3.229155743227433706e-01 1.502702634566823181e-01
6.039224111312735399e-01 3.229155743227433706e-01 1.502702634566823181e-01
6.039224111312735399e-01 3.229155743227433706e-01 1.502702634566823181e-01
6.039224111312735399e-01 3.229155743227433706e-01 1.502702634566823181e-01
6.039224111312735399e-01 3.229155743227433706e-01 1.502702634566823181e-01
6.039224111312735399e-01 3.229155743227433706e-01 1.502702634566823181e-01
6.039224111312735399e-01 3.229155743227433706e-01 1.502702634566823181e-01
6.039224111312735399e-01 3.229155743227433706e-01 1.502702634566823181e-01
6.039224111312735399e-01 3.229155743227433706e-01 1.502702634566823181e-01
6.039224111312735399e-01 3.229155743227433706e-01 1.502702634566823181e-01
6.039224111312735399e-01 3.229155743227433706e-01 1.502702634566823181e-01
6.039224111312735399e-01 3.229155743227433706e-01 1.502702634566823181e-01
6.039224111312735399e-01 3.229155743227433706e-01 1.502702634566823181e-01
6.039224111312735399e-01 3.229155743227433706e-01 1.502702634566823181e-01
6.039224111312735399e-01 3.229155743227433706e-01 1.502702634566823181e-01
6.039224111312735399e-01 3.229155743227433706e-01 1.502702634566823181e-01
6.039224111312735399e-01 3.229155743227433706e-01 1.502702634566823181e-01
6.039224111312735399e-01 3.229155743227433706e-01 1.502702634566823181e-01
6.039224111312735399e-01 3.229155743227433706e-01 1.502702634566823181e-01
6.039224111312735399e-01 3.229155743227433706e-01 1.502702634566823181e-01
6.039224111312735399e-01 3.229155743227433706e-01 1.502702634566823181e-01
6.039224111312735399e-01 3.229155743227433706e-01 1.502702634566823181e-01
6.039224111312735399e-01 3.229155743227433706e-01 1.502702634566823181e-01
6.039224111312735399e-01 3.229155743227433706e-01 1.502702634566823181e-01
6.039224111312735399e-01 3.229155743227433706e-01 1.502702634566823181e-01
