-1.036650364646745981e+00 -7.994030167014087862e-01 1.883015445902631591e-01 -1.456490559826729259e+00 -2.092840029958924447e-04 -3.568433637752810306e-01 -1.340862470295634656e+00 -1.326712386264341514e+00 -3.369648010079799860e-01 -5.621588886507943288e-04
-1.052835021026612194e+00 -8.710199910992668659e-01 1.273705271825870677e-01 -1.458745862090644385e+00 -1.564777777775620544e-04 -3.236931275973258804e-01 -1.432339487957160262e+00 -1.218620348153522048e+00 -4.510604527830242017e-02 1.056124504366608022e-03
-1.067346705929833606e+00 -9.468287507649999490e-01 7.218783005577310286e-02 -1.447341265415909461e+00 -4.064079562011886366e-05 -2.902336980644282249e-01 -1.516175193314662994e+00 -1.103653942536279242e+00 2.280919334946990840e-01 2.316739643148863544e-03
-1.080106593865576281e+00 -1.026430633888926414e+00 2.284571277146499324e-02 -1.423295020573889236e+00 1.147100722742887177e-04 -2.551977587148546167e-01 -1.592037662478531290e+00 -9.868423456861621368e-01 4.809248968404049585e-01 3.107017357888151518e-03
-1.090945760697253242e+00 -1.109415860189893133e+00 -2.078274131714480388e-02 -1.387643782650473945e+00 2.844664899583802201e-04 -2.167833366335382150e-01 -1.659704526019335713e+00 -8.725690817721959425e-01 7.130247584683052642e-01 3.395128353681829778e-03
-1.099587034396763974e+00 -1.195371233451843151e+00 -5.897014173447690660e-02 -1.341409820169835898e+00 4.450275078625272806e-04 -1.728254739902167769e-01 -1.719107465239001931e+00 -7.637480083466420266e-01 9.246792496127613781e-01 3.211220358082941210e-03
-1.105650653869150846e+00 -1.283887922167394446e+00 -9.205390052577452908e-02 -1.285594065222778415e+00 5.762248991105060631e-04 -1.212723894477394093e-01 -1.770333774311025010e+00 -6.616751758259524774e-01 1.116315098941151218e+00 2.623947824959575216e-03
-1.108714296703282587e+00 -1.374569442843089684e+00 -1.203937580353279385e-01 -1.221177727055414053e+00 6.623283015423467616e-04 -6.127285668263524054e-02 -1.813630413513905637e+00 -5.667971501910681331e-01 1.288326763347289017e+00 1.722068048636814404e-03
-1.108468652591950043e+00 -1.467039617610370383e+00 -1.444283779003108781e-01 -1.149121357684668387e+00 6.929227940219264466e-04 4.912882226652662276e-03 -1.849403495345613768e+00 -4.806923972996587358e-01 1.441127387414911531e+00 6.118898495915943512e-04
-1.104954532086437791e+00 -1.560949281371603936e+00 -1.648512666046276220e-01 -1.070357059064356964e+00 6.643317435601155986e-04 7.028241011024492779e-02 -1.878193275224669057e+00 -4.084577740863349904e-01 1.575285972406230028e+00 -5.718210092362176113e-04
-1.098730791129012063e+00 -1.655973452720962413e+00 -1.828044832541851628e-01 -9.857940940843651356e-01 5.816190350584609248e-04 1.244748191485124111e-01 -1.900483426987167102e+00 -3.590643329911505921e-01 1.691259299599836341e+00 -1.654254170033093909e-03
-1.090754783690036644e+00 -1.751795500566975639e+00 -1.998731664003406405e-01 -8.963486256193277102e-01 4.598860558033777144e-04 1.595201487795103179e-01 -1.916440956920264060e+00 -3.413736629231092778e-01 1.788909369300748509e+00 -2.434659585101664643e-03
-1.082018314098360134e+00 -1.848086023315457904e+00 -2.178497004262283931e-01 -8.029754062691398797e-01 3.348862522279905606e-04 1.747293918335280916e-01 -1.925810454969644425e+00 -3.595306805177549969e-01 1.867464387003756610e+00 -2.499996071507742858e-03
-1.073270725002524850e+00 -1.944484548393921708e+00 -2.385497303052016016e-01 -7.066778953710347588e-01 3.393091449055798720e-04 0.000000000000000000e+00 0.000000000000000000e+00 0.000000000000000000e+00 0.000000000000000000e+00 0.000000000000000000e+00
-1.073270725002524850e+00 -1.944484548393921708e+00 -2.385497303052016016e-01 -7.066778953710347588e-01 3.393091449055798720e-04 0.000000000000000000e+00 0.000000000000000000e+00 0.000000000000000000e+00 0.000000000000000000e+00 0.000000000000000000e+00
-1.073270725002524850e+00 -1.944484548393921708e+00 -2.385497303052016016e-01 -7.066778953710347588e-01 3.393091449055798720e-04 0.000000000000000000e+00 0.000000000000000000e+00 0.000000000000000000e+00 0.000000000000000000e+00 0.000000000000000000e+00
-1.073270725002524850e+00 -1.944484548393921708e+00 -2.385497303052016016e-01 -7.066778953710347588e-01 3.393091449055798720e-04 0.000000000000000000e+00 0.000000000000000000e+00 0.000000000000000000e+00 0.000000000000000000e+00 0.000000000000000000e+00
-1.073270725002524850e+00 -1.944484548393921708e+00 -2.385497303052016016e-01 -7.066778953710347588e-01 3.393091449055798720e-04 0.000000000000000000e+00 0.000000000000000000e+00 0.000000000000000000e+00 0.000000000000000000e+00 0.000000000000000000e+00
-1.073270725002524850e+00 -1.944484548393921708e+00 -2.385497303052016016e-01 -7.066778953710347588e-01 3.393091449055798720e-04 0.000000000000000000e+00 0.000000000000000000e+00 0.000000000000000000e+00 0.000000000000000000e+00 0.000000000000000000e+00
-1.073270725002524850e+00 -1.944484548393921708e+00 -2.385497303052016016e-01 -7.066778953710347588e-01 3.393091449055798720e-04 0.000000000000000000e+00 0.000000000000000000e+00 0.000000000000000000e+00 0.000000000000000000e+00 0.000000000000000000e+00
-1.073270725002524850e+00 -1.944484548393921708e+00 -2.385497303052016016e-01 -7.066778953710347588e-01 3.393091449055798720e-04 0.000000000000000000e+00 0.000000000000000000e+00 0.000000000000000000e+00 0.000000000000000000e+00 0.000000000000000000e+00
-1.073270725002524850e+00 -1.944484548393921708e+00 -2.385497303052016016e-01 -7.066778953710347588e-01 3.393091449055798720e-04 0.000000000000000000e+00 0.000000000000000000e+00 0.000000000000000000e+00 0.000000000000000000e+00 0.000000000000000000e+00
-1.073270725002524850e+00 -1.944484548393921708e+00 -2.385497303052016016e-01 -7.066778953710347588e-01 3.393091449055798720e-04 0.000000000000000000e+00 0.000000000000000000e+00 0.000000000000000000e+00 0.000000000000000000e+00 0.000000000000000000e+00
-1.073270725002524850e+00 -1.944484548393921708e+00 -2.385497303052016016e-01 -7.066778953710347588e-01 3.393091449055798720e-04 0.000000000000000000e+00 0.000000000000000000e+00 0.000000000000000000e+00 0.000000000000000000e+00 0.000000000000000000e+00
-1.073270725002524850e+00 -1.944484548393921708e+00 -2.385497303052016016e-01 -7.066778953710347588e-01 3.393091449055798720e-04 0.000000000000000000e+00 0.000000000000000000e+00 0.000000000000000000e+00 0.000000000000000000e+00 0.000000000000000000e+00
-1.073270725002524850e+00 -1.944484548393921708e+00 -2.385497303052016016e-01 -7.066778953710347588e-01 3.393091449055798720e-04 0.000000000000000000e+00 0.000000000000000000e+00 0.000000000000000000e+00 0.000000000000000000e+00 0.000000000000000000e+00
-1.073270725002524850e+00 -1.944484548393921708e+00 -2.385497303052016016e-01 -7.066778953710347588e-01 3.393091449055798720e-04 0.000000000000000000e+00 0.000000000000000000e+00 0.000000000000000000e+00 0.000000000000000000e+00 0.000000000000000000e+00
-1.073270725002524850e+00 -1.944484548393921708e+00 -2.385497303052016016e-01 -7.066778953710347588e-01 3.393091449055798720e-04 0.000000000000000000e+00 0.000000000000000000e+00 0.000000000000000000e+00 0.000000000000000000e+00 0.000000000000000000e+00
-1.073270725002524850e+00 -1.944484548393921708e+00 -2.385497303052016016e-01 -7.066778953710347588e-01 3.393091449055798720e-04 0.000000000000000000e+00 0.000000000000000000e+00 0.000000000000000000e+00 0.000000000000000000e+00 0.000000000000000000e+00
-1.073270725002524850e+00 -1.944484548393921708e+00 -2.385497303052016016e-01 -7.066778953710347588e-01 3.393091449055798720e-04 0.000000000000000000e+00 0.000000000000000000e+00 0.000000000000000000e+00 0.000000000000000000e+00 0.000000000000000000e+00
-1.073270725002524850e+00 -1.944484548393921708e+00 -2.385497303052016016e-01 -7.066778953710347588e-01 3.393091449055798720e-04 0.000000000000000000e+00 0.000000000000000000e+00 0.000000000000000000e+00 0.000000000000000000e+00 0.000000000000000000e+00
