-4.362774926682912446e-01 -1.466806489990037266e+00 -1.110565173642069636e-01 -9.436316009042067243e-01 -7.228857476239055073e-05 1.671251601788691366e-01 -1.803304013531806360e+00 -2.833231625397739650e-01 1.850937876334360466e+00 1.253529868866918705e-03
-4.245536973692356497e-01 -1.558017328766728493e+00 -1.221350430730940295e-01 -8.461438231245739239e-01 -4.316347191413370642e-05 2.344759059811122315e-01 -1.824216775533824553e+00 -2.215705141777412346e-01 1.949755555592656009e+00 5.825020569651369676e-04
-4.101858609845067116e-01 -1.650082080799704753e+00 -1.309463466975203938e-01 -7.443235051257012236e-01 -4.574948389307063786e-05 2.873567276945787063e-01 -1.841295040659523430e+00 -1.762260724885270358e-01 2.036406359977453562e+00 -5.172023957873868316e-05
-3.943560321378479783e-01 -1.742820681826197537e+00 -1.388551276173757842e-01 -6.387741557249189128e-01 -7.080396543298140882e-05 3.165965769331750002e-01 -1.854772020529854570e+00 -1.581756183971080587e-01 2.110986988015647103e+00 -5.010896307982154463e-04
-3.782488453525387206e-01 -1.836026227882985307e+00 -1.475115581677686472e-01 -5.301220395504038230e-01 -8.541510723730820704e-05 3.221437357061848195e-01 -1.864110921135754051e+00 -1.731286110078572860e-01 2.173042323490301797e+00 -2.922228360865359101e-04
-3.626697768943670241e-01 -1.929437437535178157e+00 -1.585580854832847886e-01 -4.190276279645248070e-01 5.146100281848019122e-05 0.000000000000000000e+00 0.000000000000000000e+00 0.000000000000000000e+00 0.000000000000000000e+00 0.000000000000000000e+00
-3.626697768943670241e-01 -1.929437437535178157e+00 -1.585580854832847886e-01 -4.190276279645248070e-01 5.146100281848019122e-05 0.000000000000000000e+00 0.000000000000000000e+00 0.000000000000000000e+00 0.000000000000000000e+00 0.000000000000000000e+00
-3.626697768943670241e-01 -1.929437437535178157e+00 -1.585580854832847886e-01 -4.190276279645248070e-01 5.146100281848019122e-05 0.000000000000000000e+00 0.000000000000000000e+00 0.000000000000000000e+00 0.000000000000000000e+00 0.000000000000000000e+00
-3.626697768943670241e-01 -1.929437437535178157e+00 -1.585580854832847886e-01 -4.190276279645248070e-01 5.146100281848019122e-05 0.000000000000000000e+00 0.000000000000000000e+00 0.000000000000000000e+00 0.000000000000000000e+00 0.000000000000000000e+00
-3.626697768943670241e-01 -1.929437437535178157e+00 -1.585580854832847886e-01 -4.190276279645248070e-01 5.146100281848019122e-05 0.000000000000000000e+00 0.000000000000000000e+00 0.000000000000000000e+00 0.000000000000000000e+00 0.000000000000000000e+00
-3.626697768943670241e-01 -1.929437437535178157e+00 -1.585580854832847886e-01 -4.190276279645248070e-01 5.146100281848019122e-05 0.000000000000000000e+00 0.000000000000000000e+00 0.000000000000000000e+00 0.000000000000000000e+00 0.000000000000000000e+00
-3.626697768943670241e-01 -1.929437437535178157e+00 -1.585580854832847886e-01 -4.190276279645248070e-01 5.146100281848019122e-05 0.000000000000000000e+00 0.000000000000000000e+00 0.000000000000000000e+00 0.000000000000000000e+00 0.000000000000000000e+00
-3.626697768943670241e-01 -1.929437437535178157e+00 -1.585580854832847886e-01 -4.190276279645248070e-01 5.146100281848019122e-05 0.000000000000000000e+00 0.000000000000000000e+00 0.000000000000000000e+00 0.000000000000000000e+00 0.000000000000000000e+00
-3.626697768943670241e-01 -1.929437437535178157e+00 -1.585580854832847886e-01 -4.190276279645248070e-01 5.146100281848019122e-05 0.000000000000000000e+00 0.000000000000000000e+00 0.000000000000000000e+00 0.000000000000000000e+00 0.000000000000000000e+00
-3.626697768943670241e-01 -1.929437437535178157e+00 -1.585580854832847886e-01 -4.190276279645248070e-01 5.146100281848019122e-05 0.000000000000000000e+00 0.000000000000000000e+00 0.000000000000000000e+00 0.000000000000000000e+00 0.000000000000000000e+00
-3.626697768943670241e-01 -1.929437437535178157e+00 -1.585580854832847886e-01 -4.190276279645248070e-01 5.146100281848019122e-05 0.000000000000000000e+00 0.000000000000000000e+00 0.000000000000000000e+00 0.000000000000000000e+00 0.000000000000000000e+00
-3.626697768943670241e-01 -1.929437437535178157e+00 -1.585580854832847886e-01 -4.190276279645248070e-01 5.146100281848019122e-05 0.000000000000000000e+00 0.000000000000000000e+00 0.000000000000000000e+00 0.000000000000000000e+00 0.000000000000000000e+00
-3.626697768943670241e-01 -1.929437437535178157e+00 -1.585580854832847886e-01 -4.190276279645248070e-01 5.146100281848019122e-05 0.000000000000000000e+00 0.000000000000000000e+00 0.000000000000000000e+00 0.000000000000000000e+00 0.000000000000000000e+00
-3.626697768943670241e-01 -1.929437437535178157e+00 -1.585580854832847886e-01 -4.190276279645248070e-01 5.146100281848019122e-05 0.000000000000000000e+00 0.000000000000000000e+00 0.000000000000000000e+00 0.000000000000000000e+00 0.000000000000000000e+00
-3.626697768943670241e-01 -1.929437437535178157e+00 -1.585580854832847886e-01 -4.190276279645248070e-01 5.146100281848019122e-05 0.000000000000000000e+00 0.000000000000000000e+00 0.000000000000000000e+00 0.000000000000000000e+00 0.000000000000000000e+00
-3.626697768943670241e-01 -1.929437437535178157e+00 -1.585580854832847886e-01 -4.190276279645248070e-01 5.146100281848019122e-05 0.000000000000000000e+00 0.000000000000000000e+00 0.000000000000000000e+00 0.000000000000000000e+00 0.000000000000000000e+00
-3.626697768943670241e-01 -1.929437437535178157e+00 -1.585580854832847886e-01 -4.190276279645248070e-01 5.146100281848019122e-05 0.000000000000000000e+00 0.000000000000000000e+00 0.000000000000000000e+00 0.000000000000000000e+00 0.000000000000000000e+00
-3.626697768943670241e-01 -1.929437437535178157e+00 -1.585580854832847886e-01 -4.190276279645248070e-01 5.146100281848019122e-05 0.000000000000000000e+00 0.000000000000000000e+00 0.000000000000000000e+00 0.000000000000000000e+00 0.000000000000000000e+00
-3.626697768943670241e-01 -1.929437437535178157e+00 -1.585580854832847886e-01 -4.190276279645248070e-01 5.146100281848019122e-05 0.000000000000000000e+00 0.000000000000000000e+00 0.000000000000000000e+00 0.000000000000000000e+00 0.000000000000000000e+00
-3.626697768943670241e-01 -1.929437437535178157e+00 -1.585580854832847886e-01 -4.190276279645248070e-01 5.146100281848019122e-05 0.000000000000000000e+00 0.000000000000000000e+00 0.000000000000000000e+00 0.000000000000000000e+00 0.000000000000000000e+00
-3.626697768943670241e-01 -1.929437437535178157e+00 -1.585580854832847886e-01 -4.190276279645248070e-01 5.146100281848019122e-05 0.000000000000000000e+00 0.000000000000000000e+00 0.000000000000000000e+00 0.000000000000000000e+00 0.000000000000000000e+00
-3.626697768943670241e-01 -1.929437437535178157e+00 -1.585580854832847886e-01 -4.190276279645248070e-01 5.146100281848019122e-05 0.000000000000000000e+00 0.000000000000000000e+00 0.000000000000000000e+00 0.000000000000000000e+00 0.000000000000000000e+00
-3.626697768943670241e-01 -1.929437437535178157e+00 -1.585580854832847886e-01 -4.190276279645248070e-01 5.146100281848019122e-05 0.000000000000000000e+00 0.000000000000000000e+00 0.000000000000000000e+00 0.000000000000000000e+00 0.000000000000000000e+00
-3.626697768943670241e-01 -1.929437437535178157e+00 -1.585580854832847886e-01 -4.190276279645248070e-01 5.146100281848019122e-05 0.000000000000000000e+00 0.000000000000000000e+00 0.000000000000000000e+00 0.000000000000000000e+00 0.000000000000000000e+00
-3.626697768943670241e-01 -1.929437437535178157e+00 -1.585580854832847886e-01 -4.190276279645248070e-01 5.146100281848019122e-05 0.000000000000000000e+00 0.000000000000000000e+00 0.000000000000000000e+00 0.000000000000000000e+00 0.000000000000000000e+00
-3.626697768943670241e-01 -1.929437437535178157e+00 -1.585580854832847886e-01 -4.190276279645248070e-01 5.146100281848019122e-05 0.000000000000000000e+00 0.000000000000000000e+00 0.000000000000000000e+00 0.000000000000000000e+00 0.000000000000000000e+00
