-1.262663980379081563e+00 -3.977670899627269163e-01 -6.015082403762109786e-01 -1.258821887237683068e+00 -2.196303642966919434e-04 -6.883959276897296808e-01 -4.084640941676165871e-01 -1.588807913690506446e-01 8.077695525452542880e-01 7.051815023709114005e-04
-1.297505866064977198e+00 -4.177937650959414606e-01 -6.088904075861991672e-01 -1.218445143583064549e+00 -1.956631758125793930e-04 -6.968377137179121439e-01 -4.005335026642908858e-01 -1.476433441997638263e-01 8.075348730923709306e-01 4.793437696822513863e-04
-1.332833360689447355e+00 -4.374170708274508490e-01 -6.160031390763430759e-01 -1.178032053885339714e+00 -1.809372333882833825e-04 -7.065498924894012545e-01 -3.924661146301874348e-01 -1.422546298028788125e-01 8.082617939544988195e-01 2.945188484859204278e-04
-1.368718762468626560e+00 -4.566398163721624437e-01 -6.231298385613969204e-01 -1.137483564015790538e+00 -1.694757603964047092e-04 0.000000000000000000e+00 0.000000000000000000e+00 0.000000000000000000e+00 0.000000000000000000e+00 0.000000000000000000e+00
-1.368718762468626560e+00 -4.566398163721624437e-01 -6.231298385613969204e-01 -1.137483564015790538e+00 -1.694757603964047092e-04 0.000000000000000000e+00 0.000000000000000000e+00 0.000000000000000000e+00 0.000000000000000000e+00 0.000000000000000000e+00
-1.368718762468626560e+00 -4.566398163721624437e-01 -6.231298385613969204e-01 -1.137483564015790538e+00 -1.694757603964047092e-04 0.000000000000000000e+00 0.000000000000000000e+00 0.000000000000000000e+00 0.000000000000000000e+00 0.000000000000000000e+00
-1.368718762468626560e+00 -4.566398163721624437e-01 -6.231298385613969204e-01 -1.137483564015790538e+00 -1.694757603964047092e-04 0.000000000000000000e+00 0.000000000000000000e+00 0.000000000000000000e+00 0.000000000000000000e+00 0.000000000000000000e+00
-1.368718762468626560e+00 -4.566398163721624437e-01 -6.231298385613969204e-01 -1.137483564015790538e+00 -1.694757603964047092e-04 0.000000000000000000e+00 0.000000000000000000e+00 0.000000000000000000e+00 0.000000000000000000e+00 0.000000000000000000e+00
-1.368718762468626560e+00 -4.566398163721624437e-01 -6.231298385613969204e-01 -1.137483564015790538e+00 -1.694757603964047092e-04 0.000000000000000000e+00 0.000000000000000000e+00 0.000000000000000000e+00 0.000000000000000000e+00 0.000000000000000000e+00
-1.368718762468626560e+00 -4.566398163721624437e-01 -6.231298385613969204e-01 -1.137483564015790538e+00 -1.694757603964047092e-04 0.000000000000000000e+00 0.000000000000000000e+00 0.000000000000000000e+00 0.000000000000000000e+00 0.000000000000000000e+00
-1.368718762468626560e+00 -4.566398163721624437e-01 -6.231298385613969204e-01 -1.137483564015790538e+00 -1.694757603964047092e-04 0.000000000000000000e+00 0.000000000000000000e+00 0.000000000000000000e+00 0.000000000000000000e+00 0.000000000000000000e+00
-1.368718762468626560e+00 -4.566398163721624437e-01 -6.231298385613969204e-01 -1.137483564015790538e+00 -1.694757603964047092e-04 0.000000000000000000e+00 0.000000000000000000e+00 0.000000000000000000e+00 0.000000000000000000e+00 0.000000000000000000e+00
-1.368718762468626560e+00 -4.566398163721624437e-01 -6.231298385613969204e-01 -1.137483564015790538e+00 -1.694757603964047092e-04 0.000000000000000000e+00 0.000000000000000000e+00 0.000000000000000000e+00 0.000000000000000000e+00 0.000000000000000000e+00
-1.368718762468626560e+00 -4.566398163721624437e-01 -6.231298385613969204e-01 -1.137483564015790538e+00 -1.694757603964047092e-04 0.000000000000000000e+00 0.000000000000000000e+00 0.000000000000000000e+00 0.000000000000000000e+00 0.000000000000000000e+00
-1.368718762468626560e+00 -4.566398163721624437e-01 -6.231298385613969204e-01 -1.137483564015790538e+00 -1.694757603964047092e-04 0.000000000000000000e+00 0.000000000000000000e+00 0.000000000000000000e+00 0.000000000000000000e+00 0.000000000000000000e+00
-1.368718762468626560e+00 -4.566398163721624437e-01 -6.231298385613969204e-01 -1.137483564015790538e+00 -1.694757603964047092e-04 0.000000000000000000e+00 0.000000000000000000e+00 0.000000000000000000e+00 0.000000000000000000e+00 0.000000000000000000e+00
-1.368718762468626560e+00 -4.566398163721624437e-01 -6.231298385613969204e-01 -1.137483564015790538e+00 -1.694757603964047092e-04 0.000000000000000000e+00 0.000000000000000000e+00 0.000000000000000000e+00 0.000000000000000000e+00 0.000000000000000000e+00
-1.368718762468626560e+00 -4.566398163721624437e-01 -6.231298385613969204e-01 -1.137483564015790538e+00 -1.694757603964047092e-04 0.000000000000000000e+00 0.000000000000000000e+00 0.000000000000000000e+00 0.000000000000000000e+00 0.000000000000000000e+00
-1.368718762468626560e+00 -4.566398163721624437e-01 -6.231298385613969204e-01 -1.137483564015790538e+00 -1.694757603964047092e-04 0.000000000000000000e+00 0.000000000000000000e+00 0.000000000000000000e+00 0.000000000000000000e+00 0.000000000000000000e+00
-1.368718762468626560e+00 -4.566398163721624437e-01 -6.231298385613969204e-01 -1.137483564015790538e+00 -1.694757603964047092e-04 0.000000000000000000e+00 0.000000000000000000e+00 0.000000000000000000e+00 0.000000000000000000e+00 0.000000000000000000e+00
-1.368718762468626560e+00 -4.566398163721624437e-01 -6.231298385613969204e-01 -1.137483564015790538e+00 -1.694757603964047092e-04 0.000000000000000000e+00 0.000000000000000000e+00 0.000000000000000000e+00 0.000000000000000000e+00 0.000000000000000000e+00
-1.368718762468626560e+00 -4.566398163721624437e-01 -6.231298385613969204e-01 -1.137483564015790538e+00 -1.694757603964047092e-04 0.000000000000000000e+00 0.000000000000000000e+00 0.000000000000000000e+00 0.000000000000000000e+00 0.000000000000000000e+00
-1.368718762468626560e+00 -4.566398163721624437e-01 -6.231298385613969204e-01 -1.137483564015790538e+00 -1.694757603964047092e-04 0.000000000000000000e+00 0.000000000000000000e+00 0.000000000000000000e+00 0.000000000000000000e+00 0.000000000000000000e+00
-1.368718762468626560e+00 -4.566398163721624437e-01 -6.231298385613969204e-01 -1.137483564015790538e+00 -1.694757603964047092e-04 0.000000000000000000e+00 0.000000000000000000e+00 0.000000000000000000e+00 0.000000000000000000e+00 0.000000000000000000e+00
-1.368718762468626560e+00 -4.566398163721624437e-01 -6.231298385613969204e-01 -1.137483564015790538e+00 -1.694757603964047092e-04 0.000000000000000000e+00 0.000000000000000000e+00 0.000000000000000000e+00 0.000000000000000000e+00 0.000000000000000000e+00
-1.368718762468626560e+00 -4.566398163721624437e-01 -6.231298385613969204e-01 -1.137483564015790538e+00 -1.694757603964047092e-04 0.000000000000000000e+00 0.000000000000000000e+00 0.000000000000000000e+00 0.000000000000000000e+00 0.000000000000000000e+00
-1.368718762468626560e+00 -4.566398163721624437e-01 -6.231298385613969204e-01 -1.137483564015790538e+00 -1.694757603964047092e-04 0.000000000000000000e+00 0.000000000000000000e+00 0.000000000000000000e+00 0.000000000000000000e+00 0.000000000000000000e+00
-1.368718762468626560e+00 -4.566398163721624437e-01 -6.231298385613969204e-01 -1.137483564015790538e+00 -1.694757603964047092e-04 0.000000000000000000e+00 0.000000000000000000e+00 0.000000000000000000e+00 0.000000000000000000e+00 0.000000000000000000e+00
-1.368718762468626560e+00 -4.566398163721624437e-01 -6.231298385613969204e-01 -1.137483564015790538e+00 -1.694757603964047092e-04 0.000000000000000000e+00 0.000000000000000000e+00 0.000000000000000000e+00 0.000000000000000000e+00 0.000000000000000000e+00
-1.368718762468626560e+00 -4.566398163721624437e-01 -6.231298385613969204e-01 -1.137483564015790538e+00 -1.694757603964047092e-04 0.000000000000000000e+00 0.000000000000000000e+00 0.000000000000000000e+00 0.000000000000000000e+00 0.000000000000000000e+00
-1.368718762468626560e+00 -4.566398163721624437e-01 -6.231298385613969204e-01 -1.137483564015790538e+00 -1.694757603964047092e-04 0.000000000000000000e+00 0.000000000000000000e+00 0.000000000000000000e+00 0.000000000000000000e+00 0.000000000000000000e+00
