-5.381142682887638529e-01 -2.720448197843560734e-01 3.467973753803577086e-01 -9.997876063397321822e-01 1.028549238018455552e-03 -3.482949413381570825e-01 -3.149400560865242560e-02 -1.041207077726186814e+00 -4.560609911948128592e-01 -1.378230247305427258e-04
-5.559469896349966689e-01 -2.761066133645266318e-01 2.962358150414469149e-01 -1.019167101505144890e+00 1.018642886876437465e-03 -3.566544269246558208e-01 -8.123587160341122493e-02 -1.011231206778216096e+00 -3.875899033082548240e-01 -1.981270228403598480e-04
-5.740704204086382045e-01 -2.828414502998856106e-01 2.479243487958557868e-01 -1.034081576552012827e+00 9.966464312650411602e-04 -3.624686154728303245e-01 -1.346967387071795752e-01 -9.662293249118226734e-01 -2.982895009373599526e-01 -4.399291122279242014e-04
-5.924005433606468474e-01 -2.923371312853268456e-01 2.024307070321026969e-01 -1.043729456720115856e+00 9.264818959938564153e-04 -3.666024590401727457e-01 -1.899136197088249767e-01 -9.098728352750620196e-01 -1.929576033620627462e-01 -1.403290705423694681e-03
-6.108848590186973793e-01 -3.045931825055835929e-01 1.601676457195903291e-01 -1.047566644431286331e+00 7.392971024844587243e-04 -3.696863131610098607e-01 -2.451210244051348075e-01 -8.452612262502472440e-01 -7.674375422340776187e-02 -3.743695870187954688e-03
-6.294936992267914366e-01 -3.195324808090982960e-01 1.214105397630846350e-01 -1.045307098489898223e+00 5.320082309447598905e-04 -3.721768041618809253e-01 -2.987859660702941733e-01 -7.751421191301137714e-01 4.519091882776364588e-02 -4.145777430793975808e-03
-6.482136273876004662e-01 -3.370146987983992370e-01 8.631128555988500095e-02 -1.036905147312018771e+00 3.355003565423523605e-04 -3.743985632161800359e-01 -3.496443597860183772e-01 -7.019850840639925149e-01 1.680390235575876523e-01 -3.930157488048149732e-03
-6.670422541945215666e-01 -3.568516714313624827e-01 5.491398529169314729e-02 -1.022522439104005976e+00 1.610791112120191204e-04 -3.765725361384218983e-01 -3.967394526592643578e-01 -6.279460053638370454e-01 2.876541641602566313e-01 -3.488424906606664693e-03
-6.859845204598589152e-01 -3.788228546869626956e-01 2.717479049908621061e-02 -1.002488049327094677e+00 1.223052599606152245e-05 -3.788453253067463056e-01 -4.394236651120039805e-01 -5.547838958521387198e-01 4.006877955382249779e-01 -2.976971704319151743e-03
-7.050498861757369395e-01 -4.026907320397104528e-01 2.983162164279403589e-03 -9.772517024614078007e-01 -1.114429922971652616e-04 -3.813073143175611524e-01 -4.773575470549548116e-01 -4.838325666961361127e-01 5.047269373137381887e-01 -2.473470365864535465e-03
-7.242506575756434417e-01 -4.282143406068831260e-01 -1.781666841625718575e-02 -9.473393041745671317e-01 -2.127839875620410673e-04 -3.840154279981308760e-01 -5.104721713434539065e-01 -4.159966116107317591e-01 5.982479657368140469e-01 -2.026819905297515788e-03
-7.436009229435647239e-01 -4.551609739638713958e-01 -3.540775210193752853e-02 -9.133097138857129149e-01 -2.957943719112067407e-04 -3.870053073584266423e-01 -5.389326671397648427e-01 -3.518216737136067862e-01 6.805918057770837803e-01 -1.660207686983312817e-03
-7.631160425309051476e-01 -4.833152743292047915e-01 -4.998654391782364481e-02 -8.757174108725518380e-01 -3.645504965193620815e-04 -3.903023917468078086e-01 -5.630860073066683569e-01 -2.915758363177223811e-01 7.518460602632208722e-01 -1.375122492163106816e-03
-7.828127030009724985e-01 -5.124849758271344813e-01 -6.175361809500221760e-02 -8.350852585143900830e-01 -4.223585109891998574e-04 -3.939332094013467955e-01 -5.833940299585931299e-01 -2.353414835435714281e-01 8.126430471632339891e-01 -1.156160289396755084e-03
-8.027094518567907677e-01 -5.425039294271735146e-01 -7.090824107238290208e-02 -7.918865933010205138e-01 -4.711682259019552899e-04 -3.979349771163649407e-01 -6.003790720007802229e-01 -1.830924595476136063e-01 8.639733042673920504e-01 -9.761942982551082178e-04
-8.228280173286108834e-01 -5.732312154206804511e-01 -7.764652966908228149e-02 -7.465422224255643391e-01 -5.117344628671874123e-04 -4.023713094364018694e-01 -6.145457198701398394e-01 -1.347657719339874494e-01 9.068874175091227174e-01 -8.113247393046429902e-04
-8.431950499513760633e-01 -6.045478956351792998e-01 -8.216161836335959812e-02 -6.994265784581742418e-01 -5.448101098063122191e-04 -4.073406524553034314e-01 -6.263336042899768641e-01 -9.030177388554626317e-02 9.423128793478012799e-01 -6.615129387824950514e-04
-8.638432624035810026e-01 -6.363538732659523856e-01 -8.464789894082856703e-02 -6.508698868331207477e-01 -5.711987106802360976e-04 -4.129642490440987301e-01 -6.361195526154628244e-01 -4.972561154937928107e-02 9.711338325010705486e-01 -5.277720174784770275e-04
-8.848121979595298114e-01 -6.685649650775642439e-01 -8.530801487494128754e-02 -6.011572802514325575e-01 -5.913834298738263268e-04 -4.193787111189770100e-01 -6.442218362322360559e-01 -1.320231868225427846e-02 9.942521316337631365e-01 -4.036943838718037706e-04
-9.061494763510123951e-01 -7.011090558924802929e-01 -8.435911430218472062e-02 -5.505328279427244009e-01 -6.077117897419181654e-04 -4.267455678296512844e-01 -6.508818162983202038e-01 1.897801145513126897e-02 1.012489046174163354e+00 -3.265671973618361219e-04
-9.279125078810044336e-01 -7.339216642520578482e-01 -8.204196144352715603e-02 -4.992046059416292980e-01 -6.307259371358942251e-04 -4.352606305998416580e-01 -6.562521671915516608e-01 4.634305717315119477e-02 1.026564440021902502e+00 -4.602829478795203259e-04
-9.501704230325633826e-01 -7.669419086487017090e-01 -7.863478623672995327e-02 -4.473452479544167693e-01 -7.008646998497474259e-04 -4.451583030311794809e-01 -6.604048879328759947e-01 6.814350413594416622e-02 1.037187159744249909e+00 -1.402775254277064450e-03
-9.730069155554988969e-01 -8.001083758653118050e-01 -7.446879070067140283e-02 -3.950928020622108128e-01 -9.772911082356850951e-04 0.000000000000000000e+00 0.000000000000000000e+00 0.000000000000000000e+00 0.000000000000000000e+00 0.000000000000000000e+00
-9.730069155554988969e-01 -8.001083758653118050e-01 -7.446879070067140283e-02 -3.950928020622108128e-01 -9.772911082356850951e-04 0.000000000000000000e+00 0.000000000000000000e+00 0.000000000000000000e+00 0.000000000000000000e+00 0.000000000000000000e+00
-9.730069155554988969e-01 -8.001083758653118050e-01 -7.446879070067140283e-02 -3.950928020622108128e-01 -9.772911082356850951e-04 0.000000000000000000e+00 0.000000000000000000e+00 0.000000000000000000e+00 0.000000000000000000e+00 0.000000000000000000e+00
-9.730069155554988969e-01 -8.001083758653118050e-01 -7.446879070067140283e-02 -3.950928020622108128e-01 -9.772911082356850951e-04 0.000000000000000000e+00 0.000000000000000000e+00 0.000000000000000000e+00 0.000000000000000000e+00 0.000000000000000000e+00
-9.730069155554988969e-01 -8.001083758653118050e-01 -7.446879070067140283e-02 -3.950928020622108128e-01 -9.772911082356850951e-04 0.000000000000000000e+00 0.000000000000000000e+00 0.000000000000000000e+00 0.000000000000000000e+00 0.000000000000000000e+00
-9.730069155554988969e-01 -8.001083758653118050e-01 -7.446879070067140283e-02 -3.950928020622108128e-01 -9.772911082356850951e-04 0.000000000000000000e+00 0.000000000000000000e+00 0.000000000000000000e+00 0.000000000000000000e+00 0.000000000000000000e+00
-9.730069155554988969e-01 -8.001083758653118050e-01 -7.446879070067140283e-02 -3.950928020622108128e-01 -9.772911082356850951e-04 0.000000000000000000e+00 0.000000000000000000e+00 0.000000000000000000e+00 0.000000000000000000e+00 0.000000000000000000e+00
-9.730069155554988969e-01 -8.001083758653118050e-01 -7.446879070067140283e-02 -3.950928020622108128e-01 -9.772911082356850951e-04 0.000000000000000000e+00 0.000000000000000000e+00 0.000000000000000000e+00 0.000000000000000000e+00 0.000000000000000000e+00
-9.730069155554988969e-01 -8.001083758653118050e-01 -7.446879070067140283e-02 -3.950928020622108128e-01 -9.772911082356850951e-04 0.000000000000000000e+00 0.000000000000000000e+00 0.000000000000000000e+00 0.000000000000000000e+00 0.000000000000000000e+00
